
Block: 1
======================================
300.968332386
300.511437583
300.511437583
300.968332386
301.425227189
301.392880654
301.392880654
300.479091048
300.495264316
300.52761085

Block: 2
======================================
300.52761085
300.531654167
300.511437583
300.52761085
300.511437583
301.392880654
301.376707387
302.241977191
301.376707387
300.935985851

Block: 3
======================================
300.952159119
301.376707387
301.801255655
300.915769267
300.495264316
301.376707387
301.785082388
301.376707387
300.495264316
301.36053412

Block: 4
======================================
302.61396234
301.324144268
301.340317535
301.36053412
300.495264316
301.376707387
301.36053412
300.479091048
300.495264316
300.952159119

Block: 5
======================================
300.495264316
301.376707387
300.5154809
300.479091048
300.511437583
300.479091048
300.475047731
301.36053412
300.935985851
301.340317535

Block: 6
======================================
300.883422732
300.867249465
300.871292782
300.479091048
300.479091048
301.340317535
302.597789073
300.919812584
301.764865804
300.919812584

Block: 7
======================================
300.462917781
301.344360852
301.324144268
300.935985851
300.495264316
300.475047731
302.221760607
301.36053412
300.491220999
300.899596

Block: 8
======================================
300.495264316
300.952159119
300.458874464
300.935985851
301.356490803
301.356490803
300.495264316
300.511437583
301.376707387
300.475047731

Block: 9
======================================
300.479091048
300.462917781
300.479091048
300.475047731
300.495264316
300.495264316
301.36053412
300.479091048
300.495264316
301.376707387

Block: 10
======================================
300.931942534
300.915769267
300.491220999
300.495264316
301.340317535
301.376707387
301.36053412
301.36053412
300.899596
301.376707387
