
Block: 1
======================================
300.867249465
300.851076198
300.899596
300.883422732
301.328187585
301.732519269
300.446744514
301.344360852
300.475047731
300.867249465
300.442701197
300.883422732
300.426527929
301.344360852
300.442701197
300.462917781
300.883422732
300.883422732
301.328187585
300.442701197
302.61396234
300.442701197
300.442701197
301.768909121
300.903639317
300.887466049
300.426527929
300.458874464
302.597789073
300.442701197
300.475047731
300.915769267
300.475047731
301.328187585
301.340317535
301.344360852
301.748692536
300.883422732
300.899596
300.903639317
301.324144268
300.887466049
300.887466049
300.462917781
300.883422732
300.462917781
300.446744514
301.312014318
301.344360852
300.883422732
300.871292782
300.899596
300.446744514
301.764865804
300.903639317
301.328187585
300.883422732
300.887466049
300.458874464
301.340317535
300.867249465
300.915769267
300.903639317
300.426527929
300.883422732
300.442701197
300.462917781
300.458874464
300.458874464
300.899596
300.446744514
300.887466049
300.883422732
300.887466049
300.426527929
301.344360852
300.458874464
300.426527929
300.442701197
301.752735853
300.458874464
300.935985851
301.732519269
301.344360852
300.479091048
301.340317535
301.344360852
300.458874464
300.899596
300.899596
300.903639317
300.899596
300.903639317
301.328187585
300.001979661
301.36053412
300.887466049
301.344360852
300.899596
300.458874464

Average distance is : 300.908 cm
Average deviation is : 0.463 cm
Block: 2
======================================
300.426527929
300.479091048
300.919812584
300.458874464
300.462917781
300.919812584
301.768909121
300.867249465
300.446744514
301.324144268
300.426527929
300.887466049
300.899596
302.597789073
300.903639317
300.851076198
300.883422732
300.442701197
300.887466049
300.883422732
300.919812584
300.903639317
300.442701197
300.442701197
300.426527929
300.442701197
300.479091048
300.851076198
301.324144268
300.426527929
300.442701197
301.324144268
300.462917781
300.887466049
301.328187585
301.328187585
300.883422732
300.883422732
300.883422732
300.883422732
300.899596
301.324144268
301.328187585
300.446744514
300.426527929
301.324144268
300.426527929
300.410354662
301.324144268
301.732519269
300.458874464
300.446744514
300.442701197
301.324144268
302.173240805
300.462917781
301.324144268
300.887466049
301.344360852
300.426527929
300.458874464
300.458874464
300.903639317
300.442701197
300.446744514
300.442701197
300.479091048
300.462917781
300.479091048
300.899596
301.328187585
300.903639317
300.458874464
300.475047731
300.475047731
301.328187585
300.442701197
300.442701197
300.442701197
300.446744514
300.426527929
301.073458624
300.899596
300.442701197
302.193457389
301.328187585
301.324144268
300.426527929
301.307971001
301.324144268
300.458874464
301.307971001
300.462917781
300.867249465
301.324144268
300.475047731
301.344360852
301.307971001
301.307971001
300.899596

Average distance is : 300.854 cm
Average deviation is : 0.458 cm
Block: 3
======================================
301.748692536
300.426527929
301.312014318
300.462917781
301.307971001
300.458874464
302.189414072
300.883422732
301.312014318
300.442701197
302.189414072
300.430571246
300.426527929
300.903639317
300.867249465
300.883422732
300.883422732
300.442701197
300.442701197
300.426527929
300.887466049
301.748692536
300.462917781
301.344360852
301.307971001
302.177284122
300.442701197
300.867249465
300.887466049
300.871292782
300.867249465
300.903639317
300.426527929
300.887466049
300.883422732
302.173240805
302.157067537
300.430571246
300.410354662
300.867249465
300.883422732
300.426527929
301.291797733
300.410354662
302.157067537
300.871292782
300.426527929
301.328187585
301.291797733
301.291797733
301.291797733
300.426527929
301.312014318
302.157067537
302.136850953
301.291797733
301.291797733
300.406311345
300.410354662
300.899596
300.903639317
300.426527929
301.752735853
301.291797733
302.173240805
302.157067537
301.752735853
301.307971001
300.867249465
301.291797733
300.867249465
300.883422732
300.867249465
300.851076198
301.307971001
300.883422732
301.328187585
301.328187585
301.312014318
301.307971001
301.291797733
301.312014318
301.307971001
301.748692536
302.173240805
300.426527929
300.442701197
301.307971001
301.307971001
301.328187585
302.157067537
301.748692536
300.83490293
301.307971001
302.157067537
302.597789073
300.851076198
300.867249465
300.426527929
301.732519269

Average distance is : 301.136 cm
Average deviation is : 0.578 cm
Block: 4
======================================
301.291797733
302.157067537
302.157067537
301.291797733
301.291797733
302.157067537
301.768909121
301.307971001
301.764865804
300.442701197
300.851076198
301.748692536
301.324144268
300.867249465
300.899596
300.883422732
300.426527929
302.597789073
302.581615806
300.426527929
300.883422732
300.867249465
300.883422732
301.307971001
301.328187585
300.867249465
300.883422732
300.410354662
300.903639317
300.883422732
301.312014318
300.883422732
300.442701197
300.883422732
301.324144268
301.324144268
300.883422732
300.887466049
300.887466049
300.883422732
300.887466049
300.883422732
301.340317535
300.867249465
300.867249465
300.475047731
300.903639317
300.903639317
301.307971001
300.458874464
301.328187585
301.764865804
300.426527929
300.426527929
301.344360852
300.899596
300.426527929
301.340317535
300.903639317
301.340317535
301.340317535
301.36053412
300.446744514
300.887466049
300.903639317
300.462917781
300.479091048
302.61396234
300.479091048
301.324144268
300.935985851
300.462917781
301.340317535
301.344360852
300.495264316
300.475047731
301.340317535
300.887466049
300.883422732
300.458874464
301.748692536
300.899596
300.915769267
302.225803924
301.344360852
300.899596
300.899596
300.919812584
300.446744514
302.61396234
300.442701197
300.475047731
301.328187585
300.883422732
300.442701197
300.919812584
300.883422732
300.899596
300.903639317
302.61396234

Average distance is : 301.079 cm
Average deviation is : 0.554 cm
Block: 5
======================================
300.883422732
300.426527929
300.887466049
300.899596
300.883422732
300.883422732
300.410354662
301.328187585
300.883422732
300.903639317
300.899596
300.883422732
300.899596
300.899596
300.883422732
300.883422732
300.899596
300.867249465
300.887466049
300.867249465
300.887466049
301.768909121
300.446744514
300.442701197
300.426527929
300.883422732
300.883422732
301.768909121
300.903639317
300.883422732
302.597789073
300.903639317
300.899596
300.887466049
302.61396234
301.344360852
300.458874464
300.479091048
301.324144268
300.883422732
300.442701197
300.462917781
300.903639317
301.340317535
300.935985851
301.307971001
300.899596
300.899596
300.903639317
301.324144268
301.340317535
300.903639317
300.426527929
300.867249465
301.324144268
300.426527929
300.426527929
300.883422732
300.867249465
300.899596
300.887466049
300.915769267
300.887466049
300.903639317
301.328187585
301.324144268
301.328187585
301.328187585
301.748692536
302.193457389
300.887466049
300.442701197
300.903639317
300.426527929
300.903639317
300.442701197
300.426527929
300.442701197
300.903639317
300.883422732
300.883422732
300.442701197
302.618005657
300.867249465
300.458874464
300.887466049
300.899596
300.883422732
300.426527929
300.867249465
300.462917781
300.887466049
300.883422732
300.899596
300.442701197
301.344360852
300.915769267
300.462917781
300.883422732
301.344360852

Average distance is : 300.940 cm
Average deviation is : 0.449 cm
Block: 6
======================================
300.903639317
300.887466049
301.768909121
300.475047731
301.324144268
301.748692536
301.307971001
300.883422732
301.752735853
301.340317535
300.903639317
300.462917781
300.899596
301.340317535
301.340317535
300.462917781
300.887466049
301.324144268
301.340317535
301.36053412
301.324144268
301.344360852
300.919812584
301.324144268
301.328187585
300.899596
302.618005657
300.462917781
300.458874464
300.899596
300.903639317
300.883422732
301.328187585
301.36053412
300.479091048
301.356490803
300.479091048
300.495264316
302.634178925
300.495264316
301.344360852
300.903639317
300.903639317
301.36053412
300.479091048
301.328187585
301.340317535
301.36053412
301.340317535
300.883422732
300.919812584
300.446744514
300.462917781
301.340317535
300.479091048
302.225803924
301.340317535
301.340317535
302.646308875
300.495264316
300.919812584
300.495264316
300.475047731
300.475047731
300.495264316
300.479091048
300.915769267
300.495264316
301.340317535
300.495264316
302.225803924
301.748692536
300.903639317
302.189414072
300.935985851
300.479091048
301.324144268
300.495264316
301.36053412
300.899596
300.899596
301.36053412
300.903639317
300.883422732
300.915769267
300.426527929
300.903639317
300.442701197
300.919812584
300.919812584
300.919812584
301.356490803
300.442701197
300.458874464
301.324144268
300.887466049
301.785082388
302.205587339
300.479091048
300.919812584

Average distance is : 301.062 cm
Average deviation is : 0.531 cm
Block: 7
======================================
300.495264316
300.446744514
300.956202435
301.356490803
300.919812584
301.36053412
301.36053412
300.479091048
301.36053412
301.376707387
301.768909121
300.475047731
300.475047731
301.36053412
300.491220999
300.458874464
300.491220999
300.475047731
301.344360852
301.764865804
301.356490803
300.495264316
300.919812584
300.479091048
300.462917781
302.61396234
301.344360852
301.344360852
300.899596
300.899596
301.344360852
301.344360852
301.36053412
300.919812584
301.324144268
301.768909121
300.462917781
300.915769267
301.768909121
300.479091048
300.919812584
300.919812584
300.919812584
302.225803924
300.935985851
300.919812584
300.446744514
300.479091048
300.458874464
300.458874464
301.344360852
301.785082388
300.475047731
301.356490803
301.356490803
300.442701197
300.462917781
301.36053412
300.511437583
302.630135608
300.903639317
300.899596
300.442701197
300.883422732
301.781039071
300.883422732
300.883422732
301.344360852
300.458874464
300.442701197
300.446744514
301.344360852
302.61396234
302.634178925
301.344360852
300.479091048
300.903639317
300.899596
300.887466049
300.495264316
300.479091048
301.344360852
301.344360852
301.328187585
300.458874464
301.344360852
300.458874464
300.883422732
301.344360852
300.442701197
300.462917781
300.426527929
301.328187585
300.475047731
300.887466049
301.324144268
300.887466049
301.356490803
301.324144268
300.887466049

Average distance is : 301.019 cm
Average deviation is : 0.545 cm
Block: 8
======================================
300.919812584
301.340317535
301.328187585
300.899596
301.36053412
300.479091048
300.495264316
302.205587339
301.344360852
301.36053412
300.479091048
301.36053412
301.324144268
300.883422732
301.344360852
300.495264316
300.442701197
300.446744514
300.899596
300.887466049
300.442701197
302.173240805
300.883422732
301.328187585
301.36053412
300.446744514
300.919812584
300.442701197
300.903639317
301.340317535
300.883422732
302.193457389
301.748692536
300.442701197
300.426527929
300.462917781
302.205587339
300.903639317
300.883422732
300.919812584
302.173240805
300.867249465
300.903639317
302.193457389
300.442701197
300.899596
300.479091048
301.307971001
300.883422732
300.887466049
300.915769267
300.903639317
300.883422732
300.883422732
300.458874464
300.903639317
301.36053412
300.903639317
301.324144268
300.919812584
301.344360852
300.475047731
301.344360852
300.919812584
300.887466049
300.915769267
300.475047731
300.899596
300.935985851
302.189414072
301.340317535
300.903639317
300.915769267
300.899596
301.344360852
301.748692536
301.328187585
300.903639317
301.764865804
301.340317535
301.344360852
301.748692536
300.883422732
300.479091048
300.883422732
300.458874464
300.899596
300.458874464
300.479091048
300.903639317
300.919812584
300.935985851
300.887466049
301.748692536
301.324144268
301.344360852
301.324144268
301.324144268
300.903639317
300.458874464

Average distance is : 301.047 cm
Average deviation is : 0.474 cm
Block: 9
======================================
301.801255655
302.189414072
301.36053412
301.764865804
301.36053412
301.356490803
300.479091048
302.189414072
301.344360852
301.36053412
301.801255655
300.475047731
300.475047731
300.462917781
300.495264316
300.462917781
301.36053412
300.458874464
300.462917781
300.479091048
300.491220999
302.630135608
301.376707387
300.935985851
300.899596
300.495264316
300.915769267
300.479091048
300.479091048
300.475047731
300.903639317
300.475047731
300.935985851
300.475047731
300.479091048
300.475047731
300.919812584
300.919812584
300.479091048
300.475047731
300.479091048
301.768909121
300.458874464
300.935985851
300.479091048
300.903639317
301.344360852
301.801255655
300.442701197
300.462917781
300.479091048
300.479091048
300.935985851
300.475047731
300.479091048
300.462917781
301.340317535
301.36053412
301.356490803
301.340317535
300.479091048
301.344360852
301.344360852
302.189414072
301.340317535
301.340317535
300.915769267
301.356490803
301.344360852
301.344360852
301.344360852
301.376707387
301.340317535
300.495264316
301.376707387
302.634178925
300.479091048
300.479091048
301.340317535
301.356490803
300.462917781
301.340317535
301.344360852
300.495264316
300.915769267
300.931942534
300.915769267
300.931942534
300.903639317
301.344360852
300.495264316
301.785082388
301.376707387
300.479091048
300.919812584
300.935985851
300.458874464
300.935985851
301.396923971
301.376707387

Average distance is : 301.006 cm
Average deviation is : 0.532 cm
Block: 10
======================================
300.495264316
300.935985851
300.52761085
300.952159119
300.915769267
301.392880654
301.392880654
300.52761085
302.666525459
300.952159119
300.952159119
300.547827435
300.935985851
300.952159119
300.935985851
301.36053412
300.479091048
300.935985851
300.495264316
300.935985851
300.935985851
300.935985851
301.817428923
300.919812584
301.392880654
300.475047731
300.479091048
300.952159119
300.952159119
301.376707387
300.919812584
300.952159119
301.376707387
301.392880654
301.376707387
300.52761085
301.801255655
300.952159119
300.952159119
301.392880654
301.376707387
301.376707387
301.392880654
300.531654167
300.511437583
300.495264316
300.952159119
301.376707387
300.511437583
300.491220999
302.225803924
300.495264316
300.511437583
300.495264316
301.392880654
300.070716047
300.070716047
301.376707387
301.36053412
301.376707387
300.511437583
300.511437583
301.376707387
300.935985851
301.376707387
301.36053412
300.919812584
300.935985851
300.495264316
300.495264316
300.479091048
302.225803924
301.376707387
300.495264316
301.376707387
301.356490803
301.376707387
301.764865804
302.630135608
300.479091048
300.935985851
300.462917781
300.915769267
300.462917781
300.479091048
301.376707387
302.209630656
301.356490803
300.935985851
300.458874464
300.479091048
300.479091048
300.491220999
300.915769267
300.919812584
300.475047731
301.801255655
300.935985851
300.495264316
301.37266407

Average distance is : 301.000 cm
Average deviation is : 0.518 cm