
Block: 1
======================================
99.8841911554
94.0113228559
97.4887877703
95.4155248404
95.9978556633
96.2621760368
97.4227076769
95.9482955933
96.9518870115
96.7990767956
96.5388864279
99.9502712488
96.2621760368
99.5537906885
96.7288666964
99.0499299765
96.3654261827
98.6534494162
96.0391557217
99.793331027
95.1677244902
99.8800611496
96.7784267664
99.5001006126
96.3819462061
99.0292799473
96.3158661127
101.164492965
94.2343431711
100.346751809
95.9482955933
99.4464105368
97.2657674551
98.1289386749
97.2492474318
98.1495887041
98.5130292177
96.485196352
99.8635411263
96.3984662294
99.4464105368
97.3524975777
99.8635411263
96.0019856691
98.9631998539
97.2988075018
98.0793786049
97.3153275251
98.5501992702
98.6162793636
97.6457279921
99.1036200523
96.7825567722
99.0705800056
96.7990767956
98.20327878
97.2120773792
102.044184208
93.3340018988
99.8635411263
95.5352950096
99.8635411263
96.0019856691
98.9797198772
99.9667912722
95.6715852022
100.280671716
94.7010338306
100.313711762
95.0851243734
99.9172312021
95.9689456224
99.4464105368
96.7825567722
98.5997593403

Average distance is : 97.734 cm
Average deviation is : 1.848 cm
Block: 2
======================================
99.8635411263
95.324664712
98.5997593403
96.4315062761
98.7401795387
97.4392277002
98.7195295095
96.6421365738
99.5703107119
95.778965354
99.9172312021
95.0686043501
99.0168899298
98.1330686808
98.1495887041
97.2162073851
98.9136397839
94.7877639532
99.7066009045
94.3045532703
99.5496606827
95.2379345894
98.7236595154
95.6344151497
98.7401795387
93.7470024824
99.4340205193
98.1495887041
99.0292799473
96.3819462061
99.9007111788
97.2492474318
99.0499299765
97.1625173092
98.25283885
98.0422085524
97.319457531
98.9631998539
97.2988075018
100.330231786
94.6845138073
99.4629305601
95.9482955933
99.9172312021
95.9482955933
100.334361792
97.2492474318
99.0292799473
95.9482955933
99.0334099531
96.3654261827
98.632799387
96.3654261827
99.9131011963
97.2657674551
97.7159380913
98.1495887041
97.7365881205
99.9337512255
95.4279148579
99.0168899298
96.3654261827
99.9131011963
95.0644743443
99.9172312021
95.4816049337
99.5001006126
96.3654261827
99.5042306185
95.4981249571
99.0499299765
96.3654261827
99.0829700232
97.5589978695
97.8191882372

Average distance is : 97.761 cm
Average deviation is : 1.717 cm
Block: 3
======================================
99.8965811729
91.6159194708
98.7897396088
95.1016443968
96.6090965271
94.7877639532
97.8398382664
95.9648156166
98.3230489492
95.7583153248
99.9337512255
95.0479543209
99.9172312021
97.2657674551
98.9631998539
96.3654261827
99.9172312021
95.9648156166
98.9962399006
98.1330686808
98.1495887041
97.7159380913
97.2657674551
98.6369293928
98.5625892878
97.7324581146
99.4505405426
97.6994180679
100.350881815
95.5352950096
99.9007111788
95.9482955933
99.0334099531
98.0958986282
97.7531081438
98.9631998539
97.2492474318
99.4835805893
95.9648156166
99.5001006126
97.2657674551
99.4670605659
97.2657674551
98.5997593403
96.7784267664
98.6699694395
96.8858069181
98.3891290426
97.4722677469
98.3932590485
98.3395689726
98.3891290426
97.4763977528
98.3932590485
97.4392277002
98.3932590485
97.0427471399
100.697802305
95.1883745193
100.260021687
94.6845138073
100.334361792
96.4149862528
99.9131011963
95.9482955933
99.0334099531
95.9524255991
99.4835805893
96.3654261827
99.5001006126
96.7949467897
99.0829700232
97.6828980446
99.4298905134
95.5352950096

Average distance is : 97.802 cm
Average deviation is : 1.705 cm
Block: 4
======================================
100.330231786
94.6514737606
100.280671716
95.7252752781
99.9172312021
94.3210732937
99.9172312021
95.4320448637
99.8965811729
96.3282561302
98.6534494162
97.2327274084
99.0292799473
98.1330686808
98.9631998539
96.7453867197
98.0132985115
95.9152555466
98.4262990952
95.8822154999
98.0793786049
95.7376652956
97.2988075018
96.5925765038
98.3023989201
97.5796478987
98.3065289259
96.6793066263
99.5331406593
95.4113948345
99.0829700232
95.8987355232
98.5460692644
98.1991487741
97.6663780212
97.3029375076
98.909509778
97.8191882372
97.6126879454
98.25283885
98.5130292177
98.5501992702
97.2988075018
97.6622480154
98.5997593403
96.3819462061
98.5997593403
97.2698974609
97.7159380913
98.1495887041
97.6994180679
98.1289386749
97.7324581146
97.2657674551
99.9172312021
96.8858069181
98.5501992702
97.7861481905
99.4298905134
96.4149862528
99.0127599239
99.0168899298
96.8321168423
98.1495887041
97.7159380913
97.2492474318
97.7159380913
97.7159380913
98.1330686808
99.0168899298
96.8155968189
98.1330686808
97.3153275251
97.6622480154
97.319457531

Average distance is : 97.773 cm
Average deviation is : 1.276 cm
Block: 5
======================================
100.350881815
91.8802398443
99.1738301516
95.0314342976
97.596167922
94.3747633696
98.4097790718
94.9653542042
98.7897396088
91.7026495934
100.313711762
95.1016443968
99.9007111788
94.994264245
99.0664499998
95.828525424
100.904302597
96.2621760368
101.214053035
94.1847831011
99.9172312021
95.4816049337
99.0292799473
96.3654261827
98.6162793636
96.3489061594
98.6162793636
97.2285974026
99.0664499998
96.5925765038
101.147972941
96.0019856691
99.4340205193
96.4480262995
99.4298905134
95.551815033
99.8635411263
95.5311650038
99.8965811729
96.3860762119
98.5997593403
96.3654261827
99.9131011963
97.2451174259
98.5997593403
97.2492474318
97.7159380913
99.4629305601
95.5146449804
99.9172312021
97.2698974609
97.7324581146
98.1495887041
96.8362468481
99.0334099531
95.9482955933
99.0334099531
98.1330686808
99.0334099531
96.8321168423
98.1495887041
99.0334099531
96.8486368656
99.0334099531
96.8527668715
99.0334099531
98.1495887041
96.8321168423
99.0334099531
98.1495887041
98.4428191185
98.7030094862
96.6421365738
99.136660099
96.3158661127

Average distance is : 97.679 cm
Average deviation is : 1.967 cm
Block: 6
======================================
99.8635411263
97.3855376244
100.400441885
95.1842445135
98.9962399006
95.324664712
99.0334099531
96.3117361069
99.0127599239
97.5920379162
98.6493194103
98.9260298014
97.369017601
98.0298185349
97.369017601
98.2858788967
94.7712439299
100.350881815
93.1440216303
99.9172312021
94.0278428793
101.197533011
93.6107122898
99.0334099531
95.7417953014
100.747362375
94.6514737606
99.4133704901
95.9482955933
99.0334099531
97.2657674551
98.5460692644
98.1330686808
98.5460692644
96.8321168423
98.5501992702
97.2657674551
97.6994180679
98.1495887041
97.2492474318
99.0127599239
96.3654261827
98.9631998539
96.435636282
99.4505405426
95.9482955933
99.8965811729
96.3654261827
99.9172312021
95.4816049337
99.9172312021
95.0149142742
99.8800611496
95.4816049337
100.350881815
95.0809943676
100.747362375
95.551815033
99.4340205193
97.1955573559
99.0829700232
97.1955573559
99.0499299765
97.2162073851
99.0829700232
95.878085494
99.5042306185
96.3447761536
98.6162793636
97.2327274084
98.6162793636
97.2285974026
98.9631998539
96.0019856691
98.9797198772

Average distance is : 97.774 cm
Average deviation is : 1.868 cm
Block: 7
======================================
99.8470211029
92.9705613852
97.8026682138
95.4816049337
97.1955573559
93.0036014318
99.8470211029
92.9705613852
99.8635411263
90.8766484261
99.8676711321
95.5311650038
99.4298905134
96.8321168423
98.5130292177
98.1330686808
97.6994180679
97.2327274084
98.1826287508
97.2327274084
98.1495887041
97.2162073851
99.0664499998
97.6828980446
98.6162793636
96.7990767956
98.5997593403
96.7784267664
99.5001006126
97.6622480154
99.0499299765
96.3447761536
99.0168899298
98.5460692644
98.1289386749
97.2451174259
98.4965091944
96.8858069181
98.4965091944
97.7696281672
99.3803304434
96.0680657625
100.264151692
97.2988075018
99.8676711321
95.5146449804
98.9631998539
96.8321168423
99.0334099531
98.5295492411
96.8321168423
98.5667192936
96.8486368656
99.4298905134
96.8155968189
98.5791093111
96.8321168423
98.5667192936
96.8486368656
98.5667192936
97.2657674551
98.1289386749
97.2657674551
98.1495887041
97.2657674551
98.1289386749
97.2492474318
98.1330686808
97.2657674551
98.9631998539
95.9482955933
100.350881815
97.2492474318
98.9797198772
98.20327878

Average distance is : 97.690 cm
Average deviation is : 1.709 cm
Block: 8
======================================
99.8635411263
94.0113228559
100.763882399
95.0851243734
100.768012404
93.90807271
100.334361792
95.0644743443
99.8965811729
95.448564887
99.5001006126
95.8946055174
99.0499299765
96.3819462061
98.9631998539
95.8120054007
97.5920379162
96.7082166672
96.761906743
98.9136397839
95.8987355232
98.859949708
96.3447761536
98.0422085524
95.4816049337
99.4464105368
98.1330686808
96.7949467897
98.6658394337
96.7288666964
99.087100029
96.2952160835
99.516620636
95.9152555466
99.9172312021
96.3282561302
99.0664499998
96.3323861361
99.087100029
96.7825567722
99.5001006126
95.4279148579
99.0168899298
96.8486368656
99.4629305601
95.9482955933
99.9007111788
96.7288666964
98.25283885
97.6126879454
97.7696281672
99.8635411263
95.1140344143
98.9797198772
96.0019856691
98.9838498831
96.435636282
100.346751809
94.7340738773
100.747362375
94.6514737606
99.4505405426
95.9482955933
98.5460692644
96.8486368656
98.5460692644
96.8527668715
98.5667192936
98.1495887041
97.2492474318
99.0334099531
96.2456560135
98.7030094862
96.6256165504
99.136660099

Average distance is : 97.676 cm
Average deviation is : 1.788 cm
Block: 9
======================================
99.8800611496
93.4166020155
100.313711762
94.0815329552
98.7897396088
93.4166020155
99.0003699064
97.0220971107
97.6622480154
96.5058463812
98.6699694395
95.2544546127
96.8858069181
101.160362959
94.1682630777
100.330231786
95.551815033
99.8470211029
97.2988075018
98.0793786049
98.1826287508
96.7990767956
99.0829700232
96.3489061594
99.0829700232
97.2492474318
98.1826287508
96.7453867197
100.383921862
95.9152555466
99.9172312021
97.6828980446
97.7324581146
97.6787680387
97.7159380913
99.4505405426
96.8155968189
98.5130292177
97.7654981613
97.2657674551
98.1495887041
99.0334099531
96.8321168423
98.1495887041
99.4505405426
96.8155968189
98.5460692644
98.0793786049
98.1991487741
98.0793786049
98.1826287508
97.1253472567
100.796922445
94.6184337139
99.4340205193
96.3819462061
98.9797198772
96.8816769123
98.5130292177
98.20327878
97.596167922
98.6493194103
97.1955573559
99.087100029
95.878085494
100.330231786
96.3612961769
99.0334099531
96.3654261827
99.9172312021
95.0686043501
99.9172312021
95.9317755699
98.9631998539
95.98133564

Average distance is : 97.768 cm
Average deviation is : 1.728 cm
Block: 10
======================================
99.8470211029
94.0237128735
100.280671716
96.5223664045
97.5589978695
97.0757871866
98.2363188267
97.976128459
97.3731476068
101.160362959
95.1181644201
99.4629305601
96.8486368656
98.1661087275
97.1996873617
99.0829700232
98.4923791885
97.748978138
97.5259578228
98.1165486574
96.208485961
99.0664499998
95.7913553715
100.416961908
93.9576327801
99.5001006126
94.7877639532
99.9172312021
96.3282561302
99.0664499998
96.3323861361
99.9337512255
97.2657674551
99.0334099531
96.3819462061
99.9172312021
95.9689456224
99.0168899298
99.4670605659
95.9482955933
99.0334099531
95.9524255991
99.9172312021
95.4816049337
99.5001006126
96.3612961769
98.6162793636
96.7288666964
100.367401838
96.7825567722
99.5042306185
95.4609549046
99.8965811729
96.3819462061
98.6162793636
98.5667192936
96.435636282
100.313711762
94.6473437548
99.4298905134
97.2657674551
99.9131011963
97.6787680387
98.5997593403
96.7825567722
98.5997593403
96.761906743
98.6162793636
96.7825567722
99.0168899298
96.3654261827
99.0334099531
97.6622480154
97.7324581146
99.4340205193

Average distance is : 97.872 cm
Average deviation is : 1.690 cm
Average distance for 10x75 is : 97.753 cm
Average deviation for 10x75 is : 1.730 cm
 Percentage of values that failed: 0.000