
Block: 1
======================================
401.553925443
400.737175441
400.668439054
400.668439054
401.076814055
401.113203907
400.721002173
401.549882126
401.549882126
400.640135837
401.113203907
400.656309104
400.72504549
401.10916059
400.652265787
400.721002173
401.092987323
401.09703064
401.113203907
401.113203907
401.092987323
401.145550442
401.537752175
400.63609252
401.092987323
400.640135837
401.076814055
401.113203907
401.177896976
401.537752175
401.165767026
401.092987323
401.076814055
401.09703064
401.113203907
401.10916059
401.092987323
401.092987323
401.521578908
401.076814055
401.09703064
401.177896976
401.586271977
401.537752175
400.672482371
401.10916059
400.63609252
401.076814055
400.721002173
400.668439054

Average distance is : 401.049 cm
Average deviation is : 0.292 cm
Block: 2
======================================
401.10916059
401.092987323
401.145550442
400.737175441
400.63609252
401.165767026
401.533708858
400.668439054
400.72504549
401.537752175
400.737175441
400.688655639
400.704828906
401.09703064
401.092987323
401.092987323
400.672482371
400.652265787
401.161723709
401.962300444
401.533708858
400.741218758
400.652265787
400.656309104
400.652265787
401.092987323
401.962300444
400.688655639
400.63609252
400.672482371
400.652265787
400.652265787
401.586271977
401.177896976
400.704828906
401.549882126
400.668439054
400.672482371
401.113203907
400.63609252
401.092987323
401.113203907
401.113203907
401.10916059
401.537752175
400.672482371
401.10916059
400.672482371
400.672482371
400.668439054

Average distance is : 400.974 cm
Average deviation is : 0.367 cm
Block: 3
======================================
400.672482371
401.113203907
400.668439054
400.672482371
400.688655639
400.688655639
400.704828906
400.72504549
400.737175441
401.181940293
400.656309104
400.63609252
400.672482371
401.161723709
400.656309104
400.63609252
401.181940293
400.652265787
400.688655639
400.656309104
400.243890786
400.63609252
400.656309104
400.672482371
401.113203907
401.092987323
400.672482371
400.652265787
400.721002173
400.672482371
400.672482371
401.553925443
400.652265787
400.688655639
401.537752175
401.113203907
401.57009871
400.668439054
401.129377174
400.688655639
401.09703064
401.09703064
401.533708858
401.177896976
401.586271977
401.129377174
401.113203907
401.537752175
401.586271977
401.537752175

Average distance is : 400.925 cm
Average deviation is : 0.350 cm
Block: 4
======================================
401.09703064
401.10916059
401.060640788
401.145550442
401.553925443
401.076814055
401.517535591
401.092987323
400.668439054
401.537752175
401.549882126
401.09703064
400.668439054
401.080857372
401.113203907
400.688655639
401.533708858
401.590315294
401.177896976
401.113203907
401.537752175
401.618618512
401.553925443
401.962300444
400.688655639
400.684612322
400.668439054
401.181940293
400.688655639
400.672482371
400.672482371
400.684612322
401.129377174
401.145550442
401.129377174
401.092987323
400.668439054
401.198113561
400.672482371
400.688655639
401.129377174
401.129377174
400.672482371
401.129377174
401.113203907
400.688655639
400.704828906
401.113203907
400.753348708
401.145550442

Average distance is : 401.068 cm
Average deviation is : 0.336 cm
Block: 5
======================================
401.145550442
400.737175441
400.721002173
401.181940293
401.145550442
400.773565292
400.721002173
401.161723709
401.161723709
400.737175441
401.602445245
400.741218758
400.737175441
401.606488562
401.57009871
400.757392025
401.177896976
400.737175441
400.741218758
400.721002173
401.586271977
400.737175441
400.721002173
400.721002173
400.721002173
401.181940293
401.177896976
401.586271977
401.161723709
400.805911827
400.773565292
401.230460095
402.026993513
401.145550442
400.805911827
400.805911827
401.181940293
400.721002173
401.198113561
400.704828906
401.149593759
401.145550442
401.161723709
401.165767026
400.721002173
400.704828906
401.145550442
400.704828906
401.161723709
400.72504549

Average distance is : 401.013 cm
Average deviation is : 0.321 cm
Block: 6
======================================
401.161723709
400.805911827
400.78973856
400.805911827
401.194070244
401.181940293
400.822085094
400.741218758
400.753348708
400.741218758
400.737175441
400.737175441
400.737175441
401.177896976
401.246633363
401.194070244
401.177896976
401.181940293
400.753348708
400.741218758
400.753348708
400.757392025
401.198113561
400.773565292
402.04316678
400.854431629
400.809955144
400.737175441
400.78973856
400.753348708
402.047210097
400.737175441
400.741218758
400.753348708
400.757392025
402.047210097
401.161723709
400.842301679
400.32880044
400.704828906
400.757392025
400.300497222
401.194070244
400.721002173
401.194070244
400.397536826
400.757392025
400.280280638
401.177896976
400.316670489

Average distance is : 400.907 cm
Average deviation is : 0.385 cm
Block: 7
======================================
401.145550442
401.161723709
401.165767026
400.737175441
400.741218758
401.177896976
401.181940293
400.721002173
400.704828906
400.822085094
401.177896976
400.316670489
400.757392025
400.826128411
401.230460095
400.312627172
400.296453905
400.737175441
400.280280638
400.757392025
401.161723709
400.826128411
400.312627172
400.72504549
400.721002173
400.809955144
400.737175441
401.181940293
400.737175441
400.296453905
400.280280638
400.741218758
400.737175441
400.741218758
400.26410737
400.721002173
400.280280638
400.72504549
400.26410737
400.721002173
401.161723709
400.26410737
400.26410737
400.280280638
400.280280638
400.78973856
401.210243511
400.280280638
400.26410737
401.161723709

Average distance is : 400.704 cm
Average deviation is : 0.338 cm
Block: 8
======================================
400.757392025
400.721002173
400.737175441
400.704828906
400.704828906
400.688655639
400.688655639
400.26410737
400.280280638
400.26410737
400.26410737
400.280280638
401.161723709
401.57009871
400.280280638
400.26410737
400.737175441
400.773565292
400.721002173
401.161723709
400.704828906
401.129377174
401.145550442
401.198113561
400.26410737
400.757392025
400.280280638
400.280280638
401.57009871
400.72504549
400.688655639
400.280280638
400.704828906
400.688655639
401.145550442
400.688655639
400.688655639
400.672482371
400.688655639
401.145550442
400.280280638
401.129377174
400.684612322
401.10916059
400.773565292
401.145550442
400.769521976
400.684612322
400.296453905
400.672482371

Average distance is : 400.720 cm
Average deviation is : 0.346 cm
Block: 9
======================================
400.773565292
400.704828906
400.721002173
401.549882126
401.533708858
400.672482371
400.672482371
400.247934103
400.753348708
401.194070244
400.704828906
400.684612322
400.688655639
400.737175441
401.145550442
401.194070244
400.668439054
400.688655639
400.688655639
400.688655639
400.672482371
400.668439054
400.668439054
401.129377174
400.688655639
400.688655639
400.721002173
400.741218758
400.737175441
401.181940293
401.194070244
400.741218758
401.129377174
400.668439054
401.092987323
401.994646978
400.708872223
401.586271977
401.113203907
400.656309104
400.737175441
400.688655639
401.125333858
400.737175441
401.113203907
400.688655639
401.113203907
401.10916059
400.668439054
401.113203907

Average distance is : 400.892 cm
Average deviation is : 0.319 cm
Block: 10
======================================
401.129377174
401.092987323
401.09703064
401.194070244
400.688655639
401.10916059
400.672482371
400.672482371
400.652265787
400.684612322
400.737175441
401.125333858
400.672482371
401.553925443
400.688655639
400.656309104
400.688655639
400.668439054
400.247934103
400.688655639
400.672482371
400.672482371
400.656309104
400.672482371
400.668439054
400.672482371
400.672482371
400.684612322
400.757392025
401.113203907
400.741218758
400.684612322
400.737175441
401.113203907
401.076814055
400.668439054
401.09703064
400.656309104
400.688655639
400.668439054
400.688655639
400.704828906
400.688655639
400.672482371
400.737175441
400.72504549
400.227717519
400.652265787
400.215587568
401.113203907

Average distance is : 400.770 cm
Average deviation is : 0.251 cm