
Block: 1
======================================
200.760109425
200.829337049
200.796759343
200.27958827
200.299949336
200.299949336
201.20398066
200.829337049
200.299949336
201.199908447
200.365104747
200.829337049
200.312165976
201.187691808
201.187691808
200.352888107
200.283660483
201.199908447
200.352888107
200.283660483
200.295877123
200.316238189
200.312165976
200.299949336
201.20398066
200.316238189
200.295877123
200.3813936
201.187691808
200.723459506
200.365104747
201.20398066
200.332527041
200.36917696
200.845625901
200.365104747
200.365104747
200.312165976
201.187691808
200.27958827
200.348815894
200.299949336
201.20398066
201.167330742
200.348815894
201.20398066
200.295877123
200.299949336
200.727531719
201.183619595
201.187691808
200.727531719
200.743820572
200.295877123
200.295877123
200.295877123
200.27958827
200.385465813
201.183619595
200.743820572
201.183619595
201.183619595
200.727531719
200.365104747
200.365104747
201.187691808
201.20398066
201.20398066
201.20398066
201.20398066
200.723459506
201.20398066
201.20398066
201.187691808
200.980008936

Average distance is : 200.699 cm
Average deviation is : 0.393 cm
Block: 2
======================================
200.283660483
201.187691808
201.134753036
201.171402955
200.348815894
201.187691808
200.723459506
200.723459506
200.743820572
200.743820572
200.27958827
200.813048196
201.167330742
200.723459506
200.723459506
200.723459506
200.727531719
201.183619595
200.727531719
200.739748359
200.247010565
200.743820572
200.263299417
200.743820572
200.723459506
200.743820572
201.187691808
201.187691808
200.295877123
201.171402955
201.220269513
200.743820572
200.727531719
201.183619595
201.167330742
201.187691808
200.739748359
200.743820572
200.813048196
201.187691808
201.183619595
200.743820572
200.727531719
200.739748359
201.183619595
200.316238189
200.808975983
201.187691808
201.20398066
201.187691808
200.723459506
200.365104747
200.27958827
201.187691808
200.739748359
200.727531719
201.20398066
200.723459506
201.20398066
201.183619595
201.220269513
200.299949336
200.332527041
200.36917696
200.365104747
200.743820572
201.183619595
200.743820572
201.187691808
200.743820572
200.739748359
200.723459506
201.20398066
200.739748359
201.187691808

Average distance is : 200.833 cm
Average deviation is : 0.316 cm
Block: 3
======================================
200.316238189
200.27958827
200.723459506
200.348815894
200.332527041
200.79268713
200.299949336
201.20398066
200.760109425
201.183619595
200.707170653
201.167330742
201.187691808
201.20398066
201.187691808
201.167330742
200.829337049
201.20398066
201.199908447
201.171402955
200.316238189
200.808975983
200.727531719
201.167330742
200.813048196
200.283660483
201.167330742
200.36917696
201.167330742
200.283660483
200.829337049
200.723459506
201.20398066
201.187691808
200.739748359
200.283660483
200.727531719
201.20398066
201.20398066
200.727531719
201.20398066
200.727531719
201.183619595
201.183619595
201.199908447
200.743820572
201.20398066
201.187691808
201.171402955
200.723459506
201.187691808
200.263299417
200.813048196
201.187691808
200.739748359
200.743820572
200.707170653
201.183619595
200.743820572
200.365104747
201.183619595
201.167330742
201.187691808
200.727531719
201.183619595
201.171402955
200.723459506
200.743820572
201.187691808
201.187691808
200.707170653
200.743820572
200.723459506
200.743820572
201.167330742

Average distance is : 200.883 cm
Average deviation is : 0.322 cm
Block: 4
======================================
200.283660483
201.167330742
201.134753036
201.187691808
200.299949336
200.316238189
200.723459506
200.723459506
201.187691808
201.171402955
201.183619595
201.187691808
200.723459506
201.187691808
200.727531719
200.743820572
200.263299417
200.263299417
200.727531719
201.187691808
200.739748359
200.27958827
201.187691808
200.739748359
201.183619595
200.743820572
200.727531719
200.723459506
200.267371631
201.167330742
200.727531719
200.723459506
201.187691808
201.167330742
200.707170653
201.183619595
201.187691808
201.167330742
200.727531719
201.183619595
200.727531719
201.183619595
201.187691808
201.187691808
201.183619595
200.829337049
200.813048196
200.808975983
201.171402955
200.776398277
201.187691808
201.183619595
201.187691808
201.187691808
201.256919432
200.829337049
200.78047049
201.20398066
200.727531719
200.739748359
200.743820572
200.727531719
200.743820572
200.727531719
200.825264835
200.760109425
200.760109425
200.760109425
200.756037211
200.79268713
200.283660483
200.776398277
200.760109425
200.743820572
200.756037211

Average distance is : 200.869 cm
Average deviation is : 0.289 cm
Block: 5
======================================
200.739748359
200.283660483
200.739748359
200.263299417
200.27958827
200.299949336
200.813048196
200.776398277
200.776398277
201.183619595
200.312165976
200.316238189
201.187691808
200.776398277
200.760109425
200.78047049
200.760109425
200.808975983
201.187691808
201.187691808
200.312165976
200.776398277
200.776398277
200.365104747
200.27958827
201.631563044
201.187691808
200.27958827
200.808975983
201.20398066
200.825264835
201.171402955
200.332527041
200.295877123
201.187691808
200.707170653
200.760109425
201.20398066
201.20398066
200.727531719
200.739748359
200.727531719
200.739748359
201.187691808
201.183619595
201.20398066
200.711242867
201.171402955
200.825264835
201.171402955
201.171402955
201.167330742
201.187691808
201.187691808
200.808975983
201.187691808
201.187691808
201.187691808
200.808975983
201.171402955
200.727531719
200.723459506
201.20398066
200.727531719
201.183619595
201.187691808
200.723459506
201.20398066
200.27958827
201.167330742
201.187691808
201.183619595
200.723459506
201.20398066
200.743820572

Average distance is : 200.869 cm
Average deviation is : 0.335 cm
Block: 6
======================================
200.332527041
201.171402955
201.20398066
200.829337049
200.711242867
200.263299417
200.723459506
200.727531719
200.845625901
200.808975983
200.743820572
200.760109425
200.739748359
200.27958827
200.263299417
200.299949336
200.295877123
200.776398277
200.295877123
200.299949336
200.845625901
200.829337049
200.808975983
200.295877123
201.187691808
200.825264835
200.760109425
200.316238189
200.776398277
200.829337049
200.316238189
200.760109425
200.295877123
200.283660483
200.295877123
200.365104747
200.776398277
200.845625901
201.187691808
201.032947707
201.183619595
200.829337049
201.20398066
200.743820572
201.20398066
200.743820572
201.20398066
200.743820572
201.20398066
201.20398066
201.187691808
200.27958827
200.829337049
200.299949336
201.183619595
200.829337049
200.283660483
200.760109425
200.776398277
201.647851896
200.813048196
200.316238189
200.316238189
200.299949336
201.20398066
200.283660483
200.348815894
200.295877123
200.316238189
200.316238189
200.316238189
201.187691808
200.316238189
200.829337049
200.312165976

Average distance is : 200.691 cm
Average deviation is : 0.354 cm
Block: 7
======================================
200.776398277
200.312165976
201.240630579
109.139385247
199.941594577
108.080609822
200.299949336
112.523394394
199.95788343
112.026584387
200.3813936
200.316238189
200.796759343
110.715331745
199.990461135
113.240103912
200.006749988
201.187691808
110.389554691
200.3813936
111.191780686
199.953811216
112.527466607
199.086429811
113.822430396
200.776398277
112.902110219
199.546589899
200.332527041
111.277297163
199.904944658
113.394848013
199.497723341
112.999843335
199.493651128
112.987626696
200.316238189
109.941611242
199.925305724
112.987626696
200.829337049
200.776398277
200.295877123
200.743820572
200.316238189
200.299949336
200.316238189
200.299949336
200.365104747
200.316238189
112.372722507
199.070140958
114.213362861
199.086429811
200.756037211
111.297658229
199.925305724
111.721168399
199.497723341
200.776398277
200.316238189
200.776398277
200.316238189
114.282590485
199.033491039
113.956813431
201.647851896
200.316238189
112.181328487
199.95788343
113.358198094
199.102718663
112.539683247
199.481434488
112.588549805

Average distance is : 168.503 cm
Average deviation is : 42.544 cm
Block: 8
======================================
200.841553688
108.324942613
200.352888107
112.112100863
198.198687339
112.572260952
198.573330951
111.586785364
199.086429811
112.490816689
198.728075051
200.316238189
110.882292485
199.921233511
112.063234305
199.990461135
112.930615711
199.033491039
113.447786784
199.44478457
112.165039635
199.440712357
112.165039635
199.44478457
114.710172868
199.44478457
200.3813936
200.845625901
200.295877123
200.312165976
111.293586016
199.888655806
113.80206933
198.626269722
113.411136866
199.461073422
112.592622018
199.428495717
111.757818317
200.312165976
112.112100863
200.401754665
112.881749153
199.086429811
112.523394394
199.509939981
112.934687924
199.497723341
200.845625901
112.490816689
199.953811216
111.668229628
199.066068745
112.934687924
200.385465813
112.063234305
199.066068745
113.785780478
199.493651128
110.731620598
200.365104747
112.083595371
199.066068745
112.54375546
199.497723341
112.112100863
199.481434488
112.112100863
199.546589899
112.079523158
199.086429811
112.539683247
199.070140958
112.132461929
198.043943238

Average distance is : 160.025 cm
Average deviation is : 43.766 cm
Block: 9
======================================
200.332527041
109.50181222
199.481434488
109.50181222
199.95788343
110.699042892
200.813048196
111.651940775
199.070140958
111.635651922
199.139368582
200.845625901
111.550135446
200.845625901
111.191780686
199.941594577
113.341909242
199.941594577
109.176035166
200.348815894
112.010295534
200.385465813
112.368650293
201.167330742
200.299949336
113.411136866
199.852005887
114.282590485
198.984624481
113.875369167
200.295877123
112.560044312
199.904944658
200.316238189
201.183619595
201.20398066
200.316238189
200.841553688
200.743820572
200.829337049
200.739748359
200.299949336
200.3813936
200.760109425
200.760109425
200.332527041
200.316238189
200.295877123
200.739748359
200.27958827
200.365104747
111.582713151
199.530301046
200.299949336
113.293042684
199.135296369
200.316238189
200.760109425
200.760109425
200.723459506
110.870075846
199.477362275
112.046945453
199.953811216
112.063234305
199.514012194
112.112100863
199.066068745
112.507105541
200.572787619
111.513485527
199.119007516
112.010295534
199.509939981
112.918399072

Average distance is : 170.783 cm
Average deviation is : 41.921 cm
Block: 10
======================================
200.845625901
108.288292694
199.925305724
108.646647453
199.493651128
110.833425927
198.267914963
110.629815269
200.79268713
110.780487156
199.530301046
111.668229628
199.086429811
112.095812011
199.070140958
112.063234305
199.119007516
111.138841915
201.236558366
111.224358392
199.530301046
110.405843544
199.990461135
110.764198303
200.845625901
109.945683455
199.921233511
111.244719458
199.066068745
112.112100863
199.066068745
111.175491834
201.134753036
109.127168608
200.348815894
109.994550014
199.852005887
111.330235934
199.44478457
112.625199723
199.424423504
111.330235934
199.412206864
113.036493254
198.552969885
113.907946873
198.557042098
113.496653342
198.076520944
112.661849642
198.93168571
112.661849642
200.247010565
110.507648873
199.888655806
110.866003633
199.514012194
112.116173077
198.67513628
111.00445888
200.316238189
111.277297163
199.546589899
112.063234305
199.102718663
111.651940775
199.546589899
109.432584596
201.647851896
108.715875077
199.904944658
110.866003633
199.904944658
110.886364698
199.904944658

Average distance is : 156.004 cm
Average deviation is : 44.570 cm