
Block: 1
======================================
200.312165976
201.20398066
200.27958827
110.438421249
199.497723341
110.369193625
200.385465813
112.796232677
201.240630579
110.764198303
200.808975983
112.112100863
199.530301046
112.507105541
199.872366953
112.999843335
199.477362275
200.316238189
200.808975983
111.635651922
199.941594577
200.299949336
200.808975983
200.776398277
200.316238189
200.316238189
200.299949336
112.983554482
199.053852105
201.167330742
200.295877123
200.299949336
200.760109425
201.20398066
201.187691808
200.316238189
200.312165976
200.299949336
200.79268713
201.220269513
201.20398066
201.20398066
200.312165976
201.187691808
201.20398066
201.20398066
201.187691808
200.841553688
201.183619595
201.20398066
201.20398066
201.187691808
200.743820572
200.829337049
200.808975983
200.829337049
200.295877123
200.299949336
200.845625901
200.299949336
200.332527041
200.283660483
200.332527041
200.316238189
200.760109425
200.808975983
200.332527041
200.316238189
200.825264835
201.20398066
111.041108799
201.631563044
200.316238189
200.79268713
200.727531719
200.808975983
200.760109425
200.776398277
200.299949336
200.808975983
200.760109425
200.295877123
200.825264835
200.316238189
200.760109425
200.760109425
200.295877123
200.316238189
200.299949336
200.776398277
200.825264835
200.316238189
112.983554482
200.401754665
113.293042684
200.332527041
200.299949336
200.760109425
200.776398277
200.295877123

Average distance is : 189.973 cm
Average deviation is : 28.946 cm
Block: 2
======================================
200.283660483
201.199908447
200.829337049
200.760109425
200.723459506
200.727531719
201.20398066
200.707170653
200.743820572
200.743820572
201.199908447
201.20398066
200.808975983
200.776398277
200.813048196
201.199908447
200.813048196
200.316238189
201.187691808
200.365104747
200.299949336
201.183619595
201.183619595
200.316238189
201.183619595
201.183619595
201.20398066
200.299949336
200.808975983
200.299949336
200.727531719
200.312165976
201.187691808
200.813048196
200.299949336
201.187691808
200.829337049
201.183619595
200.727531719
200.348815894
200.312165976
200.743820572
200.743820572
200.756037211
200.727531719
200.299949336
201.20398066
200.711242867
201.20398066
201.183619595
201.187691808
200.348815894
201.171402955
201.187691808
200.723459506
200.711242867
201.183619595
200.299949336
201.187691808
201.187691808
201.183619595
201.187691808
201.20398066
201.183619595
201.187691808
200.760109425
200.348815894
200.829337049
201.183619595
200.299949336
200.36917696
200.727531719
200.79268713
200.299949336
200.829337049
201.187691808
200.723459506
201.183619595
201.171402955
201.187691808
200.829337049
200.27958827
200.776398277
200.352888107
200.283660483
200.829337049
201.187691808
200.760109425
200.283660483
200.707170653
201.171402955
201.183619595
200.829337049
200.825264835
201.187691808
200.316238189
200.776398277
200.79268713
201.167330742
201.20398066

Average distance is : 200.828 cm
Average deviation is : 0.339 cm
Block: 3
======================================
200.299949336
112.352361441
199.921233511
110.882292485
200.707170653
200.723459506
110.389554691
199.530301046
111.293586016
200.348815894
110.662392974
201.647851896
201.167330742
112.095812011
199.925305724
200.829337049
201.187691808
200.813048196
200.808975983
201.171402955
201.171402955
200.352888107
201.199908447
200.808975983
200.813048196
200.808975983
110.251099443
201.167330742
201.187691808
201.187691808
200.829337049
200.299949336
201.187691808
201.183619595
201.20398066
201.187691808
200.348815894
200.813048196
200.27958827
201.167330742
200.813048196
201.167330742
201.187691808
201.187691808
201.187691808
201.187691808
200.723459506
201.20398066
200.727531719
200.743820572
200.743820572
201.167330742
201.187691808
201.167330742
200.283660483
201.167330742
201.187691808
201.187691808
201.187691808
201.183619595
201.187691808
201.187691808
200.743820572
201.183619595
201.171402955
200.723459506
200.727531719
201.183619595
201.187691808
200.727531719
200.727531719
201.167330742
200.711242867
200.760109425
200.267371631
200.760109425
200.743820572
200.299949336
200.727531719
200.723459506
200.283660483
200.295877123
200.727531719
201.151041889
201.187691808
201.167330742
200.776398277
201.171402955
201.187691808
201.167330742
200.707170653
200.813048196
201.183619595
200.79268713
200.760109425
200.312165976
200.813048196
200.829337049
201.187691808
200.263299417

Average distance is : 194.585 cm
Average deviation is : 23.014 cm
Block: 4
======================================
201.187691808
201.183619595
201.187691808
201.20398066
200.760109425
200.263299417
200.707170653
200.760109425
200.743820572
200.743820572
201.631563044
201.167330742
201.171402955
200.348815894
200.739748359
201.187691808
200.723459506
200.727531719
201.183619595
200.711242867
200.723459506
200.267371631
200.299949336
200.760109425
201.167330742
201.183619595
201.167330742
200.739748359
200.743820572
200.723459506
200.727531719
200.723459506
200.723459506
201.187691808
200.727531719
200.711242867
200.743820572
200.727531719
201.167330742
200.727531719
200.723459506
200.707170653
201.167330742
201.187691808
201.183619595
201.187691808
201.187691808
200.723459506
200.723459506
201.171402955
201.171402955
201.187691808
200.743820572
200.723459506
200.263299417
200.760109425
200.739748359
200.263299417
200.723459506
200.27958827
200.283660483
200.263299417
201.187691808
200.263299417
200.723459506
200.727531719
200.263299417
200.727531719
200.723459506
200.723459506
200.267371631
200.263299417
200.743820572
200.707170653
200.739748359
200.263299417
201.20398066
200.247010565
200.723459506
200.267371631
200.711242867
200.723459506
200.283660483
201.167330742
200.365104747
200.743820572
200.723459506
201.187691808
200.263299417
200.743820572
200.743820572
200.723459506
200.27958827
200.723459506
200.743820572
200.739748359
201.187691808
200.263299417
200.27958827
200.743820572

Average distance is : 200.758 cm
Average deviation is : 0.327 cm
Block: 5
======================================
200.352888107
200.723459506
200.727531719
200.299949336
200.263299417
200.316238189
200.27958827
111.672301841
199.904944658
200.27958827
201.187691808
111.566424298
200.401754665
111.957356763
200.352888107
113.309331536
199.481434488
112.470455623
199.033491039
200.743820572
112.934687924
200.312165976
112.486744475
199.497723341
113.773563838
198.605908656
113.700264001
198.658847427
112.490816689
199.477362275
112.881749153
200.352888107
112.490816689
199.493651128
112.079523158
199.477362275
200.727531719
111.68451848
199.44478457
112.132461929
202.059145427
201.187691808
114.160424089
199.493651128
113.753202772
197.787393808
115.459460092
198.198687339
114.213362861
198.593692017
112.983554482
199.937522364
112.898038006
199.530301046
112.881749153
199.921233511
112.490816689
200.674592948
200.739748359
110.304038215
200.401754665
112.014367747
199.953811216
111.586785364
200.401754665
111.138841915
200.418043518
110.711259532
200.365104747
113.753202772
199.070140958
114.588006473
196.936301255
115.048166561
199.037563252
115.068527627
199.424423504
112.674066281
200.674592948
111.668229628
199.888655806
115.874825835
196.488357806
116.758496094
199.95788343
112.421589065
199.477362275
200.263299417
111.875912499
201.13882525
200.739748359
200.283660483
112.112100863
200.332527041
113.325620389
199.904944658
113.753202772
199.888655806
113.341909242
199.888655806

Average distance is : 163.379 cm
Average deviation is : 43.133 cm
Block: 6
======================================
200.707170653
200.263299417
200.267371631
200.739748359
200.723459506
200.727531719
200.267371631
200.283660483
200.723459506
200.743820572
200.743820572
200.727531719
200.27958827
200.739748359
200.247010565
200.743820572
200.723459506
200.743820572
200.283660483
200.295877123
200.295877123
200.299949336
200.79268713
201.20398066
200.27958827
201.187691808
200.723459506
200.743820572
200.727531719
200.723459506
200.727531719
201.167330742
200.723459506
200.723459506
201.171402955
200.348815894
201.187691808
201.187691808
200.711242867
200.723459506
201.220269513
201.187691808
200.36917696
200.707170653
201.183619595
201.171402955
200.739748359
200.739748359
201.187691808
200.707170653
201.187691808
201.187691808
201.187691808
201.187691808
200.316238189
200.36917696
201.171402955
200.723459506
200.727531719
200.707170653
201.187691808
201.171402955
200.295877123
200.813048196
200.312165976
200.27958827
200.829337049
200.299949336
200.760109425
200.808975983
200.825264835
201.187691808
201.171402955
200.723459506
201.20398066
201.183619595
200.707170653
200.743820572
200.739748359
200.739748359
200.727531719
200.295877123
200.743820572
201.199908447
200.727531719
200.723459506
201.167330742
201.187691808
200.707170653
201.20398066
200.283660483
200.27958827
201.187691808
200.727531719
200.743820572
201.187691808
200.723459506
201.20398066
200.263299417
201.187691808

Average distance is : 200.771 cm
Average deviation is : 0.326 cm
Block: 7
======================================
200.760109425
200.776398277
200.760109425
200.316238189
200.316238189
200.267371631
200.743820572
200.739748359
200.743820572
200.739748359
200.776398277
200.739748359
200.756037211
200.743820572
200.723459506
200.27958827
200.263299417
200.707170653
200.743820572
201.171402955
200.743820572
200.723459506
201.167330742
200.299949336
201.20398066
201.187691808
201.183619595
201.20398066
201.171402955
201.199908447
201.20398066
200.813048196
201.20398066
200.3813936
200.299949336
201.187691808
201.20398066
201.167330742
201.20398066
200.808975983
200.825264835
201.187691808
201.183619595
201.187691808
200.299949336
200.760109425
200.776398277
200.845625901
200.743820572
200.739748359
200.743820572
200.760109425
200.776398277
200.316238189
201.20398066
200.299949336
201.187691808
200.316238189
201.20398066
201.20398066
200.299949336
201.20398066
201.199908447
201.187691808
200.743820572
201.187691808
200.316238189
201.20398066
200.316238189
201.20398066
201.167330742
201.20398066
201.187691808
201.187691808
200.808975983
201.20398066
200.299949336
200.299949336
200.299949336
200.299949336
201.187691808
200.841553688
201.171402955
200.365104747
200.316238189
200.348815894
201.187691808
200.743820572
200.727531719
201.183619595
200.723459506
200.332527041
201.20398066
200.760109425
200.760109425
200.743820572
201.187691808
201.183619595
200.760109425
201.20398066

Average distance is : 200.829 cm
Average deviation is : 0.343 cm
Block: 8
======================================
200.825264835
200.776398277
200.813048196
200.723459506
200.295877123
200.727531719
200.711242867
200.707170653
201.167330742
200.825264835
201.20398066
201.187691808
201.20398066
200.739748359
200.743820572
201.220269513
200.743820572
200.743820572
200.760109425
200.727531719
200.760109425
200.756037211
201.20398066
201.187691808
200.723459506
200.723459506
200.27958827
200.727531719
201.199908447
200.760109425
200.743820572
200.743820572
200.739748359
201.20398066
200.760109425
200.723459506
201.20398066
200.723459506
200.263299417
200.739748359
200.739748359
201.220269513
201.20398066
200.743820572
200.760109425
200.27958827
200.727531719
201.20398066
201.20398066
201.187691808
200.743820572
201.224341726
200.727531719
201.183619595
200.743820572
200.295877123
200.723459506
200.760109425
201.252847219
200.743820572
200.723459506
200.727531719
201.167330742
200.739748359
200.743820572
200.739748359
200.727531719
200.739748359
201.187691808
200.743820572
200.723459506
200.743820572
200.723459506
200.727531719
200.743820572
200.27958827
200.743820572
200.739748359
200.727531719
200.813048196
112.8654603
199.461073422
200.295877123
112.148750782
199.440712357
112.128389716
199.428495717
201.183619595
110.304038215
199.904944658
201.171402955
201.187691808
201.187691808
112.523394394
200.352888107
111.656012988
201.643779683
200.743820572
200.727531719
200.27958827

Average distance is : 195.445 cm
Average deviation is : 21.208 cm
Block: 9
======================================
200.727531719
200.743820572
200.739748359
200.79268713
201.62749083
200.776398277
201.171402955
200.760109425
200.723459506
200.723459506
200.743820572
200.27958827
200.760109425
200.723459506
200.711242867
200.727531719
200.727531719
200.295877123
200.727531719
200.760109425
200.743820572
200.743820572
200.263299417
200.743820572
200.739748359
200.723459506
200.723459506
200.743820572
200.263299417
200.743820572
200.27958827
200.723459506
200.756037211
201.20398066
200.723459506
200.743820572
200.776398277
200.739748359
200.283660483
200.743820572
200.743820572
200.743820572
200.739748359
200.365104747
201.20398066
201.20398066
201.20398066
201.20398066
201.167330742
200.808975983
201.20398066
200.36917696
200.743820572
200.727531719
200.723459506
201.20398066
200.727531719
200.743820572
201.187691808
201.187691808
201.20398066
201.187691808
201.20398066
201.20398066
202.059145427
200.711242867
201.20398066
200.723459506
200.829337049
201.183619595
200.743820572
201.236558366
201.20398066
201.187691808
200.707170653
200.743820572
200.723459506
201.187691808
201.187691808
201.187691808
201.167330742
201.187691808
200.723459506
200.739748359
200.727531719
201.183619595
200.723459506
201.187691808
201.183619595
201.187691808
200.295877123
201.187691808
201.187691808
201.20398066
201.20398066
201.187691808
201.167330742
200.808975983
201.187691808
201.220269513

Average distance is : 200.891 cm
Average deviation is : 0.312 cm
Block: 10
======================================
200.829337049
200.27958827
200.760109425
200.723459506
200.743820572
200.247010565
200.27958827
200.36917696
200.813048196
200.808975983
201.171402955
200.739748359
201.20398066
201.187691808
201.171402955
201.167330742
201.187691808
200.829337049
200.829337049
201.187691808
201.199908447
200.727531719
112.983554482
199.428495717
201.20398066
201.183619595
201.187691808
201.183619595
201.20398066
200.295877123
200.829337049
200.760109425
200.27958827
201.187691808
200.825264835
200.825264835
200.845625901
201.20398066
201.187691808
200.776398277
200.316238189
200.299949336
200.829337049
201.183619595
200.316238189
201.187691808
200.295877123
201.183619595
200.813048196
201.20398066
201.20398066
200.776398277
200.316238189
201.199908447
201.20398066
200.295877123
200.299949336
200.829337049
200.829337049
200.756037211
200.299949336
201.183619595
200.316238189
200.825264835
200.299949336
201.199908447
200.727531719
200.295877123
201.183619595
200.316238189
200.316238189
201.187691808
201.20398066
200.316238189
200.829337049
201.187691808
201.220269513
201.187691808
200.316238189
200.776398277
200.295877123
201.187691808
201.20398066
200.316238189
200.760109425
200.348815894
200.808975983
200.760109425
200.299949336
200.316238189
200.299949336
200.283660483
200.295877123
200.299949336
200.348815894
200.316238189
200.299949336
200.283660483
200.316238189
200.316238189

Average distance is : 199.857 cm
Average deviation is : 8.784 cm