
Block: 1
======================================
299.687255669
178.343266344
298.817348003
180.286331129
298.402719116
178.936754751
298.849867916
180.761934853
296.154780149
180.009911871
297.418991756
178.477410984
300.077494621
180.1481215
297.142572498
182.314760685
295.88242588
181.867611885
297.158832455
183.148083448
295.032843161
299.650670767
179.400163507
298.358004236
178.1359519
298.764503145
178.530255842
298.829542971
181.050549078
296.752333546
184.39197011
292.914983845
186.13178544
292.504419947
185.721221542
243.403416729
236.720574665
240.179880381
237.574222374
241.903435755
235.440103102
244.049749994
235.423843145
242.77334342
236.293750811
242.753018475
235.423843145
242.740823507
235.460428047
242.309934664
236.310010767
241.578236628
236.720574665
240.622964191
236.273425865
242.379039478
235.391323233
243.675770998
233.25720396
244.013165092
234.163696527
243.626991129
233.310048819
299.68319068
179.79040246
298.862062883
181.070874023
298.439304018
178.904234838
298.418979073
178.936754751
298.38645916
181.9367167
298.780763102
178.119691944
298.866127872
181.054614067
299.650670767
299.687255669
180.452995682
300.093754578
177.713193035
299.260431814
181.103393936
298.423044062
181.066809034
297.569396353
181.493632889
297.142572498
182.310695696
295.43934207
299.699450636
299.223846912
178.969274664
298.38645916
179.383903551
298.370199203
178.953014708
298.849867916
179.806662416

Average distance is : 241.581 cm
Average deviation is : 50.111 cm
Block: 2
======================================
299.666930723
178.306681442
300.12627449
178.083107042
298.829542971
180.131861544
298.898647785
181.44485302
295.455602026
181.887936831
295.898685837
181.855416918
297.638501167
181.851351929
297.244197226
182.688739681
297.638501167
181.343228292
297.280782127
183.473282576
296.431199408
183.046458721
296.004375553
183.916366386
296.000310564
182.24565587
295.524706841
184.822858953
292.951568747
299.68319068
179.806662416
298.418979073
178.49367094
298.882387829
178.087172031
299.309211683
182.261915827
295.097882986
183.522062445
294.671059132
185.91227603
292.727994347
185.91227603
291.46378274
189.318736887
288.46788578
188.432569265
291.467847729
186.729338837
291.91093154
187.599246502
292.744254303
186.318774939
293.154818201
299.256366825
179.396098518
297.979960251
180.229421282
298.406784105
181.477372932
298.423044062
178.49367094
298.866127872
178.920494795
297.740125895
299.699450636
299.240106869
179.29853878
298.866127872
299.223846912
180.266006184
298.797023058
179.379838562
298.337679291
181.135913849
295.780801153
183.249708176
294.878373575
183.745636845
294.894633532
299.244171858
178.957079697
298.849867916
179.806662416
298.829542971
179.379838562
298.406784105
181.119653893
298.390524149
179.363578606
298.83360796
178.953014708
298.849867916
178.530255842
298.423044062
180.217226315
298.866127872
182.314760685
295.045038128
184.83911891

Average distance is : 242.843 cm
Average deviation is : 57.801 cm
Block: 3
======================================
299.240106869
299.256366825
299.288886738
178.904234838
298.849867916
182.310695696
297.1791574
181.018029165
297.605981255
182.721259594
296.768593502
183.164343405
295.898685837
180.420475769
295.236092615
181.326968336
295.21576767
182.367605543
296.662903786
151.758237696
299.703515625
179.363578606
298.849867916
180.644050169
298.849867916
180.217226315
296.662903786
181.103393936
297.110052586
181.952976656
297.943375349
179.826987362
298.423044062
179.396098518
297.959635305
180.266006184
298.797023058
179.43268342
298.829542971
179.412358475
298.813283014
299.223846912
180.692830038
298.370199203
181.119653893
298.829542971
178.103431988
299.272626781
179.806662416
297.996220207
181.070874023
297.569396353
180.63998518
297.516551495
179.843247318
297.947440338
181.103393936
295.813321066
184.550504684
293.662941837
183.270033121
294.110090637
184.119615841
294.110090637
183.249708176
295.829581022
181.497697878
296.699488688
181.546477747
296.24014492
183.692791986
294.110090637
183.660272074
294.536914492
184.530179739
293.715786695
184.188720655
294.874308586
183.778156757
296.154780149
182.501750183
295.337717342
182.058666372
296.394614506
299.719775581
177.33514905
299.240106869
179.042444468
298.797023058
179.892027187
298.829542971
179.042444468
298.38645916
182.005821514
295.833646011
183.729376888
298.813283014
181.188758707
297.093792629
182.481425238

Average distance is : 241.335 cm
Average deviation is : 58.615 cm
Block: 4
======================================
299.260431814
299.240106869
299.703515625
179.026184511
298.423044062
181.887936831
297.589721298
182.363540554
296.768593502
181.477372932
297.227937269
182.704999638
295.988115597
183.591167259
295.540966797
299.256366825
179.026184511
298.813283014
179.501788235
298.83360796
179.005859566
298.866127872
180.286331129
298.471823931
179.826987362
298.882387829
179.786337471
297.638501167
182.331020641
298.882387829
178.579035711
298.898647785
179.859507275
297.585656309
181.57899766
297.569396353
299.68319068
179.652192831
297.723865938
181.412333107
296.036895466
182.298500729
296.870218229
183.131823492
295.967790651
299.292951727
180.692830038
298.012480164
180.489580584
297.638501167
181.034289122
299.32547164
299.256366825
179.026184511
298.83360796
179.875767231
297.979960251
180.741609907
297.146637487
183.607427216
294.227975321
184.835053921
298.886452818
178.973339653
298.866127872
179.859507275
298.423044062
179.038379478
298.849867916
181.135913849
298.012480164
179.448943377
298.439304018
181.546477747
297.1791574
299.256366825
178.989599609
298.882387829
180.270071173
298.471823931
179.416423464
298.914907742
180.213161325
298.492148876
181.887936831
298.886452818
299.309211683
178.542450809
298.902712774
179.379838562
298.902712774
179.396098518
298.935232687
179.79040246
298.935232687
180.644050169
298.02874012
182.774104452
295.947465706
182.367605543

Average distance is : 244.133 cm
Average deviation is : 58.874 cm
Block: 5
======================================
299.260431814
299.288886738
299.256366825
299.276691771
299.736035538
299.260431814
179.859507275
298.439304018
181.135913849
297.585656309
180.286331129
298.455563974
178.477410984
299.309211683
178.152211857
298.032805109
299.276691771
299.272626781
179.363578606
298.902712774
180.644050169
298.931167698
180.196901369
298.918972731
179.396098518
298.049065065
181.920456743
296.378354549
182.774104452
296.341769648
184.070835972
294.211715364
183.233448219
294.638539219
186.184630299
299.276691771
177.69286809
298.423044062
179.875767231
297.53687644
180.745674896
297.53687644
299.256366825
299.292951727
178.546515799
299.292951727
179.843247318
298.455563974
178.973339653
298.882387829
180.676570082
297.162897444
299.256366825
179.042444468
298.866127872
179.43268342
298.845802927
299.276691771
181.103393936
298.866127872
179.43268342
298.83360796
179.005859566
298.83360796
180.266006184
297.110052586
182.042406416
296.207625008
299.699450636
177.709128046
299.256366825
178.546515799
299.309211683
179.806662416
298.914907742
180.217226315
298.902712774
299.703515625
299.68319068
178.5831007
298.849867916
299.699450636
180.676570082
298.902712774
178.953014708
298.439304018
299.244171858
299.256366825
180.286331129
298.83360796
179.43268342
298.829542971
179.43268342
297.996220207
299.68319068
179.005859566
298.849867916
180.266006184
298.471823931
179.79040246

Average distance is : 250.016 cm
Average deviation is : 58.573 cm
Block: 6
======================================
299.703515625
178.001807261
299.752295494
299.276691771
299.687255669
178.936754751
298.882387829
299.687255669
178.579035711
298.866127872
178.989599609
298.402719116
182.383865499
294.996258259
185.843171215
292.84587903
187.225267506
291.451587772
187.225267506
293.223923016
185.074888277
294.040985823
185.91227603
294.910893488
299.703515625
182.396060467
298.016545153
180.692830038
298.866127872
178.953014708
298.423044062
179.314798737
300.110014534
299.68319068
179.806662416
298.418979073
180.644050169
298.049065065
299.703515625
180.644050169
297.162897444
181.493632889
296.325509691
182.298500729
299.309211683
180.200966358
298.813283014
181.066809034
298.459628963
299.68319068
181.083068991
298.902712774
180.233486271
300.093754578
177.298564148
299.272626781
178.973339653
298.849867916
181.546477747
298.423044062
179.839182329
297.53687644
180.692830038
296.223884964
182.448905325
295.760476208
182.908249092
294.910893488
183.355397892
293.667006826
183.745636845
296.752333546
299.666930723
299.666930723
178.1359519
298.817348003
179.416423464
298.849867916
181.135913849
298.439304018
180.676570082
298.439304018
179.400163507
298.797023058
180.351370955
297.467771626
180.367630911
298.321419334
182.058666372
298.748243189
179.518048191
298.337679291
179.022119522
299.240106869
181.119653893
296.683228731
183.265968132
294.959673357
184.119615841
293.272702885

Average distance is : 245.330 cm
Average deviation is : 58.295 cm
Block: 7
======================================
299.68319068
178.62781558
299.175067043
299.68319068
179.412358475
298.83360796
179.416423464
298.849867916
178.969274664
298.866127872
178.953014708
298.866127872
299.256366825
178.1359519
298.866127872
176.465241385
299.276691771
181.083068991
297.585656309
182.363540554
298.02874012
181.066809034
296.512499189
180.814779711
296.581604004
182.518010139
296.134455204
182.554595041
295.727956295
182.981418896
294.414964819
185.977315855
291.837761736
186.830963564
292.284910536
187.290307331
291.394677925
188.111435127
291.447522783
189.371581745
288.874384689
189.391906691
288.02073698
190.24148941
290.118271351
188.14395504
289.679252529
188.570778894
290.545095205
189.013862705
288.821539831
192.867472363
285.004515076
194.554442835
299.670995712
178.168471813
298.374264193
182.005821514
295.849905968
182.416385412
295.406822157
182.02208147
296.223884964
180.761934853
297.484031582
180.778194809
297.077532673
181.188758707
296.650708818
181.595257616
297.08972764
181.595257616
297.53687644
179.416423464
297.996220207
181.135913849
296.752333546
181.940781689
297.175092411
299.670995712
178.168471813
298.813283014
179.928612089
298.764503145
181.188758707
297.1791574
180.627790213
299.341731596
178.103431988
299.240106869
178.631880569
298.797023058
179.428618431
297.553136396
179.892027187
297.963700294
179.038379478
298.829542971
179.448943377
298.402719116

Average distance is : 241.634 cm
Average deviation is : 57.213 cm
Block: 8
======================================
299.719775581
176.176627159
299.207586956
175.339239407
299.240106869
177.213199377
299.309211683
178.542450809
298.898647785
179.363578606
298.459628963
180.660310125
296.341769648
181.481437922
298.081584978
179.326993704
298.711658287
177.644088221
299.276691771
178.579035711
298.406784105
180.302591085
297.979960251
180.298526096
298.423044062
180.28226614
296.699488688
180.318851042
298.423044062
178.509930897
299.292951727
181.952976656
295.898685837
182.822884321
296.736073589
182.432645369
294.979998302
182.908249092
297.093792629
179.875767231
297.959635305
179.485528278
298.370199203
180.367630911
298.337679291
180.351370955
298.358004236
179.481463289
297.931180382
179.9245471
297.927115393
179.501788235
298.353939247
179.07496438
298.38645916
178.611555624
298.423044062
179.005859566
298.418979073
179.396098518
298.045000076
178.989599609
298.016545153
180.28226614
297.996220207
179.022119522
298.423044062
179.448943377
298.459628963
180.298526096
298.402719116
179.43268342
297.585656309
180.713154984
297.622241211
179.806662416
298.524668789
181.050549078
297.638501167
179.822922373
296.768593502
181.119653893
296.752333546
181.989561558
295.471861982
182.416385412
295.935270739
182.363540554
295.08162303
183.217188263
293.78489151
184.119615841
295.353977299
182.363540554
297.638501167
180.233486271
298.097844934
178.477410984
299.309211683
180.28226614

Average distance is : 238.932 cm
Average deviation is : 59.155 cm
Block: 9
======================================
299.244171858
177.948962402
300.093754578
178.579035711
298.882387829
178.119691944
298.866127872
179.859507275
298.439304018
179.859507275
298.423044062
179.448943377
297.53687644
179.448943377
298.439304018
177.709128046
299.309211683
179.518048191
296.545019102
180.489580584
295.675111437
181.339163303
296.666968775
181.599322605
297.520616484
179.448943377
298.374264193
179.908287144
297.500291538
182.091186285
296.01657052
182.261915827
295.146662855
184.802534008
293.91903615
186.916328335
291.77272191
185.656181717
293.475952339
184.339125252
293.91903615
184.786274052
292.642629576
184.74968915
294.382444906
183.916366386
294.382444906
184.733429193
293.122298288
184.717169237
293.975945997
183.879781485
293.089778376
186.473244524
291.435327816
186.404139709
291.415002871
188.554518938
289.728032398
191.249606705
286.606120777
191.656105614
286.179296923
192.082929468
284.455741549
195.525975227
284.49232645
194.180463839
285.378494072
193.753639984
286.642705679
191.196761847
285.78905797
193.753639984
286.232141781
299.666930723
178.188796759
298.829542971
179.465203333
298.390524149
179.022119522
298.83360796
299.715710592
178.546515799
298.423044062
180.692830038
297.162897444
182.822884321
297.162897444
182.400125456
295.045038128
184.957003593
293.309287786
186.233410168
293.321482754
185.790326357
294.195455408
184.477334881
295.914945793
299.687255669

Average distance is : 241.489 cm
Average deviation is : 55.681 cm
Block: 10
======================================
299.699450636
179.639997864
300.162859392
174.554696512
299.687255669
178.327006388
298.455563974
179.826987362
298.439304018
182.363540554
295.471861982
182.810689354
298.83360796
178.562775755
298.866127872
178.526190853
299.32547164
178.953014708
298.882387829
178.509930897
299.32547164
177.896117544
299.650670767
177.761972904
298.813283014
178.205056715
299.650670767
179.107484293
298.305159378
180.387955856
297.008427858
181.717207289
296.561279058
180.867624569
297.874270535
180.400150824
296.565344048
299.68319068
179.497723246
298.374264193
180.302591085
297.996220207
179.448943377
298.423044062
178.546515799
298.866127872
178.546515799
298.012480164
181.562737703
295.455602026
185.383827448
292.93530879
187.904120684
290.394690609
188.708988523
289.963801765
188.757768393
289.0938941
187.871600771
289.967866755
187.034213018
290.817449474
187.444776917
292.504419947
185.721221542
292.114180994
185.294397688
292.061336136
186.591129208
292.520679903
184.054576015
296.171040106
181.66842742
297.4027318
179.977391958
298.780763102
180.318851042
298.353939247
178.615620613
298.370199203
181.631842518
296.24014492
182.879794168
294.975933313
184.599284554
295.79706111
183.761896801
296.650708818
183.298488045
295.829581022
185.859431171
294.158870506
184.957003593
296.276729822
183.270033121
293.715786695
184.562699652
292.84587903
186.286255026
291.5532125

Average distance is : 240.307 cm
Average deviation is : 57.439 cm