
Block: 1
======================================
400.890821481
401.772264552
400.906994748
400.874648213
400.906994748
401.331543016
401.331543016
400.890821481
401.347716284
401.335586333

Block: 2
======================================
400.923168015
401.772264552
401.772264552
401.315369749
400.927211332
400.890821481
401.335586333
402.19681282
401.331543016
401.351759601

Block: 3
======================================
402.212986088
401.299196482
401.331543016
400.911038065
401.756091285
400.874648213
401.315369749
403.470457625
400.890821481
400.890821481

Block: 4
======================================
401.367932868
401.347716284
401.335586333
401.331543016
401.772264552
401.347716284
400.874648213
400.874648213
401.331543016
401.335586333

Block: 5
======================================
401.347716284
400.890821481
401.351759601
402.212986088
401.347716284
402.641577673
401.347716284
401.347716284
400.890821481
401.792481136

Block: 6
======================================
400.858474946
400.874648213
401.331543016
401.347716284
400.923168015
403.486630893
401.367932868
401.363889551
401.804611087
401.792481136

Block: 7
======================================
400.939341283
401.41645267
400.470316529
402.249375939
400.518836331
401.804611087
401.400279403
400.9433846
400.906994748
401.808654404

Block: 8
======================================
420.751593804
400.927211332
400.450099945
403.518977427
400.923168015
400.906994748
401.804611087
400.939341283
400.906994748
402.249375939

Block: 9
======================================
402.19681282
401.363889551
401.347716284
401.772264552
400.9433846
401.351759601
401.347716284
401.347716284
400.890821481
401.347716284

Block: 10
======================================
401.772264552
401.299196482
401.278979897
402.233202672
400.854431629
402.621361089
401.756091285
401.739918017
402.19681282
401.788437819
