
Block: 1
======================================
402.605187821
401.283023214
402.637534356
402.19681282
402.637534356
402.212986088
402.637534356
401.315369749
402.637534356
401.299196482
401.315369749
402.19681282
403.078255892
401.299196482
401.760134602
402.637534356
401.315369749
402.200856137
402.212986088
403.927352428
401.772264552
401.331543016
401.776307869
401.735874701
401.315369749

Block: 2
======================================
402.212986088
401.299196482
401.299196482
402.19681282
402.180639553
401.315369749
401.295153165
401.335586333
401.756091285
401.756091285
402.601144505
402.19681282
402.19681282
403.470457625
401.72374475
402.621361089
402.180639553
402.180639553
403.470457625
402.200856137
401.315369749
401.315369749
400.894864798
402.180639553
401.735874701

Block: 3
======================================
401.735874701
402.19681282
402.180639553
400.894864798
401.756091285
403.04186604
401.299196482
401.315369749
403.911179161
401.315369749
401.315369749
402.19681282
401.735874701
401.756091285
401.335586333
401.315369749
401.315369749
401.772264552
400.874648213
400.890821481
401.295153165
401.315369749
400.450099945
401.760134602
401.315369749

Block: 4
======================================
402.132119751
402.148293018
400.365190291
399.95681529
400.385406876
400.381363559
400.41775341
400.385406876
400.381363559
400.822085094
2781.155056
400.41775341
401.283023214
400.890821481
400.854431629
400.842301679
402.584971237
400.433926678
401.315369749
401.299196482
401.299196482
400.870604897
401.315369749
400.874648213
400.838258362

Block: 5
======================================
400.450099945
402.993346238
400.41775341
400.025551677
400.842301679
400.450099945
399.977031875
399.993205142
400.450099945
400.450099945
400.025551677
400.874648213
402.180639553
400.025551677
400.450099945
402.584971237
400.450099945
400.025551677
400.466273212
400.450099945
401.315369749
400.433926678
400.450099945
401.315369749
400.433926678

Block: 6
======================================
401.299196482
2789.75519092
2828.50633953
403.470457625
403.927352428
403.009519506
402.605187821
403.911179161
403.062082624
403.486630893
404.335727429
402.637534356
404.331684113
403.062082624
403.486630893
402.601144505
404.335727429
402.637534356
402.653707623
402.180639553
402.653707623
401.772264552
402.19681282
402.212986088
402.621361089

Block: 7
======================================
402.637534356
401.347716284
403.911179161
401.347716284
401.792481136
401.367932868
401.347716284
402.229159355
403.50280416
401.788437819
401.776307869
401.788437819
401.756091285
401.756091285
401.772264552
401.772264552
402.65775094
401.331543016
402.212986088
402.249375939
402.233202672
402.212986088
401.772264552
402.637534356
401.756091285

Block: 8
======================================
401.739918017
401.739918017
401.756091285
401.347716284
401.315369749
401.756091285
402.19681282
401.315369749
402.229159355
401.739918017
401.299196482
401.299196482
402.180639553
403.045909357
401.315369749
402.637534356
401.315369749
401.299196482
403.04186604
401.331543016
402.621361089
402.601144505
401.756091285
401.315369749
401.315369749

Block: 9
======================================
400.838258362
402.19681282
402.212986088
401.756091285
401.739918017
401.278979897
401.299196482
401.315369749
400.838258362
401.299196482
402.19681282
400.858474946
400.854431629
401.299196482
400.858474946
403.450241041
400.874648213
401.739918017
401.331543016
403.045909357
400.858474946
400.433926678
401.278979897
401.299196482
401.299196482

Block: 10
======================================
400.858474946
400.874648213
400.874648213
400.433926678
401.299196482
400.397536826
400.874648213
400.854431629
400.874648213
400.009378409
400.858474946
399.972988558
400.433926678
400.41775341
400.450099945
400.838258362
400.025551677
399.993205142
401.707571483
399.993205142
399.95681529
400.858474946
399.989161825
399.993205142
399.977031875
