
Block: 1
======================================
400.927211332
400.874648213
401.347716284
400.923168015
402.212986088

Average distance is : 401.257 cm
Average deviation is : 0.568 cm
Block: 2
======================================
400.518836331
400.923168015
400.923168015
401.400279403
401.384106135

Average distance is : 401.030 cm
Average deviation is : 0.370 cm
Block: 3
======================================
400.9433846
400.9433846
400.927211332
400.923168015
401.367932868

Average distance is : 401.021 cm
Average deviation is : 0.194 cm
Block: 4
======================================
400.906994748
401.788437819
401.788437819
401.380062819
400.939341283

Average distance is : 401.361 cm
Average deviation is : 0.433 cm
Block: 5
======================================
401.719701433
402.233202672
401.756091285
400.890821481
402.212986088

Average distance is : 401.763 cm
Average deviation is : 0.545 cm
Block: 6
======================================
401.756091285
401.772264552
401.756091285
401.347716284
401.331543016

Average distance is : 401.593 cm
Average deviation is : 0.231 cm
Block: 7
======================================
401.331543016
401.772264552
401.739918017
400.894864798
402.212986088

Average distance is : 401.590 cm
Average deviation is : 0.498 cm
Block: 8
======================================
400.890821481
401.772264552
401.772264552
401.347716284
400.906994748

Average distance is : 401.338 cm
Average deviation is : 0.437 cm
Block: 9
======================================
401.335586333
400.874648213
401.739918017
401.772264552
401.315369749

Average distance is : 401.408 cm
Average deviation is : 0.368 cm
Block: 10
======================================
401.315369749
401.756091285
400.874648213
401.772264552
402.19681282

Average distance is : 401.583 cm
Average deviation is : 0.504 cm