
Block: 1
======================================
199.648395228
199.680972934
200.128916383
200.128916383
200.556498766
199.685045147
199.701334
200.568715405
200.092266464
200.589076471
199.664684081
200.11262753
199.782778263
200.145205235
200.589076471
199.701334
200.572787619
200.108555317
200.552426553
200.12484417
200.568715405
199.701334
200.552426553
200.12484417
199.717622852
199.717622852
200.552426553
199.668756294
200.589076471
200.108555317
199.664684081
200.589076471
199.685045147
200.12484417
200.589076471
200.12484417
200.128916383
199.664684081
200.108555317
200.552426553
199.685045147
199.664684081
200.12484417
200.108555317
199.685045147
200.556498766
200.523921061
199.668756294
201.016658854
200.161494088
199.680972934
199.685045147
200.092266464
200.980008936
199.685045147
199.652467442
199.664684081
199.668756294
199.668756294
199.648395228
200.11262753
200.108555317
200.572787619
199.680972934
199.680972934
200.145205235
199.717622852
200.11262753
199.668756294
199.680972934
199.685045147
199.680972934
199.680972934
199.701334
200.572787619
199.680972934
199.717622852
200.996297789
200.145205235
200.108555317
200.568715405
199.664684081
200.552426553
200.108555317
199.680972934
199.685045147
199.701334
200.996297789
199.701334
200.128916383
199.257462764
200.161494088
199.701334
199.680972934
200.128916383
200.5361377
200.12484417
199.664684081
200.12484417
199.664684081

Block: 2
======================================
199.668756294
199.648395228
199.269679403
200.108555317
199.680972934
199.685045147
200.128916383
199.668756294
199.680972934
199.648395228
199.685045147
200.11262753
199.648395228
200.096338677
199.680972934
200.572787619
199.701334
200.980008936
199.685045147
200.12484417
200.12484417
199.685045147
200.572787619
200.108555317
200.145205235
199.697261786
200.145205235
200.572787619
199.664684081
199.701334
199.717622852
200.145205235
200.128916383
200.984081149
200.589076471
200.145205235
199.664684081
199.701334
199.717622852
200.128916383
200.11262753
199.697261786
200.12484417
200.161494088
200.589076471
199.717622852
199.717622852
200.605365324
200.556498766
199.717622852
199.697261786
200.108555317
200.128916383
199.680972934
199.668756294
199.685045147
199.680972934
199.701334
201.456457877
199.701334
199.974172282
200.145205235
199.701334
199.701334
199.701334
199.290040469
199.701334
200.552426553
200.161494088
199.717622852
200.161494088
200.161494088
199.733911705
200.145205235
200.128916383
200.145205235
199.733911705
199.668756294
200.589076471
200.605365324
199.717622852
200.128916383
200.128916383
199.701334
199.713550639
199.717622852
199.733911705
199.717622852
200.141133022
199.717622852
199.664684081
199.701334
200.12484417
199.257462764
199.680972934
201.440169024
200.145205235
199.290040469
199.237101698
200.12484417

Block: 3
======================================
199.668756294
200.177782941
200.621654177
199.680972934
199.733911705
199.685045147
200.12484417
199.737983918
199.701334
199.733911705
199.717622852
200.177782941
199.257462764
199.697261786
200.161494088
199.685045147
200.177782941
200.141133022
199.697261786
199.664684081
200.161494088
200.161494088
199.273751616
199.717622852
200.145205235
200.145205235
200.165566301
200.161494088
200.161494088
200.177782941
200.12484417
199.697261786
199.273751616
200.108555317
199.680972934
199.241173911
199.717622852
199.224885058
199.685045147
199.717622852
199.685045147
200.145205235
199.701334
201.000370002
200.62572639
199.257462764
200.12484417
199.241173911
201.085886478
200.145205235
199.701334
200.141133022
199.257462764
199.253390551
200.145205235
199.717622852
199.701334
199.685045147
200.11262753
199.697261786
199.697261786
200.572787619
200.161494088
199.717622852
199.680972934
200.145205235
199.668756294
200.141133022
200.589076471
199.701334
200.12484417
199.701334
199.701334
199.717622852
199.664684081
200.980008936
200.572787619
200.141133022
199.717622852
200.161494088
199.685045147
200.161494088
200.12484417
199.697261786
199.717622852
199.717622852
199.680972934
199.697261786
200.145205235
200.145205235
199.717622852
199.664684081
200.161494088
199.717622852
200.568715405
199.668756294
199.701334
200.128916383
200.145205235
199.685045147

Block: 4
======================================
199.697261786
200.589076471
200.128916383
199.697261786
199.685045147
199.680972934
199.685045147
199.685045147
199.701334
200.12484417
199.685045147
199.685045147
199.668756294
199.685045147
200.161494088
199.668756294
200.589076471
200.128916383
200.568715405
199.664684081
199.273751616
200.585004258
200.108555317
200.161494088
199.697261786
199.717622852
200.141133022
200.12484417
199.680972934
200.145205235
199.701334
200.12484417
200.161494088
200.585004258
199.685045147
200.128916383
199.668756294
200.145205235
201.016658854
200.589076471
200.540209913
199.685045147
199.685045147
200.589076471
200.572787619
199.685045147
200.589076471
200.11262753
199.717622852
199.680972934
200.145205235
199.664684081
199.664684081
200.568715405
199.701334
199.685045147
201.016658854
199.701334
199.685045147
200.572787619
200.12484417
199.680972934
199.717622852
199.717622852
199.701334
200.145205235
199.685045147
200.11262753
199.701334
200.092266464
199.664684081
199.701334
199.717622852
199.701334
199.685045147
199.717622852
199.717622852
200.572787619
200.161494088
200.161494088
200.605365324
200.145205235
199.290040469
199.717622852
199.697261786
199.697261786
200.11262753
200.161494088
200.108555317
200.161494088
199.717622852
201.012586641
200.128916383
199.680972934
199.701334
200.128916383
199.273751616
200.145205235
200.128916383
199.701334

Block: 5
======================================
199.685045147
199.664684081
199.701334
199.701334
199.95788343
200.145205235
199.701334
199.257462764
200.11262753
200.128916383
199.701334
200.996297789
201.032947707
200.145205235
200.589076471
199.717622852
199.717622852
200.145205235
199.701334
199.717622852
200.12484417
199.697261786
200.11262753
199.257462764
199.701334
199.685045147
200.108555317
199.680972934
199.685045147
200.145205235
200.145205235
199.701334
200.589076471
200.161494088
199.701334
199.664684081
199.701334
200.141133022
199.680972934
199.701334
200.589076471
200.145205235
199.680972934
200.568715405
200.128916383
199.685045147
199.701334
200.145205235
200.145205235
200.145205235
199.237101698
200.12484417
199.701334
200.128916383
199.697261786
200.128916383
199.701334
200.108555317
200.141133022
199.241173911
199.717622852
199.717622852
199.701334
200.145205235
200.605365324
199.717622852
199.664684081
199.685045147
199.664684081
200.161494088
199.733911705
199.697261786
199.701334
199.733911705
200.128916383
200.145205235
199.717622852
199.257462764
199.685045147
199.717622852
200.145205235
200.161494088
199.685045147
199.701334
200.589076471
199.664684081
200.145205235
200.128916383
199.668756294
200.128916383
199.237101698
199.717622852
200.145205235
200.12484417
199.701334
200.145205235
200.108555317
200.12484417
199.668756294
199.680972934

Block: 6
======================================
201.016658854
200.11262753
199.664684081
199.664684081
200.11262753
200.108555317
200.552426553
200.108555317
199.685045147
201.016658854
200.128916383
200.128916383
200.145205235
199.717622852
199.664684081
200.145205235
200.572787619
199.701334
200.605365324
199.701334
199.664684081
199.685045147
199.664684081
200.552426553
200.161494088
200.161494088
200.128916383
200.572787619
199.668756294
200.585004258
199.273751616
200.572787619
200.145205235
200.605365324
200.572787619
200.12484417
200.589076471
199.680972934
200.589076471
200.128916383
199.664684081
200.145205235
199.680972934
199.685045147
200.145205235
199.717622852
200.108555317
199.664684081
200.145205235
199.701334
199.241173911
200.589076471
199.668756294
199.668756294
199.685045147
200.145205235
199.253390551
199.664684081
201.016658854
200.11262753
199.701334
199.253390551
200.585004258
199.701334
199.685045147
200.145205235
199.733911705
200.12484417
200.128916383
199.664684081
199.717622852
199.717622852
200.128916383
201.000370002
199.664684081
200.108555317
199.680972934
200.980008936
199.253390551
199.701334
200.145205235
199.685045147
200.128916383
199.664684081
201.016658854
199.701334
200.128916383
199.701334
200.11262753
201.000370002
199.717622852
199.701334
199.685045147
199.697261786
200.568715405
200.145205235
199.648395228
200.572787619
199.648395228
200.128916383

Block: 7
======================================
199.685045147
200.128916383
200.128916383
199.680972934
200.145205235
199.685045147
199.668756294
199.685045147
199.648395228
200.12484417
199.680972934
200.552426553
200.128916383
199.717622852
200.12484417
199.717622852
199.701334
199.701334
199.701334
199.668756294
200.589076471
200.161494088
199.664684081
199.701334
199.685045147
200.161494088
199.685045147
200.12484417
199.697261786
200.568715405
199.701334
199.664684081
200.128916383
200.145205235
200.434332371
200.11262753
200.572787619
199.257462764
200.128916383
199.685045147
199.701334
200.108555317
199.701334
200.12484417
200.12484417
199.701334
200.145205235
200.589076471
199.237101698
199.697261786
199.717622852
200.145205235
200.145205235
200.996297789
199.701334
200.996297789
200.145205235
199.680972934
200.145205235
200.589076471
199.685045147
200.572787619
200.12484417
199.701334
199.701334
199.717622852
199.273751616
199.664684081
200.589076471
200.12484417
200.572787619
199.701334
200.12484417
199.713550639
199.680972934
199.701334
199.701334
199.733911705
199.269679403
200.128916383
200.589076471
199.668756294
200.589076471
199.701334
199.224885058
199.717622852
199.701334
200.128916383
199.701334
199.257462764
199.685045147
200.996297789
199.685045147
199.664684081
199.717622852
199.648395228
199.685045147
199.680972934
200.145205235
199.685045147

Block: 8
======================================
199.237101698
200.11262753
199.680972934
200.572787619
199.697261786
199.685045147
200.128916383
199.685045147
199.648395228
200.108555317
201.016658854
200.963720083
199.701334
199.697261786
199.685045147
200.108555317
199.664684081
201.032947707
199.685045147
200.128916383
199.668756294
199.648395228
200.128916383
200.11262753
200.145205235
199.685045147
199.803139329
199.685045147
199.685045147
201.427952385
200.108555317
200.11262753
200.540209913
200.11262753
200.092266464
199.701334
199.253390551
200.12484417
199.701334
199.680972934
200.963720083
199.733911705
199.668756294
199.257462764
199.648395228
200.11262753
199.717622852
199.680972934
200.145205235
199.717622852
199.664684081
200.568715405
199.664684081
199.717622852
199.220812845
200.11262753
199.680972934
199.697261786
200.11262753
200.572787619
200.108555317
200.128916383
200.552426553
199.668756294
200.589076471
199.701334
199.701334
200.108555317
200.145205235
199.717622852
199.241173911
199.701334
199.697261786
200.092266464
199.237101698
199.685045147
200.141133022
199.664684081
199.668756294
199.668756294
200.128916383
200.3813936
200.128916383
199.717622852
199.680972934
199.668756294
199.697261786
200.145205235
199.257462764
200.589076471
199.680972934
199.685045147
199.685045147
200.556498766
200.556498766
199.664684081
200.572787619
201.391302466
199.701334
199.664684081

Block: 9
======================================
199.701334
199.648395228
200.145205235
199.713550639
199.204523993
200.556498766
199.237101698
199.701334
200.5361377
199.680972934
200.128916383
199.664684081
199.685045147
200.11262753
199.652467442
200.128916383
200.589076471
199.697261786
199.701334
199.685045147
199.685045147
199.701334
199.685045147
199.664684081
199.697261786
199.224885058
199.680972934
199.685045147
200.572787619
200.11262753
200.568715405
199.253390551
200.556498766
200.572787619
200.12484417
200.145205235
199.680972934
200.556498766
199.652467442
200.568715405
199.664684081
199.685045147
200.984081149
200.12484417
199.701334
200.556498766
199.701334
199.220812845
199.680972934
199.664684081
200.092266464
199.664684081
200.963720083
200.11262753
199.701334
200.12484417
200.11262753
200.589076471
199.668756294
200.128916383
199.680972934
199.664684081
199.701334
199.701334
200.096338677
200.967792296
200.128916383
199.685045147
200.556498766
199.701334
199.664684081
199.685045147
200.128916383
199.685045147
199.701334
200.12484417
201.411663532
200.128916383
200.5361377
199.241173911
199.648395228
199.685045147
199.680972934
200.128916383
200.11262753
201.000370002
200.11262753
199.680972934
200.12484417
199.257462764
200.556498766
199.664684081
199.685045147
200.108555317
200.11262753
200.984081149
200.128916383
200.128916383
201.407591319
200.108555317

Block: 10
======================================
199.18823514
200.161494088
200.161494088
200.540209913
200.11262753
200.128916383
199.664684081
199.664684081
199.241173911
199.668756294
200.568715405
200.568715405
200.108555317
200.556498766
200.572787619
200.11262753
199.668756294
199.668756294
200.556498766
200.556498766
200.108555317
199.648395228
199.668756294
200.128916383
199.648395228
199.680972934
200.552426553
199.701334
201.000370002
199.685045147
199.668756294
199.668756294
200.11262753
199.668756294
200.980008936
200.128916383
199.668756294
200.589076471
199.685045147
200.128916383
199.664684081
199.697261786
200.12484417
200.128916383
199.664684081
200.552426553
200.12484417
200.128916383
200.108555317
200.108555317
200.108555317
200.108555317
199.685045147
199.701334
199.701334
199.664684081
199.697261786
199.668756294
199.668756294
200.145205235
200.572787619
199.668756294
199.717622852
199.685045147
199.241173911
199.685045147
199.680972934
200.108555317
199.257462764
199.685045147
200.145205235
199.701334
199.701334
199.685045147
199.717622852
199.253390551
199.257462764
199.685045147
199.701334
200.141133022
200.572787619
199.241173911
200.589076471
199.664684081
199.241173911
199.701334
199.668756294
199.220812845
200.108555317
199.257462764
200.128916383
199.680972934
199.664684081
199.273751616
199.697261786
200.12484417
200.108555317
199.220812845
199.680972934
200.556498766
