
Block: 1
======================================
99.8098510504
99.8139810562
99.8139810562
99.8263710737
99.793331027
100.260021687
99.793331027
100.27654171
101.164492965
99.8098510504
99.4133704901
100.280671716
100.27654171
99.8098510504
100.421091914
99.8305010796
99.8305010796
99.7974610329
99.7974610329
100.264151692
100.27654171
100.260021687
100.280671716
100.280671716
99.8305010796
99.8305010796
99.8098510504
99.8263710737
99.8139810562
99.8470211029
99.8139810562
99.8139810562
99.8098510504
99.8800611496
99.7974610329
100.260021687
99.8098510504
99.3968504667
99.8098510504
100.693672299
100.313711762
100.330231786
99.3968504667
99.8263710737
99.8305010796
99.793331027
99.8139810562
100.730842352
99.8098510504
99.4133704901
99.8305010796
99.3803304434
100.280671716
100.260021687
100.280671716
99.8139810562
99.3968504667
100.297191739
100.297191739
100.260021687
100.264151692
100.280671716
100.297191739
99.3803304434
99.3803304434
100.280671716
99.8305010796
99.793331027
100.710192323
99.8263710737
100.260021687
100.243501663
100.280671716
99.793331027
100.260021687
99.8139810562
101.160362959
100.243501663
100.297191739
100.297191739
99.8263710737
99.8305010796
99.8635411263
99.8139810562
100.280671716
100.280671716
101.160362959
99.8098510504
99.4133704901
99.8635411263
100.260021687
100.243501663
100.280671716
100.693672299
99.8305010796
99.793331027
99.8305010796
99.8098510504
100.280671716
100.264151692

Block: 2
======================================
99.8139810562
99.4133704901
99.7974610329
100.313711762
99.4835805893
100.27654171
100.264151692
101.594013572
101.143842936
100.280671716
100.280671716
99.4133704901
100.264151692
99.3968504667
99.3968504667
99.8470211029
100.297191739
100.280671716
100.280671716
99.8098510504
99.8139810562
99.8098510504
99.8098510504
99.8139810562
100.243501663
99.8098510504
99.8305010796
100.260021687
100.27654171
99.3596804142
99.3968504667
100.264151692
100.297191739
100.260021687
99.8139810562
99.8470211029
99.8470211029
99.8098510504
100.243501663
101.160362959
100.297191739
100.280671716
99.3762004375
99.3596804142
99.8470211029
99.3803304434
99.8635411263
99.8098510504
100.280671716
99.793331027
99.8470211029
99.8098510504
100.297191739
99.3927204609
99.3968504667
99.8470211029
101.164492965
100.243501663
99.3596804142
99.8800611496
99.3803304434
99.8470211029
100.280671716
99.8263710737
101.147972941
100.280671716
99.7974610329
100.280671716
100.297191739
100.264151692
99.793331027
99.7768110037
100.260021687
99.36381042
100.280671716
100.260021687
100.27654171
100.313711762
100.280671716
100.297191739
99.8305010796
100.280671716
99.8139810562
99.8470211029
100.264151692
100.297191739
100.280671716
100.260021687
99.8139810562
100.297191739
100.264151692
100.27654171
100.264151692
99.793331027
99.8263710737
100.710192323
100.714322329
100.730842352
100.247631669
99.8470211029

Block: 3
======================================
99.8470211029
99.8098510504
99.8305010796
99.7974610329
100.297191739
99.8305010796
100.280671716
100.280671716
99.8305010796
99.7974610329
99.7809410095
100.313711762
99.793331027
99.8098510504
99.8098510504
99.7974610329
99.3762004375
99.8098510504
100.260021687
99.7974610329
99.7974610329
100.297191739
100.264151692
99.8139810562
100.280671716
99.8263710737
100.297191739
99.8263710737
99.8305010796
99.793331027
99.3762004375
99.8139810562
100.297191739
99.8098510504
100.280671716
100.313711762
100.27654171
100.264151692
99.8139810562
99.4133704901
99.4133704901
99.8098510504
99.8098510504
100.280671716
100.280671716
99.8305010796
99.8098510504
99.793331027
99.7974610329
100.334361792
99.8263710737
99.8305010796
99.8139810562
100.264151692
100.264151692
99.8305010796
100.264151692
100.280671716
99.8139810562
99.8139810562
100.260021687
99.793331027
99.7974610329
100.297191739
100.280671716
99.793331027
99.8139810562
100.714322329
99.7974610329
100.260021687
100.280671716
99.8470211029
100.264151692
99.8470211029
99.8305010796
99.8098510504
99.8139810562
99.8098510504
99.7974610329
99.793331027
99.8139810562
99.3968504667
100.710192323
100.280671716
100.763882399
99.3596804142
99.7974610329
99.8139810562
99.8139810562
100.264151692
99.8098510504
99.8305010796
99.8305010796
99.793331027
99.793331027
100.747362375
100.243501663
99.3968504667
101.147972941
99.8635411263

Block: 4
======================================
99.8305010796
100.297191739
100.243501663
99.8139810562
100.730842352
100.280671716
100.280671716
99.4133704901
100.297191739
99.8139810562
99.4133704901
100.27654171
100.243501663
100.280671716
100.280671716
100.280671716
99.793331027
99.7768110037
100.260021687
99.8139810562
99.7974610329
99.8139810562
99.8305010796
99.793331027
100.280671716
99.7974610329
99.8676711321
101.181012988
100.280671716
99.8098510504
99.8305010796
99.7768110037
99.8305010796
100.297191739
99.8098510504
99.793331027
99.8263710737
99.8098510504
100.264151692
100.297191739
100.297191739
99.4133704901
99.3968504667
99.7974610329
99.8305010796
100.730842352
99.7974610329
100.260021687
99.8305010796
99.7974610329
99.8139810562
99.7974610329
99.8305010796
99.8139810562
100.297191739
99.8139810562
99.7768110037
99.8098510504
99.8305010796
100.297191739
99.8305010796
99.3968504667
100.264151692
99.8098510504
100.280671716
100.297191739
99.8139810562
100.297191739
99.8841911554
99.793331027
99.4133704901
99.8305010796
99.8305010796
100.247631669
99.3968504667
99.3968504667
100.260021687
100.280671716
99.793331027
99.3803304434
100.297191739
100.280671716
99.793331027
99.8139810562
99.8470211029
99.8098510504
99.7974610329
99.8098510504
99.8098510504
99.8305010796
99.793331027
100.297191739
99.8098510504
99.8305010796
100.27654171
100.264151692
99.8305010796
99.793331027
99.3927204609
100.280671716

Block: 5
======================================
99.8139810562
99.8305010796
100.763882399
100.280671716
100.297191739
99.8098510504
99.8098510504
100.264151692
100.264151692
99.793331027
99.8139810562
99.793331027
99.793331027
100.264151692
99.8098510504
100.280671716
100.297191739
99.8098510504
100.280671716
99.3803304434
99.6735608578
100.313711762
99.8263710737
99.8139810562
99.4133704901
99.8470211029
99.8139810562
99.7974610329
99.7974610329
100.280671716
99.8139810562
99.8470211029
99.8098510504
99.8098510504
99.8305010796
100.280671716
100.280671716
99.8305010796
99.3968504667
99.8098510504
99.8098510504
99.793331027
99.3968504667
100.313711762
100.260021687
99.8098510504
99.8305010796
99.8139810562
99.8139810562
99.8098510504
100.27654171
99.8305010796
99.36381042
100.280671716
100.264151692
100.27654171
100.264151692
101.160362959
100.27654171
100.313711762
100.264151692
99.7768110037
99.8139810562
99.8635411263
99.8305010796
99.793331027
99.3596804142
100.280671716
100.280671716
100.280671716
100.27654171
99.793331027
100.264151692
100.264151692
99.7974610329
100.260021687
100.264151692
99.7974610329
100.297191739
100.280671716
101.160362959
99.793331027
99.793331027
99.3803304434
100.714322329
100.260021687
99.8139810562
100.260021687
100.693672299
99.8263710737
99.8305010796
99.8098510504
99.8139810562
99.7768110037
99.8676711321
99.793331027
100.260021687
99.8139810562
100.264151692
99.8139810562

Block: 6
======================================
100.714322329
99.8098510504
100.107211471
99.7768110037
99.8305010796
100.264151692
100.264151692
100.280671716
99.8098510504
99.8098510504
100.264151692
99.8098510504
99.8305010796
100.280671716
99.793331027
100.264151692
100.280671716
99.8139810562
100.264151692
99.8139810562
99.7974610329
99.8305010796
99.8470211029
99.793331027
99.793331027
99.8139810562
99.8305010796
99.8305010796
100.280671716
99.7974610329
99.8139810562
99.8305010796
100.27654171
99.3968504667
99.8305010796
99.793331027
99.8470211029
99.3968504667
100.260021687
99.8098510504
99.8098510504
99.8305010796
99.3762004375
100.297191739
99.8305010796
100.264151692
100.264151692
100.264151692
99.793331027
100.297191739
100.27654171
100.27654171
100.27654171
99.8263710737
100.697802305
99.8263710737
101.160362959
99.8139810562
100.280671716
100.280671716
100.264151692
99.8470211029
99.8635411263
99.8305010796
100.264151692
99.8470211029
100.27654171
99.8263710737
99.8139810562
99.8305010796
100.763882399
100.260021687
101.147972941
100.264151692
100.280671716
99.8470211029
99.7809410095
99.8305010796
99.8098510504
99.8305010796
99.8263710737
99.7974610329
99.9833112955
99.7974610329
99.8263710737
99.8139810562
100.730842352
99.793331027
100.260021687
100.297191739
99.793331027
99.8470211029
100.27654171
101.164492965
100.280671716
100.280671716
100.260021687
100.280671716
100.264151692
100.280671716

Block: 7
======================================
99.8263710737
99.8098510504
100.280671716
99.7974610329
100.714322329
100.264151692
99.8098510504
100.264151692
100.260021687
99.8305010796
100.297191739
99.7768110037
100.27654171
100.297191739
99.8139810562
100.730842352
100.313711762
99.8470211029
99.8098510504
100.280671716
99.8139810562
100.280671716
100.297191739
99.8098510504
100.264151692
99.8305010796
100.714322329
100.730842352
99.793331027
99.8305010796
100.27654171
100.710192323
99.8098510504
100.27654171
100.280671716
100.264151692
100.280671716
100.264151692
99.8263710737
99.8263710737
100.710192323
99.8470211029
99.7974610329
99.8305010796
100.730842352
100.677152276
99.8305010796
99.4298905134
100.280671716
99.793331027
100.280671716
99.8305010796
99.8263710737
99.8139810562
99.8139810562
99.7974610329
100.280671716
100.280671716
99.3803304434
100.243501663
100.260021687
100.280671716
100.297191739
99.3803304434
99.3803304434
100.297191739
99.8139810562
99.7974610329
100.264151692
99.8139810562
99.8098510504
101.581623554
100.27654171
99.8098510504
99.3968504667
100.264151692
100.264151692
99.3968504667
99.3968504667
99.793331027
99.8841911554
99.8139810562
99.3472903967
99.8139810562
99.8098510504
99.3968504667
100.260021687
99.3968504667
99.3968504667
100.280671716
99.8470211029
99.793331027
99.8098510504
99.8098510504
99.8305010796
100.693672299
99.793331027
100.730842352
100.264151692
100.280671716

Block: 8
======================================
99.8841911554
99.8139810562
99.8098510504
100.297191739
99.8676711321
99.3803304434
99.8139810562
99.8635411263
99.793331027
100.280671716
100.280671716
100.297191739
99.3762004375
100.260021687
99.4133704901
99.8098510504
99.8139810562
100.297191739
99.793331027
100.297191739
100.27654171
99.8676711321
99.8139810562
99.8098510504
99.4133704901
99.8098510504
99.8139810562
100.297191739
100.297191739
99.8635411263
99.8263710737
99.8470211029
100.297191739
100.27654171
99.7974610329
99.8139810562
100.280671716
100.297191739
100.297191739
100.297191739
99.8098510504
99.3803304434
100.330231786
99.4133704901
100.280671716
99.8139810562
100.280671716
100.280671716
99.8098510504
99.36381042
100.280671716
99.8139810562
100.714322329
99.8139810562
101.581623554
99.8470211029
99.793331027
100.297191739
99.8139810562
99.8470211029
99.8305010796
99.3762004375
100.264151692
99.8098510504
100.280671716
100.280671716
100.264151692
100.297191739
99.8263710737
99.8635411263
99.8263710737
100.280671716
100.247631669
100.280671716
100.280671716
99.3803304434
99.3596804142
99.4133704901
100.297191739
99.793331027
99.3968504667
100.297191739
100.297191739
99.8139810562
100.280671716
100.280671716
100.313711762
99.8139810562
99.8098510504
100.297191739
99.8098510504
100.264151692
100.297191739
99.7974610329
100.280671716
99.7974610329
100.264151692
100.280671716
100.313711762
99.7974610329

Block: 9
======================================
99.8676711321
99.8305010796
100.297191739
100.280671716
100.280671716
100.297191739
100.297191739
100.297191739
99.8098510504
100.280671716
101.094282866
100.297191739
100.297191739
99.8139810562
100.280671716
100.280671716
99.8098510504
99.8470211029
99.8139810562
100.697802305
99.8470211029
99.8139810562
100.710192323
99.8098510504
100.730842352
100.280671716
99.793331027
99.3596804142
99.8098510504
99.8139810562
100.280671716
99.3968504667
100.297191739
100.280671716
100.313711762
99.8470211029
99.8470211029
99.7974610329
99.8139810562
99.3803304434
99.7768110037
99.3968504667
100.297191739
100.280671716
100.260021687
100.280671716
100.297191739
100.297191739
100.280671716
99.8263710737
99.8470211029
99.8098510504
99.8263710737
100.280671716
100.280671716
99.3803304434
99.3803304434
101.581623554
100.243501663
100.280671716
99.1697001457
99.4133704901
100.313711762
100.714322329
99.8305010796
99.8098510504
99.8139810562
100.264151692
100.280671716
99.3803304434
99.3968504667
100.280671716
100.297191739
100.260021687
99.8098510504
99.8470211029
99.8305010796
99.8470211029
100.313711762
99.8305010796
99.8470211029
100.264151692
100.297191739
99.8263710737
99.3803304434
99.4133704901
99.8305010796
100.297191739
99.8305010796
100.27654171
100.313711762
99.8098510504
99.793331027
99.8305010796
99.8098510504
99.8263710737
99.3803304434
100.27654171
100.297191739
99.8470211029

Block: 10
======================================
99.8635411263
99.8470211029
100.297191739
99.8263710737
100.697802305
99.3803304434
100.27654171
99.3762004375
99.3803304434
100.297191739
100.264151692
100.280671716
99.793331027
99.8098510504
100.280671716
99.4133704901
99.8139810562
99.8305010796
100.714322329
100.280671716
100.297191739
100.297191739
99.8470211029
100.714322329
100.260021687
100.317841768
99.8139810562
100.297191739
99.8263710737
99.8470211029
99.8305010796
100.280671716
99.4298905134
99.8139810562
99.793331027
99.7974610329
99.8305010796
99.793331027
99.8139810562
99.8098510504
99.8470211029
99.8098510504
99.8139810562
99.8305010796
99.8470211029
100.280671716
99.8139810562
99.8139810562
99.793331027
99.7974610329
99.8098510504
99.8139810562
99.3968504667
99.8305010796
99.4133704901
100.27654171
99.7768110037
100.313711762
99.8139810562
99.8263710737
99.8305010796
100.297191739
100.280671716
100.297191739
99.8098510504
100.280671716
100.297191739
99.4298905134
101.110802889
99.8305010796
100.313711762
99.793331027
99.8139810562
99.8263710737
101.110802889
100.297191739
99.8305010796
100.27654171
99.7768110037
100.367401838
100.264151692
99.8139810562
100.280671716
99.8263710737
100.297191739
99.793331027
99.793331027
100.297191739
99.7974610329
99.8305010796
100.297191739
99.793331027
99.7768110037
100.297191739
100.27654171
99.793331027
99.8305010796
100.714322329
100.280671716
99.793331027
