
Block: 1
======================================
99.8470211029
99.8305010796
99.8635411263
99.8139810562
99.8305010796
99.8470211029
100.260021687
100.280671716
100.264151692
100.280671716
99.8635411263
99.8470211029
99.8305010796
100.747362375
99.8139810562
99.8305010796
99.7974610329
99.8139810562
99.4835805893
99.8305010796
100.280671716
100.280671716
99.3803304434
99.8305010796
99.8305010796
100.747362375
100.730842352
100.747362375
100.730842352
99.3803304434
99.7974610329
100.280671716
99.7974610329
100.280671716
100.747362375
100.280671716
100.297191739
99.793331027
99.8635411263
100.27654171
99.8470211029
100.280671716
100.264151692
100.297191739
100.297191739
100.280671716
99.8470211029
99.3762004375
100.710192323
99.8635411263

Block: 2
======================================
99.8139810562
100.260021687
99.8470211029
100.297191739
99.3803304434
99.8139810562
100.280671716
100.280671716
99.36381042
100.260021687
99.3968504667
99.8635411263
99.3968504667
99.3968504667
100.264151692
100.747362375
100.763882399
100.280671716
100.297191739
99.8139810562
99.793331027
99.793331027
99.8470211029
100.730842352
100.247631669
100.747362375
100.280671716
100.264151692
99.3968504667
99.8470211029
100.714322329
99.3927204609
101.164492965
100.313711762
99.8305010796
99.8470211029
99.3803304434
100.297191739
100.280671716
99.8635411263
100.264151692
100.280671716
100.297191739
99.8305010796
99.8098510504
99.8098510504
100.280671716
100.264151692
99.793331027
100.313711762

Block: 3
======================================
99.8305010796
99.8098510504
99.8841911554
99.8305010796
99.8305010796
99.8635411263
100.280671716
99.8635411263
99.8470211029
99.8635411263
99.3803304434
99.8139810562
99.8470211029
100.280671716
99.8139810562
99.8305010796
100.297191739
100.264151692
100.297191739
99.8305010796
101.160362959
99.8139810562
100.260021687
99.8635411263
100.280671716
99.7768110037
99.3762004375
99.8305010796
99.8305010796
100.730842352
100.264151692
100.297191739
99.3803304434
100.747362375
99.8470211029
99.8098510504
100.730842352
100.264151692
99.8098510504
99.793331027
99.8139810562
100.280671716
100.747362375
100.260021687
99.3803304434
100.730842352
100.747362375
100.280671716
101.147972941
99.4133704901

Block: 4
======================================
99.7974610329
100.280671716
100.747362375
100.264151692
100.264151692
100.264151692
100.260021687
100.280671716
100.297191739
101.577493548
100.280671716
100.751492381
100.280671716
100.243501663
99.8428910971
100.280671716
100.297191739
100.301321745
100.264151692
100.297191739
100.280671716
100.260021687
100.22698164
99.8676711321
99.8470211029
99.8800611496
100.280671716
100.726712346
100.747362375
100.710192323
100.280671716
100.27654171
99.7974610329
99.8676711321
100.747362375
100.768012404
100.243501663
99.3968504667
99.3596804142
99.8635411263
100.726712346
100.280671716
100.297191739
101.160362959
99.8263710737
100.280671716
100.730842352
99.8305010796
99.8676711321
100.747362375

Block: 5
======================================
100.297191739
100.280671716
99.8841911554
100.334361792
99.8305010796
99.8841911554
100.747362375
99.8676711321
99.8470211029
100.297191739
99.793331027
100.264151692
100.260021687
99.3803304434
99.8635411263
100.297191739
99.8098510504
99.7809410095
99.8263710737
99.7974610329
101.594013572
100.297191739
100.260021687
80.6507539749
69.9664288759
99.3968504667
100.264151692
100.280671716
100.280671716
99.8305010796
99.9007111788
99.36381042
99.8470211029
99.8470211029
100.714322329
99.8470211029
99.8470211029
99.8470211029
99.3803304434
100.280671716
99.3762004375
100.264151692
100.710192323
99.8470211029
99.8470211029
100.730842352
100.313711762
100.747362375
99.8635411263
100.280671716

Block: 6
======================================
99.8098510504
99.793331027
100.730842352
100.297191739
99.8098510504
99.8635411263
100.260021687
99.3803304434
100.747362375
100.280671716
99.3803304434
99.8635411263
99.8305010796
99.8263710737
100.260021687
99.36381042
100.280671716
100.730842352
100.247631669
100.280671716
100.313711762
100.297191739
100.264151692
100.260021687
99.8305010796
99.3803304434
99.3596804142
99.8305010796
99.8470211029
100.747362375
99.8305010796
100.243501663
99.7768110037
100.730842352
100.747362375
99.3803304434
99.8470211029
99.8635411263
100.730842352
99.36381042
99.3803304434
99.8635411263
100.280671716
99.7768110037
99.8098510504
100.297191739
99.8139810562
99.8470211029
100.260021687
99.8470211029

Block: 7
======================================
99.8139810562
100.27654171
100.730842352
100.243501663
99.4133704901
100.280671716
99.8305010796
100.297191739
99.8139810562
99.8263710737
99.7809410095
101.147972941
101.214053035
100.280671716
100.280671716
99.6198707819
99.8305010796
100.747362375
100.264151692
99.8470211029
99.8470211029
100.730842352
99.8305010796
99.8098510504
99.8263710737
99.8098510504
100.280671716
100.27654171
100.264151692
100.264151692
99.8635411263
99.8263710737
99.3803304434
99.3803304434
99.3803304434
100.710192323
100.297191739
100.730842352
99.8635411263
99.8635411263
99.3968504667
99.8635411263
99.8470211029
100.763882399
100.747362375
100.730842352
99.3968504667
100.710192323
100.297191739
99.4340205193

Block: 8
======================================
100.297191739
100.297191739
99.8139810562
100.751492381
99.4175004959
99.8305010796
100.726712346
100.710192323
100.730842352
100.280671716
99.8139810562
100.710192323
99.8635411263
100.260021687
99.8635411263
100.297191739
100.710192323
100.763882399
100.730842352
99.3803304434
99.7768110037
100.730842352
100.730842352
100.264151692
100.730842352
100.280671716
100.264151692
100.726712346
100.280671716
100.280671716
100.297191739
100.280671716
100.243501663
99.8800611496
100.751492381
99.8635411263
100.747362375
100.243501663
100.313711762
100.27654171
100.710192323
99.8305010796
100.780402422
100.264151692
100.280671716
100.27654171
100.763882399
100.714322329
100.747362375
100.730842352

Block: 9
======================================
100.27654171
99.8635411263
100.747362375
99.8305010796
100.260021687
99.3803304434
99.7974610329
99.8800611496
100.297191739
99.793331027
101.164492965
100.280671716
100.260021687
100.747362375
99.8139810562
99.8635411263
100.730842352
100.730842352
100.747362375
99.8305010796
99.8470211029
100.730842352
100.726712346
100.264151692
100.747362375
100.730842352
100.730842352
99.8635411263
100.280671716
101.181012988
100.264151692
99.8305010796
100.297191739
100.730842352
100.730842352
100.260021687
99.8098510504
100.280671716
100.264151692
100.27654171
100.280671716
99.8470211029
100.280671716
100.747362375
100.280671716
100.747362375
100.710192323
100.747362375
99.8470211029
99.8098510504

Block: 10
======================================
99.7974610329
100.243501663
100.747362375
99.8635411263
100.247631669
99.8800611496
100.763882399
99.8635411263
100.27654171
100.280671716
100.264151692
100.280671716
99.8635411263
99.8305010796
99.8635411263
100.280671716
100.264151692
101.143842936
100.280671716
100.313711762
100.747362375
100.264151692
99.8098510504
100.747362375
100.27654171
99.8305010796
100.280671716
99.8841911554
100.280671716
100.264151692
100.27654171
99.3927204609
100.264151692
100.747362375
100.27654171
100.280671716
100.747362375
100.280671716
99.7974610329
100.730842352
99.4133704901
100.297191739
100.247631669
100.313711762
99.8098510504
99.8263710737
100.280671716
99.7974610329
101.181012988
100.280671716
