
Block: 1
======================================
50.3867725611
50.4073503494
50.4361592531
50.3703103304
50.4238125801
50.4402748108
50.4238125801
50.4567370415
50.3867725611
50.4238125801
50.4032347918
50.4032347918
50.4196970224
50.4361592531
50.4402748108
50.4032347918
50.4238125801
50.4196970224
50.4196970224
50.4238125801
50.4032347918
50.3867725611
50.4567370415
50.4567370415
50.1809946775
50.4032347918
50.4361592531
50.4361592531
50.4567370415
50.4073503494
50.4402748108
50.4361592531
50.4032347918
50.4238125801
50.3908881187
50.8394839048
50.4032347918
50.4032347918
50.4402748108
50.4402748108
50.4196970224
50.4238125801
50.4402748108
50.4238125801
50.4073503494
50.4238125801
50.4238125801
50.4402748108
50.4196970224
50.4238125801
50.4032347918
50.4238125801
50.4196970224
50.4361592531
50.4073503494
50.4032347918
50.4032347918
50.4032347918
50.4196970224
50.4073503494
50.4032347918
50.4238125801
50.4073503494
50.4032347918
50.4238125801
50.4196970224
50.4196970224
49.987563467
50.4032347918
50.4032347918
50.8189061165
50.8024438858
50.4567370415
50.4238125801
50.4361592531

Average distance is : 50.427 cm
Average deviation is : 0.100 cm
Block: 2
======================================
50.4073503494
50.4196970224
50.4032347918
50.4196970224
50.4196970224
50.4073503494
50.4032347918
50.4402748108
50.4238125801
50.4238125801
50.4073503494
50.4238125801
50.3908881187
50.4402748108
50.4196970224
50.4238125801
50.4196970224
50.4196970224
50.4196970224
50.4073503494
50.3867725611
50.4238125801
50.8189061165
50.4402748108
50.4196970224
50.4196970224
50.4402748108
50.4402748108
50.4402748108
50.4238125801
50.4238125801
50.4073503494
50.4567370415
50.3703103304
50.4032347918
50.4402748108
50.4196970224
50.4402748108
50.4238125801
50.4238125801
50.4196970224
50.4196970224
50.4402748108
50.4238125801
50.4238125801
50.4402748108
50.4238125801
50.4402748108
50.4402748108
50.4238125801
50.4731992722
50.4402748108
50.4032347918
50.3867725611
50.8353683472
50.8024438858
50.7983283281
50.4402748108
50.4032347918
50.4032347918
50.8024438858
50.4402748108
50.4073503494
50.4238125801
50.4073503494
50.4238125801
50.4238125801
50.4032347918
50.4073503494
50.4238125801
50.4402748108
50.4032347918
50.4402748108
50.4238125801
50.4238125801

Average distance is : 50.448 cm
Average deviation is : 0.099 cm
Block: 3
======================================
50.4402748108
50.3867725611
50.4526214838
50.4567370415
50.4196970224
50.4402748108
50.4032347918
50.4032347918
50.4196970224
50.4032347918
50.4032347918
50.4073503494
50.8024438858
50.8189061165
50.4196970224
50.4238125801
50.4238125801
50.4196970224
50.4032347918
50.8518305779
50.8724083662
50.8888705969
50.8394839048
50.4238125801
50.4032347918
50.4032347918
50.4238125801
50.4402748108
50.8024438858
50.4402748108
50.4402748108
50.8353683472
50.8189061165
50.4402748108
50.4032347918
50.4032347918
50.4196970224
50.3867725611
50.4402748108
50.4402748108
50.4402748108
50.4032347918
50.3908881187
50.4238125801
50.3867725611
50.4567370415
50.4196970224
50.4032347918
50.4238125801
50.4402748108
50.4361592531
50.4196970224
50.4402748108
50.4073503494
50.4073503494
50.4238125801
50.4402748108
50.4196970224
50.4402748108
50.4361592531
50.3867725611
50.4032347918
50.4032347918
50.2674213886
50.4073503494
50.4073503494
50.4073503494
50.4073503494
50.4238125801
50.3867725611
50.4238125801
50.4402748108
50.4402748108
50.4073503494
50.3867725611

Average distance is : 50.467 cm
Average deviation is : 0.140 cm
Block: 4
======================================
50.4402748108
50.4032347918
50.4402748108
50.4196970224
50.4196970224
50.4073503494
50.4032347918
50.4032347918
50.4196970224
50.4402748108
50.4032347918
50.4402748108
50.4073503494
50.4402748108
50.3908881187
50.4402748108
50.4402748108
50.4073503494
50.4032347918
50.4073503494
50.4238125801
50.4238125801
50.4238125801
50.4238125801
50.4032347918
50.4361592531
50.4402748108
50.4402748108
50.4196970224
50.4032347918
50.4567370415
50.4567370415
50.4238125801
50.4073503494
50.3867725611
50.3867725611
50.4196970224
50.4402748108
50.4238125801
50.4073503494
50.4402748108
50.4196970224
50.4032347918
50.4238125801
50.4073503494
50.3703103304
50.4196970224
50.4073503494
50.4238125801
50.4196970224
50.4402748108
50.4196970224
50.4402748108
50.4196970224
50.4402748108
50.4361592531
50.4238125801
50.4567370415
50.4196970224
50.4032347918
50.4238125801
50.4238125801
50.4073503494
50.4361592531
50.4238125801
50.4032347918
50.4238125801
50.4567370415
50.4073503494
50.4032347918
50.4238125801
50.4032347918
50.4402748108
50.4567370415
50.4032347918

Average distance is : 50.421 cm
Average deviation is : 0.018 cm
Block: 5
======================================
50.4196970224
50.4402748108
50.4238125801
50.4402748108
50.4196970224
50.4196970224
50.4238125801
50.4361592531
50.4402748108
50.4238125801
50.4196970224
50.4032347918
50.4238125801
50.4238125801
50.4196970224
50.4402748108
50.4402748108
50.4238125801
50.4032347918
50.4238125801
50.4032347918
50.4073503494
50.4567370415
50.4032347918
50.4567370415
50.4032347918
50.4196970224
50.4196970224
50.4196970224
50.4073503494
50.4196970224
50.4196970224
50.4402748108
49.6953588724
50.4402748108
50.4032347918
50.4361592531
50.4032347918
50.4073503494
50.3867725611
50.4402748108
50.4196970224
50.4238125801
50.3867725611
50.4032347918
50.4402748108
50.4196970224
50.4361592531
50.4238125801
50.4402748108
50.4402748108
50.4567370415
50.4032347918
50.4361592531
50.4567370415
50.4402748108
50.3908881187
50.4073503494
50.4032347918
50.4238125801
50.4402748108
50.4196970224
50.4196970224
50.3867725611
50.4361592531
50.4196970224
50.4402748108
50.4567370415
50.4402748108
50.4238125801
50.4238125801
50.4567370415
50.4073503494
50.4196970224
50.4032347918

Average distance is : 50.414 cm
Average deviation is : 0.086 cm
Block: 6
======================================
50.4238125801
50.3867725611
50.4032347918
50.4196970224
50.4032347918
50.4032347918
50.4238125801
50.4032347918
50.3867725611
50.4238125801
50.4238125801
50.4073503494
50.4032347918
50.4402748108
50.4402748108
50.4402748108
51.3004263639
50.4567370415
50.4402748108
50.8189061165
50.8189061165
50.8189061165
50.4073503494
50.4196970224
50.4032347918
50.4402748108
50.4238125801
50.4567370415
50.4238125801
50.4402748108
50.4032347918
50.4196970224
50.4032347918
50.4073503494
50.4238125801
50.4073503494
50.3867725611
50.4196970224
50.4402748108
50.4402748108
50.4402748108
50.4402748108
50.4032347918
50.4402748108
50.4032347918
50.4073503494
50.4567370415
50.4196970224
50.4567370415
50.4238125801
50.4032347918
50.4402748108
50.4567370415
50.4032347918
50.3867725611
50.4032347918
50.4032347918
50.4032347918
50.4073503494
49.8846745253
50.3867725611
50.4238125801
50.3908881187
50.4032347918
50.4402748108
50.4032347918
50.4402748108
50.4196970224
50.4238125801
50.4196970224
50.4567370415
50.4402748108
50.4567370415
50.4361592531
50.4196970224

Average distance is : 50.441 cm
Average deviation is : 0.144 cm
Block: 7
======================================
50.4238125801
50.4196970224
50.4196970224
50.4567370415
50.3867725611
50.4402748108
50.4196970224
50.4032347918
50.4361592531
50.4032347918
50.4402748108
50.4402748108
50.4238125801
50.4196970224
50.4196970224
50.4196970224
50.3867725611
50.4402748108
50.4238125801
50.4032347918
50.4402748108
50.4567370415
50.4238125801
50.4238125801
50.4196970224
50.4361592531
50.4196970224
50.4238125801
50.4032347918
50.4402748108
50.4032347918
50.4361592531
50.4567370415
50.4196970224
50.4032347918
50.4073503494
50.4032347918
50.4238125801
50.8353683472
50.4073503494
50.4073503494
50.4032347918
50.4196970224
50.4402748108
50.4196970224
50.4032347918
50.4196970224
50.4032347918
50.4238125801
50.4032347918
50.4238125801
50.4361592531
50.3867725611
50.4196970224
50.4567370415
50.4238125801
50.4402748108
50.4361592531
50.4073503494
50.4073503494
50.4238125801
50.4238125801
50.4196970224
50.4402748108
50.4196970224
50.4402748108
50.4402748108
50.4032347918
50.4567370415
50.4196970224
50.4238125801
50.4196970224
50.4238125801
50.4196970224
50.4196970224

Average distance is : 50.428 cm
Average deviation is : 0.050 cm
Block: 8
======================================
50.4238125801
50.4238125801
50.4361592531
50.3908881187
50.4032347918
50.4032347918
50.4402748108
50.4567370415
50.4032347918
50.4073503494
50.4196970224
50.4402748108
50.4402748108
50.4402748108
50.4402748108
50.4073503494
50.3867725611
50.4402748108
50.4196970224
50.4196970224
50.4073503494
50.4196970224
50.4402748108
50.4032347918
50.4567370415
50.4073503494
50.4238125801
50.4402748108
50.4361592531
50.4567370415
50.4402748108
50.4238125801
50.4196970224
50.3867725611
50.4032347918
50.4073503494
50.3867725611
50.4361592531
50.4402748108
50.4073503494
50.4196970224
50.4361592531
50.4196970224
50.4238125801
50.3867725611
50.4402748108
50.4526214838
50.3867725611
50.4196970224
50.4567370415
50.5061237335
50.4361592531
50.4402748108
50.4402748108
50.4361592531
50.4402748108
50.4402748108
50.4032347918
50.3867725611
50.4238125801
50.3867725611
50.4032347918
50.3867725611
50.4238125801
50.4032347918
50.4238125801
50.4032347918
50.4402748108
50.4402748108
50.4196970224
50.4402748108
50.4567370415
50.3867725611
50.4196970224
50.4238125801

Average distance is : 50.423 cm
Average deviation is : 0.023 cm
Block: 9
======================================
50.4196970224
50.4567370415
50.4238125801
50.4402748108
50.4073503494
50.4567370415
50.4238125801
50.4196970224
50.4073503494
50.4032347918
50.4238125801
50.4196970224
50.4238125801
50.4238125801
50.4196970224
50.4402748108
50.4196970224
50.4196970224
50.4238125801
50.3867725611
50.4196970224
50.0781057358
50.4402748108
50.4032347918
50.4361592531
50.4567370415
50.4361592531
50.4567370415
50.4402748108
50.4196970224
50.4402748108
50.4402748108
50.4361592531
50.4073503494
50.4238125801
50.4402748108
50.4402748108
50.4196970224
50.4196970224
50.4402748108
50.4402748108
50.4567370415
50.4402748108
50.4402748108
50.4196970224
50.4238125801
50.4196970224
50.4032347918
50.4567370415
50.4238125801
50.4073503494
50.4196970224
50.4032347918
50.4073503494
50.4032347918
50.4238125801
50.4402748108
50.4032347918
50.4402748108
50.4402748108
50.4073503494
50.4402748108
50.4196970224
50.4402748108
50.4238125801
50.4196970224
50.4238125801
50.4731992722
50.4196970224
50.4361592531
50.3867725611
50.4567370415
50.4196970224
50.4361592531
50.8024438858

Average distance is : 50.428 cm
Average deviation is : 0.062 cm
Block: 10
======================================
50.4032347918
50.4238125801
50.3867725611
50.3908881187
50.4238125801
50.4402748108
50.4032347918
50.4073503494
50.4361592531
50.4402748108
50.4567370415
50.4073503494
50.4196970224
50.3867725611
50.4238125801
50.4196970224
50.4238125801
50.4196970224
50.4238125801
50.4361592531
50.4402748108
50.4196970224
50.4402748108
50.4073503494
50.4402748108
50.4032347918
50.4196970224
50.4238125801
50.3867725611
50.4402748108
50.4361592531
50.4196970224
50.4238125801
50.3867725611
50.4402748108
50.4238125801
50.4567370415
50.4402748108
50.4032347918
50.4402748108
50.4361592531
50.4567370415
50.4196970224
50.4073503494
50.4402748108
50.4238125801
50.4402748108
50.4361592531
50.4196970224
50.4073503494
50.3908881187
50.4196970224
50.3867725611
50.4073503494
50.4567370415
50.4073503494
50.4731992722
50.4073503494
50.4032347918
50.4567370415
50.4238125801
50.4402748108
50.4196970224
50.4238125801
50.4032347918
50.4361592531
50.4073503494
50.4238125801
50.4402748108
50.4032347918
50.4032347918
50.4073503494
50.4567370415
50.3867725611
50.4196970224

Average distance is : 50.422 cm
Average deviation is : 0.020 cm