
Block: 1
======================================
50.8024438858
50.8682928085
50.9053328276
50.8888705969
50.8847550392
50.9217950583
50.8888705969
50.8353683472
50.8024438858
50.8518305779
50.8559461355
50.4567370415
50.9053328276
50.8724083662
50.8888705969
50.8888705969
50.8888705969
50.8682928085
50.8888705969
50.8888705969
50.8682928085
50.8724083662
50.8682928085
50.8888705969
50.8724083662
50.9053328276
50.8518305779
50.9053328276
50.8559461355
50.8682928085
50.8189061165
50.8888705969
50.9217950583
50.9053328276
50.8353683472
50.8189061165
50.8559461355
50.8353683472
50.8189061165
50.8518305779
50.8888705969
50.8888705969
50.9053328276
50.8888705969
50.8682928085
50.4731992722
50.8888705969
50.8559461355
50.8518305779
50.8189061165

Average distance is : 50.854 cm
Average deviation is : 0.085 cm
Block: 2
======================================
50.4402748108
50.3867725611
50.4196970224
50.3703103304
50.4073503494
50.8189061165
50.8189061165
50.4073503494
50.4238125801
50.8189061165
50.8189061165
50.8353683472
50.8394839048
50.3867725611
50.4196970224
50.4402748108
50.8353683472
50.8559461355
50.4196970224
50.3867725611
50.4032347918
50.4196970224
50.8189061165
50.8559461355
50.4073503494
50.8353683472
50.8559461355
50.4567370415
50.8394839048
50.8189061165
50.8189061165
50.8353683472
50.4238125801
50.8724083662
50.4526214838
50.4196970224
50.8559461355
50.2303813696
50.8353683472
50.8353683472
50.8559461355
50.8189061165
50.8353683472
50.8518305779
50.8394839048
50.6295904636
50.8189061165
50.8353683472
50.8518305779
50.7818660975

Average distance is : 50.659 cm
Average deviation is : 0.213 cm
Block: 3
======================================
50.4196970224
50.4402748108
50.4073503494
50.4238125801
50.4238125801
50.8024438858
50.8353683472
50.8024438858
50.8559461355
50.8518305779
50.8024438858
50.8518305779
50.8724083662
50.8189061165
50.8518305779
50.8394839048
50.8353683472
50.8518305779
50.4073503494
50.8888705969
50.8888705969
50.8394839048
50.8518305779
50.8353683472
50.8559461355
50.8394839048
50.4196970224
50.4196970224
50.8724083662
50.8189061165
50.8394839048
50.8888705969
50.8024438858
50.8024438858
50.8353683472
50.8189061165
50.3867725611
50.4196970224
50.4567370415
50.8189061165
50.4238125801
50.3867725611
50.3867725611
50.4032347918
50.4238125801
50.8353683472
50.8189061165
50.8518305779
50.4032347918
50.8353683472

Average distance is : 50.695 cm
Average deviation is : 0.205 cm
Block: 4
======================================
50.4196970224
50.4073503494
50.4567370415
50.5225859642
50.4196970224
50.4238125801
50.4196970224
50.4238125801
50.9094483852
50.4238125801
50.8189061165
50.8888705969
50.4196970224
50.4526214838
50.8353683472
50.8353683472
50.4032347918
50.9053328276
50.8189061165
50.4238125801
50.8353683472
50.8189061165
50.7983283281
50.8189061165
50.7983283281
50.8353683472
50.8394839048
49.8887900829
50.8518305779
50.8024438858
50.8559461355
50.8559461355
50.8189061165
50.8353683472
50.4238125801
50.8353683472
50.8559461355
50.7859816551
50.8189061165
50.8189061165
50.4238125801
50.4567370415
50.8559461355
50.8189061165
50.8724083662
50.8189061165
50.4196970224
50.8353683472
50.8559461355
50.7983283281

Average distance is : 50.680 cm
Average deviation is : 0.225 cm
Block: 5
======================================
50.4032347918
50.4567370415
50.4032347918
50.4238125801
50.4238125801
50.4238125801
50.4073503494
50.4196970224
50.4567370415
50.4032347918
50.4402748108
50.4073503494
50.4196970224
50.8559461355
50.4032347918
50.4567370415
50.4567370415
50.4196970224
50.4073503494
50.4238125801
50.4196970224
50.4196970224
50.4032347918
50.8518305779
50.4402748108
50.4238125801
50.4361592531
50.4567370415
50.8518305779
50.4238125801
50.4402748108
50.8189061165
50.8559461355
50.8024438858
50.4032347918
50.8353683472
50.4402748108
50.8024438858
50.8189061165
50.8189061165
50.8353683472
50.4402748108
50.3867725611
50.8724083662
50.4402748108
50.4567370415
50.4402748108
50.8353683472
50.4196970224
50.8189061165

Average distance is : 50.540 cm
Average deviation is : 0.186 cm
Block: 6
======================================
50.4073503494
50.4567370415
50.4032347918
50.3867725611
50.4073503494
50.7983283281
50.8189061165
50.8559461355
50.3867725611
50.8518305779
50.4032347918
50.8024438858
50.8189061165
50.7983283281
50.8559461355
50.8518305779
50.8353683472
50.4032347918
50.4032347918
50.3867725611
50.7983283281
50.4196970224
50.4196970224
50.4073503494
50.4032347918
50.4238125801
50.4196970224
50.4032347918
50.4032347918
50.4402748108
50.4073503494
50.4073503494
50.4032347918
50.4238125801
50.4032347918
50.4032347918
50.4402748108
50.4073503494
50.4567370415
50.8353683472
50.8189061165
50.4361592531
50.8888705969
50.4402748108
50.4238125801
50.3867725611
50.4361592531
50.3867725611
50.4402748108
50.8189061165

Average distance is : 50.539 cm
Average deviation is : 0.194 cm
Block: 7
======================================
50.4238125801
50.4567370415
50.4361592531
50.4196970224
50.3867725611
50.4238125801
50.8353683472
50.8353683472
50.8559461355
50.8394839048
50.4402748108
50.4238125801
50.4196970224
50.4196970224
50.3908881187
50.4032347918
50.4032347918
50.4032347918
50.8189061165
50.8189061165
50.8724083662
50.8189061165
50.4032347918
50.8189061165
50.8353683472
50.8189061165
50.8024438858
50.8518305779
50.4402748108
50.8518305779
50.4032347918
50.4402748108
50.8353683472
50.4402748108
50.4073503494
50.4073503494
50.8024438858
50.8189061165
50.8559461355
50.8189061165
50.8724083662
50.4361592531
50.4238125801
50.4196970224
50.4032347918
50.4032347918
50.4238125801
50.4196970224
50.4567370415
50.8353683472

Average distance is : 50.594 cm
Average deviation is : 0.207 cm
Block: 8
======================================
50.4402748108
50.4073503494
50.4361592531
50.4196970224
50.4196970224
50.3908881187
50.4196970224
50.3867725611
50.3908881187
50.4567370415
50.4032347918
50.4238125801
50.4402748108
50.8682928085
50.8353683472
50.7859816551
50.8888705969
50.8189061165
50.4238125801
50.4032347918
50.4361592531
50.4032347918
50.4402748108
50.4238125801
50.4032347918
50.4073503494
50.3867725611
50.3867725611
50.4361592531
50.4032347918
50.4196970224
50.4402748108
50.4032347918
50.4196970224
50.4073503494
50.4402748108
50.4567370415
50.4073503494
50.4361592531
50.4196970224
50.4073503494
50.4032347918
50.4032347918
50.8189061165
50.4073503494
50.4402748108
50.4032347918
50.4032347918
50.4196970224
50.4361592531

Average distance is : 50.468 cm
Average deviation is : 0.139 cm
Block: 9
======================================
50.4196970224
50.4402748108
50.4402748108
50.4073503494
50.4402748108
50.4402748108
50.4567370415
50.4073503494
50.4238125801
50.4196970224
50.4238125801
50.4238125801
50.7983283281
50.8024438858
50.4238125801
50.4073503494
50.4196970224
50.4402748108
50.4361592531
50.4073503494
50.4402748108
50.4073503494
50.4032347918
50.4196970224
50.4073503494
50.4073503494
50.8353683472
50.4032347918
50.4567370415
51.2675019026
50.4238125801
50.4567370415
50.3867725611
50.4238125801
50.4238125801
50.4032347918
50.4196970224
50.4032347918
50.3867725611
50.4196970224
50.4196970224
50.4402748108
50.3867725611
50.3867725611
50.4032347918
50.4196970224
50.3867725611
50.4238125801
50.4032347918
50.4238125801

Average distance is : 50.459 cm
Average deviation is : 0.151 cm
Block: 10
======================================
50.4032347918
50.4032347918
50.3908881187
50.4196970224
50.8394839048
50.4196970224
50.8024438858
50.4032347918
50.8559461355
50.8353683472
50.4032347918
50.4032347918
50.4238125801
50.4032347918
50.8024438858
50.4567370415
50.7983283281
50.8353683472
50.4361592531
50.4196970224
50.4238125801
50.4238125801
50.4238125801
50.4073503494
50.4032347918
50.8189061165
50.8353683472
50.7983283281
50.8024438858
50.8189061165
50.4196970224
50.8024438858
50.8518305779
50.8189061165
50.4032347918
50.4402748108
50.4567370415
50.4402748108
50.4196970224
50.4032347918
50.8353683472
50.4032347918
50.4238125801
50.4073503494
50.4402748108
50.4238125801
50.4361592531
50.4238125801
50.4402748108
50.8189061165

Average distance is : 50.556 cm
Average deviation is : 0.193 cm