
Block: 1
======================================
100.768012404
100.363271832
101.214053035
100.350881815
100.768012404
100.763882399
101.181012988
101.230573058
100.763882399
101.214053035
100.747362375
101.234703064
100.383921862
101.234703064
101.218183041
101.214053035
100.400441885
101.218183041
100.400441885
101.214053035
100.404571891
100.367401838
100.350881815
100.404571891
100.383921862

Average distance is : 100.792 cm
Average deviation is : 0.382 cm
Block: 2
======================================
100.780402422
100.768012404
100.801052451
101.994624138
100.768012404
100.747362375
100.763882399
100.780402422
100.383921862
101.251223087
100.383921862
100.367401838
100.796922445
100.817572474
100.383921862
100.367401838
100.383921862
100.367401838
100.383921862
100.383921862
100.383921862
100.367401838
100.367401838
100.400441885
100.367401838

Average distance is : 100.622 cm
Average deviation is : 0.373 cm
Block: 3
======================================
100.747362375
100.416961908
100.784532428
100.404571891
100.768012404
100.730842352
100.367401838
100.363271832
100.416961908
100.400441885
101.218183041
100.400441885
100.363271832
100.400441885
100.400441885
100.383921862
100.383921862
100.421091914
100.363271832
100.400441885
100.400441885
100.367401838
100.383921862
101.251223087
100.383921862

Average distance is : 100.517 cm
Average deviation is : 0.256 cm
Block: 4
======================================
100.763882399
100.780402422
101.214053035
100.416961908
101.267743111
101.230573058
100.367401838
101.230573058
101.234703064
101.234703064
101.214053035
101.234703064
101.164492965
101.214053035
101.234703064
101.197533011
100.763882399
101.251223087
100.763882399
100.763882399
100.780402422
100.763882399
100.763882399
101.181012988
100.747362375

Average distance is : 100.991 cm
Average deviation is : 0.284 cm
Block: 5
======================================
100.404571891
101.631183624
100.780402422
100.421091914
100.784532428
100.763882399
101.214053035
100.780402422
101.214053035
100.747362375
101.234703064
100.404571891
100.763882399
101.234703064
101.214053035
100.416961908
100.763882399
101.230573058
100.367401838
101.230573058
101.214053035
101.230573058
100.346751809
101.647703648
100.400441885

Average distance is : 100.898 cm
Average deviation is : 0.406 cm
Block: 6
======================================
100.747362375
100.747362375
100.784532428
100.383921862
100.730842352
100.747362375
100.768012404
100.784532428
100.747362375
101.234703064
100.383921862
100.367401838
101.218183041
101.230573058
101.247093081
101.214053035
100.747362375
100.400441885
101.247093081
100.383921862
100.747362375
100.763882399
100.383921862
100.367401838
100.404571891

Average distance is : 100.751 cm
Average deviation is : 0.321 cm
Block: 7
======================================
100.747362375
100.747362375
100.751492381
100.330231786
100.400441885
101.267743111
100.404571891
100.801052451
100.763882399
101.247093081
101.197533011
101.214053035
101.251223087
101.218183041
100.383921862
101.214053035
100.747362375
100.400441885
100.780402422
101.197533011
101.214053035
101.234703064
100.400441885
101.230573058
101.230573058

Average distance is : 100.895 cm
Average deviation is : 0.354 cm
Block: 8
======================================
100.747362375
101.197533011
100.763882399
100.367401838
100.763882399
100.817572474
101.234703064
100.363271832
100.383921862
100.383921862
100.400441885
100.363271832
100.383921862
100.400441885
100.400441885
100.367401838
100.383921862
100.383921862
100.383921862
100.400441885
100.363271832
100.400441885
100.400441885
100.817572474
100.383921862

Average distance is : 100.530 cm
Average deviation is : 0.262 cm
Block: 9
======================================
100.801052451
101.234703064
101.218183041
100.367401838
100.747362375
100.747362375
100.763882399
100.763882399
100.780402422
100.747362375
100.747362375
100.400441885
100.367401838
101.214053035
100.400441885
100.383921862
100.383921862
100.363271832
100.383921862
101.234703064
101.230573058
101.234703064
100.747362375
101.197533011
100.400441885

Average distance is : 100.754 cm
Average deviation is : 0.341 cm
Block: 10
======================================
100.801052451
101.230573058
100.784532428
100.350881815
100.400441885
101.230573058
100.210461617
100.796922445
100.367401838
101.234703064
101.218183041
100.367401838
101.234703064
101.218183041
101.214053035
101.247093081
101.181012988
100.747362375
100.780402422
100.763882399
100.780402422
100.383921862
101.234703064
101.230573058
101.214053035

Average distance is : 100.889 cm
Average deviation is : 0.367 cm
Average distance for 10x25 is : 100.761 cm
Average deviation for 10x25 is : 0.355 cm
 Percentage of values that failed: 0.000