
Block: 1
======================================
100.747362375
100.747362375
100.796922445
101.214053035
100.801052451
100.768012404
100.763882399
100.784532428
100.763882399
100.747362375
100.780402422
101.197533011
101.214053035
101.218183041
101.234703064
101.197533011
101.197533011
101.230573058
100.383921862
101.234703064
101.214053035
101.234703064
101.197533011
101.214053035
100.400441885
100.367401838
100.400441885
101.214053035
101.234703064
101.651833653
101.234703064
100.763882399
101.234703064
100.383921862
101.230573058
101.234703064
100.400441885
101.230573058
100.367401838
101.251223087
101.197533011
100.796922445
101.214053035
101.234703064
101.230573058
100.780402422
101.647703648
100.747362375
100.400441885
100.400441885
100.400441885
101.214053035
101.214053035
100.383921862
101.234703064
101.197533011
100.400441885
100.383921862
101.214053035
100.367401838
101.214053035
100.383921862
101.247093081
101.214053035
100.784532428
100.763882399
100.747362375
101.234703064
101.230573058
101.230573058
100.763882399
100.404571891
101.251223087
100.363271832
101.230573058

Average distance is : 100.936 cm
Average deviation is : 0.363 cm
Block: 2
======================================
100.796922445
101.247093081
100.87126255
100.400441885
100.780402422
100.780402422
100.784532428
100.383921862
100.383921862
100.383921862
101.214053035
101.251223087
101.234703064
100.747362375
101.218183041
101.647703648
101.230573058
101.234703064
100.383921862
101.214053035
101.234703064
101.230573058
101.214053035
101.218183041
100.400441885
100.383921862
101.234703064
101.197533011
101.247093081
100.400441885
100.747362375
101.230573058
101.234703064
100.404571891
101.251223087
100.404571891
101.230573058
100.363271832
101.197533011
100.367401838
101.251223087
101.218183041
100.367401838
100.367401838
100.367401838
100.383921862
100.367401838
100.383921862
100.400441885
100.383921862
101.218183041
100.400441885
100.768012404
100.768012404
101.647703648
101.234703064
100.383921862
100.400441885
101.218183041
101.230573058
101.214053035
101.214053035
101.230573058
100.383921862
100.383921862
101.214053035
101.214053035
101.230573058
101.230573058
101.230573058
100.383921862
100.383921862
100.400441885
100.363271832
100.421091914

Average distance is : 100.849 cm
Average deviation is : 0.413 cm
Block: 3
======================================
100.780402422
100.730842352
100.763882399
100.400441885
100.763882399
100.747362375
100.763882399
100.784532428
100.768012404
100.383921862
101.214053035
100.383921862
100.404571891
100.383921862
100.383921862
100.367401838
100.400441885
100.421091914
101.234703064
100.367401838
100.367401838
100.400441885
101.230573058
101.214053035
101.251223087
101.230573058
100.400441885
100.367401838
101.214053035
100.383921862
100.383921862
100.383921862
100.383921862
100.404571891
101.251223087
100.400441885
100.383921862
100.383921862
100.367401838
100.383921862
100.400441885
100.801052451
100.363271832
100.817572474
100.383921862
100.416961908
100.363271832
100.383921862
100.404571891
100.400441885
100.367401838
100.383921862
100.416961908
100.383921862
100.383921862
100.383921862
100.383921862
100.400441885
100.363271832
100.383921862
100.383921862
100.400441885
100.383921862
101.230573058
100.383921862
101.230573058
100.383921862
100.400441885
100.383921862
100.383921862
100.383921862
100.383921862
101.234703064
100.400441885
101.234703064

Average distance is : 100.574 cm
Average deviation is : 0.317 cm
Block: 4
======================================
101.230573058
100.421091914
100.404571891
100.801052451
100.768012404
100.383921862
100.400441885
100.383921862
100.801052451
100.383921862
100.383921862
100.383921862
100.400441885
100.363271832
100.400441885
100.801052451
100.400441885
100.383921862
100.400441885
100.363271832
100.400441885
100.383921862
100.400441885
100.350881815
100.363271832
100.383921862
100.400441885
100.796922445
101.197533011
100.421091914
100.383921862
100.416961908
100.416961908
100.383921862
100.367401838
100.817572474
100.383921862
100.383921862
100.383921862
101.234703064
100.404571891
101.218183041
100.383921862
100.367401838
100.416961908
100.363271832
100.383921862
101.214053035
100.383921862
101.234703064
100.383921862
100.784532428
101.247093081
101.214053035
100.367401838
100.383921862
100.383921862
101.230573058
100.400441885
100.383921862
100.416961908
101.214053035
100.383921862
100.383921862
100.383921862
100.367401838
100.404571891
100.383921862
100.400441885
100.367401838
101.218183041
100.400441885
100.383921862
100.404571891
100.367401838

Average distance is : 100.549 cm
Average deviation is : 0.306 cm
Block: 5
======================================
100.801052451
101.267743111
100.780402422
100.367401838
101.214053035
100.784532428
101.230573058
101.230573058
101.234703064
100.383921862
100.363271832
100.367401838
100.404571891
100.383921862
100.383921862
100.383921862
100.404571891
100.363271832
100.367401838
100.383921862
100.400441885
100.383921862
100.367401838
100.400441885
100.400441885
101.214053035
100.379791856
101.218183041
100.400441885
100.363271832
100.400441885
100.400441885
100.400441885
100.416961908
100.367401838
100.383921862
100.363271832
101.234703064
100.383921862
100.367401838
100.383921862
100.383921862
100.400441885
100.383921862
100.383921862
100.400441885
100.383921862
100.421091914
101.234703064
101.197533011
100.363271832
100.383921862
100.367401838
100.367401838
101.230573058
100.400441885
100.400441885
100.367401838
100.383921862
100.383921862
100.383921862
100.383921862
100.780402422
100.780402422
100.383921862
100.400441885
100.400441885
100.383921862
100.421091914
100.367401838
100.383921862
100.383921862
100.400441885
100.367401838
100.404571891

Average distance is : 100.536 cm
Average deviation is : 0.306 cm
Block: 6
======================================
100.747362375
100.751492381
100.747362375
101.267743111
100.747362375
100.796922445
100.726712346
101.230573058
101.214053035
100.379791856
100.383921862
101.197533011
100.400441885
100.367401838
100.383921862
100.383921862
100.383921862
100.367401838
100.404571891
100.383921862
100.383921862
100.400441885
100.367401838
100.404571891
100.383921862
100.346751809
100.383921862
100.416961908
100.400441885
100.404571891
100.363271832
100.747362375
100.763882399
101.230573058
101.631183624
101.234703064
100.383921862
100.400441885
100.416961908
101.214053035
100.383921862
100.383921862
100.400441885
100.383921862
101.230573058
100.367401838
101.230573058
100.367401838
101.214053035
100.367401838
100.421091914
100.363271832
100.383921862
100.367401838
100.383921862
100.400441885
101.247093081
100.400441885
101.214053035
100.367401838
100.801052451
100.404571891
100.383921862
100.400441885
100.400441885
100.421091914
100.400441885
101.234703064
100.367401838
100.400441885
100.383921862
101.214053035
101.234703064
100.363271832
100.383921862

Average distance is : 100.616 cm
Average deviation is : 0.358 cm
Block: 7
======================================
100.763882399
101.197533011
101.251223087
100.367401838
100.747362375
100.747362375
100.433481932
100.400441885
101.218183041
101.234703064
100.383921862
100.367401838
100.400441885
101.230573058
100.780402422
101.218183041
101.647703648
100.383921862
100.193941593
100.400441885
100.367401838
100.780402422
100.747362375
100.383921862
100.379791856
101.251223087
100.763882399
100.383921862
101.234703064
100.383921862
100.400441885
101.234703064
101.197533011
100.350881815
101.230573058
100.801052451
101.247093081
100.383921862
100.400441885
100.363271832
100.383921862
100.367401838
100.367401838
100.404571891
100.796922445
101.218183041
100.404571891
100.367401838
100.400441885
100.383921862
100.367401838
100.379791856
101.230573058
100.400441885
100.383921862
100.383921862
101.230573058
101.214053035
100.400441885
100.383921862
101.230573058
100.400441885
101.214053035
100.400441885
101.214053035
100.400441885
100.383921862
100.363271832
100.383921862
100.367401838
100.383921862
100.404571891
100.400441885
100.817572474
100.383921862

Average distance is : 100.665 cm
Average deviation is : 0.381 cm
Block: 8
======================================
100.801052451
100.763882399
100.784532428
101.214053035
100.763882399
101.234703064
100.801052451
100.383921862
100.400441885
101.230573058
100.400441885
100.383921862
100.367401838
100.400441885
101.214053035
100.346751809
100.367401838
100.383921862
101.218183041
100.383921862
101.247093081
100.383921862
100.367401838
100.400441885
100.383921862
100.383921862
101.230573058
100.383921862
100.383921862
100.400441885
100.367401838
100.383921862
100.421091914
100.400441885
100.383921862
100.400441885
100.383921862
100.404571891
100.400441885
100.400441885
101.214053035
100.383921862
100.383921862
100.383921862
100.796922445
100.367401838
100.383921862
101.214053035
101.214053035
100.400441885
100.383921862
100.404571891
100.383921862
100.400441885
100.400441885
100.404571891
100.383921862
100.367401838
100.367401838
100.400441885
100.367401838
100.383921862
101.214053035
100.421091914
100.383921862
101.251223087
100.383921862
101.218183041
101.234703064
101.230573058
100.416961908
101.230573058
100.367401838
100.747362375
101.230573058

Average distance is : 100.614 cm
Average deviation is : 0.352 cm
Block: 9
======================================
100.768012404
101.197533011
100.780402422
101.214053035
100.780402422
100.801052451
100.367401838
100.363271832
100.416961908
101.201663017
100.400441885
100.400441885
100.367401838
100.383921862
100.383921862
100.400441885
100.383921862
100.383921862
100.363271832
100.383921862
100.363271832
100.400441885
100.421091914
100.383921862
101.234703064
100.367401838
100.421091914
100.367401838
100.400441885
101.230573058
100.383921862
100.383921862
100.367401838
100.383921862
100.400441885
100.400441885
100.780402422
100.383921862
100.383921862
100.421091914
100.627592206
101.218183041
100.367401838
100.400441885
100.383921862
101.230573058
100.367401838
101.234703064
100.421091914
100.383921862
100.367401838
100.383921862
100.784532428
100.383921862
100.383921862
100.400441885
100.404571891
100.400441885
100.400441885
100.780402422
100.400441885
100.383921862
100.400441885
101.251223087
100.400441885
100.383921862
100.383921862
100.363271832
100.367401838
100.400441885
101.214053035
100.346751809
100.383921862
100.400441885
100.400441885

Average distance is : 100.539 cm
Average deviation is : 0.295 cm
Block: 10
======================================
100.751492381
100.747362375
100.801052451
100.334361792
100.801052451
100.747362375
100.801052451
100.383921862
100.421091914
100.421091914
100.383921862
100.367401838
100.363271832
100.400441885
100.400441885
100.367401838
100.383921862
100.400441885
100.367401838
100.383921862
100.383921862
100.367401838
100.383921862
100.383921862
100.400441885
100.400441885
100.383921862
100.383921862
100.383921862
100.796922445
100.400441885
100.383921862
100.367401838
100.817572474
100.400441885
100.367401838
100.817572474
100.801052451
100.780402422
100.780402422
100.383921862
100.421091914
100.383921862
100.404571891
100.400441885
100.367401838
100.383921862
100.400441885
100.400441885
100.367401838
100.383921862
100.681282282
100.383921862
100.400441885
100.383921862
100.367401838
100.363271832
100.400441885
100.383921862
101.230573058
100.400441885
101.230573058
100.383921862
100.383921862
100.383921862
100.383921862
101.214053035
101.218183041
101.197533011
100.383921862
100.383921862
101.197533011
101.218183041
100.400441885
100.763882399

Average distance is : 100.537 cm
Average deviation is : 0.267 cm
Average distance for 10x75 is : 100.642 cm
Average deviation for 10x75 is : 0.336 cm
 Percentage of values that failed: 0.000