
Block: 1
======================================
50.1439546585
50.5802037716
50.5596259832
50.0781057358
50.5596259832
50.5225859642
50.1274924278
50.5596259832
50.1316079855
50.5596259832
50.5225859642
50.1645324469
50.1768791199
50.1110301971
50.1110301971
50.5966660023
50.5802037716
50.5225859642
50.1316079855
50.1274924278
50.1110301971
50.1480702162
50.5925504446
50.5431637526
50.1439546585
50.1110301971
50.5061237335
50.5431637526
50.5596259832
50.5966660023
50.1274924278
50.5596259832
50.5431637526
50.5061237335
50.1110301971
50.1316079855
50.1274924278
50.4073503494
50.0904524088
50.1274924278
50.0945679665
50.1110301971
50.1604168892
50.1110301971
50.1110301971
50.1110301971
50.0781057358
50.1110301971
50.5802037716
50.4937770605

Block: 2
======================================
50.1645324469
50.5760882139
50.5760882139
50.1645324469
50.1604168892
50.1604168892
50.1439546585
50.1316079855
50.1480702162
50.1110301971
50.5966660023
50.5596259832
50.1110301971
50.1480702162
50.1274924278
50.1480702162
50.1274924278
50.5925504446
50.1809946775
50.1645324469
50.5596259832
50.1809946775
50.1274924278
50.0945679665
50.1480702162
50.1110301971
50.5102392912
50.1480702162
50.1480702162
50.1110301971
50.1274924278
50.1274924278
50.1480702162
50.1274924278
50.1110301971
50.5267015219
50.1274924278
50.1274924278
50.1480702162
50.1480702162
50.1645324469
50.1645324469
50.1316079855
50.1274924278
50.1645324469
50.1316079855
50.1110301971
50.5925504446
50.1274924278
50.1439546585

Block: 3
======================================
50.1439546585
50.1439546585
50.1439546585
50.1274924278
50.5925504446
50.1274924278
50.1480702162
50.1316079855
50.1274924278
50.5760882139
50.1110301971
50.1274924278
50.1274924278
50.1439546585
50.5966660023
50.5966660023
50.1274924278
50.613128233
50.1480702162
50.1645324469
50.1274924278
50.5966660023
50.1645324469
50.1110301971
50.5966660023
50.1480702162
50.0945679665
50.0945679665
50.1274924278
50.1274924278
50.5102392912
50.1110301971
50.1274924278
50.2139191389
50.1809946775
50.1316079855
50.1274924278
50.0945679665
50.1110301971
50.1274924278
50.5596259832
50.5431637526
50.5596259832
50.5802037716
50.0945679665
50.1316079855
50.5637415409
50.5596259832
50.5596259832
50.1645324469

Block: 4
======================================
50.1439546585
50.4773148298
48.8681317806
50.5760882139
50.1274924278
50.1645324469
50.1110301971
50.1439546585
50.1645324469
50.5760882139
50.1110301971
50.1110301971
50.1645324469
50.1480702162
50.1645324469
50.0945679665
50.1480702162
50.1274924278
50.5802037716
50.1110301971
50.5760882139
50.1110301971
50.1439546585
50.5431637526
50.1274924278
50.1645324469
50.5390481949
50.1274924278
50.1274924278
50.1274924278
50.1439546585
50.1110301971
50.1110301971
50.1110301971
50.1480702162
50.5596259832
50.1110301971
50.5802037716
50.0945679665
50.0781057358
50.1274924278
50.1645324469
50.1645324469
50.0945679665
50.1439546585
50.1274924278
50.1274924278
50.1110301971
50.1645324469
50.5760882139

Block: 5
======================================
50.5431637526
50.1645324469
50.1274924278
50.1274924278
50.1274924278
50.1274924278
50.1274924278
50.5225859642
50.1274924278
50.1274924278
50.1274924278
50.0945679665
50.1274924278
50.4896615028
50.5637415409
50.1645324469
50.1110301971
50.1316079855
50.1274924278
50.1316079855
50.1645324469
50.1274924278
50.5431637526
50.5760882139
50.1480702162
50.1316079855
50.5760882139
50.5596259832
50.5596259832
50.1645324469
50.1480702162
50.1645324469
50.1439546585
50.1439546585
50.5431637526
50.5431637526
50.5431637526
50.5431637526
50.5061237335
50.5225859642
50.5966660023
50.1809946775
50.1274924278
50.1110301971
50.1316079855
50.4896615028
50.1274924278
50.1439546585
50.1274924278
50.975297308

Block: 6
======================================
50.5596259832
50.1809946775
50.1274924278
50.1604168892
50.1439546585
50.0945679665
50.5760882139
50.1645324469
50.1316079855
50.5802037716
50.1274924278
50.5061237335
50.5596259832
50.1274924278
50.4896615028
50.1274924278
50.1274924278
50.1439546585
50.1274924278
50.1110301971
50.1645324469
50.1316079855
50.1645324469
50.1645324469
50.1439546585
50.1110301971
50.1274924278
50.1110301971
50.1110301971
50.1274924278
50.1809946775
50.1110301971
50.1110301971
50.1110301971
50.1316079855
50.1274924278
50.1274924278
50.5596259832
50.1439546585
50.1439546585
50.1439546585
50.1809946775
50.1274924278
50.1480702162
50.1274924278
50.1274924278
50.1439546585
50.5102392912
50.1480702162
50.1645324469

Block: 7
======================================
50.0945679665
50.1110301971
50.1604168892
50.1645324469
50.1439546585
50.1274924278
50.1316079855
50.1645324469
50.1480702162
50.1809946775
50.1316079855
50.1439546585
50.1110301971
50.1480702162
50.5802037716
50.1110301971
50.1110301971
50.0945679665
50.1110301971
50.1274924278
50.1110301971
50.1274924278
50.1110301971
50.1274924278
50.1274924278
50.1439546585
50.1480702162
50.1480702162
50.5431637526
50.5596259832
50.5802037716
50.1274924278
50.1316079855
50.1604168892
50.5431637526
50.1645324469
50.1480702162
50.1645324469
50.1316079855
50.1439546585
50.5760882139
50.1480702162
50.1274924278
50.1480702162
50.1110301971
50.5431637526
50.1274924278
50.1480702162
50.1274924278
50.1316079855

Block: 8
======================================
50.1480702162
50.1316079855
50.0945679665
50.0945679665
50.1439546585
50.1110301971
50.1274924278
50.1439546585
50.1316079855
50.1316079855
50.1480702162
50.1480702162
50.1645324469
50.1110301971
50.1480702162
50.1110301971
50.4937770605
50.5431637526
50.1439546585
50.0945679665
50.1439546585
50.1274924278
50.1274924278
50.5267015219
50.1439546585
50.1274924278
50.5102392912
50.1809946775
50.1645324469
50.5802037716
50.1110301971
50.1439546585
50.1316079855
50.1439546585
50.1809946775
50.1274924278
50.1439546585
50.5966660023
50.1480702162
50.1645324469
50.1439546585
50.1110301971
50.1645324469
50.1274924278
50.1480702162
50.1480702162
50.5431637526
50.1274924278
50.1274924278
50.1274924278

Block: 9
======================================
50.1809946775
50.1274924278
50.1439546585
50.1480702162
50.1604168892
50.1274924278
50.1110301971
50.1110301971
50.1480702162
50.1604168892
50.5760882139
50.1604168892
50.1274924278
50.1316079855
50.1439546585
50.1480702162
50.1316079855
50.1316079855
50.1480702162
50.5102392912
50.1480702162
50.1604168892
50.1645324469
50.1439546585
50.1316079855
50.1439546585
50.1274924278
50.1480702162
50.1480702162
50.1480702162
50.1274924278
50.1439546585
50.1480702162
50.1274924278
50.1645324469
50.1645324469
50.5596259832
50.1645324469
50.5760882139
50.1110301971
50.5596259832
50.5596259832
50.5637415409
50.5431637526
50.5267015219
50.1110301971
50.1110301971
50.5802037716
50.5431637526
50.5760882139

Block: 10
======================================
50.1274924278
50.1645324469
50.1110301971
50.1480702162
50.1439546585
50.1480702162
50.5431637526
50.1480702162
50.5596259832
50.5431637526
50.5431637526
50.1274924278
50.1645324469
50.1645324469
50.1604168892
50.1110301971
50.1274924278
50.1316079855
50.1274924278
50.1274924278
50.1480702162
50.1480702162
50.5596259832
50.5760882139
50.1645324469
50.1274924278
50.1316079855
50.1274924278
50.1316079855
50.1439546585
50.1110301971
50.1439546585
50.1480702162
50.1645324469
50.1316079855
50.1439546585
50.1439546585
50.5802037716
50.1274924278
50.1274924278
50.1110301971
50.1439546585
50.1480702162
50.1480702162
50.1439546585
50.1480702162
50.4896615028
50.1439546585
50.1480702162
50.5802037716
