
Block: 1
======================================
300.211639261
300.211639261
299.736035538
299.76855545
299.752295494
300.21570425
299.731970549
300.195379305
300.211639261
300.654723072

Block: 2
======================================
300.638463116
300.195379305
300.231964207
301.081546926
300.195379305
300.227899218
300.638463116
300.638463116
300.211639261
300.654723072

Block: 3
======================================
300.195379305
300.211639261
300.211639261
299.715710592
300.638463116
300.21570425
300.21570425
300.211639261
300.199444294
300.658788061

Block: 4
======================================
300.231964207
300.211639261
300.658788061
300.227899218
300.211639261
300.654723072
300.675048018
300.654723072
300.654723072
300.675048018

Block: 5
======================================
299.752295494
300.195379305
300.654723072
300.638463116
300.638463116
300.195379305
300.211639261
300.211639261
300.21570425
300.211639261

Block: 6
======================================
300.211639261
300.638463116
300.658788061
300.211639261
299.788880396
300.691307974
300.231964207
300.670983028
300.21570425
300.21570425

Block: 7
======================================
299.736035538
299.76855545
300.179119349
299.736035538
300.231964207
300.211639261
299.76855545
299.752295494
300.654723072
300.195379305

Block: 8
======================================
300.638463116
300.670983028
300.654723072
300.654723072
300.670983028
300.21570425
301.081546926
300.654723072
300.675048018
299.752295494

Block: 9
======================================
299.752295494
300.211639261
300.195379305
300.670983028
300.195379305
300.21570425
299.719775581
300.179119349
299.736035538
300.175054359

Block: 10
======================================
300.638463116
299.731970549
299.731970549
300.670983028
300.61813817
301.081546926
299.752295494
300.195379305
299.736035538
300.195379305
