
Block: 1
======================================
99.8800611496
99.9502712488
100.297191739
100.313711762
100.297191739
100.297191739
99.4835805893
100.297191739
99.8470211029
99.8470211029
99.8965811729
100.313711762
99.8800611496
100.313711762
99.8841911554
100.297191739
100.297191739
55.693128705
67.3851752281
70.8502501249
55.2759981155
66.6582942009
71.7505913973
57.7003115416
66.6087341309
70.0531589985
58.5510927439
68.2483464479
67.5751554966
56.3828396797
66.2948536873
71.2632507086
57.8737717867
63.8870602846
72.0768618584
59.2077636719
62.4332982302
61.2521165609
62.2557079792
70.292699337
62.7265286446
60.3517752886
71.126960516
62.8628188372
62.5695884228
61.4090567827
62.259837985
61.2892866135
71.3334608078
61.755977273
62.9867190123
60.2278751135
63.7466400862
69.7929686308
60.3682953119
66.4311438799
57.1303707361
65.2210521698
71.630821228
58.3239424229
63.1395292282
72.5311625004
59.4844740629
61.5123069286
62.4993783236
70.2803093195
61.6155570745
61.0621362925
62.4828583002
70.8337301016
61.5123069286
60.6656557322
72.237932086
61.9294375181
90.9262084961

Average distance is : 72.630 cm
Average deviation is : 15.866 cm
Block: 2
======================================
99.8965811729
100.264151692
55.7096487284
66.8978345394
71.5771311522
57.1675407887
64.229850769
72.4072623253
57.7044415474
95.1512044668
60.4219853878
93.1233716011
60.6780457497
61.4297068119
71.3169407845
61.6857671738
60.492195487
62.7265286446
60.3517752886
71.1971706152
62.8462988138
59.4514340162
71.5606111288
63.8829302788
89.109005928
64.7337114811
88.1921446323
65.7373028994
87.6676338911
66.604604125
86.7672926188
68.0624961853
85.3135305643
69.3799680471
84.0662688017
70.1729291677
83.2154875994
70.6065797806
82.8355270624
70.9906703234
81.9682258368
71.3665008545
82.1086460352
43.1131309271
69.028917551
80.8944243193
72.9606831074
80.4112136364
41.7997890711
71.7671114206
79.9445229769
74.2946749926
79.6471625566
73.7412542105
79.61412251
43.1833410263
70.6767898798
79.0937417746
44.1538923979
70.6065797806
78.8335514069
45.2442139387
70.243139267
77.8671300411
46.2684553862
69.8094886541
77.313709259
46.7847061157
70.2761793137
77.1732890606
46.5079957247
70.7098299265
76.582698226
46.6153758764
70.7635200024

Average distance is : 70.093 cm
Average deviation is : 13.444 cm
Block: 3
======================================
99.8800611496
55.7426887751
66.9886946678
71.126960516
57.89029181
63.5070997477
72.5270324945
59.1705936193
61.805537343
62.0492076874
70.2761793137
62.18549788
60.6615257263
62.5365483761
70.8461201191
61.4420968294
60.8515059948
62.7265286446
60.8019459248
70.4165995121
63.5566598177
62.0657277107
68.7687271833
63.5566598177
63.6929500103
67.5751554966
63.9861804247
59.5712041855
64.130730629
68.4589767456
58.6213028431
62.689358592
69.9457788467
58.8278031349
61.5618669987
70.3463894129
59.381223917
60.0750648975
60.8886760473
60.9423661232
61.6485971212
69.0826076269
60.645005703
58.6006528139
72.8409129381
63.2097393274
58.2867723703
64.787401557
70.7098299265
59.7446644306
62.4828583002
71.556481123
59.8850846291
62.4828583002
59.9016046524
71.2302106619
63.143659234
59.8850846291
63.8168501854
70.1027190685
60.6615257263
65.8075129986
67.9385960102
60.492195487
62.3259180784
60.7812958956
71.2136906385
62.4498182535
59.8148745298
62.4291682243
71.6969013214
60.6821757555
61.0290962458
62.6026284695
70.7635200024

Average distance is : 64.357 cm
Average deviation is : 6.041 cm
Block: 4
======================================
99.8800611496
99.9007111788
100.313711762
99.8139810562
54.0452563763
66.4517939091
70.6437498331
56.2795895338
64.8534816504
69.4997382164
56.7338901758
63.3997195959
71.126960516
57.564021349
62.1689778566
72.4774724245
60.1287549734
61.2025564909
62.8958588839
70.2761793137
61.0786563158
60.8556360006
72.4774724245
60.9919261932
60.5252355337
72.514642477
62.1359378099
59.3481838703
63.8127201796
70.5570197105
60.3146052361
67.0547747612
66.4683139324
59.0177834034
64.9939018488
58.9971333742
63.3666795492
70.6230998039
60.7358658314
61.2892866135
62.3093980551
71.0774004459
61.4462268353
60.8349859715
62.8132587671
70.2803093195
62.6728385687
61.3925367594
62.4456882477
71.0237103701
60.8349859715
61.2025564909
62.8999888897
70.2100992203
61.2521165609
61.9624775648
70.4661595821
62.7265286446
82.7487969398
71.5069210529
82.0425659418
71.8001514673
81.6047853231
72.3742222786
81.0678845644
43.1007409096
69.8094886541
80.6548839808
72.7541828156
80.6383639574
42.8199005127
71.0030603409
80.0271230936
46.0289150476
68.3515965939

Average distance is : 67.373 cm
Average deviation is : 11.143 cm
Block: 5
======================================
100.346751809
54.3921768665
68.145096302
68.9958775043
83.4798079729
69.7392785549
82.7818369865
69.7599285841
82.8190070391
69.3758380413
83.9630186558
70.3298693895
83.2154875994
70.6437498331
82.8024870157
70.6065797806
82.9552972317
70.8461201191
82.5051265955
71.3169407845
82.2118961811
42.1962696314
69.8755687475
81.0678845644
73.2580435276
80.167543292
73.2539135218
80.3410035372
73.931234479
79.0772217512
43.2535511255
71.7010313272
78.9533215761
44.6742731333
70.3463894129
78.8005113602
45.2318239212
70.3629094362
77.3797893524
46.2849754095
70.3629094362
76.7891985178
47.2885668278
69.3799680471
77.0700389147
47.0655465126
70.2968293428
76.0457974672
47.1853166819
70.7098299265
75.5419367552
47.7428674698
70.7263499498
75.3849965334
47.8461176157
71.2136906385
74.6415954828
78.8707214594
74.5548653603
78.8170313835
74.1046947241
79.4406622648
74.4185751677
78.9698415995
74.9017858505
78.2264405489
43.9680421352
71.6432112455
77.9001700878
75.4882466793
77.896040082
75.6327968836
78.2305705547
75.6121468544
77.7803999186

Average distance is : 71.242 cm
Average deviation is : 12.088 cm
Block: 6
======================================
99.9007111788
99.9337512255
55.5733585358
66.604604125
71.2136906385
57.8242117167
64.7832715511
70.8502501249
58.7575930357
65.5142825842
69.9994689226
59.2779737711
64.8204416037
69.1362977028
60.3724253178
67.3851752281
66.2411636114
58.6047828197
64.5106911659
70.3794294596
60.8184659481
63.1601792574
61.4586168528
62.5324183702
70.7263499498
60.7317358255
62.0161676407
60.7152158022
71.2467306852
62.4291682243
60.265045166
71.2962907553
63.3129894733
60.1948350668
63.0899691582
70.6602698565
60.9051960707
61.0290962458
71.5771311522
62.1194177866
59.381223917
64.1637706757
70.2224892378
60.0048547983
66.3444137573
67.5214654207
60.1287549734
67.1951949596
66.4476639032
60.0048547983
64.2463707924
69.3262779713
60.8019459248
66.9143545628
66.555044055
62.2722280025
66.0181432962
65.947933197
62.9330289364
61.4255768061
68.9256674051
64.5106911659
59.534034133
64.4941711426
69.9499088526
60.8556360006
63.523619771
61.0951763391
62.5035083294
69.9292588234
61.9955176115
61.0951763391
71.3169407845
62.4828583002
90.5090779066

Average distance is : 65.634 cm
Average deviation is : 7.607 cm
Block: 7
======================================
99.9007111788
55.7757288218
67.868385911
70.243139267
57.8572517633
64.4239610434
71.5771311522
59.104513526
62.3796081543
72.3742222786
60.3187352419
60.8019459248
73.2580435276
59.7487944365
60.9258460999
72.8409129381
60.0255048275
60.5582755804
73.3076035976
60.921716094
80.4814237356
54.2393666506
60.1122349501
78.7509512901
56.122649312
58.7906330824
64.3041908741
70.2968293428
59.7446644306
62.462208271
71.5606111288
60.8019459248
92.140430212
62.5695884228
90.4058277607
64.4239610434
88.9520657063
66.2246435881
87.1637731791
67.6949256659
85.7306611538
67.6990556717
85.8339112997
67.9716360569
84.6031695604
68.8926273584
83.8928085566
68.6861270666
83.4219878912
69.5823383331
83.2320076227
40.866407752
68.4920167923
81.658475399
71.3004207611
81.2785148621
71.2632507086
82.6620668173
71.6266912222
81.7286854982
72.0933818817
81.9186657667
40.8829277754
71.5069210529
80.7209640741
72.7211427689
80.6879240274
73.7619042397
79.6802026033
42.6299202442
71.6266912222
79.2672020197
44.8270833492
69.4460481405
79.1804718971

Average distance is : 70.171 cm
Average deviation is : 11.920 cm
Block: 8
======================================
99.8676711321
55.5361884832
66.7078542709
72.0809918642
57.1303707361
63.7466400862
72.9978531599
59.7281444073
61.2025564909
72.5270324945
60.4219853878
61.4090567827
70.7800400257
58.9806133509
61.3388466835
70.4331195354
59.5546841621
60.6491357088
70.5363696814
60.0709348917
60.9258460999
69.7929686308
60.8019459248
60.265045166
69.2395478487
62.7760887146
58.6543428898
70.7635200024
64.7832715511
57.9605019093
71.1930406094
65.5473226309
56.3126295805
66.327893734
71.1930406094
56.5397799015
96.8527668715
57.89029181
65.2210521698
70.8296000957
58.7906330824
65.1508420706
70.4661595821
58.9806133509
63.3831995726
60.7689058781
69.3262779713
63.6268699169
60.1287549734
63.0156290531
61.1447364092
69.6401584148
63.6970800161
58.7204229832
65.3408223391
69.7599285841
59.2779737711
67.1621549129
67.868385911
56.7173701525
65.9809732437
71.0732704401
58.6543428898
94.337593317
61.6362071037
61.0951763391
61.755977273
71.0774004459
61.4090567827
61.0290962458
62.9660689831
69.9499088526
61.3925367594
64.6139413118
68.3557265997

Average distance is : 65.305 cm
Average deviation is : 8.105 cm
Block: 9
======================================
99.8965811729
55.5196684599
66.6582942009
70.0696790218
56.0028791428
69.1528177261
67.1249848604
55.1190578938
66.3072437048
70.8296000957
57.7870416641
62.7223986387
60.215485096
62.0657277107
70.3463894129
60.8556360006
91.7026495934
62.1359378099
90.1828074455
63.7301200628
58.1339621544
64.9278217554
58.7204229832
64.3372309208
70.7098299265
59.3481838703
62.032687664
61.5123069286
61.2892866135
62.2887480259
60.9754061699
61.2892866135
63.1560492516
60.5582755804
61.7022871971
71.5771311522
61.5659970045
60.037894845
62.1731078625
61.5329569578
61.1323463917
62.4291682243
61.2727665901
61.805537343
61.301676631
61.9459575415
61.1653864384
70.7800400257
62.412648201
59.331663847
63.0362790823
61.4090567827
61.2686365843
61.5453469753
60.6615257263
62.8999888897
70.4331195354
61.983127594
61.0786563158
62.1194177866
61.0125762224
61.6155570745
71.3004207611
62.3961281776
59.7446644306
63.5194897652
58.7204229832
64.3702709675
71.3169407845
58.7410730124
64.7171914577
58.0844020844
64.180290699
71.2467306852
59.3977439404

Average distance is : 64.089 cm
Average deviation is : 7.337 cm
Block: 10
======================================
99.8965811729
100.297191739
99.8800611496
54.3219667673
65.9809732437
69.8590487242
55.0158077478
64.4941711426
71.176520586
56.4530497789
62.5861084461
59.7446644306
61.0951763391
60.8184659481
61.9459575415
67.9881560802
61.148866415
90.979898572
63.2758194208
58.6006528139
64.3041908741
59.6579343081
63.5896998644
59.9387747049
63.7466400862
60.2320051193
69.7764486074
63.8870602846
62.8793388605
59.3481838703
63.019759059
60.5417555571
62.6026284695
71.2632507086
60.5417555571
61.2149465084
62.4993783236
60.645005703
64.2505007982
69.5162582397
61.0621362925
61.5659970045
61.7064172029
62.2391879559
60.8349859715
62.8462988138
59.381223917
63.8168501854
59.3110138178
64.2505007982
70.8502501249
59.7446644306
62.4456882477
60.8515059948
62.2928780317
61.6857671738
70.4000794888
62.2928780317
60.3682953119
61.9955176115
61.148866415
62.4332982302
60.4219853878
63.1560492516
60.4385054111
62.8256487846
60.2980852127
62.9495489597
60.5954456329
62.5365483761
71.2467306852
61.0456162691
60.7152158022
62.0822477341
61.0249662399

Average distance is : 64.425 cm
Average deviation is : 8.729 cm
Average distance for 10x75 is : 67.532 cm
Average deviation for 10x75 is : 10.228 cm
 Percentage of values that failed: 0.000