
Block: 1
======================================
99.9296212196
54.4293469191
68.8389372826
70.7263499498
53.3348953724
69.0123975277
71.5606111288
55.9491890669
65.6381827593
72.3577022552
57.184060812
64.0233504772
72.8078728914
57.233620882
64.5437312126
71.8208014965
59.3151438236
62.3589581251
71.3706308603
60.5087155104
60.4054653645
69.7021085024
61.7724972963
59.3647038937
70.1027190685
62.412648201
58.1876522303
70.1233690977
63.1064891815
58.497402668
69.6690684557
62.8462988138
59.2242836952
68.7852472067
62.6026284695
59.4473040104
70.7098299265
63.9861804247
58.7782430649
71.1971706152
64.787401557
57.564021349
71.354110837
65.0806319714
87.6717638969
66.5880841017
86.837502718
66.9184845686
86.5607923269
67.6990556717

Average distance is : 66.499 cm
Average deviation is : 8.981 cm
Block: 2
======================================
99.8965811729
99.8635411263
55.2264380455
68.8719773293
69.8094886541
55.9533190727
65.9107631445
72.0975118876
56.3663196564
64.130730629
73.2910835743
58.117442131
62.4828583002
73.3076035976
58.8443231583
62.1152877808
70.6767898798
58.8443231583
92.6938509941
59.0343034267
92.2767204046
59.8809546232
91.2359589338
61.7022871971
89.0718358755
63.0032390356
88.881855607
63.7301200628
58.0967921019
68.4259366989
65.7042628527
58.2372123003
70.4661595821
66.1172634363
86.8168526888
67.0547747612
86.2634319067
68.0046761036
85.3630906343
68.5457068682
84.8261898756
68.9752274752
84.413189292
69.0991276503
84.2727690935
69.9829488993
83.0420273542
70.7263499498
82.6455467939
41.7626190186

Average distance is : 71.523 cm
Average deviation is : 13.012 cm
Block: 3
======================================
99.9007111788
99.8635411263
100.297191739
100.297191739
54.8258274794
70.0861990452
68.9752274752
84.3760192394
69.3056279421
82.4886065722
69.6195083857
82.087996006
69.5492982864
82.1623361111
70.2968293428
81.4519751072
70.5363696814
81.1215746403
71.9405716658
79.8041027784
72.6137626171
79.5439124107
43.0429208279
71.2467306852
79.5604324341
74.2244648933
79.056571722
43.216381073
71.6266912222
78.5238009691
44.70731318
70.7098299265
78.2305705547
76.1655676365
76.7561584711
77.4830394983
75.9962373972
78.2099205256
75.5625867844
78.2305705547
43.2370311022
72.4774724245
77.6730197668
45.1244437695
71.126960516
77.5697696209
45.6613445282
70.2100992203
77.4334794283
46.6649359465

Average distance is : 72.817 cm
Average deviation is : 14.271 cm
Block: 4
======================================
99.8800611496
55.4122883081
67.5586354733
69.5492982864
56.1061292887
64.2505007982
69.7929686308
57.9439818859
62.689358592
69.9829488993
59.2738437653
60.3682953119
71.1063104868
60.1948350668
90.6164580584
63.5566598177
88.1549745798
65.8777230978
87.4776536226
67.3645251989
85.5902409554
68.2483464479
85.3837406635
68.9091473818
84.4999194145
69.3262779713
84.1529989243
70.1233690977
82.8355270624
70.5363696814
82.9387772083
71.3375908136
82.0219159126
72.2172820568
80.167543292
73.5677939653
79.7875827551
74.5920354128
78.7839913368
74.6250754595
79.1474318504
43.1874710321
71.9901317358
78.1273204088
45.5415743589
70.2761793137
77.970380187
46.0743451118
69.8590487242
77.4293494225

Average distance is : 71.728 cm
Average deviation is : 11.685 cm
Block: 5
======================================
99.8635411263
100.313711762
100.313711762
99.8470211029
54.0452563763
67.2984451056
69.3221479654
56.7669302225
94.9116641283
58.2413423061
64.0770405531
68.1987863779
60.2485251427
66.5509140491
66.4848339558
62.412648201
60.6615257263
70.7098299265
62.9660689831
60.1783150434
62.8958588839
70.8296000957
61.5329569578
61.0951763391
71.3004207611
62.412648201
61.8922674656
60.9051960707
62.5861084461
71.1971706152
60.5954456329
61.2025564909
72.0438218117
61.148866415
60.2485251427
62.3796081543
60.4219853878
71.630821228
62.7430486679
59.1582036018
71.6266912222
63.953140378
57.9439818859
65.1508420706
71.1971706152
58.0637520552
63.7631601095
71.3499808311
59.9387747049
62.259837985

Average distance is : 67.338 cm
Average deviation is : 11.604 cm
Block: 6
======================================
99.9172312021
99.8470211029
100.330231786
99.9007111788
100.330231786
99.8800611496
99.8841911554
99.8800611496
99.8841911554
99.9296212196
99.9502712488
100.313711762
53.1449151039
68.9587074518
72.1635919809
54.9786376953
66.7285043001
72.7004927397
56.7462801933
95.778965354
58.9310532808
63.3997195959
72.0438218117
59.2779737711
61.7353272438
72.060341835
60.8515059948
60.5954456329
62.4993783236
70.8502501249
61.528826952
61.1158263683
62.5324183702
70.2968293428
60.9588861465
61.3925367594
71.1434805393
62.4787282944
59.835524559
63.6929500103
69.7929686308
60.8556360006
64.1266006231
59.4183939695
63.8540202379
70.7428699732
60.1783150434
61.7022871971
72.5311625004
60.2485251427

Average distance is : 73.238 cm
Average deviation is : 16.499 cm
Block: 7
======================================
99.8635411263
99.9172312021
100.140251517
99.8305010796
99.8470211029
99.8470211029
99.9007111788
100.350881815
99.9337512255
100.350881815
99.8470211029
99.8635411263
55.6063985825
66.984564662
71.2797707319
56.576949954
65.5473226309
71.783631444
57.89029181
95.4279148579
59.8313945532
62.8462988138
71.1434805393
59.9511647224
64.560251236
59.3977439404
64.6841514111
69.8301386833
60.2113550901
62.1152877808
72.0438218117
60.5582755804
60.9258460999
72.4774724245
61.7724972963
59.2779737711
63.7631601095
70.243139267
60.3848153353
65.9272831678
56.6802000999
66.1172634363
71.5771311522
57.4070811272
64.0770405531
72.010781765
59.5381641388
61.4792668819
61.1984264851
71.5936511755

Average distance is : 73.288 cm
Average deviation is : 16.418 cm
Block: 8
======================================
99.9172312021
99.9007111788
100.334361792
100.350881815
100.334361792
54.3591368198
67.4347352982
70.5570197105
53.0044949055
93.2101017237
59.9346446991
92.569950819
62.4332982302
59.331663847
63.019759059
72.0438218117
59.5877242088
61.805537343
62.6067584753
69.685588479
62.6563185453
60.0750648975
62.7430486679
60.3146052361
71.0567504168
62.9123789072
90.0258672237
63.3129894733
59.7777044773
63.0032390356
71.5606111288
60.1246249676
61.3553667068
72.4774724245
61.3553667068
60.1411449909
62.916508913
70.899810195
61.0827863216
64.0770405531
69.3758380413
61.1158263683
61.0951763391
62.1565878391
71.1228305101
61.0414862633
60.5747956038
63.3336395025
69.8094886541
61.2355965376

Average distance is : 68.903 cm
Average deviation is : 13.259 cm
Block: 9
======================================
99.9172312021
99.8305010796
54.2682766914
68.1987863779
70.7800400257
52.7443045378
67.9551160336
71.2136906385
80.8944243193
41.750229001
69.6525484324
80.5144637823
72.4939924479
80.7044440508
72.717012763
80.5846738815
72.944163084
81.001804471
41.7295789719
71.556481123
79.7875827551
74.0386146307
79.3043720722
74.6581155062
78.7096512318
43.0800908804
72.060341835
78.5238009691
75.2321863174
78.5238009691
75.8723372221
77.4995595217
75.8227771521
77.5532495975
76.4092379808
77.4499994516
75.8888572454
77.9332101345
75.5584567785
77.8134399652
43.9639121294
72.2007620335
77.3095792532
76.5331381559
76.9626587629
76.3927179575
77.4334794283
75.4923766851
78.4701108932
75.3891265392

Average distance is : 73.266 cm
Average deviation is : 11.715 cm
Block: 10
======================================
100.330231786
100.350881815
100.313711762
100.27654171
99.9667912722
100.27654171
100.297191739
99.8800611496
99.8305010796
99.8635411263
99.8635411263
99.9007111788
100.367401838
99.9502712488
99.9337512255
100.297191739
100.317841768
100.350881815
55.2099180222
67.5751554966
71.1930406094
82.6290267706
41.4859086275
69.8796987534
82.5092566013
42.0228093863
69.86317873
82.3357963562
43.9639121294
68.1120562553
80.8283442259
73.1176233292
80.2749234438
74.0179646015
79.3374121189
75.091766119
78.6972612143
43.9639121294
71.3169407845
78.7137812376
75.7195270061
78.0571103096
75.926027298
77.9001700878
75.4923766851
78.4535908699
75.4221665859
78.3668607473
75.36847651
78.0901503563

Average distance is : 81.666 cm
Average deviation is : 17.019 cm
Average distance for 10x50 is : 72.027 cm
Average deviation for 10x50 is : 13.446 cm
 Percentage of values that failed: 0.000