
Block: 1
======================================
299.378316498
299.410836411
299.378316498
299.410836411
299.431161356
299.394576454
299.378316498
299.394576454
299.394576454
299.427096367
299.394576454
299.4149014
299.394576454
299.431161356
299.410836411
299.410836411
299.427096367
299.45961628
299.394576454
299.410836411
299.410836411
299.378316498
299.431161356
299.431161356
299.431161356
299.410836411
298.9677526
298.984012556
299.378316498
299.378316498
299.394576454
299.394576454
299.004337502
299.410836411
299.463681269
298.984012556
299.443356323
299.410836411
299.410836411
299.45961628
298.951492643
299.410836411
299.410836411
299.447421312
299.410836411
299.447421312
299.394576454
299.410836411
299.410836411
299.394576454
299.447421312
299.410836411
298.935232687
299.447421312
299.431161356
299.431161356
299.394576454
298.951492643
299.463681269
299.443356323
299.427096367
299.443356323
299.394576454
299.447421312
299.4149014
299.410836411
299.431161356
299.431161356
299.374251509
299.443356323
299.431161356
299.431161356
299.431161356
298.951492643
298.9677526
299.427096367
299.443356323
299.443356323
299.443356323
299.390511465
299.447421312
299.431161356
299.394576454
299.431161356
299.427096367
299.447421312
299.394576454
299.45961628
299.410836411
299.394576454
298.935232687
299.394576454
299.410836411
298.951492643
299.427096367
298.9677526
299.394576454
299.378316498
299.374251509
298.951492643

Average distance is : 299.358 cm
Average deviation is : 0.156 cm
Block: 2
======================================
298.9677526
299.4149014
299.362056541
299.394576454
299.410836411
299.362056541
298.951492643
299.378316498
298.988077545
299.431161356
299.4149014
299.004337502
298.951492643
298.951492643
299.431161356
299.394576454
299.410836411
298.951492643
299.431161356
299.410836411
298.951492643
299.427096367
299.443356323
299.410836411
299.4149014
299.431161356
299.410836411
299.427096367
299.447421312
299.378316498
298.9677526
299.431161356
299.394576454
299.427096367
299.431161356
298.984012556
299.004337502
299.443356323
299.000272512
299.427096367
298.951492643
299.447421312
298.984012556
298.984012556
299.016532469
299.410836411
299.427096367
299.394576454
299.374251509
298.9677526
298.951492643
299.431161356
298.984012556
299.410836411
299.000272512
299.394576454
298.9677526
298.9677526
299.447421312
299.4149014
298.9677526
299.431161356
298.951492643
298.951492643
299.378316498
299.4149014
299.394576454
299.431161356
298.9677526
299.447421312
299.378316498
299.447421312
299.447421312
299.410836411
299.431161356
299.443356323
299.394576454
299.410836411
299.394576454
299.000272512
298.971817589
299.410836411
298.951492643
298.951492643
299.427096367
298.9677526
299.431161356
299.390511465
299.020597458
298.984012556
299.427096367
298.9677526
299.427096367
299.447421312
299.394576454
298.9677526
299.431161356
299.394576454
299.410836411
299.431161356

Average distance is : 299.261 cm
Average deviation is : 0.213 cm
Block: 3
======================================
299.427096367
299.394576454
299.390511465
299.427096367
299.410836411
299.004337502
298.988077545
299.410836411
299.427096367
299.427096367
299.443356323
299.463681269
299.000272512
299.000272512
298.951492643
299.427096367
299.427096367
299.410836411
299.427096367
299.394576454
298.9677526
299.443356323
299.016532469
299.427096367
299.447421312
299.479941225
299.4149014
299.004337502
298.984012556
299.000272512
299.000272512
299.410836411
299.020597458
299.447421312
299.410836411
298.988077545
298.984012556
298.951492643
299.427096367
299.427096367
299.410836411
299.447421312
298.561253691
299.4149014
299.410836411
299.447421312
299.463681269
298.9677526
299.447421312
299.036857414
298.971817589
299.004337502
299.463681269
299.004337502
298.984012556
298.984012556
298.984012556
299.431161356
299.394576454
299.447421312
299.431161356
299.394576454
298.984012556
298.951492643
299.45961628
299.000272512
299.000272512
299.004337502
299.410836411
299.443356323
299.443356323
299.512461138
298.9677526
298.9677526
299.4149014
299.447421312
299.447421312
298.988077545
299.45961628
299.020597458
299.004337502
298.984012556
299.000272512
299.463681269
299.443356323
299.410836411
299.447421312
299.447421312
299.431161356
299.4149014
299.020597458
299.479941225
299.394576454
298.9677526
299.427096367
299.004337502
299.479941225
299.431161356
299.447421312
299.427096367

Average distance is : 299.257 cm
Average deviation is : 0.227 cm
Block: 4
======================================
299.427096367
299.463681269
299.443356323
299.447421312
299.4149014
299.45961628
298.984012556
299.016532469
299.020597458
298.984012556
299.000272512
299.427096367
298.9677526
299.427096367
299.45961628
299.394576454
299.410836411
299.463681269
299.427096367
299.443356323
299.427096367
299.427096367
299.000272512
299.410836411
299.463681269
298.9677526
299.410836411
299.4149014
299.4149014
299.463681269
299.036857414
299.000272512
299.447421312
299.410836411
299.431161356
299.427096367
299.427096367
299.410836411
299.410836411
299.394576454
299.443356323
299.4149014
299.410836411
299.394576454
299.410836411
299.394576454
299.410836411
298.988077545
299.004337502
299.463681269
299.410836411
299.443356323
299.447421312
299.427096367
299.410836411
298.984012556
299.000272512
299.431161356
298.984012556
299.431161356
299.410836411
298.988077545
299.410836411
299.004337502
299.45961628
299.443356323
298.984012556
299.431161356
299.447421312
299.447421312
299.410836411
299.427096367
298.984012556
299.427096367
299.447421312
299.447421312
299.431161356
299.410836411
299.427096367
299.394576454
299.410836411
299.427096367
299.431161356
299.447421312
299.410836411
299.000272512
299.410836411
299.410836411
299.463681269
298.9677526
299.004337502
299.410836411
298.988077545
299.410836411
299.427096367
299.394576454
299.427096367
299.443356323
299.443356323
299.4149014

Average distance is : 299.328 cm
Average deviation is : 0.184 cm
Block: 5
======================================
299.45961628
299.431161356
299.463681269
299.410836411
299.427096367
299.443356323
299.394576454
299.410836411
299.45961628
299.427096367
299.431161356
299.394576454
299.394576454
299.410836411
299.431161356
299.431161356
299.394576454
299.410836411
298.971817589
299.410836411
299.447421312
299.463681269
298.984012556
299.4149014
299.394576454
299.410836411
299.394576454
299.410836411
299.394576454
299.427096367
299.4149014
298.988077545
299.447421312
299.427096367
299.447421312
299.410836411
299.431161356
299.463681269
299.427096367
299.394576454
298.984012556
299.394576454
299.443356323
299.394576454
298.9677526
299.447421312
298.9677526
299.443356323
299.004337502
299.427096367
298.984012556
299.394576454
298.9677526
299.410836411
299.431161356
299.447421312
299.431161356
299.431161356
299.447421312
299.410836411
298.9677526
299.4149014
299.427096367
299.427096367
298.984012556
299.463681269
299.447421312
299.427096367
299.431161356
299.427096367
299.394576454
299.463681269
299.443356323
299.020597458
299.410836411
299.410836411
299.410836411
299.447421312
299.431161356
299.394576454
299.447421312
299.394576454
298.935232687
299.378316498
299.394576454
298.971817589
299.410836411
299.410836411
298.9677526
298.951492643
299.410836411
299.394576454
299.378316498
299.410836411
299.394576454
299.410836411
299.410836411
299.431161356
299.410836411
299.410836411

Average distance is : 299.350 cm
Average deviation is : 0.165 cm
Block: 6
======================================
299.463681269
299.362056541
299.443356323
299.427096367
299.394576454
299.427096367
299.410836411
299.394576454
298.9677526
299.427096367
299.020597458
299.431161356
298.9677526
298.935232687
299.410836411
298.9677526
299.447421312
299.394576454
299.463681269
299.431161356
299.394576454
299.394576454
299.4149014
299.431161356
299.447421312
299.447421312
299.431161356
299.4149014
299.463681269
299.394576454
299.410836411
299.447421312
299.4149014
299.394576454
299.394576454
299.431161356
299.431161356
299.020597458
299.427096367
298.988077545
299.410836411
299.447421312
299.431161356
299.443356323
298.988077545
299.410836411
298.540928745
298.984012556
299.394576454
299.427096367
298.9677526
299.394576454
299.410836411
298.9677526
299.447421312
298.951492643
298.947427654
299.374251509
299.410836411
299.4149014
298.9677526
299.394576454
298.951492643
299.378316498
299.394576454
299.427096367
299.410836411
299.394576454
299.410836411
299.427096367
299.4149014
298.9677526
298.984012556
299.394576454
299.431161356
298.9677526
299.394576454
299.410836411
299.378316498
299.410836411
299.000272512
299.443356323
299.463681269
298.9677526
299.427096367
299.427096367
299.431161356
299.443356323
299.4149014
299.394576454
298.9677526
299.4149014
299.447421312
299.427096367
299.394576454
299.431161356
299.004337502
298.984012556
298.951492643
299.378316498

Average distance is : 299.303 cm
Average deviation is : 0.206 cm
Block: 7
======================================
299.410836411
298.9677526
299.020597458
299.427096367
299.427096367
299.431161356
299.394576454
299.431161356
298.951492643
299.394576454
299.4149014
299.378316498
299.427096367
299.431161356
299.378316498
299.394576454
299.394576454
299.394576454
298.984012556
298.951492643
299.394576454
298.935232687
299.443356323
299.410836411
299.4149014
298.9677526
298.951492643
299.427096367
299.4149014
299.410836411
299.447421312
299.378316498
299.357991552
299.427096367
298.9677526
298.947427654
299.410836411
298.951492643
298.951492643
299.410836411
299.431161356
299.378316498
299.427096367
299.4149014
299.410836411
298.971817589
298.951492643
299.431161356
299.410836411
298.524668789
298.935232687
299.394576454
298.951492643
298.9677526
298.951492643
299.394576454
299.394576454
299.394576454
299.378316498
299.410836411
299.394576454
299.394576454
298.951492643
299.427096367
298.971817589
298.9677526
299.394576454
299.362056541
299.431161356
299.427096367
299.4149014
298.898647785
299.362056541
299.394576454
299.4149014
299.410836411
299.410836411
299.394576454
299.374251509
298.9677526
298.9677526
299.394576454
298.935232687
299.427096367
299.020597458
299.378316498
299.362056541
299.427096367
299.394576454
298.951492643
299.394576454
298.9677526
299.394576454
299.394576454
299.427096367
299.394576454
299.394576454
298.9677526
299.378316498
299.410836411

Average distance is : 299.267 cm
Average deviation is : 0.217 cm
Block: 8
======================================
299.394576454
299.020597458
299.394576454
299.378316498
299.410836411
298.9677526
298.931167698
299.394576454
299.431161356
299.431161356
299.362056541
299.410836411
298.914907742
299.374251509
298.9677526
298.951492643
298.918972731
299.378316498
299.394576454
299.4149014
299.394576454
299.394576454
299.394576454
298.951492643
299.431161356
298.988077545
298.524668789
298.9677526
298.951492643
298.951492643
298.931167698
298.988077545
299.4149014
298.9677526
299.410836411
299.004337502
298.947427654
299.427096367
298.984012556
299.4149014
299.362056541
299.410836411
299.410836411
299.394576454
299.410836411
298.951492643
299.431161356
299.447421312
298.935232687
299.431161356
298.9677526
299.431161356
299.410836411
298.914907742
299.410836411
299.410836411
299.427096367
298.951492643
298.971817589
299.410836411
298.951492643
299.394576454
298.9677526
299.410836411
298.988077545
299.000272512
299.4149014
299.4149014
299.378316498
298.951492643
299.431161356
298.951492643
298.935232687
298.931167698
298.951492643
298.984012556
298.9677526
299.374251509
299.410836411
299.394576454
299.378316498
299.427096367
298.9677526
298.947427654
298.984012556
299.394576454
299.431161356
298.984012556
298.971817589
299.394576454
299.410836411
299.4149014
299.410836411
299.394576454
299.427096367
299.374251509
299.394576454
299.410836411
299.4149014
298.971817589

Average distance is : 299.215 cm
Average deviation is : 0.231 cm
Block: 9
======================================
299.020597458
299.004337502
299.394576454
299.378316498
299.447421312
299.427096367
298.951492643
299.410836411
299.394576454
298.9677526
299.374251509
299.427096367
299.394576454
298.914907742
299.431161356
299.410836411
299.427096367
299.394576454
298.9677526
298.984012556
299.431161356
299.394576454
299.410836411
299.394576454
299.000272512
299.374251509
299.427096367
299.394576454
299.410836411
299.427096367
299.394576454
299.431161356
299.394576454
299.431161356
299.374251509
299.410836411
299.410836411
299.394576454
299.410836411
299.410836411
299.394576454
299.394576454
299.394576454
299.410836411
299.410836411
299.357991552
299.410836411
298.931167698
298.935232687
299.410836411
299.378316498
299.410836411
299.427096367
299.394576454
299.394576454
299.394576454
298.9677526
299.378316498
299.410836411
298.914907742
299.431161356
298.951492643
298.984012556
298.971817589
299.431161356
299.394576454
299.394576454
299.410836411
299.362056541
299.394576454
298.951492643
299.410836411
299.394576454
299.378316498
299.378316498
299.427096367
299.427096367
298.951492643
299.427096367
299.427096367
299.390511465
299.410836411
299.410836411
299.431161356
298.988077545
298.988077545
298.9677526
299.431161356
298.951492643
299.394576454
299.447421312
299.4149014
299.431161356
299.394576454
299.378316498
299.410836411
299.4149014
299.410836411
299.427096367
299.394576454

Average distance is : 299.314 cm
Average deviation is : 0.182 cm
Block: 10
======================================
298.935232687
299.394576454
299.378316498
298.9677526
298.935232687
299.378316498
299.410836411
299.410836411
299.410836411
299.394576454
299.4149014
299.394576454
299.378316498
299.427096367
299.378316498
299.394576454
299.394576454
299.431161356
298.951492643
299.394576454
299.4149014
299.362056541
299.394576454
299.410836411
299.394576454
299.410836411
299.378316498
298.951492643
298.951492643
298.935232687
299.378316498
299.357991552
299.427096367
299.357991552
298.935232687
299.362056541
299.410836411
299.394576454
299.394576454
298.935232687
299.394576454
299.394576454
299.357991552
299.394576454
299.431161356
298.951492643
299.4149014
299.374251509
298.9677526
299.378316498
299.394576454
299.362056541
299.447421312
298.951492643
299.394576454
299.394576454
298.935232687
299.410836411
299.4149014
299.394576454
299.410836411
298.951492643
299.410836411
299.394576454
299.394576454
298.951492643
299.447421312
299.410836411
299.427096367
299.374251509
298.951492643
299.431161356
299.431161356
298.9677526
299.410836411
299.378316498
299.374251509
298.951492643
299.431161356
299.394576454
298.914907742
299.357991552
299.341731596
299.410836411
298.951492643
299.378316498
299.378316498
298.504343843
299.378316498
299.410836411
298.935232687
298.951492643
298.984012556
299.447421312
299.447421312
298.935232687
299.378316498
299.410836411
299.4149014
299.374251509

Average distance is : 299.281 cm
Average deviation is : 0.209 cm