
Block: 1
======================================
99.087100029
63.0734491348
96.0350257158
66.6211241484
93.4868121147
65.9809732437
95.7913553715
67.261275053
97.0097070932
68.1616163254
96.208485961
69.0826076269
95.2379345894
69.1693377495
94.7505939007
70.5735397339
93.8543826342
70.9535002708
93.4909421206
71.403670907
93.0366414785
71.8208014965
92.6029908657
72.237932086
91.7067795992
73.600834012
90.7362282276
74.1046947241
90.323227644
74.5589953661
89.4187563658
75.4552066326
88.9685857296
75.8723372221
88.5514551401
76.2894678116
88.1178045273
76.7189884186
87.1679031849
77.6564997435
87.2174632549
77.2063291073
87.2009432316
77.2269791365
87.2174632549
77.6193296909
86.7672926188
78.0736303329
86.8044626713
78.0901503563
86.3212519884
78.0695003271
86.3171219826
78.1934005022
86.6805624962
78.1934005022
86.6640424728
78.1603604555
86.2138718367
78.5898810625
85.5200308561
79.3208920956
85.5200308561
79.3374121189
85.1070302725
79.7710627317
85.1070302725
79.7380226851
85.0863802433
79.7710627317
84.689899683
80.2047133446
84.2025589943
80.1840633154
84.7064197063

Block: 2
======================================
99.1201400757
64.4735211134
98.632799387
66.4146238565
95.8822154999
68.2689964771
96.105235815
68.3515965939
94.2178231478
68.8554573059
93.8378626108
69.3758380413
93.3876919746
70.2266192436
92.5162607431
70.6602698565
93.6644023657
71.5771311522
92.8631812334
72.4444323778
91.9463199377
72.8409129381
92.0206600428
73.2704335451
91.1368387938
73.7412542105
90.6453680992
74.662245512
89.7119867802
75.5791068077
88.8116455078
76.0623174906
88.3449548483
76.4959681034
87.9113042355
76.9667887688
87.4611335993
77.3963093758
87.0274829865
77.8134399652
86.610352397
78.2636106014
86.1271417141
78.7303012609
86.1271417141
78.7303012609
85.726531148
78.6600911617
86.1973518133
78.6642211676
85.7637012005
79.1309118271
85.297010541
79.5604324341
84.7931498289
79.6471625566
84.8096698523
79.6471625566
84.3264591694
80.5309838057
84.309939146
80.5516338348
84.3223291636
80.5516338348
84.3264591694
79.7504127026
84.689899683
80.1345032454
84.7229397297
80.117983222
84.2562490702
80.6342339516
83.7730383873
81.0183244944
83.3559077978

Block: 3
======================================
99.1201400757
65.9272831678
96.7495167255
67.7444857359
95.2874946594
68.8926273584
95.4816049337
70.015988946
94.3210732937
70.4165995121
93.9741528034
70.8130800724
93.1275016069
72.0975118876
92.2767204046
73.0143731833
91.0831487179
72.4237823486
89.8854470253
73.324123621
89.4187563658
73.7742942572
89.3857163191
73.2745635509
89.488966465
75.3354364634
88.5721051693
75.8186471462
88.5721051693
75.8227771521
88.6216652393
76.2522977591
88.2045346498
76.6529083252
87.7584940195
77.1195989847
87.2546333075
77.5697696209
86.8581527472
78.0199402571
86.4410221577
78.4535908699
85.953681469
78.8665914536
86.0073715448
78.8665914536
86.0238915682
78.7839913368
86.0775816441
78.7839913368
85.6108909845
79.2878520489
85.0863802433
79.7008526325
84.3058091402
80.5351138115
84.3264591694
80.497943759
84.3966692686
80.4442536831
83.9630186558
80.4277336597
84.4297093153
80.4318636656
83.9630186558
80.9315943718
83.5293680429
80.8613842726
83.9960587025
80.8448642492
83.9960587025
80.8448642492
83.5995781422
81.2248247862
83.6326181889

Block: 4
======================================
99.1531801224
62.9825890064
95.7417953014
65.8446830511
94.0113228559
68.2689964771
94.3582433462
69.2891079187
92.9003512859
70.5363696814
91.7232996225
71.8868815899
90.4058277607
73.8651543856
90.0423872471
74.7985357046
89.6087366343
99.5331406593
66.0677033663
97.8893983364
67.3851752281
96.5182363987
68.7150371075
95.6757152081
69.636028409
94.2673832178
70.5528897047
93.8874226809
71.4201909304
93.0036014318
71.8001514673
92.1569502354
73.1176233292
91.2400889397
73.5843139887
90.6990581751
74.1418647766
90.2158474922
74.6250754595
90.7362282276
73.6710441113
90.7692682743
74.0510046482
89.868927002
74.9678659439
89.439406395
75.4758566618
88.9355456829
75.9631973505
88.4316849709
76.4257580042
87.9649943113
76.8428885937
87.5106936693
76.859408617
87.5313436985
76.9130986929
87.494173646
77.3632693291
87.064653039
77.7101898193
86.7177325487
77.466519475
86.9407528639
77.8795200586
86.5071022511
78.350340724
86.0404115915
78.399900794
86.0073715448
78.627051115
85.7843512297
79.0400516987
85.7637012005
78.6064010859

Block: 5
======================================
99.5703107119
64.9443417788
98.1495887041
67.2654050589
94.4078034163
69.685588479
94.6514737606
70.6065797806
93.7346124649
71.0361003876
93.3711719513
71.4532309771
91.8471997976
71.5771311522
90.6825381517
72.4774724245
90.2819275856
72.2833621502
90.422347784
73.171313405
89.6252566576
74.9554759264
89.4187563658
74.9719959497
89.8482769728
74.9926459789
89.3691962957
75.4552066326
88.9520657063
75.8888572454
88.5349351168
76.3225078583
88.0145543814
76.7891985178
87.6180738211
76.8057185411
88.0186843872
76.4794480801
87.9319542646
76.9130986929
87.4817836285
76.9296187162
87.494173646
77.3467493057
87.0440030098
77.3426192999
87.064653039
77.6730197668
86.7177325487
78.1397104263
86.9614028931
77.7101898193
86.6805624962
78.1273204088
86.2469118834
78.6105310917
85.7637012005
79.0607017279
85.800871253
78.6105310917
85.7802212238
79.0441817045
85.3630906343
79.4778323174
84.9500900507
79.890832901
84.4957894087
80.2914434671
84.082788825
80.3244835138
84.4999194145
80.3946936131
84.0125787258
80.7911741734
83.5995781422

Block: 6
======================================
99.1531801224
65.3779923916
97.6622480154
67.3521351814
95.0479543209
69.2230278254
95.0809943676
70.1233690977
94.288033247
70.4868096113
93.9204627275
70.9204602242
93.4702920914
70.9369802475
93.4207320213
71.3830208778
92.9210013151
71.9405716658
92.0371800661
72.8409129381
91.1368387938
71.8868815899
90.7899183035
73.2745635509
88.9851057529
74.20794487
88.4316849709
74.7613656521
88.0517244339
75.2858763933
89.1213959455
75.7195270061
88.654705286
76.1862176657
88.225184679
76.632258296
87.721323967
77.1732890606
87.2339832783
77.1732890606
87.2876733541
77.5697696209
86.8044626713
77.5904196501
87.2339832783
77.1567690372
87.2546333075
77.0989489555
87.3083233833
77.4830394983
86.9614028931
77.9001700878
86.5112322569
78.3875107765
85.6067609787
79.2672020197
85.11942029
79.3043720722
85.0863802433
79.3043720722
85.144200325
79.7173726559
84.689899683
79.7215026617
84.6857696772
79.7173726559
84.6733796597
79.7008526325
84.7064197063
80.1345032454
84.3223291636
80.0808131695
84.309939146
80.4772937298
83.4756779671

Block: 7
======================================
99.136660099
62.5365483761
97.14186728
65.1673620939
94.8579740524
64.4033110142
97.3855376244
66.9019645452
96.6090965271
67.7486157417
95.7913553715
68.6283069849
94.9612241983
69.4666981697
94.0237128735
70.0531589985
93.8709026575
71.403670907
92.5534307957
72.7335327864
91.7232996225
73.1506633759
91.2896490097
74.0014445782
90.4553878307
74.4020551443
89.9721771479
74.5383453369
89.8524069786
75.042206049
89.3485462666
75.4552066326
88.9148956537
75.9425473213
88.4316849709
76.4092379808
88.4316849709
76.4257580042
87.9815143347
76.4092379808
88.4482049942
76.4257580042
87.948474288
77.3426192999
87.0440030098
77.7969199419
86.610352397
77.743229866
86.6640424728
78.1768804789
86.2510418892
78.6105310917
86.2469118834
78.6105310917
86.2634319067
78.6105310917
85.346570611
79.5273923874
85.3507006168
79.4737023115
85.4167807102
79.4406622648
84.9831300974
79.890832901
84.4999194145
80.3740435839
84.4999194145
80.3781735897
84.0869188309
80.7911741734
83.6697882414
81.1380946636
83.7028282881
81.1050546169
83.7028282881

Block: 8
======================================
99.5331406593
64.7708815336
98.3230489492
66.6376441717
95.7087552547
67.5751554966
96.3323861361
68.9421874285
95.4279148579
69.7929686308
94.1310930252
71.1641305685
93.3009618521
71.9736117125
92.3304104805
71.0732704401
91.2400889397
71.9364416599
90.7857882977
72.7913528681
90.0258672237
73.6214840412
88.6588352919
72.9069930315
91.4796292782
73.3076035976
90.5627679825
74.2781549692
90.0754272938
74.3153250217
90.1497673988
74.7489756346
89.6748167276
75.1826262474
89.2081260681
75.6121468544
88.3119148016
76.1118775606
87.8245741129
77.0163488388
87.770884037
77.086558938
87.2876733541
77.086558938
87.3041933775
77.5862896442
86.8540227413
77.9373401403
86.0073715448
78.8707214594
85.5200308561
78.8665914536
85.524160862
79.2300319672
85.1400703192
79.6843326092
84.6692496538
80.1881933212
84.6692496538
79.7173726559
84.689899683
80.1345032454
84.2727690935
80.5681538582
83.8391184807
81.0348445177
83.3393877745
81.5015351772
83.3559077978
81.0513645411
83.3559077978
81.4684951305
82.9387772083
81.4850151539
83.4054678679

Block: 9
======================================
99.1201400757
65.6340527534
97.5094377995
67.0382547379
95.2379345894
68.6489570141
95.2585846186
69.5658183098
94.337593317
70.7304799557
93.680922389
71.1600005627
93.2472717762
71.9942617416
92.4501806498
72.4072623253
91.5498393774
73.2745635509
91.1161887646
74.1955548525
90.2364975214
74.1955548525
89.7285068035
74.9389559031
87.7543640137
75.4386866093
86.8044626713
75.8888572454
86.8540227413
76.2894678116
86.4740622044
76.7561584711
87.1679031849
77.6730197668
86.6970825195
78.1603604555
86.6805624962
78.1934005022
86.1973518133
78.1934005022
86.2138718367
78.6807411909
85.7100111246
79.1804718971
84.8096698523
80.0147330761
83.8391184807
81.001804471
83.426117897
80.9852844477
82.9883372784
81.4684951305
82.9387772083
81.4850151539
82.922257185
81.4684951305
82.9057371616
81.5180552006
83.3393877745
80.6177139282
84.2562490702
80.1345032454
84.7435897589
79.283722043
85.1565903425
79.2506819963
84.7229397297
79.7215026617
84.7270697355
79.6802026033
85.0037801266
79.4447922707
84.9872601032
79.8743128777
84.0869188309

Block: 10
======================================
99.5496606827
62.9660689831
96.2621760368
66.1379134655
94.3871533871
64.6469813585
97.14186728
65.5308026075
96.3158661127
67.1415048838
97.1790373325
67.6288455725
96.7949467897
68.4548467398
95.4816049337
70.2596592903
93.7139624357
71.5771311522
92.3799705505
72.4939924479
91.913279891
72.9772031307
90.9964185953
73.9849245548
90.3851777315
74.9224358797
89.4517964125
75.3891265392
89.0553158522
75.3519564867
88.6216652393
75.7690870762
88.6753553152
76.1862176657
87.7915340662
77.0659089088
86.8746727705
78.0199402571
86.3873320818
78.4907609224
85.9371614456
78.5072809458
85.953681469
78.4329408407
86.4410221577
78.4329408407
86.0238915682
78.3833807707
86.0073715448
78.3833807707
85.6067609787
79.283722043
84.6733796597
80.1840633154
84.2562490702
80.1345032454
84.2562490702
80.1345032454
83.8225984573
80.5681538582
84.309939146
80.117983222
84.2934191227
80.1345032454
84.2066890001
80.6177139282
83.7730383873
80.9109443426
83.4591579437
81.4189350605
83.0296373367
81.8319356441
82.5753366947
81.8319356441
83.0255073309
