
Block: 1
======================================
99.1160100698
65.2540922165
95.650935173
67.5379854441
93.8543826342
66.3485437632
95.6715852022
67.438865304
94.8208039999
67.8023058176
96.435636282
68.3557265997
96.0350257158
69.0123975277
94.9983942509
69.9829488993
93.8874226809
71.2136906385
92.4336606264
72.1842420101
92.0867401361
73.1011033058
91.5663594007
73.6380040646
90.6660181284
74.6085554361
89.2452961206
75.5088967085
89.2989861965
75.9425473213
88.4316849709
76.3018578291
88.0847644806
76.7396384478
87.568513751
77.2063291073
87.0976930857
77.6730197668
87.0811730623
77.6895397902
86.684692502
78.123190403
86.18083179
78.6064010859
86.1973518133
78.6064010859
85.7306611538
79.0441817045
85.2763605118
79.0441817045

Average distance is : 82.221 cm
Average deviation is : 9.824 cm
Block: 2
======================================
99.1201400757
62.6191484928
96.7495167255
64.8906517029
95.2379345894
62.7760887146
98.4262990952
64.6469813585
96.6793066263
65.493632555
98.3189189434
66.9019645452
97.4227076769
67.7981758118
96.5058463812
68.7191671133
95.5848550797
69.206507802
95.171854496
69.6029883623
94.2673832178
70.4331195354
93.8874226809
71.3169407845
93.0407714844
71.7671114206
92.1032601595
72.717012763
91.1492288113
73.6214840412
90.7320982218
74.0510046482
89.8524069786
74.9554759264
89.4022363424
75.4056465626
88.9851057529
75.8021271229
88.5679751635
76.2357777357
88.1219345331
76.6487783194
87.7048039436
76.6529083252
87.29180336
77.516079545
86.3873320818
77.9332101345
86.3708120584
78.3462107182

Average distance is : 82.063 cm
Average deviation is : 11.644 cm
Block: 3
======================================
99.1201400757
64.5974212885
97.2988075018
66.6582942009
95.7046252489
66.6748142242
96.7288666964
67.6288455725
95.3948748112
68.8389372826
94.9983942509
70.2390092611
94.1310930252
71.0897904634
93.2307517529
71.5771311522
92.3262804747
72.4113923311
91.9463199377
72.8409129381
91.4796292782
73.3282536268
91.0459786654
73.2745635509
91.0624986887
73.2745635509
91.0459786654
73.7412542105
90.9262084961
73.8114643097
90.5792880058
74.6787655354
90.1497673988
74.6787655354
89.6954667568
75.0752460957
89.2824661732
75.5088967085
88.8653355837
75.4882466793
88.8446855545
75.975587368
88.377994895
76.4092379808
88.3821249008
76.4257580042
87.8947842121
76.8428885937
87.948474288
76.8263685703

Average distance is : 82.287 cm
Average deviation is : 10.219 cm
Block: 4
======================================
99.136660099
62.2226679325
96.662786603
64.8204416037
95.374224782
63.3997195959
96.9560170174
65.5844926834
96.1713159084
66.0511833429
98.25283885
66.9515246153
96.9353669882
67.8559958935
96.4315062761
68.7687271833
95.5683350563
69.636028409
94.6845138073
70.0531589985
94.2673832178
70.5528897047
93.404211998
71.3830208778
92.9870814085
72.2338020802
91.5993994474
73.6214840412
90.752748251
74.0510046482
90.3190976381
74.4681352377
89.8854470253
74.9017858505
89.4683164358
75.2652263641
88.605145216
76.582698226
87.2876733541
77.0493888855
87.2876733541
77.4995595217
86.8746727705
77.9538601637
86.3708120584
78.4164208174
85.4869908094
78.8335514069
85.5200308561
79.283722043

Average distance is : 82.075 cm
Average deviation is : 11.317 cm
Block: 5
======================================
99.516620636
62.7760887146
96.9188469648
65.7538229227
92.9168713093
66.327893734
94.8249340057
67.4016952515
94.3747633696
67.6949256659
96.0680657625
68.6489570141
95.221414566
69.9994689226
93.8378626108
71.3665008545
92.9375213385
72.2544521093
92.1032601595
72.6881027222
91.6530895233
73.1341433525
90.752748251
74.484655261
89.9019670486
74.9183058739
88.9355456829
75.8888572454
88.5018950701
76.3059878349
88.0682444572
76.7355084419
87.6345938444
77.1567690372
87.1844232082
77.6399797201
87.1637731791
77.6399797201
86.2675619125
78.5733610392
85.7802212238
78.5609710217
86.23039186
78.0529803038
86.3171219826
78.4907609224
86.3006019592
78.4205508232
85.5200308561
78.8500714302

Average distance is : 82.094 cm
Average deviation is : 9.665 cm
Block: 6
======================================
99.5207506418
63.1230092049
96.5017163754
66.6582942009
94.1476130486
67.4719053507
94.1476130486
69.8260086775
92.8177511692
71.4532309771
92.8673112392
72.3535722494
92.0330500603
72.7748328447
91.1161887646
73.6875641346
90.6825381517
74.1253447533
90.2654075623
74.5383453369
89.8358869553
74.5383453369
89.0553158522
75.7690870762
88.6216652393
76.1325275898
87.7915340662
77.0824289322
87.2876733541
77.5202095509
86.8705427647
77.516079545
86.8540227413
78.0034202337
86.3873320818
78.0199402571
86.3873320818
78.5072809458
85.9371614456
78.4907609224
85.953681469
78.3668607473
86.0238915682
78.2966506481
86.0775816441
78.8005113602
85.5902409554
78.7839913368
85.1400703192
79.2672020197

Average distance is : 82.180 cm
Average deviation is : 8.444 cm
Block: 7
======================================
99.1160100698
62.4828583002
96.9725370407
65.3408223391
95.1842445135
63.7136000395
98.0298185349
64.7171914577
96.6958266497
66.3981038332
97.9059183598
67.3149651289
97.09230721
68.1657463312
96.1919659376
68.6489570141
95.2916246653
69.9829488993
93.9576327801
70.9039402008
93.0366414785
71.783631444
92.4997407198
72.287492156
91.6696095467
73.2043534517
91.1492288113
73.6916941404
90.2488875389
74.0014445782
90.372787714
74.3979251385
89.5220065117
75.7525670528
88.6381852627
76.1696976423
88.1880146265
76.6529083252
87.7048039436
77.1526390314
87.2381132841
77.6193296909
86.7507725954
77.6193296909
86.8044626713
77.5697696209
86.8540227413
77.516079545
86.4410221577
78.4370708466

Average distance is : 82.102 cm
Average deviation is : 11.131 cm
Block: 8
======================================
99.136660099
63.8498902321
96.6586565971
66.604604125
94.5110535622
65.0434619188
97.4598777294
66.9680446386
95.6550651789
69.4295281172
94.9116641283
70.3463894129
93.5941922665
71.2632507086
93.1109815836
71.7505913973
92.5575608015
72.1635919809
92.1899902821
73.0680632591
91.2731289864
73.5677939653
90.8229583502
74.4516152143
89.8524069786
75.0215560198
88.9190256596
75.9218972921
88.5184150934
76.3059878349
88.1343245506
76.7231184244
87.7378439903
77.1361190081
87.2876733541
77.6069396734
86.3171219826
78.5072809458
85.8999913931
78.4907609224
85.8834713697
78.9739716053
85.8669513464
78.9739716053
85.8876013756
78.9698415995
85.4209107161
79.4076222181
84.9872601032
79.8743128777

Average distance is : 82.260 cm
Average deviation is : 9.467 cm
Block: 9
======================================
99.1531801224
63.4699296951
97.748978138
64.5809012651
96.6256165504
65.6670928001
96.9023269415
66.7078542709
95.4816049337
69.6029883623
94.7547239065
70.4661595821
93.4579020739
71.8001514673
92.5534307957
72.7211427689
91.7026495934
73.0845832825
90.8725184202
73.9849245548
90.4429978132
74.8315757513
89.5756965876
75.1950162649
89.1750860214
76.1325275898
87.7750140429
77.0328688622
87.3578834534
77.5036895275
86.8540227413
77.5202095509
86.4534121752
78.4370708466
86.003241539
78.3875107765
86.0238915682
78.3668607473
86.5112322569
78.350340724
86.0734516382
78.7839913368
85.6439310312
79.234161973
85.1731103659
79.7008526325
85.1400703192
78.9739716053
85.8999913931
78.9904916286

Average distance is : 82.258 cm
Average deviation is : 9.255 cm
Block: 10
======================================
99.5537906885
64.0398705006
98.0463385582
65.8075129986
95.8450454473
67.261275053
96.1754459143
68.2855165005
95.2379345894
69.86317873
94.0774029493
71.2136906385
92.7103710175
72.6013725996
91.7935097218
73.501713872
90.4595178366
73.931234479
90.4429978132
74.8522257805
89.5922166109
75.26935637
89.1255259514
76.202737689
86.8581527472
76.7355084419
87.5313436985
76.1862176657
87.0440030098
77.2104591131
87.114213109
77.0328688622
87.3041933775
77.0328688622
87.2339832783
77.5697696209
86.6805624962
78.0736303329
86.7342525721
77.6234596968
86.7301225662
78.0571103096
86.7507725954
78.0529803038
86.3171219826
78.4907609224
57.84073174
99.5331406593
66.1048734188
97.7861481905

Average distance is : 82.110 cm
Average deviation is : 10.345 cm
Average distance for 10x50 is : 81.175 cm
Average deviation for 10x50 is : 14.666 cm
 Percentage of values that failed: 0.000