
Block: 1
======================================
200.572787619
200.161494088
199.290040469
199.701334
199.717622852
200.605365324
199.701334
200.141133022
199.680972934
200.589076471
199.717622852
199.717622852
200.141133022
199.273751616
199.701334
199.257462764
199.241173911
199.273751616
199.733911705
199.664684081
199.717622852
199.241173911
200.161494088
199.257462764
199.290040469
199.685045147
199.685045147
200.589076471
200.141133022
199.680972934
199.717622852
199.717622852
199.717622852
199.257462764
200.145205235
199.273751616
200.141133022
199.257462764
200.161494088
200.161494088
199.237101698
199.750200558
199.241173911
199.237101698
199.290040469
199.750200558
199.139368582
199.257462764
200.161494088
199.701334
199.717622852
201.46053009
200.145205235
200.177782941
199.717622852
199.290040469
199.310401535
199.257462764
200.145205235
199.257462764
199.701334
199.253390551
199.257462764
199.257462764
199.273751616
199.257462764
199.294112682
200.12484417
199.701334
200.181855154
199.717622852
199.290040469
199.701334
201.012586641
200.161494088
200.161494088
199.273751616
200.128916383
199.257462764
200.161494088
199.685045147
199.750200558
199.717622852
199.701334
199.701334
199.717622852
199.701334
199.701334
199.273751616
199.273751616
199.273751616
200.161494088
199.701334
200.177782941
200.145205235
199.253390551
199.717622852
200.145205235
199.701334
199.717622852

Block: 2
======================================
199.257462764
199.224885058
200.161494088
199.241173911
200.145205235
199.685045147
200.141133022
200.108555317
200.145205235
199.717622852
200.12484417
199.241173911
199.697261786
199.717622852
201.444241238
200.161494088
199.701334
199.701334
199.717622852
200.11262753
199.680972934
199.237101698
199.701334
200.096338677
200.145205235
200.145205235
199.680972934
199.273751616
199.648395228
199.257462764
200.161494088
199.253390551
199.685045147
199.273751616
199.733911705
200.145205235
199.290040469
200.609437537
200.12484417
199.253390551
199.733911705
200.161494088
199.253390551
199.273751616
200.128916383
199.237101698
199.241173911
200.128916383
200.128916383
199.257462764
200.177782941
199.257462764
199.717622852
200.145205235
200.128916383
199.685045147
199.257462764
199.717622852
199.685045147
199.685045147
200.128916383
199.257462764
201.016658854
200.128916383
199.664684081
199.668756294
199.668756294
200.963720083
199.717622852
199.241173911
199.697261786
200.145205235
200.161494088
200.967792296
199.257462764
200.568715405
199.717622852
199.701334
199.701334
199.241173911
199.685045147
199.668756294
199.697261786
199.220812845
199.204523993
199.697261786
199.697261786
200.128916383
199.220812845
200.145205235
199.680972934
199.241173911
199.241173911
200.128916383
199.680972934
199.237101698
200.161494088
199.237101698
200.128916383
199.717622852

Block: 3
======================================
200.075977612
199.664684081
199.648395228
199.632106376
199.701334
200.12484417
199.697261786
199.701334
199.237101698
200.11262753
200.984081149
199.237101698
200.096338677
199.701334
200.108555317
199.664684081
200.108555317
199.685045147
200.12484417
200.145205235
199.257462764
200.11262753
200.12484417
199.253390551
199.664684081
199.648395228
199.664684081
200.108555317
199.685045147
200.12484417
200.128916383
199.241173911
200.108555317
199.685045147
199.648395228
200.108555317
199.648395228
200.128916383
199.680972934
199.701334
199.664684081
200.11262753
199.273751616
199.668756294
199.680972934
200.128916383
200.523921061
199.668756294
199.664684081
199.685045147
199.668756294
199.685045147
199.717622852
199.685045147
200.572787619
200.12484417
200.092266464
200.11262753
199.668756294
199.224885058
199.680972934
199.680972934
199.241173911
199.224885058
199.257462764
200.108555317
200.984081149
199.237101698
199.685045147
201.016658854
201.000370002
199.697261786
200.075977612
199.664684081
200.145205235
200.145205235
199.648395228
199.237101698
200.519848847
199.668756294
200.161494088
199.664684081
199.717622852
200.568715405
200.12484417
199.668756294
199.717622852
199.701334
199.717622852
199.208596206
199.701334
199.701334
200.145205235
199.685045147
199.220812845
199.664684081
199.701334
200.568715405
200.556498766
200.12484417

Block: 4
======================================
200.572787619
199.664684081
199.208596206
199.697261786
199.701334
200.11262753
200.552426553
199.224885058
199.701334
199.648395228
200.11262753
199.685045147
200.128916383
200.11262753
200.108555317
199.685045147
200.11262753
199.701334
201.423880172
199.652467442
199.664684081
199.685045147
199.680972934
199.664684081
199.701334
199.685045147
199.701334
199.701334
199.701334
200.11262753
199.257462764
200.128916383
199.664684081
199.273751616
200.552426553
199.241173911
200.145205235
199.697261786
200.568715405
199.717622852
199.701334
199.701334
199.717622852
199.685045147
199.685045147
199.701334
199.253390551
199.668756294
200.128916383
199.241173911
199.717622852
199.220812845
200.161494088
199.257462764
199.257462764
199.697261786
200.145205235
199.737983918
199.257462764
199.717622852
200.108555317
200.145205235
199.237101698
200.589076471
199.717622852
199.664684081
200.572787619
200.572787619
200.145205235
200.145205235
199.701334
200.141133022
200.177782941
200.177782941
199.237101698
199.685045147
200.128916383
201.423880172
199.717622852
199.664684081
199.273751616
200.161494088
200.145205235
199.253390551
199.290040469
200.161494088
199.685045147
199.273751616
199.273751616
199.701334
200.141133022
199.717622852
199.290040469
201.444241238
200.161494088
199.290040469
200.128916383
199.685045147
199.701334
199.273751616

Block: 5
======================================
199.685045147
200.210360646
200.177782941
199.770561624
199.257462764
199.273751616
200.605365324
199.290040469
200.141133022
199.701334
200.198144007
199.737983918
199.290040469
199.290040469
199.290040469
199.733911705
200.177782941
199.290040469
199.273751616
199.717622852
199.290040469
199.733911705
199.701334
199.257462764
199.717622852
199.701334
200.128916383
199.253390551
199.290040469
199.257462764
199.717622852
199.733911705
200.145205235
199.733911705
199.717622852
199.733911705
200.194071794
199.733911705
199.717622852
200.177782941
199.717622852
199.750200558
199.737983918
200.165566301
199.733911705
199.717622852
199.717622852
199.701334
199.273751616
199.273751616
199.717622852
200.145205235
199.737983918
199.273751616
200.161494088
199.697261786
199.733911705
199.685045147
199.717622852
199.257462764
200.605365324
199.294112682
199.750200558
199.717622852
200.161494088
199.290040469
200.161494088
200.177782941
200.161494088
200.568715405
199.290040469
199.717622852
200.621654177
199.754272771
199.273751616
199.273751616
199.717622852
200.605365324
200.145205235
199.717622852
199.717622852
199.701334
199.680972934
199.310401535
200.145205235
199.697261786
199.257462764
199.717622852
200.161494088
199.733911705
199.733911705
199.306329322
199.750200558
199.737983918
199.306329322
199.273751616
199.257462764
200.128916383
199.701334
199.717622852

Block: 6
======================================
199.685045147
200.145205235
200.161494088
199.701334
199.733911705
199.701334
199.701334
201.016658854
199.306329322
199.701334
200.605365324
200.589076471
199.717622852
200.145205235
199.697261786
199.306329322
199.717622852
199.701334
200.605365324
199.273751616
199.257462764
199.733911705
199.701334
199.546589899
200.145205235
200.589076471
200.605365324
199.717622852
199.737983918
199.701334
199.717622852
200.589076471
200.145205235
200.161494088
199.737983918
200.12484417
200.161494088
199.701334
199.717622852
199.737983918
200.177782941
199.701334
199.257462764
199.733911705
200.572787619
199.290040469
199.273751616
200.621654177
200.128916383
199.701334
199.701334
199.273751616
199.717622852
199.685045147
199.220812845
199.697261786
199.701334
199.717622852
200.161494088
199.306329322
199.701334
199.717622852
200.145205235
200.141133022
199.701334
199.697261786
199.290040469
200.128916383
200.62572639
200.161494088
199.701334
199.685045147
199.717622852
199.733911705
200.145205235
201.440169024
199.664684081
199.717622852
200.128916383
200.605365324
199.237101698
199.273751616
200.605365324
199.253390551
199.701334
200.605365324
199.701334
199.220812845
199.701334
199.685045147
199.701334
200.161494088
199.717622852
199.717622852
200.145205235
200.145205235
200.145205235
199.733911705
200.161494088
199.717622852

Block: 7
======================================
200.141133022
201.440169024
199.680972934
200.145205235
199.717622852
199.253390551
199.697261786
199.701334
199.269679403
199.273751616
200.589076471
200.161494088
199.717622852
200.177782941
200.141133022
201.032947707
200.161494088
199.733911705
199.685045147
199.733911705
200.12484417
200.145205235
199.257462764
200.145205235
199.717622852
199.664684081
200.161494088
200.141133022
199.273751616
199.733911705
200.161494088
199.257462764
199.685045147
200.145205235
200.589076471
199.717622852
200.589076471
199.701334
200.145205235
199.685045147
199.733911705
199.737983918
199.733911705
199.257462764
201.016658854
200.161494088
200.145205235
199.717622852
199.701334
200.621654177
199.717622852
199.701334
199.253390551
200.128916383
200.145205235
200.145205235
199.717622852
199.733911705
200.161494088
199.273751616
199.680972934
200.145205235
200.128916383
200.145205235
199.717622852
200.145205235
200.177782941
199.701334
199.697261786
199.717622852
200.589076471
200.161494088
200.128916383
199.257462764
199.685045147
200.161494088
199.717622852
199.680972934
200.145205235
199.701334
199.701334
200.145205235
200.141133022
199.668756294
199.717622852
199.701334
199.717622852
199.257462764
199.697261786
199.717622852
199.701334
199.733911705
200.128916383
200.177782941
199.701334
200.605365324
199.717622852
200.12484417
199.697261786
199.733911705

Block: 8
======================================
199.717622852
199.717622852
200.161494088
199.701334
200.556498766
199.701334
201.46053009
199.717622852
199.733911705
200.161494088
200.572787619
200.572787619
199.701334
199.701334
201.476818943
200.589076471
200.161494088
200.145205235
199.257462764
200.177782941
199.290040469
199.290040469
200.128916383
199.733911705
200.12484417
199.680972934
199.680972934
199.717622852
199.257462764
199.701334
200.161494088
200.145205235
200.62572639
199.713550639
199.685045147
199.717622852
199.733911705
199.717622852
199.717622852
200.605365324
199.717622852
200.161494088
200.145205235
200.605365324
200.572787619
199.701334
200.12484417
200.621654177
200.589076471
199.701334
200.572787619
199.701334
200.141133022
199.701334
199.253390551
199.717622852
200.161494088
200.62572639
200.165566301
200.177782941
199.273751616
199.750200558
199.701334
199.717622852
200.177782941
199.253390551
200.177782941
199.717622852
199.685045147
200.161494088
199.273751616
199.717622852
200.141133022
199.697261786
200.177782941
200.161494088
199.754272771
200.984081149
199.750200558
199.750200558
200.161494088
199.717622852
200.161494088
199.733911705
199.717622852
199.717622852
200.605365324
200.145205235
200.621654177
200.145205235
200.161494088
199.306329322
199.733911705
199.701334
199.717622852
200.177782941
200.177782941
200.621654177
199.273751616
200.609437537

Block: 9
======================================
199.685045147
200.589076471
199.770561624
200.177782941
200.589076471
200.177782941
199.717622852
200.605365324
199.717622852
199.733911705
199.310401535
200.181855154
199.290040469
199.269679403
199.697261786
199.733911705
200.161494088
200.161494088
199.273751616
200.177782941
200.161494088
199.306329322
199.786850476
199.733911705
199.754272771
199.273751616
200.605365324
199.269679403
199.290040469
199.733911705
201.032947707
199.717622852
199.717622852
199.290040469
199.717622852
199.717622852
199.733911705
200.572787619
200.589076471
201.46053009
200.165566301
199.733911705
200.605365324
199.733911705
200.177782941
199.306329322
199.737983918
199.290040469
200.621654177
199.733911705
199.733911705
199.717622852
199.733911705
199.733911705
199.273751616
199.273751616
199.717622852
200.177782941
199.306329322
200.161494088
199.273751616
200.177782941
199.717622852
199.733911705
199.754272771
200.145205235
200.165566301
199.733911705
199.701334
200.605365324
199.733911705
199.733911705
199.701334
200.609437537
200.161494088
199.257462764
200.161494088
199.733911705
199.701334
200.605365324
199.273751616
200.181855154
199.733911705
200.161494088
199.717622852
199.733911705
199.717622852
199.733911705
199.697261786
200.609437537
201.032947707
199.273751616
200.621654177
199.273751616
199.733911705
199.273751616
200.055616546
200.161494088
199.717622852
199.273751616

Block: 10
======================================
200.552426553
200.177782941
199.701334
200.605365324
199.697261786
199.306329322
199.750200558
199.273751616
199.701334
199.717622852
199.257462764
199.750200558
199.717622852
199.733911705
200.181855154
200.145205235
200.161494088
200.642015243
199.306329322
199.717622852
199.733911705
199.326690388
200.161494088
200.637943029
199.717622852
199.750200558
200.177782941
200.161494088
199.306329322
199.273751616
199.717622852
199.290040469
200.214432859
199.290040469
200.161494088
199.717622852
199.701334
200.177782941
200.177782941
199.733911705
199.733911705
199.717622852
199.257462764
199.717622852
200.145205235
200.177782941
199.737983918
199.273751616
200.177782941
199.717622852
199.253390551
199.717622852
200.161494088
201.000370002
199.257462764
199.717622852
200.161494088
199.733911705
200.605365324
199.717622852
199.701334
199.717622852
199.273751616
200.605365324
199.273751616
199.754272771
200.198144007
199.273751616
199.733911705
200.145205235
199.737983918
199.273751616
200.605365324
199.717622852
199.290040469
199.717622852
199.257462764
199.685045147
199.737983918
199.701334
199.717622852
200.181855154
200.589076471
200.161494088
200.177782941
199.241173911
201.032947707
199.701334
201.016658854
200.145205235
199.697261786
199.717622852
199.733911705
200.128916383
200.177782941
199.273751616
200.181855154
200.589076471
199.701334
200.605365324
