
Block: 1
======================================
11.0966090202
50.4051447868
50.3681697845
37.0489522934
49.9532280922
50.3517364502
38.4252440453
50.3681697845
50.3476281166
38.458110714
50.3846031189
50.3517364502
40.2534524918
50.3681697845
50.4010364532
39.7892107964
50.4051447868
50.3517364502
40.3356191635
50.3846031189
50.4010364532
40.4260025024
50.3681697845
50.3681697845
40.4629775047
50.3846031189
50.3681697845
40.4588691711
50.3353031158
50.3681697845
40.4958441734
50.3517364502
50.3681697845
40.1507441521
50.3846031189
50.3517364502
40.5451441765
50.3846031189
50.3887114525
39.8385107994
50.3887114525
50.3846031189
40.5451441765
50.3846031189
50.3887114525
40.2863191605
50.3681697845
50.3681697845
40.5451441765
50.3846031189
50.4215781212
40.2205858231
50.4010364532
50.3681697845
40.4588691711
50.4010364532
50.4051447868
39.6865024567
50.3846031189
50.3846031189
40.7546691895
50.3846031189
50.3517364502
40.5451441765
50.4010364532
50.3846031189
40.4588691711
50.4010364532
50.3846031189
40.5122775078
50.3846031189
50.3846031189
40.2041524887
49.9902030945
50.3846031189
50.3681697845
50.3681697845
50.3517364502
50.4010364532
50.3681697845
50.3846031189
50.3517364502
50.3681697845
50.0066364288
50.3887114525
50.4051447868
50.3681697845
49.9860947609
43.0101443291
50.4010364532
50.3681697845
40.4917358398
49.9367947578
50.3681697845
40.8204025269
49.9902030945
50.3846031189
40.7546691895
50.3476281166
49.9409030914

Average distance is : 47.111 cm
Average deviation is : 5.857 cm
Block: 2
======================================
17.2467844009
50.3846031189
49.9696614265
38.4950857162
49.9532280922
49.9532280922
37.6528773308
49.9902030945
49.9696614265
39.8754858017
49.9573364258
49.9737697601
41.1490692139
49.9737697601
50.3517364502
40.9272192001
50.3846031189
50.4215781212
40.2000441551
49.9532280922
49.9902030945
41.2353442192
50.3517364502
49.9696614265
40.7669941902
50.3846031189
49.9532280922
40.8204025269
50.3846031189
50.3887114525
40.2863191605
50.4010364532
50.4051447868
39.8385107994
50.4051447868
50.3681697845
40.9600858688
50.3846031189
50.3846031189
40.290427494
50.4010364532
50.3846031189
40.4260025024
50.3681697845
50.3846031189
40.3931358337
49.9737697601
50.3517364502
40.7546691895
50.3476281166
49.9367947578
40.7546691895
50.3681697845
50.3681697845
39.772777462
50.364061451
50.3681697845
40.9929525375
50.3681697845
50.3681697845
40.4958441734
50.3846031189
50.3681697845
40.2370191574
50.0066364288
50.3681697845
40.5985525131
50.4010364532
50.4010364532
39.7358024597
50.3846031189
50.3681697845
41.0463608742
50.3476281166
49.9902030945
40.8039691925
49.9902030945
50.3681697845
40.7711025238
50.3517364502
50.4010364532
40.3767024994
49.9696614265
50.3846031189
40.7505608559
49.9696614265
50.3681697845
40.7341275215
50.0066364288
50.3681697845
40.9066775322
50.3517364502
50.3476281166
40.1507441521
50.3681697845
50.3887114525
40.7546691895
50.3846031189
50.3846031189
40.4588691711

Average distance is : 46.674 cm
Average deviation is : 5.530 cm
Block: 3
======================================
50.4010364532
50.3517364502
12.5591757774
50.3846031189
50.4010364532
40.7012608528
50.4215781212
50.4010364532
37.7884523392
49.9696614265
50.3846031189
40.8532691956
50.4010364532
50.3681697845
40.2863191605
50.364061451
50.3681697845
40.3027524948
50.4174697876
50.3476281166
40.3725941658
50.4051447868
50.3846031189
40.1343108177
50.3681697845
50.3846031189
40.2863191605
50.3681697845
50.4380114555
39.842619133
50.3846031189
50.364061451
40.7875358582
50.3846031189
50.3476281166
40.7012608528
50.3846031189
50.4010364532
40.3890275002
50.3681697845
50.4215781212
40.2534524918
50.3517364502
50.4010364532
40.4753025055
50.3517364502
50.3846031189
40.0480358124
50.4051447868
50.3846031189
40.8738108635
50.3517364502
50.3887114525
40.4794108391
49.9902030945
50.3846031189
40.3068608284
50.3517364502
50.4010364532
40.8368358612
50.3846031189
49.9532280922
40.9231108665
49.9573364258
50.3353031158
40.7546691895
50.4010364532
50.4010364532
40.4424358368
50.3517364502
50.3681697845
40.1343108177
50.3681697845
49.9367947578
40.3068608284
49.9532280922
50.3846031189
40.3931358337
49.9737697601
50.3846031189
41.2517775536
49.9573364258
49.9737697601
40.3027524948
49.9737697601
49.9902030945
41.6297442436
49.9737697601
49.9532280922
40.8039691925
49.9367947578
49.9367947578
41.6831525803
50.4010364532
49.9902030945
40.3561608315
49.9902030945
49.9860947609
41.3914608955
50.3681697845

Average distance is : 46.768 cm
Average deviation is : 5.742 cm
Block: 4
======================================
50.0066364288
15.7349176407
49.9902030945
50.0066364288
41.4243275642
49.9367947578
49.9902030945
38.4088107109
50.0066364288
50.3681697845
38.4293523788
49.9737697601
49.9532280922
41.1162025452
49.9696614265
50.3846031189
41.1983692169
49.9737697601
50.3681697845
40.8902441978
49.9696614265
50.3517364502
40.9765192032
50.3846031189
49.9532280922
40.8409441948
50.3846031189
50.3681697845
40.5821191788
49.9367947578
49.9203614235
40.8738108635
49.9532280922
50.3681697845
40.9231108665
50.3681697845
50.3681697845
50.3887114525
50.3846031189
50.3846031189
49.9573364258
50.3681697845
49.9532280922
49.9860947609
50.3846031189
49.9860947609
49.9737697601
49.9573364258
50.3517364502
49.9532280922
49.1603197098
50.3846031189
50.3846031189
40.3890275002
50.3681697845
50.0066364288
40.1836108208
49.9367947578
50.4051447868
40.8738108635
49.9203614235
50.3846031189
40.9231108665
49.9532280922
49.9573364258
41.6502859116
49.9532280922
49.9737697601
41.0134942055
50.4010364532
49.9367947578
41.3750275612
50.1093447685
49.9532280922
41.3709192276
50.7995448112
49.9737697601
40.8738108635
50.3887114525
49.9573364258
40.9765192032
50.3887114525
50.3846031189
40.5122775078
50.4010364532
50.3681697845
39.563252449
50.4010364532
50.3517364502
40.2698858261
50.3681697845
50.3681697845
39.8220774651
49.9573364258
50.364061451
40.7012608528
49.9737697601
50.3887114525
41.0627942085
50.3846031189

Average distance is : 47.247 cm
Average deviation is : 5.323 cm
Block: 5
======================================
50.4174697876
15.632209301
50.3846031189
50.0271780968
40.5944441795
49.9367947578
50.4010364532
37.9281356812
49.9696614265
50.4215781212
39.0291690826
49.9902030945
50.4215781212
40.5451441765
49.9737697601
49.9902030945
41.6502859116
50.3681697845
50.3681697845
40.3068608284
49.9573364258
50.3681697845
41.2887525558
50.3681697845
50.3846031189
40.3397274971
50.4051447868
50.3681697845
40.4917358398
50.3476281166
49.9860947609
39.6289857864
50.4010364532
50.3846031189
40.4917358398
50.3846031189
50.3353031158
40.4424358368
50.3846031189
50.3311947823
40.8573775291
50.3846031189
50.3476281166
39.4605441093
49.9532280922
49.9737697601
42.1309609413
49.9902030945
50.3846031189
39.8220774651
50.3517364502
50.3681697845
39.7892107964
50.4051447868
50.3681697845
40.4095691681
50.3681697845
50.4010364532
39.6659607887
50.4215781212
49.9532280922
40.2698858261
50.3681697845
50.3681697845
39.9576524734
50.3846031189
50.3681697845
39.9288941383
49.9737697601
50.3476281166
39.8754858017
50.3681697845
50.4010364532
40.1507441521
50.3681697845
50.3681697845
40.3397274971
49.9696614265
50.3681697845
40.6683941841
50.3846031189
50.3846031189
41.4448692322
50.3681697845
50.3681697845
39.185285759
50.3681697845
50.3681697845
40.5615775108
49.9532280922
49.9696614265
41.2024775505
49.9573364258
50.3681697845
40.9231108665
49.9860947609
50.3846031189
40.9600858688
50.3846031189
50.3846031189

Average distance is : 46.740 cm
Average deviation is : 5.634 cm
Block: 6
======================================
20.1760262489
50.4051447868
49.9902030945
38.9100274086
50.4051447868
50.4010364532
37.5501689911
49.9860947609
50.3846031189
39.2510190964
50.3887114525
50.3887114525
40.5081691742
50.4215781212
50.3681697845
40.5451441765
50.3681697845
50.4051447868
40.2164774895
49.9532280922
49.9532280922
41.6831525803
50.4010364532
49.9737697601
40.7012608528
50.3681697845
49.9860947609
40.6519608498
50.3887114525
50.3846031189
40.8245108604
50.4051447868
50.3681697845
40.5122775078
50.4051447868
50.3681697845
40.1671774864
50.3846031189
50.4010364532
40.9066775322
50.3846031189
50.3681697845
40.2041524887
50.3681697845
49.9367947578
40.2205858231
50.4215781212
50.4010364532
40.3027524948
49.9532280922
49.9860947609
41.5270359039
50.3681697845
50.3846031189
40.2205858231
50.3476281166
49.9532280922
41.3544858932
50.3846031189
50.3681697845
40.5615775108
50.3846031189
50.3517364502
40.4588691711
49.9737697601
50.3887114525
40.3890275002
50.3887114525
50.3681697845
40.6149858475
50.4051447868
50.3681697845
40.8245108604
50.3517364502
50.3681697845
40.4588691711
50.3476281166
50.3846031189
40.1630691528
50.3846031189
50.3681697845
40.5492525101
50.3846031189
50.3846031189
40.9929525375
50.3887114525
50.3887114525
40.1671774864
50.4051447868
50.3681697845
40.9600858688
50.3681697845
50.3846031189
40.5287108421
50.3517364502
50.3846031189
40.5451441765
50.3681697845
50.3846031189
40.5287108421

Average distance is : 46.749 cm
Average deviation is : 5.397 cm
Block: 7
======================================
50.3353031158
49.9532280922
50.4051447868
50.3681697845
50.4174697876
50.4010364532
49.9367947578
50.0066364288
50.4010364532
48.1085863113
50.3517364502
49.9367947578
40.8738108635
50.3476281166
50.4010364532
40.1671774864
50.4174697876
50.4051447868
40.3397274971
49.9696614265
50.3846031189
41.2024775505
50.3681697845
50.4051447868
40.5122775078
50.3846031189
50.3517364502
40.4794108391
50.3517364502
49.9737697601
40.7176941872
50.3846031189
50.3681697845
40.6971525192
50.3517364502
50.3846031189
40.6314191818
50.364061451
50.3846031189
40.4588691711
50.3846031189
50.3517364502
40.5780108452
50.4010364532
50.3846031189
40.4958441734
50.4174697876
50.3681697845
34.1361437798
50.364061451
50.4174697876
39.702935791
50.3846031189
50.4010364532
40.8902441978
50.4215781212
50.3681697845
40.3890275002
50.3517364502
50.3681697845
40.3890275002
50.0066364288
49.9367947578
41.2682108879
50.3887114525
50.4051447868
40.1630691528
49.9532280922
50.4010364532
41.0997692108
49.9902030945
50.3887114525
40.5492525101
50.3681697845
50.3517364502
40.5451441765
49.9860947609
50.3681697845
40.4260025024
49.9532280922
50.4010364532
41.0463608742
49.9737697601
50.3476281166
41.3216192245
49.9696614265
50.3517364502
41.0093858719
50.4051447868
50.4010364532
40.4095691681
50.3681697845
50.4010364532
40.2534524918
49.9696614265
49.9860947609
41.1490692139
50.3887114525
50.4010364532
40.8902441978

Average distance is : 47.307 cm
Average deviation is : 4.584 cm
Block: 8
======================================
49.9902030945
50.3846031189
16.2320260048
50.0066364288
50.4010364532
39.9412191391
49.9573364258
49.9902030945
39.563252449
49.9860947609
50.3846031189
41.2189108849
49.9532280922
49.9902030945
41.0258192062
50.3681697845
50.3846031189
40.7711025238
50.4051447868
49.9367947578
40.8368358612
49.9696614265
50.3846031189
40.3232941628
49.9532280922
49.9367947578
41.6831525803
50.4010364532
50.3846031189
40.5122775078
50.3846031189
50.4051447868
40.3767024994
49.9902030945
50.3681697845
40.3027524948
49.9737697601
50.3846031189
40.8204025269
50.3887114525
50.3517364502
41.0134942055
50.3681697845
50.364061451
40.4588691711
50.3846031189
50.3681697845
40.1671774864
50.4215781212
50.4010364532
40.7875358582
49.9860947609
49.9532280922
41.4941692352
50.3476281166
50.4010364532
39.304427433
49.9696614265
50.3846031189
40.3931358337
50.3681697845
50.4215781212
40.0603608131
49.9696614265
49.9532280922
41.0956608772
49.9573364258
50.4010364532
41.6502859116
50.4010364532
50.3311947823
40.2534524918
50.4051447868
50.4010364532
38.8935940742
50.3517364502
49.9573364258
41.3709192276
49.9367947578
50.3681697845
39.6002274513
50.3681697845
50.4051447868
39.2879940987
50.3846031189
50.3846031189
40.0110608101
49.9696614265
50.3517364502
40.6848275185
50.3681697845
50.3681697845
39.7686691284
50.3846031189
50.3517364502
39.8549441338
50.3681697845
49.9367947578
40.5451441765
50.3846031189

Average distance is : 46.763 cm
Average deviation is : 5.541 cm
Block: 9
======================================
50.4010364532
15.352842617
50.4215781212
50.3517364502
40.1137691498
50.4215781212
50.3517364502
39.2879940987
50.3681697845
50.3846031189
40.9436525345
50.4051447868
50.3681697845
39.6823941231
50.4010364532
50.3846031189
40.4794108391
50.3681697845
49.9367947578
40.6149858475
50.3681697845
50.3846031189
40.5985525131
50.3681697845
50.3846031189
40.2534524918
49.9737697601
50.4051447868
40.5615775108
50.3846031189
50.3846031189
40.9272192001
50.3846031189
49.9696614265
40.4958441734
50.3846031189
50.3846031189
40.7546691895
49.9902030945
50.4010364532
40.5656858444
49.9902030945
50.4010364532
40.6683941841
50.364061451
50.4010364532
40.4424358368
50.4010364532
50.3681697845
39.6659607887
49.9696614265
50.3681697845
41.4613025665
50.3681697845
50.3476281166
40.5451441765
50.3681697845
50.3846031189
40.4917358398
49.9860947609
49.9737697601
40.7012608528
49.9573364258
50.3846031189
41.3216192245
50.4051447868
50.3846031189
40.1630691528
49.9737697601
50.3476281166
41.2517775536
49.9696614265
49.9532280922
41.3051858902
49.9737697601
49.9696614265
41.5106025696
49.9737697601
49.9902030945
41.1162025452
49.9902030945
50.3846031189
40.6642858505
49.9532280922
50.3846031189
40.7176941872
50.4010364532
50.3517364502
40.8409441948
50.3887114525
50.3846031189
40.5122775078
50.3681697845
50.4010364532
40.4958441734
49.9696614265
50.4010364532
40.5287108421
50.4010364532
50.3887114525

Average distance is : 46.829 cm
Average deviation is : 5.531 cm
Block: 10
======================================
50.7995448112
50.3681697845
50.4010364532
49.9860947609
50.3846031189
49.9696614265
50.3846031189
49.9902030945
49.9696614265
49.9902030945
39.0784690857
49.9573364258
50.3887114525
41.2517775536
49.9902030945
49.9573364258
41.1983692169
49.9532280922
49.9573364258
40.7341275215
49.9696614265
49.9573364258
41.6133109093
49.9737697601
50.0066364288
40.5821191788
50.0066364288
50.4010364532
41.2723192215
49.9532280922
49.9696614265
41.2517775536
50.4010364532
49.9860947609
40.7669941902
50.3846031189
49.9532280922
40.9600858688
50.3846031189
50.3681697845
39.8385107994
49.9696614265
50.3476281166
40.8204025269
49.9902030945
49.9532280922
41.6831525803
49.9737697601
50.4010364532
40.5287108421
49.9902030945
49.9532280922
41.6667192459
49.9532280922
50.3887114525
40.8902441978
50.4215781212
49.9860947609
40.5122775078
49.9367947578
49.9573364258
41.6831525803
49.9367947578
50.3681697845
40.9272192001
50.4051447868
50.3846031189
40.0973358154
49.9532280922
49.9696614265
41.4078942299
49.9860947609
50.4010364532
41.1819358826
50.3846031189
49.9573364258
40.6149858475
49.9696614265
49.9902030945
41.0627942085
49.9532280922
50.3517364502
41.3585942268
50.4051447868
50.3846031189
40.3068608284
50.0066364288
49.9696614265
41.0997692108
50.4051447868
50.4010364532
40.9765192032
49.9860947609
49.9573364258
41.2846442223
49.9737697601
50.3846031189
40.5985525131
49.9696614265
50.3846031189

Average distance is : 47.369 cm
Average deviation is : 4.266 cm