
Block: 1
======================================
50.3846031189
50.3517364502
50.4010364532
50.3887114525
37.0653856277

Average distance is : 47.718 cm
Average deviation is : 5.955 cm
Block: 2
======================================
50.3846031189
50.3846031189
17.883576107
50.3846031189
50.3681697845

Average distance is : 43.881 cm
Average deviation is : 14.533 cm
Block: 3
======================================
20.833359623
50.4051447868
50.3681697845
38.3061023712
50.3353031158

Average distance is : 42.050 cm
Average deviation is : 12.960 cm
Block: 4
======================================
50.3517364502
18.8654678345
50.3681697845
50.3476281166
38.6676357269

Average distance is : 41.720 cm
Average deviation is : 13.742 cm
Block: 5
======================================
50.3681697845
50.4215781212
50.4010364532
50.3846031189
50.3846031189

Average distance is : 50.392 cm
Average deviation is : 0.020 cm
Block: 6
======================================
50.3681697845
44.2015610695
49.9367947578
49.9532280922
38.7210440636

Average distance is : 46.636 cm
Average deviation is : 5.109 cm
Block: 7
======================================
49.9532280922
50.4174697876
19.8021678925
50.0066364288
50.3517364502

Average distance is : 44.106 cm
Average deviation is : 13.588 cm
Block: 8
======================================
17.9205511093
50.3846031189
49.9860947609
38.3759440422
49.9696614265

Average distance is : 41.327 cm
Average deviation is : 14.038 cm
Block: 9
======================================
50.4051447868
20.7142179489
50.0066364288
49.9696614265
38.6347690582

Average distance is : 41.946 cm
Average deviation is : 12.871 cm
Block: 10
======================================
50.3681697845
49.9902030945
17.8178427696
49.9696614265
50.3846031189

Average distance is : 43.706 cm
Average deviation is : 14.473 cm