
Block: 1
======================================
48.5059627056
48.4853849173
48.4524604559
48.5059627056
48.4730382442
48.5059627056
48.5059627056
48.4730382442
48.4895004749
48.4895004749
48.4895004749
48.4730382442
48.4853849173
48.4689226866
48.4895004749
48.4730382442
48.4689226866
48.4895004749
48.4895004749
48.4689226866
48.4730382442
48.4730382442
48.4524604559
48.4689226866
48.4730382442
48.4730382442
48.4895004749
48.4895004749
48.4895004749
48.4565760136
48.4895004749
48.4730382442
48.4853849173
48.4689226866
48.4730382442
48.4895004749
48.4895004749
48.4895004749
48.4730382442
48.4895004749
48.4895004749
48.4895004749
48.4689226866
48.4689226866
48.4730382442
48.4689226866
48.4730382442
48.4689226866
48.4565760136
48.4853849173
48.4895004749
48.4565760136
48.4689226866
48.4730382442
48.4689226866
48.4565760136
48.4895004749
48.4565760136
48.4689226866
48.4689226866
48.4565760136
48.4689226866
48.4730382442
48.4853849173
48.4689226866
48.4895004749
48.4895004749
48.4730382442
48.4689226866
48.4730382442
48.4895004749
48.4730382442
48.4895004749
48.4730382442
48.4730382442

Block: 2
======================================
48.4730382442
48.4853849173
48.4895004749
48.4689226866
48.4730382442
48.4730382442
48.4689226866
48.4524604559
48.4524604559
48.4689226866
48.4730382442
48.4895004749
48.4689226866
48.4689226866
48.4730382442
48.4689226866
48.4895004749
48.4895004749
48.4895004749
48.4730382442
48.4730382442
48.4895004749
48.5059627056
48.4895004749
48.4689226866
48.4895004749
48.4895004749
48.4524604559
48.4730382442
48.4895004749
48.4689226866
48.4895004749
48.4730382442
48.4689226866
48.4853849173
48.4895004749
48.4524604559
48.4730382442
48.4689226866
48.4730382442
48.4730382442
48.4895004749
48.4524604559
48.4730382442
48.4895004749
48.4895004749
48.4853849173
48.4853849173
48.4895004749
48.4895004749
48.4524604559
48.4730382442
48.4689226866
48.4895004749
48.4895004749
48.4730382442
48.4689226866
48.4565760136
48.4895004749
48.4524604559
48.4689226866
48.4895004749
48.4524604559
48.4730382442
48.4730382442
48.4895004749
48.4730382442
48.4730382442
48.4853849173
48.4730382442
48.4895004749
48.4689226866
48.4565760136
48.4895004749
48.4895004749

Block: 3
======================================
48.4689226866
48.5059627056
48.4524604559
48.5224249363
48.4730382442
48.5059627056
48.4895004749
48.4853849173
48.4730382442
48.4689226866
48.4895004749
48.4895004749
48.4895004749
48.4895004749
48.4895004749
48.4853849173
48.4689226866
48.4853849173
48.4689226866
48.4895004749
48.4730382442
48.4730382442
48.4853849173
48.4730382442
48.4689226866
48.4730382442
48.4895004749
48.4730382442
48.4895004749
48.4730382442
48.4895004749
48.4853849173
48.4730382442
48.4895004749
48.4689226866
48.4730382442
48.4895004749
48.4689226866
48.4689226866
48.4895004749
48.4895004749
48.5059627056
48.4895004749
48.4730382442
48.4895004749
48.4689226866
48.4895004749
48.4853849173
48.4689226866
48.4853849173
48.4853849173
48.4895004749
48.4895004749
48.4689226866
48.4853849173
48.4853849173
48.4689226866
48.4730382442
48.4730382442
48.4895004749
48.4895004749
48.4895004749
48.4895004749
48.4730382442
48.4730382442
48.4895004749
48.4895004749
48.4689226866
48.4730382442
48.4895004749
48.4895004749
48.4895004749
48.4853849173
48.4853849173
48.4730382442

Block: 4
======================================
48.4730382442
48.4524604559
48.4853849173
48.4730382442
48.4730382442
48.4730382442
48.4730382442
48.4895004749
48.4401137829
48.4853849173
48.5224249363
48.4853849173
48.5059627056
48.5059627056
48.5059627056
48.4689226866
48.4689226866
48.4853849173
48.4895004749
48.4689226866
48.4689226866
48.4853849173
48.4524604559
48.4895004749
48.4689226866
48.5059627056
48.4895004749
48.4853849173
48.4895004749
48.4895004749
48.4895004749
48.4730382442
48.4730382442
48.4524604559
48.4730382442
48.2302203417
48.4853849173
48.4895004749
48.4730382442
48.5059627056
48.4895004749
48.4895004749
48.4689226866
48.4730382442
48.4689226866
48.4730382442
48.4895004749
48.4730382442
48.4895004749
48.4895004749
48.4689226866
48.4730382442
48.4730382442
48.4689226866
48.4689226866
48.4689226866
48.4853849173
48.4524604559
48.4730382442
48.4689226866
48.4895004749
48.4730382442
48.4895004749
48.4730382442
48.4853849173
48.4730382442
48.4730382442
48.4853849173
48.4730382442
48.4895004749
48.4853849173
48.4730382442
48.4895004749
48.4895004749
48.4689226866

Block: 1
======================================
48.8310917616
48.8352073193
48.8475539923
48.8310917616
48.8310917616
48.8187450886
48.8681317806
48.8352073193
48.8516695499
48.8310917616
48.8352073193
48.8516695499
49.2344164133
48.8681317806
48.8475539923
48.8516695499
48.8352073193
48.8516695499
48.8352073193
48.8516695499
48.8352073193
48.8516695499
48.8310917616
48.8516695499
49.263225317
48.8352073193
48.8352073193
48.8516695499
48.8681317806
48.8352073193
48.8516695499
48.8516695499
48.8516695499
48.8516695499
48.8516695499
48.8352073193
48.8516695499
48.8352073193
48.8352073193
48.8516695499
48.8310917616
49.2673408747
48.8516695499
48.8310917616
48.8352073193
48.8310917616
48.8352073193
48.8475539923
48.8352073193
48.8516695499
48.8352073193
48.8516695499
48.8352073193
48.8681317806
48.8516695499
48.8352073193
48.8681317806
48.8516695499
49.263225317
48.8352073193
49.263225317
48.8516695499
48.8516695499
48.8352073193
48.8681317806
48.8352073193
48.8352073193
48.8516695499
48.8516695499
48.8516695499
48.8516695499
49.2467630863
48.8310917616
48.8681317806
48.8516695499

Block: 2
======================================
48.8681317806
48.8516695499
48.8310917616
48.8475539923
48.8310917616
48.8516695499
48.8681317806
48.8845940113
48.8681317806
48.8352073193
48.8352073193
48.8516695499
48.8310917616
48.8516695499
48.8516695499
48.8187450886
48.8516695499
48.8516695499
48.8681317806
48.8352073193
48.8516695499
48.8516695499
48.8681317806
48.8352073193
48.8310917616
48.8187450886
48.8516695499
48.8516695499
48.8352073193
48.8516695499
48.8516695499
48.8187450886
48.8352073193
48.8352073193
48.8146295309
48.8352073193
48.8516695499
48.8516695499
48.8516695499
48.8516695499
48.8352073193
48.8352073193
48.8310917616
48.8352073193
48.8187450886
48.8310917616
48.8516695499
48.8310917616
48.8187450886
48.8310917616
48.8352073193
48.8516695499
48.8475539923
48.8516695499
48.8352073193
48.8187450886
48.8722473383
48.8516695499
48.8516695499
48.8310917616
48.8681317806
48.8310917616
48.8516695499
48.8310917616
48.8516695499
48.8475539923
48.8516695499
48.8516695499
48.8352073193
48.8516695499
48.8681317806
48.8516695499
48.8352073193
48.8516695499
48.8310917616

Block: 3
======================================
48.8681317806
48.8146295309
48.8516695499
48.8516695499
48.8516695499
48.8310917616
48.8352073193
48.8310917616
48.8475539923
48.8475539923
48.8516695499
48.8187450886
48.8187450886
48.8516695499
48.8516695499
48.8310917616
48.8475539923
49.2673408747
48.8352073193
48.8516695499
48.8352073193
48.8516695499
48.8352073193
48.8352073193
48.8310917616
49.250878644
49.2467630863
48.8187450886
48.8352073193
48.8516695499
49.263225317
48.8516695499
48.8681317806
48.8681317806
49.2467630863
48.8516695499
48.8681317806
49.2838031054
48.8516695499
48.8516695499
49.250878644
48.8352073193
49.2838031054
48.8352073193
48.8722473383
48.8352073193
48.8516695499
49.2673408747
48.8352073193
49.263225317
48.8516695499
48.8516695499
48.8516695499
49.263225317
49.2467630863
48.8681317806
48.8352073193
48.8516695499
48.8681317806
48.8352073193
48.8352073193
48.8516695499
48.8310917616
48.8352073193
48.8475539923
48.8516695499
48.8516695499
48.8475539923
48.8352073193
49.2467630863
49.2838031054
49.2838031054
48.8352073193
48.8146295309
48.8516695499

Block: 4
======================================
48.8516695499
48.8722473383
48.8187450886
48.8516695499
49.2467630863
48.8310917616
48.8516695499
48.8352073193
48.8310917616
48.8516695499
48.8516695499
48.8516695499
48.8352073193
48.8310917616
48.8352073193
48.8681317806
48.8310917616
48.8516695499
48.8516695499
48.8516695499
48.8681317806
48.8681317806
48.8352073193
48.8516695499
48.8516695499
48.8475539923
48.8516695499
48.8352073193
48.8516695499
48.8516695499
48.8352073193
48.8187450886
48.8516695499
48.8516695499
48.8475539923
48.8681317806
48.8352073193
48.8516695499
48.8516695499
48.8722473383
48.8310917616
48.8516695499
48.8475539923
48.8681317806
48.8310917616
48.8516695499
48.8516695499
48.8516695499
48.8516695499
48.8681317806
48.8516695499
48.8681317806
48.8681317806
48.8516695499
48.8516695499
48.8516695499
48.8516695499
48.8516695499
48.8352073193
48.8681317806
48.8516695499
48.8516695499
48.8516695499
48.8516695499
48.8516695499
48.8516695499
48.8352073193
48.8516695499
48.8475539923
48.8681317806
48.8475539923
48.8516695499
48.8681317806
48.8310917616
48.8516695499

Block: 5
======================================
48.8516695499
48.8516695499
48.8146295309
48.8681317806
48.8146295309
48.8845940113
48.8187450886
48.8352073193
48.8310917616
48.8722473383
48.8681317806
48.8516695499
48.8352073193
48.8516695499
48.8681317806
48.8516695499
48.8681317806
48.8516695499
48.8516695499
48.8516695499
48.8516695499
48.8516695499
48.8475539923
48.8516695499
48.8681317806
48.8475539923
48.8516695499
48.8681317806
48.8352073193
48.8681317806
48.8352073193
48.8352073193
48.8516695499
48.8516695499
48.8681317806
48.8516695499
48.8516695499
48.8681317806
48.8516695499
48.8516695499
48.8516695499
48.8146295309
48.8352073193
48.8516695499
48.8516695499
48.8516695499
48.8516695499
48.8516695499
48.8516695499
48.8681317806
48.8352073193
48.8516695499
48.8352073193
48.8681317806
48.8516695499
48.8516695499
48.8352073193
48.8681317806
48.8516695499
48.8475539923
48.8516695499
48.8475539923
48.8516695499
48.8516695499
48.8516695499
48.8516695499
48.8352073193
48.8352073193
48.8681317806
48.8516695499
48.8516695499
48.8475539923
48.8310917616
48.8722473383
48.8475539923

Block: 6
======================================
48.8681317806
48.8187450886
48.8845940113
48.7981673002
48.8516695499
48.8681317806
48.8475539923
48.8845940113
48.8310917616
48.8352073193
48.8352073193
48.8516695499
48.8516695499
48.8516695499
48.8475539923
48.8516695499
48.8475539923
48.8352073193
48.8352073193
48.8310917616
48.8516695499
48.8516695499
48.8681317806
48.8516695499
48.8516695499
48.8681317806
48.8516695499
48.8681317806
48.8352073193
48.8516695499
48.8681317806
48.8516695499
48.8516695499
48.8516695499
48.8516695499
48.8516695499
48.8516695499
48.8516695499
48.8516695499
48.8516695499
48.8681317806
48.8475539923
48.8516695499
48.8681317806
48.8516695499
48.8516695499
48.8516695499
48.8310917616
48.8516695499
48.8681317806
48.8516695499
48.8475539923
48.8475539923
48.8516695499
48.8681317806
48.8516695499
48.8681317806
48.8352073193
48.8516695499
48.8681317806
48.8516695499
48.8681317806
48.8681317806
48.8516695499
48.8681317806
48.8681317806
48.8516695499
48.8516695499
48.8681317806
48.8681317806
48.8310917616
48.8516695499
48.8475539923
48.8516695499
48.8516695499

Block: 7
======================================
48.8352073193
48.8475539923
48.8352073193
49.2838031054
48.8352073193
48.8352073193
48.8681317806
48.8681317806
48.8681317806
48.8146295309
48.8310917616
48.8516695499
48.8187450886
48.8516695499
48.8146295309
48.8310917616
48.8516695499
48.8516695499
48.8352073193
48.8516695499
49.2673408747
48.8516695499
48.8516695499
49.2467630863
48.8475539923
49.2673408747
48.8352073193
48.8352073193
48.8475539923
48.8516695499
48.8352073193
48.8516695499
48.8516695499
48.8352073193
49.2673408747
48.8516695499
48.8475539923
48.8310917616
48.8516695499
48.8516695499
48.8516695499
49.263225317
48.8516695499
48.8681317806
48.8516695499
48.8516695499
48.8475539923
48.8681317806
48.8516695499
48.8352073193
48.8681317806
48.8475539923
49.2673408747
49.2467630863
48.8475539923
48.8681317806
48.8516695499
48.8516695499
48.8352073193
48.8310917616
48.8516695499
48.8516695499
48.8516695499
48.8352073193
48.8516695499
48.8146295309
48.8352073193
48.8516695499
48.8516695499
48.8516695499
48.8352073193
48.8516695499
48.8310917616
48.8310917616
48.8681317806

Block: 8
======================================
48.8722473383
48.8516695499
48.8352073193
48.8352073193
48.8352073193
48.8516695499
48.8352073193
48.8516695499
48.8516695499
48.8681317806
48.8516695499
48.8516695499
48.8681317806
48.8516695499
48.8310917616
48.8352073193
48.8310917616
48.8516695499
48.8310917616
48.8352073193
48.8516695499
48.8475539923
48.8310917616
48.8310917616
48.8352073193
48.8310917616
48.8516695499
48.8352073193
48.8516695499
48.8681317806
48.8352073193
48.8681317806
48.8516695499
48.8187450886
48.8352073193
48.8352073193
48.8352073193
48.8352073193
48.8516695499
48.8516695499
48.8516695499
48.8516695499
48.8352073193
48.8516695499
48.8352073193
48.8516695499
48.8352073193
48.8352073193
48.8352073193
48.8516695499
48.8352073193
48.8310917616
48.8310917616
48.8352073193
48.8681317806
48.8352073193
48.8352073193
48.8516695499
48.8352073193
48.8516695499
48.8310917616
48.8352073193
48.8516695499
48.8516695499
48.8352073193
48.8516695499
48.8352073193
48.8310917616
48.8310917616
48.8352073193
48.8681317806
48.8516695499
48.8516695499
48.8516695499
49.2838031054

Block: 9
======================================
48.8516695499
48.8516695499
48.8352073193
48.8352073193
48.8352073193
48.8146295309
48.8516695499
48.8516695499
48.8352073193
48.8352073193
48.8352073193
48.8352073193
49.2673408747
48.8681317806
48.8681317806
48.8681317806
48.8352073193
48.8516695499
48.8681317806
48.8352073193
48.8516695499
48.8516695499
48.8516695499
48.8681317806
48.8352073193
48.8310917616
48.8516695499
48.8310917616
48.8516695499
48.8352073193
48.8516695499
48.8352073193
48.8681317806
48.8310917616
48.8516695499
48.8516695499
48.8352073193
48.8475539923
48.8516695499
48.8516695499
48.8352073193
48.8516695499
48.8352073193
48.8516695499
48.8681317806
48.8516695499
48.8516695499
48.8352073193
49.263225317
48.8352073193
48.8516695499
48.8516695499
48.8310917616
49.2838031054
49.2673408747
48.8352073193
49.2467630863
49.2467630863
48.8475539923
48.8352073193
48.8722473383
48.8475539923
48.8516695499
48.8516695499
48.8352073193
48.8516695499
48.8352073193
48.8352073193
48.8681317806
48.8516695499
48.8516695499
48.8516695499
48.8310917616
48.8681317806
49.2838031054

Block: 10
======================================
48.8352073193
48.8310917616
48.8681317806
48.8681317806
48.8681317806
48.8516695499
48.8352073193
48.8681317806
48.8352073193
48.8681317806
48.8516695499
48.8681317806
48.8352073193
48.8310917616
48.8310917616
48.8475539923
48.8681317806
48.8516695499
48.8516695499
48.8722473383
48.8516695499
48.8516695499
48.8516695499
48.8516695499
48.8681317806
48.8516695499
48.8352073193
48.8516695499
48.8516695499
48.8352073193
48.8516695499
48.9216340303
48.8310917616
48.8310917616
48.8516695499
48.8352073193
48.8516695499
48.8475539923
48.8352073193
48.8310917616
48.8516695499
48.8352073193
48.8516695499
48.8352073193
48.8475539923
48.8516695499
48.8352073193
48.8516695499
48.8475539923
48.8681317806
48.8516695499
48.8516695499
48.8516695499
48.8475539923
48.8310917616
48.8516695499
48.8516695499
48.8516695499
48.8516695499
48.8516695499
48.8516695499
48.8516695499
48.8352073193
48.8516695499
48.8352073193
48.8681317806
48.8516695499
48.8352073193
48.8352073193
48.8516695499
48.8516695499
48.8516695499
48.8516695499
48.8516695499
48.8516695499
