
Block: 1
======================================
48.8516695499
48.8845940113
48.8845940113
48.8516695499
48.8681317806
48.8146295309
48.8310917616
48.8681317806
48.8681317806
48.8516695499
48.8681317806
48.8681317806
48.8187450886
48.8845940113
48.8681317806
48.8352073193
48.8352073193
48.8845940113
48.8516695499
48.8681317806
48.8475539923
48.8681317806
48.8310917616
48.8681317806
48.8681317806

Average distance is : 48.858 cm
Average deviation is : 0.020 cm
Block: 2
======================================
48.9051717997
49.2838031054
48.8681317806
49.2838031054
48.8516695499
48.8516695499
48.8475539923
48.8681317806
48.8187450886
48.8681317806
48.8352073193
48.8516695499
48.9051717997
48.8681317806
48.8516695499
48.8352073193
48.8681317806
48.8310917616
48.8516695499
48.8516695499
48.8475539923
48.8681317806
48.8516695499
48.8681317806
48.8352073193

Average distance is : 48.891 cm
Average deviation is : 0.120 cm
Block: 3
======================================
48.9051717997
48.8845940113
48.8146295309
48.8845940113
48.8516695499
48.8352073193
48.8681317806
48.8516695499
48.8352073193
48.8516695499
48.8681317806
48.8681317806
48.8516695499
48.8516695499
48.8516695499
48.8475539923
48.8516695499
48.8352073193
48.8352073193
48.8310917616
48.8475539923
48.8681317806
48.8516695499
48.8681317806
48.8352073193

Average distance is : 48.854 cm
Average deviation is : 0.020 cm
Block: 4
======================================
48.8681317806
48.888709569
48.8516695499
48.888709569
48.8352073193
48.8516695499
48.8516695499
48.8681317806
48.8516695499
48.8310917616
48.8516695499
48.8681317806
48.8516695499
48.8310917616
48.8475539923
48.8681317806
48.8681317806
48.8681317806
48.8352073193
48.8352073193
48.8352073193
48.8516695499
48.8146295309
48.8681317806
48.8187450886

Average distance is : 48.852 cm
Average deviation is : 0.019 cm
Block: 5
======================================
48.8516695499
48.8352073193
48.8146295309
48.8310917616
48.8187450886
48.8352073193
48.8516695499
48.8146295309
48.8352073193
48.8681317806
48.8475539923
48.8516695499
48.8146295309
48.8681317806
48.8516695499
48.8516695499
48.8146295309
48.8681317806
48.8516695499
48.8516695499
48.8845940113
48.8146295309
48.8352073193
48.8352073193
48.8352073193

Average distance is : 48.841 cm
Average deviation is : 0.020 cm
Block: 6
======================================
48.8516695499
48.8516695499
48.8516695499
48.8352073193
48.8681317806
48.8516695499
48.8681317806
48.8681317806
48.8516695499
48.8681317806
48.8352073193
48.8681317806
48.8516695499
48.8352073193
48.8681317806
48.8352073193
48.8352073193
48.8516695499
48.8310917616
48.8516695499
48.8516695499
48.8352073193
48.8845940113
48.8352073193
48.8681317806

Average distance is : 48.852 cm
Average deviation is : 0.015 cm
Block: 7
======================================
48.8475539923
48.888709569
48.8681317806
48.8516695499
49.2961497784
48.8516695499
48.8516695499
48.8516695499
48.8681317806
48.8475539923
48.8681317806
48.8516695499
48.8681317806
48.8310917616
48.8722473383
48.8516695499
48.8516695499
48.8681317806
48.8516695499
48.8352073193
48.8352073193
48.8516695499
48.8681317806
48.8352073193
48.8352073193

Average distance is : 48.872 cm
Average deviation is : 0.090 cm
Block: 8
======================================
48.8681317806
48.8845940113
48.8681317806
48.8516695499
48.8845940113
48.8516695499
48.8516695499
48.8681317806
48.8681317806
48.8681317806
48.8845940113
48.8352073193
48.8352073193
48.8187450886
48.8310917616
48.8475539923
48.8681317806
48.8681317806
48.8516695499
48.8845940113
48.888709569
48.8516695499
48.8475539923
48.8516695499
48.8516695499

Average distance is : 48.859 cm
Average deviation is : 0.019 cm
Block: 9
======================================
48.8681317806
48.8352073193
48.8516695499
48.8681317806
48.8146295309
48.8516695499
48.8475539923
48.8681317806
48.8516695499
48.8352073193
48.8352073193
48.8352073193
48.8516695499
48.8516695499
48.8516695499
48.8516695499
48.8310917616
48.8681317806
48.8516695499
48.8352073193
48.8516695499
48.8310917616
48.8310917616
48.8475539923
48.8352073193

Average distance is : 48.846 cm
Average deviation is : 0.014 cm
Block: 10
======================================
48.8516695499
48.8845940113
48.8845940113
48.888709569
48.8516695499
48.8516695499
48.8681317806
48.8516695499
48.8722473383
48.8352073193
49.2467630863
48.8516695499
48.8516695499
48.8845940113
48.8352073193
48.8352073193
48.8516695499
48.8516695499
48.8681317806
48.8310917616
48.8681317806
48.8681317806
48.8352073193
48.8681317806
48.8516695499

Average distance is : 48.874 cm
Average deviation is : 0.080 cm