
Block: 1
======================================
200.878203607
200.027111053
200.898564672
200.043399906
199.974172282
200.006749988
200.470982289
199.566950965
200.450621223
200.450621223
200.027111053
200.894492459
200.914853525
200.454693437
200.931142378
200.914853525
200.894492459
200.894492459
200.910781312
200.910781312
200.470982289
200.027111053
200.894492459
200.006749988
199.990461135

Block: 2
======================================
200.931142378
200.88227582
200.006749988
200.043399906
200.027111053
200.027111053
200.039327693
200.487271142
200.010822201
200.02303884
200.927070165
200.931142378
200.059688759
199.546589899
200.931142378
200.487271142
199.562878752
200.02303884
200.02303884
200.914853525
200.02303884
200.02303884
200.043399906
200.503559995
200.059688759

Block: 3
======================================
200.454693437
200.910781312
200.027111053
200.931142378
199.59952867
200.914853525
200.931142378
200.910781312
200.910781312
200.894492459
200.910781312
200.910781312
200.487271142
200.470982289
200.910781312
200.466910076
200.450621223
199.583239818
200.039327693
200.075977612
200.931142378
200.450621223
200.006749988
200.02303884
200.931142378

Block: 4
======================================
200.02303884
200.059688759
200.039327693
200.487271142
200.006749988
199.579167604
200.043399906
200.947431231
200.059688759
200.914853525
200.075977612
200.043399906
200.027111053
200.043399906
200.043399906
200.927070165
200.043399906
200.059688759
200.039327693
200.039327693
200.027111053
200.039327693
200.043399906
200.043399906
200.043399906

Block: 5
======================================
200.027111053
200.02303884
200.043399906
200.503559995
200.466910076
200.523921061
200.006749988
200.466910076
200.055616546
200.059688759
200.059688759
200.059688759
199.583239818
200.043399906
200.02303884
200.075977612
200.043399906
200.059688759
200.02303884
200.043399906
200.059688759
200.039327693
200.027111053
200.059688759
200.027111053

Block: 6
======================================
200.043399906
199.583239818
200.914853525
200.027111053
200.450621223
200.043399906
200.931142378
199.595456457
200.931142378
199.579167604
200.519848847
200.503559995
199.579167604
200.075977612
199.59952867
199.583239818
199.615817523
200.483198929
200.039327693
200.927070165
199.562878752
200.059688759
200.075977612
199.579167604
200.947431231

Block: 7
======================================
200.043399906
200.043399906
200.059688759
200.043399906
200.043399906
200.02303884
200.059688759
200.927070165
200.503559995
200.059688759
200.487271142
200.043399906
199.566950965
200.043399906
200.02303884
200.02303884
200.043399906
200.027111053
200.454693437
200.466910076
200.487271142
200.470982289
199.61174531
200.450621223
200.487271142

Block: 8
======================================
200.931142378
200.027111053
200.027111053
200.027111053
200.02303884
200.931142378
200.027111053
200.043399906
200.043399906
200.931142378
200.059688759
200.487271142
200.059688759
200.947431231
200.914853525
200.519848847
200.927070165
200.931142378
200.927070165
200.059688759
200.039327693
200.931142378
200.470982289
200.055616546
200.487271142

Block: 9
======================================
199.579167604
200.931142378
200.450621223
200.947431231
200.010822201
200.947431231
200.910781312
199.990461135
200.454693437
200.466910076
200.931142378
200.454693437
200.470982289
200.02303884
200.454693437
199.59952867
200.006749988
200.910781312
200.931142378
200.931142378
200.487271142
200.487271142
200.454693437
200.910781312
200.487271142

Block: 10
======================================
200.02303884
200.043399906
200.02303884
200.450621223
200.043399906
199.579167604
200.010822201
200.470982289
200.931142378
200.450621223
200.470982289
200.470982289
200.483198929
200.931142378
200.487271142
200.487271142
200.470982289
199.579167604
200.466910076
200.927070165
200.006749988
200.006749988
200.450621223
200.450621223
199.990461135
