
Block: 1
======================================
201.187691808
200.690881801
200.247010565
200.723459506
200.711242867
200.723459506
200.711242867
201.187691808
201.171402955
200.707170653
200.299949336
201.20398066
200.707170653
200.27958827
200.743820572
201.167330742
200.743820572
201.199908447
200.829337049
200.723459506
201.167330742
200.727531719
201.220269513
201.155114102
200.723459506

Block: 2
======================================
200.760109425
200.776398277
200.760109425
200.332527041
201.187691808
201.183619595
200.808975983
200.825264835
201.631563044
200.813048196
201.171402955
201.167330742
200.295877123
200.829337049
201.167330742
200.808975983
200.808975983
201.171402955
200.813048196
200.760109425
201.167330742
200.332527041
201.171402955
200.707170653
200.36917696

Block: 3
======================================
200.316238189
200.707170653
200.283660483
200.247010565
200.743820572
201.167330742
201.171402955
200.79268713
201.151041889
200.295877123
200.27958827
200.263299417
200.27958827
201.171402955
200.808975983
201.187691808
200.690881801
200.743820572
200.743820572
201.171402955
200.316238189
200.760109425
201.134753036
201.155114102
201.171402955

Block: 4
======================================
201.171402955
200.727531719
200.743820572
200.267371631
200.263299417
201.167330742
201.167330742
200.727531719
201.151041889
201.187691808
200.690881801
200.711242867
201.20398066
200.723459506
201.183619595
200.707170653
200.813048196
201.151041889
200.690881801
201.171402955
200.247010565
200.829337049
200.707170653
201.20398066
200.690881801

Block: 5
======================================
201.171402955
201.167330742
200.690881801
201.151041889
201.220269513
201.183619595
200.743820572
200.690881801
200.707170653
200.723459506
200.247010565
201.187691808
200.263299417
200.247010565
200.727531719
200.743820572
200.743820572
200.743820572
200.263299417
200.723459506
200.707170653
201.171402955
200.711242867
200.707170653
200.707170653

Block: 6
======================================
200.727531719
200.711242867
200.267371631
200.690881801
201.151041889
200.263299417
200.723459506
200.776398277
200.723459506
200.711242867
200.723459506
200.739748359
200.711242867
200.247010565
200.707170653
200.743820572
200.727531719
201.199908447
200.707170653
200.711242867
200.247010565
200.723459506
200.723459506
200.743820572
200.739748359

Block: 7
======================================
201.183619595
201.171402955
201.171402955
200.332527041
201.187691808
201.183619595
200.690881801
200.690881801
201.187691808
201.167330742
200.707170653
200.483198929
200.727531719
201.167330742
200.825264835
201.167330742
201.167330742
200.247010565
200.723459506
200.727531719
200.707170653
201.171402955
200.723459506
201.151041889
201.187691808

Block: 8
======================================
201.171402955
200.743820572
200.674592948
200.694954014
201.183619595
201.187691808
200.723459506
200.743820572
201.171402955
201.20398066
201.20398066
200.690881801
201.171402955
200.711242867
201.171402955
200.727531719
200.247010565
200.707170653
200.690881801
200.723459506
200.263299417
200.743820572
201.171402955
200.723459506
200.727531719

Block: 9
======================================
200.27958827
201.187691808
201.171402955
201.171402955
201.171402955
200.707170653
200.707170653
200.723459506
200.707170653
200.707170653
200.723459506
201.187691808
200.707170653
200.263299417
201.167330742
201.151041889
200.694954014
200.707170653
200.727531719
200.263299417
200.690881801
200.711242867
200.316238189
200.247010565
201.167330742

Block: 10
======================================
201.151041889
201.167330742
201.167330742
200.723459506
201.167330742
200.690881801
201.20398066
200.739748359
201.134753036
200.776398277
200.743820572
200.743820572
200.711242867
200.711242867
200.707170653
200.283660483
200.247010565
200.247010565
200.299949336
200.690881801
201.187691808
200.707170653
200.247010565
200.727531719
200.727531719
