
Block: 1
======================================
200.295877123
200.295877123
200.263299417
200.743820572
201.171402955
200.27958827
200.316238189
200.808975983
201.20398066
200.348815894

Average distance is : 200.573 cm
Average deviation is : 0.379 cm
Block: 2
======================================
201.20398066
201.167330742
201.220269513
200.723459506
200.332527041
201.183619595
201.187691808
200.739748359
201.171402955
201.20398066

Average distance is : 201.013 cm
Average deviation is : 0.307 cm
Block: 3
======================================
200.756037211
200.776398277
200.743820572
200.332527041
200.776398277
200.27958827
200.760109425
201.171402955
201.20398066
200.295877123

Average distance is : 200.710 cm
Average deviation is : 0.328 cm
Block: 4
======================================
200.743820572
200.283660483
200.739748359
200.723459506
200.739748359
200.743820572
200.316238189
200.808975983
201.187691808
200.316238189

Average distance is : 200.660 cm
Average deviation is : 0.281 cm
Block: 5
======================================
200.299949336
200.316238189
200.263299417
200.27958827
200.813048196
201.20398066
200.711242867
201.183619595
201.183619595
200.808975983

Average distance is : 200.706 cm
Average deviation is : 0.397 cm
Block: 6
======================================
200.743820572
200.295877123
200.295877123
200.365104747
201.187691808
201.20398066
201.032947707
200.743820572
200.263299417
200.295877123

Average distance is : 200.643 cm
Average deviation is : 0.390 cm
Block: 7
======================================
200.727531719
200.283660483
200.727531719
200.247010565
201.20398066
200.776398277
201.171402955
201.20398066
200.79268713
200.723459506

Average distance is : 200.786 cm
Average deviation is : 0.342 cm
Block: 8
======================================
200.316238189
200.79268713
201.220269513
200.263299417
201.171402955
200.727531719
200.723459506
200.845625901
201.167330742
200.776398277

Average distance is : 200.800 cm
Average deviation is : 0.331 cm
Block: 9
======================================
200.299949336
200.348815894
200.813048196
200.739748359
201.151041889
200.813048196
201.187691808
201.167330742
201.20398066
200.707170653

Average distance is : 200.843 cm
Average deviation is : 0.337 cm
Block: 10
======================================
200.723459506
201.20398066
200.283660483
200.283660483
201.20398066
201.183619595
200.727531719
201.187691808
201.20398066
201.155114102

Average distance is : 200.916 cm
Average deviation is : 0.384 cm