
Block: 1
======================================
401.012120986
400.975731134
400.518836331
400.555226183
401.873347473
401.41645267
400.959557867
401.41645267
400.535009599
400.9433846
400.555226183
400.975731134
401.41645267
401.41645267
401.873347473
401.861217523
400.518836331
400.959557867
400.518836331
401.857174206
400.535009599
400.555226183
400.995947719
401.873347473
401.400279403

Block: 2
======================================
400.498619747
400.518836331
401.87739079
401.41645267
401.400279403
400.9433846
400.535009599
401.41645267
400.518836331
400.975731134
401.400279403
400.975731134
402.301939058
401.861217523
400.959557867
401.841000938
400.518836331
401.400279403
401.380062819
400.535009599
401.41645267
401.41645267
401.41645267
401.841000938
402.742660594

Block: 3
======================================
402.706270742
400.991904402
400.979774451
400.975731134
400.975731134
400.995947719
402.281722474
401.861217523
400.975731134
400.518836331
400.9433846
401.41645267
400.959557867
401.41645267
400.959557867
400.959557867
400.975731134
400.959557867
400.995947719
400.975731134
400.975731134
400.959557867
400.991904402
401.857174206
400.959557867

Block: 4
======================================
401.857174206
401.792481136
401.87739079
401.824827671
401.400279403
401.841000938
401.824827671
401.820784354
402.686054158
402.690097475
401.808654404
401.367932868
402.265549207
401.41645267
401.824827671
401.384106135
401.41645267
401.824827671
400.939341283
401.841000938
400.906994748
401.384106135
401.380062819
401.367932868
401.824827671

Block: 5
======================================
400.959557867
401.87739079
401.400279403
401.841000938
401.400279403
401.400279403
400.9433846
401.008077669
400.959557867
400.9433846
401.841000938
400.979774451
401.41645267
401.41645267
401.396236086
401.841000938
401.824827671
402.72244401
401.41645267
401.384106135
401.41645267
401.41645267
400.959557867
401.400279403
400.9433846

Block: 6
======================================
401.012120986
401.400279403
401.452842522
401.41645267
400.975731134
401.448799205
400.975731134
400.551182866
401.008077669
401.008077669
400.535009599
400.975731134
400.551182866
400.991904402
400.991904402
401.452842522
401.008077669
401.008077669
401.436669254
401.889520741
400.57139945
401.452842522
400.551182866
401.012120986
400.535009599

Block: 7
======================================
400.57139945
400.567356133
401.452842522
400.551182866
400.587572718
400.583529401
400.551182866
400.587572718
401.008077669
401.044467521
401.452842522
400.535009599
400.995947719
400.603745985
400.57139945
401.012120986
400.991904402
400.535009599
401.469015789
401.469015789
401.012120986
401.028294253
401.464972472
400.57139945
401.028294253

Block: 8
======================================
401.008077669
401.464972472
400.57139945
401.946127176
401.044467521
401.925910592
400.587572718
400.603745985
400.567356133
401.925910592
401.044467521
401.008077669
400.587572718
401.925910592
400.587572718
401.485189056
401.485189056
401.044467521
401.485189056
401.060640788
400.619919252
400.603745985
401.501362324
401.044467521
401.044467521

Block: 9
======================================
401.044467521
400.587572718
401.942083859
400.63609252
400.63609252
400.63609252
400.247934103
400.195370984
401.942083859
402.35045886
401.060640788
401.080857372
400.63609252
401.076814055
401.076814055
401.076814055
400.179197717
400.640135837
401.925910592
400.63609252
402.366632128
400.211544251
400.652265787
401.09703064
400.619919252

Block: 10
======================================
400.656309104
400.619919252
400.619919252
400.652265787
401.076814055
401.044467521
401.044467521
400.619919252
400.619919252
401.080857372
400.603745985
400.619919252
400.619919252
401.076814055
401.076814055
401.909737325
401.909737325
401.028294253
401.501362324
401.060640788
401.044467521
401.501362324
401.040424204
400.603745985
401.060640788
