
Block: 1
======================================
400.57139945
400.551182866
401.028294253
401.028294253
400.583529401
400.599702668
400.583529401
401.040424204
401.012120986
401.028294253
401.008077669
401.452842522
401.012120986
400.991904402
402.297895741
401.452842522
401.893564057
400.551182866
401.893564057
400.991904402
400.991904402
400.995947719
400.991904402
400.995947719
401.012120986
400.991904402
401.857174206
401.873347473
401.452842522
400.95551455
401.452842522
400.975731134
401.452842522
401.400279403
401.452842522
400.991904402
401.873347473
400.975731134
401.873347473
400.975731134
403.146992278
401.873347473
401.873347473
400.995947719
401.012120986
401.41645267
400.975731134
400.991904402
400.975731134
401.41645267
400.975731134
400.975731134
401.41645267
401.873347473
401.432625937
400.975731134
401.384106135
400.959557867
401.41645267
401.41645267
400.995947719
401.400279403
401.436669254
401.41645267
400.959557867
401.820784354
400.959557867
400.927211332
400.9433846
401.400279403
401.824827671
400.991904402
402.265549207
401.841000938
400.959557867

Block: 2
======================================
400.959557867
400.927211332
400.959557867
401.41645267
401.857174206
401.436669254
401.436669254
400.975731134
400.975731134
401.841000938
400.959557867
401.841000938
400.959557867
401.861217523
401.873347473
401.87739079
400.975731134
400.991904402
401.841000938
400.975731134
401.824827671
400.975731134
401.41645267
400.995947719
400.975731134
401.41645267
401.41645267
400.9433846
400.991904402
400.975731134
401.857174206
400.555226183
401.436669254
401.432625937
400.502663064
400.518836331
400.995947719
400.975731134
401.420495987
401.841000938
401.432625937
400.975731134
403.167208862
400.514793015
400.959557867
400.975731134
400.975731134
400.975731134
401.857174206
400.514793015
400.535009599
401.432625937
400.959557867
400.518836331
400.555226183
400.535009599
400.995947719
400.555226183
400.551182866
401.432625937
402.314069009
401.893564057
401.452842522
400.991904402
400.551182866
400.518836331
401.432625937
400.551182866
400.995947719
401.889520741
400.975731134
400.995947719
400.567356133
401.012120986
400.551182866

Block: 3
======================================
400.583529401
401.060640788
401.485189056
401.485189056
400.587572718
401.044467521
401.485189056
400.603745985
400.587572718
401.501362324
400.603745985
401.469015789
401.485189056
401.485189056
400.567356133
401.464972472
401.469015789
401.060640788
401.485189056
400.587572718
400.587572718
402.366632128
401.469015789
401.485189056
401.485189056
401.517535591
400.587572718
400.587572718
401.485189056
400.619919252
400.619919252
402.366632128
401.044467521
400.583529401
401.501362324
401.044467521
400.63609252
400.179197717
401.060640788
400.603745985
401.060640788
401.060640788
401.076814055
400.656309104
401.10916059
401.076814055
401.537752175
400.640135837
401.10916059
400.656309104
401.092987323
401.553925443
401.092987323
401.09703064
401.553925443
400.684612322
400.688655639
401.57009871
400.688655639
400.672482371
401.57009871
401.57009871
401.129377174
400.672482371
401.129377174
401.129377174
401.129377174
400.243890786
401.113203907
400.704828906
401.145550442
400.704828906
400.688655639
401.145550442
400.26410737

Block: 4
======================================
400.300497222
400.26410737
400.247934103
400.741218758
400.296453905
400.26410737
400.296453905
400.741218758
400.312627172
400.280280638
400.280280638
400.280280638
400.280280638
401.622661829
400.721002173
400.753348708
400.737175441
400.741218758
402.026993513
400.296453905
400.300497222
400.296453905
400.280280638
401.198113561
400.296453905
401.602445245
400.72504549
400.753348708
400.72504549
400.721002173
400.721002173
400.300497222
400.296453905
401.586271977
400.300497222
400.721002173
400.26410737
400.316670489
400.721002173
400.741218758
400.721002173
400.721002173
399.855732369
400.721002173
400.72504549
400.721002173
400.721002173
400.72504549
400.721002173
400.26410737
400.721002173
402.047210097
400.243890786
400.704828906
400.26410737
400.231760836
400.243890786
400.26410737
400.688655639
400.26410737
400.688655639
400.704828906
400.688655639
400.247934103
400.247934103
400.26410737
401.990603662
400.247934103
401.129377174
400.684612322
400.688655639
400.704828906
400.688655639
401.125333858
400.688655639

Block: 5
======================================
400.688655639
400.684612322
400.688655639
400.247934103
401.10916059
401.57009871
401.129377174
401.076814055
401.09703064
401.533708858
400.63609252
400.652265787
400.652265787
401.942083859
400.63609252
400.656309104
401.060640788
400.619919252
401.080857372
400.63609252
400.619919252
401.246633363
400.619919252
400.619919252
400.63609252
401.501362324
400.619919252
401.501362324
401.060640788
401.060640788
401.946127176
400.603745985
401.060640788
401.060640788
401.044467521
401.060640788
401.501362324
401.942083859
401.485189056
400.623962569
401.485189056
401.464972472
401.044467521
401.060640788
400.587572718
402.35045886
401.925910592
400.619919252
400.603745985
401.028294253
401.060640788
401.044467521
400.587572718
401.060640788
401.060640788
401.024250937
401.044467521
401.044467521
401.044467521
401.501362324
401.485189056
400.619919252
401.485189056
400.587572718
401.501362324
401.044467521
401.044467521
401.044467521
400.603745985
400.599702668
401.925910592
400.583529401
401.485189056
400.587572718
400.587572718

Block: 6
======================================
400.991904402
400.975731134
401.008077669
400.979774451
400.991904402
400.959557867
401.87739079
401.857174206
401.87739079
401.873347473
401.41645267
401.857174206
400.995947719
400.959557867
401.857174206
401.857174206
400.959557867
401.857174206
400.959557867
402.301939058
401.41645267
400.959557867
400.975731134
401.41645267
401.857174206
401.87739079
401.41645267
401.87739079
401.436669254
401.436669254
401.41645267
401.841000938
400.975731134
401.861217523
401.857174206
401.41645267
401.857174206
401.841000938
401.857174206
401.400279403
401.857174206
400.975731134
401.400279403
402.72244401
401.41645267
400.959557867
400.995947719
401.87739079
401.41645267
401.008077669
402.281722474
400.959557867
400.991904402
401.41645267
401.432625937
401.87739079
402.314069009
402.72244401
401.41645267
402.706270742
401.889520741
400.57139945
401.448799205
401.469015789
401.893564057
401.452842522
401.452842522
401.448799205
401.464972472
401.008077669
401.012120986
401.012120986
401.008077669
401.028294253
401.012120986

Block: 7
======================================
400.587572718
400.587572718
401.024250937
400.603745985
401.044467521
401.501362324
400.619919252
400.603745985
401.485189056
401.028294253
400.587572718
401.044467521
400.603745985
401.060640788
401.060640788
401.028294253
401.044467521
401.485189056
400.603745985
401.012120986
401.485189056
401.024250937
401.909737325
401.464972472
401.909737325
401.044467521
400.603745985
400.599702668
402.35045886
401.028294253
401.044467521
401.925910592
401.909737325
401.044467521
403.199555397
401.925910592
400.583529401
400.583529401
401.469015789
401.485189056
400.583529401
401.012120986
400.603745985
401.925910592
400.567356133
400.603745985
401.024250937
401.485189056
402.334285593
401.521578908
401.925910592
401.909737325
401.485189056
401.925910592
401.925910592
401.485189056
401.485189056
401.044467521
401.925910592
401.469015789
401.044467521
401.024250937
401.044467521
401.044467521
401.505405641
401.028294253
401.060640788
401.060640788
401.076814055
401.064684105
401.076814055
401.060640788
401.064684105
401.060640788
401.485189056

Block: 8
======================================
401.942083859
402.366632128
401.958257127
401.044467521
401.044467521
401.060640788
401.044467521
401.044467521
401.060640788
401.060640788
401.060640788
401.501362324
402.403021979
401.517535591
401.978473711
401.958257127
401.942083859
401.501362324
401.485189056
401.942083859
401.501362324
401.060640788
401.517535591
401.040424204
401.076814055
401.044467521
401.076814055
401.501362324
401.076814055
401.958257127
401.060640788
401.076814055
401.942083859
401.092987323
401.09703064
401.092987323
401.076814055
401.060640788
401.064684105
401.978473711
401.076814055
401.925910592
401.946127176
401.501362324
401.485189056
401.537752175
401.024250937
401.501362324
401.501362324
401.044467521
401.501362324
401.501362324
401.485189056
401.501362324
401.505405641
401.942083859
401.060640788
401.080857372
401.064684105
401.076814055
401.080857372
401.485189056
401.076814055
401.553925443
401.942083859
401.521578908
401.533708858
401.962300444
401.092987323
401.501362324
401.958257127
401.060640788
402.403021979
401.974430394
401.958257127

Block: 9
======================================
401.501362324
401.521578908
401.299196482
401.942083859
401.076814055
401.09703064
401.958257127
401.060640788
401.521578908
401.092987323
401.994646978
400.619919252
401.092987323
401.09703064
401.113203907
401.533708858
400.63609252
400.656309104
400.63609252
401.537752175
400.619919252
400.619919252
401.09703064
401.080857372
401.533708858
401.060640788
401.517535591
400.672482371
401.521578908
401.076814055
400.656309104
401.517535591
401.076814055
401.076814055
401.076814055
401.946127176
401.533708858
400.656309104
401.092987323
400.668439054
401.10916059
400.652265787
400.672482371
401.10916059
400.684612322
400.672482371
400.688655639
401.113203907
400.672482371
400.656309104
400.26410737
400.247934103
400.656309104
402.382805395
400.247934103
400.215587568
400.684612322
400.656309104
401.092987323
400.227717519
400.672482371
400.211544251
400.672482371
400.684612322
400.672482371
400.652265787
401.09703064
400.668439054
400.640135837
401.517535591
400.26410737
400.656309104
400.668439054
400.63609252
400.215587568

Block: 10
======================================
401.10916059
400.652265787
400.227717519
400.211544251
400.672482371
401.962300444
400.211544251
400.215587568
400.195370984
400.215587568
400.211544251
401.092987323
400.195370984
400.211544251
400.211544251
400.195370984
400.195370984
400.63609252
400.179197717
400.668439054
400.619919252
400.195370984
401.076814055
400.211544251
401.501362324
400.215587568
400.63609252
401.060640788
401.064684105
401.040424204
401.501362324
401.060640788
401.060640788
400.603745985
400.640135837
400.63609252
401.076814055
401.044467521
400.603745985
400.619919252
400.619919252
400.599702668
401.060640788
400.603745985
401.080857372
401.485189056
402.366632128
401.024250937
401.521578908
402.346415544
401.505405641
402.366632128
401.501362324
401.517535591
401.501362324
401.942083859
401.505405641
401.060640788
401.060640788
401.044467521
401.060640788
401.521578908
401.958257127
401.501362324
401.501362324
401.925910592
401.501362324
401.501362324
401.501362324
401.060640788
403.231901932
401.942083859
401.501362324
403.215728664
401.060640788
