
Block: 1
======================================
100.404571891
100.850612521
100.834092498
101.251223087
101.214053035
100.780402422
100.363271832
100.784532428
100.801052451
100.383921862
100.817572474
100.780402422
100.796922445
100.817572474
100.817572474
101.267743111
101.234703064
100.784532428
100.400441885
101.197533011
101.251223087
100.416961908
101.251223087
101.214053035
100.383921862

Block: 2
======================================
100.437611938
101.251223087
100.383921862
101.201663017
100.801052451
100.801052451
100.801052451
100.817572474
100.817572474
100.784532428
100.801052451
100.801052451
100.801052451
100.817572474
100.796922445
100.400441885
100.363271832
100.367401838
100.383921862
100.801052451
100.383921862
100.801052451
100.400441885
100.383921862
100.817572474

Block: 3
======================================
100.784532428
101.251223087
100.334361792
100.400441885
101.251223087
100.817572474
100.784532428
100.796922445
100.817572474
100.416961908
100.784532428
100.796922445
100.801052451
100.817572474
100.834092498
100.400441885
100.400441885
101.267743111
100.400441885
100.400441885
100.383921862
100.801052451
100.801052451
100.834092498
100.780402422

Block: 4
======================================
100.383921862
100.813442469
100.817572474
100.817572474
100.421091914
100.801052451
100.813442469
100.796922445
100.817572474
100.801052451
100.817572474
100.801052451
100.817572474
100.400441885
100.801052451
100.404571891
100.367401838
100.780402422
100.801052451
100.780402422
100.520212054
100.383921862
100.416961908
100.383921862
100.784532428

Block: 5
======================================
100.400441885
100.867132545
100.437611938
101.251223087
100.763882399
100.796922445
100.367401838
100.817572474
100.854742527
100.383921862
100.796922445
100.796922445
100.784532428
100.801052451
100.400441885
100.400441885
100.400441885
100.433481932
100.400441885
100.383921862
101.251223087
100.437611938
100.383921862
100.416961908
100.801052451

Block: 6
======================================
100.763882399
101.230573058
100.421091914
101.267743111
100.850612521
100.813442469
100.416961908
100.383921862
100.400441885
100.784532428
100.817572474
100.817572474
100.801052451
100.834092498
100.383921862
100.454131961
101.267743111
101.267743111
101.230573058
100.433481932
100.404571891
100.400441885
100.383921862
100.173291564
100.400441885

Block: 7
======================================
100.383921862
100.350881815
100.801052451
100.416961908
101.234703064
100.796922445
100.400441885
100.400441885
100.801052451
100.383921862
100.817572474
100.834092498
100.813442469
100.801052451
100.817572474
100.834092498
100.400441885
100.416961908
100.801052451
100.817572474
101.267743111
100.834092498
100.367401838
100.400441885
100.817572474

Block: 8
======================================
100.747362375
100.383921862
100.367401838
101.218183041
100.817572474
100.817572474
100.400441885
100.383921862
100.801052451
100.404571891
100.817572474
101.251223087
100.400441885
100.421091914
101.251223087
100.817572474
100.383921862
100.400441885
100.813442469
100.817572474
100.817572474
100.834092498
100.801052451
100.817572474
100.817572474

Block: 9
======================================
100.400441885
101.284263134
100.367401838
100.416961908
101.234703064
100.796922445
100.400441885
100.834092498
100.780402422
100.780402422
101.354473233
100.817572474
100.400441885
100.421091914
100.367401838
100.383921862
100.801052451
100.834092498
100.796922445
100.796922445
100.813442469
100.780402422
100.813442469
100.796922445
100.400441885

Block: 10
======================================
101.214053035
101.267743111
100.780402422
100.421091914
101.251223087
100.801052451
100.383921862
100.796922445
100.784532428
100.346751809
100.796922445
100.801052451
100.817572474
100.383921862
100.416961908
100.363271832
100.363271832
101.251223087
100.400441885
100.400441885
100.367401838
100.421091914
100.416961908
100.437611938
100.817572474
