
Block: 1
======================================
101.251223087
101.218183041
100.834092498
100.383921862
100.400441885
100.400441885
100.416961908
100.400441885
100.400441885
100.834092498

Average distance is : 100.654 cm
Average deviation is : 0.354 cm
Block: 2
======================================
100.416961908
101.230573058
100.850612521
100.383921862
100.400441885
100.796922445
100.383921862
100.780402422
100.796922445
100.801052451

Average distance is : 100.684 cm
Average deviation is : 0.280 cm
Block: 3
======================================
100.383921862
100.801052451
100.801052451
100.404571891
100.383921862
100.817572474
100.367401838
100.383921862
100.801052451
100.747362375

Average distance is : 100.589 cm
Average deviation is : 0.216 cm
Block: 4
======================================
100.383921862
100.400441885
100.817572474
100.383921862
101.110802889
100.367401838
100.383921862
100.817572474
100.817572474
100.801052451

Average distance is : 100.628 cm
Average deviation is : 0.273 cm
Block: 5
======================================
100.400441885
100.437611938
100.763882399
100.367401838
100.421091914
100.784532428
100.796922445
100.801052451
100.817572474
100.801052451

Average distance is : 100.639 cm
Average deviation is : 0.201 cm
Block: 6
======================================
101.234703064
100.421091914
100.763882399
100.383921862
100.834092498
100.416961908
100.383921862
100.796922445
100.763882399
100.400441885

Average distance is : 100.640 cm
Average deviation is : 0.285 cm
Block: 7
======================================
100.801052451
100.416961908
100.400441885
100.363271832
100.813442469
100.801052451
100.383921862
100.796922445
100.817572474
100.763882399

Average distance is : 100.636 cm
Average deviation is : 0.211 cm
Block: 8
======================================
100.817572474
101.251223087
100.817572474
100.817572474
100.416961908
100.780402422
100.801052451
100.801052451
100.784532428
100.817572474

Average distance is : 100.811 cm
Average deviation is : 0.198 cm
Block: 9
======================================
100.730842352
101.251223087
100.367401838
100.817572474
100.400441885
100.784532428
100.367401838
101.234703064
100.437611938
101.230573058

Average distance is : 100.762 cm
Average deviation is : 0.370 cm
Block: 10
======================================
100.784532428
100.834092498
100.350881815
101.251223087
101.267743111
100.817572474
100.801052451
100.817572474
100.784532428
100.400441885

Average distance is : 100.811 cm
Average deviation is : 0.295 cm
Average distance for 10x10 is : 100.685 cm
Average deviation for 10x10 is : 0.268 cm
 Percentage of values that failed: 0.000