
Block: 1
======================================
201.118464184
199.803139329
200.707170653
201.102175331
199.803139329
200.707170653
200.690881801
199.819428182
199.835717034
199.819428182
199.803139329
199.803139329
199.819428182
199.819428182
199.835717034
199.839789248
199.803139329
200.690881801
200.674592948
200.658304095
200.690881801
200.690881801
200.263299417
200.263299417
200.230721712
199.786850476
200.247010565
200.230721712
200.263299417
200.674592948
200.230721712
200.670520735
200.690881801
200.690881801
200.690881801
200.690881801
200.690881801
200.690881801
201.102175331
200.230721712
200.674592948
199.803139329
200.214432859
200.230721712
200.230721712
200.230721712
200.230721712
200.674592948
201.081814265
199.770561624
200.674592948
200.674592948
200.690881801
200.210360646
199.819428182
199.819428182
200.670520735
199.819428182
200.674592948
200.674592948
200.674592948
200.690881801
200.214432859
200.674592948
200.690881801
200.658304095
200.674592948
200.674592948
200.230721712
200.230721712
200.247010565
200.214432859
200.210360646
200.690881801
200.690881801

Average distance is : 200.376 cm
Average deviation is : 0.392 cm
Block: 2
======================================
200.230721712
199.786850476
199.803139329
200.247010565
199.782778263
199.786850476
199.786850476
199.737983918
199.770561624
200.214432859
200.230721712
200.230721712
199.782778263
199.770561624
199.786850476
199.770561624
199.786850476
199.770561624
199.786850476
199.803139329
199.770561624
199.770561624
200.210360646
200.230721712
200.230721712
199.786850476
200.658304095
200.642015243
200.658304095
199.76648941
199.754272771
200.247010565
199.76648941
199.786850476
201.509396648
200.230721712
200.230721712
199.770561624
199.782778263
199.76648941
200.658304095
199.786850476
199.76648941
199.770561624
199.76648941
199.76648941
199.770561624
199.76648941
199.770561624
199.770561624
199.76648941
199.770561624
200.230721712
199.76648941
199.803139329
199.786850476
199.595456457
199.770561624
199.76648941
199.803139329
199.782778263
199.786850476
199.786850476
199.786850476
200.230721712
199.76648941
199.786850476
199.76648941
199.76648941
199.786850476
199.750200558
199.786850476
199.76648941
200.230721712
199.76648941

Average distance is : 199.929 cm
Average deviation is : 0.314 cm
Block: 3
======================================
199.750200558
199.750200558
199.754272771
200.658304095
200.230721712
199.733911705
199.754272771
199.733911705
199.76648941
200.621654177
199.786850476
200.194071794
201.032947707
200.177782941
200.658304095
199.733911705
199.750200558
200.637943029
200.177782941
200.198144007
200.198144007
200.194071794
199.733911705
200.637943029
200.198144007
200.198144007
200.214432859
199.733911705
200.198144007
199.717622852
200.637943029
199.310401535
200.194071794
199.733911705
200.62572639
200.177782941
200.194071794
200.194071794
200.637943029
200.62572639
200.198144007
199.733911705
201.065525413
200.194071794
200.214432859
200.198144007
200.177782941
200.198144007
199.737983918
200.198144007
200.198144007
200.194071794
199.76648941
199.733911705
199.750200558
200.214432859
199.733911705
199.717622852
200.194071794
199.733911705
200.181855154
200.181855154
200.198144007
199.754272771
200.214432859
200.092266464
199.733911705
201.032947707
200.177782941
200.198144007
200.642015243
199.733911705
199.733911705
199.733911705
200.177782941

Average distance is : 200.112 cm
Average deviation is : 0.367 cm
Block: 4
======================================
199.733911705
200.609437537
200.605365324
200.214432859
199.737983918
199.733911705
199.737983918
200.161494088
200.605365324
200.642015243
200.145205235
199.770561624
200.161494088
200.198144007
200.194071794
199.701334
199.733911705
199.733911705
201.065525413
200.177782941
200.589076471
201.065525413
200.621654177
201.032947707
200.589076471
199.717622852
199.733911705
200.194071794
199.717622852
200.214432859
200.161494088
199.701334
200.194071794
199.717622852
199.701334
199.717622852
199.717622852
199.717622852
200.177782941
200.181855154
199.701334
199.717622852
199.717622852
199.733911705
200.589076471
200.605365324
199.717622852
199.733911705
199.717622852
200.605365324
199.717622852
199.733911705
200.161494088
201.028875494
199.717622852
199.733911705
199.717622852
200.605365324
200.605365324
199.717622852
199.737983918
200.589076471
200.198144007
199.717622852
200.609437537
200.621654177
200.609437537
200.161494088
200.605365324
200.589076471
200.589076471
200.177782941
199.733911705
200.605365324
199.733911705

Average distance is : 200.133 cm
Average deviation is : 0.428 cm
Block: 5
======================================
200.589076471
200.605365324
199.733911705
200.589076471
199.733911705
200.605365324
200.589076471
200.12484417
200.589076471
200.605365324
200.194071794
199.680972934
199.701334
199.680972934
200.161494088
200.145205235
200.589076471
200.128916383
200.609437537
200.589076471
199.717622852
200.568715405
200.145205235
200.128916383
199.680972934
199.701334
199.697261786
200.161494088
200.12484417
200.145205235
200.145205235
200.108555317
199.664684081
200.145205235
200.145205235
199.664684081
199.648395228
200.145205235
200.141133022
200.128916383
200.12484417
200.145205235
199.685045147
199.680972934
201.000370002
199.680972934
199.664684081
199.680972934
200.11262753
199.664684081
201.016658854
199.664684081
200.552426553
199.680972934
200.556498766
199.685045147
201.000370002
200.145205235
200.5361377
201.423880172
199.685045147
200.552426553
200.556498766
200.556498766
199.697261786
200.572787619
200.092266464
200.556498766
200.092266464
199.680972934
200.540209913
200.5361377
200.5361377
199.685045147
200.5361377

Average distance is : 200.171 cm
Average deviation is : 0.424 cm
Block: 6
======================================
200.552426553
200.12484417
200.552426553
200.145205235
199.664684081
199.668756294
199.685045147
200.5361377
200.092266464
200.092266464
200.092266464
200.11262753
200.108555317
200.096338677
200.552426553
200.096338677
200.108555317
200.556498766
200.075977612
200.075977612
200.092266464
199.648395228
200.108555317
199.668756294
199.648395228
199.648395228
199.668756294
200.108555317
199.61174531
200.108555317
199.632106376
200.108555317
199.648395228
200.11262753
200.552426553
199.61174531
200.108555317
199.648395228
200.108555317
200.108555317
199.648395228
199.648395228
199.648395228
200.11262753
199.648395228
200.092266464
199.652467442
200.075977612
199.648395228
200.523921061
199.632106376
199.632106376
199.648395228
199.648395228
200.075977612
199.632106376
199.652467442
200.519848847
200.540209913
199.648395228
199.632106376
199.648395228
199.648395228
200.092266464
200.11262753
200.075977612
200.075977612
200.096338677
199.668756294
199.615817523
199.632106376
200.5361377
200.5361377
200.096338677
199.648395228

Average distance is : 199.965 cm
Average deviation is : 0.320 cm
Block: 1
======================================
199.86829474
200.743820572
199.8560781
199.819428182
199.8560781
199.852005887
200.283660483
199.852005887
200.263299417
199.8560781
200.295877123
199.839789248
199.835717034
200.299949336
200.299949336
200.299949336
200.27958827
199.835717034
200.27958827
201.155114102
199.835717034
199.852005887
199.839789248
199.86829474
199.835717034
199.839789248
199.8560781
199.852005887
200.743820572
200.263299417
199.8560781
199.835717034
199.835717034
200.739748359
200.299949336
200.295877123
201.989917803
199.835717034
199.86829474
200.707170653
200.723459506
200.295877123
199.8560781
200.299949336
200.295877123
200.723459506
201.578624272
199.8560781
199.835717034
199.839789248
200.263299417
200.401754665
200.299949336
199.835717034
200.299949336
201.56233542
199.8560781
199.823500395
199.839789248
199.835717034
201.578624272
200.283660483
199.835717034
199.8560781
199.839789248
200.332527041
199.835717034
200.299949336
199.835717034
200.299949336
199.8560781
199.852005887
200.299949336
199.835717034
199.835717034

Average distance is : 200.170 cm
Average deviation is : 0.476 cm
Block: 2
======================================
199.835717034
200.267371631
199.852005887
199.852005887
199.888655806
199.839789248
200.263299417
199.819428182
199.8560781
199.823500395
199.835717034
199.852005887
200.727531719
199.835717034
200.690881801
199.872366953
200.707170653
200.263299417
199.835717034
200.707170653
200.727531719
199.8560781
200.707170653
200.723459506
199.835717034
199.852005887
199.835717034
199.86829474
200.707170653
200.727531719
199.8560781
200.727531719
200.707170653
199.852005887
200.743820572
200.743820572
199.852005887
200.707170653
200.295877123
200.723459506
200.727531719
200.295877123
199.852005887
200.299949336
199.835717034
200.316238189
199.835717034
200.707170653
200.263299417
199.835717034
200.295877123
199.86829474
200.723459506
200.723459506
199.835717034
199.852005887
199.852005887
201.167330742
199.835717034
199.819428182
199.8560781
200.299949336
199.835717034
200.316238189
200.743820572
199.872366953
200.739748359
200.299949336
199.8560781
199.839789248
200.727531719
199.8560781
199.835717034
200.743820572
199.835717034

Average distance is : 200.204 cm
Average deviation is : 0.406 cm
Block: 3
======================================
199.839789248
200.283660483
200.312165976
200.299949336
199.8560781
199.86829474
199.852005887
200.743820572
199.86829474
199.839789248
199.8560781
199.8560781
201.167330742
199.835717034
200.283660483
199.819428182
199.8560781
199.819428182
199.852005887
200.283660483
200.299949336
200.27958827
200.27958827
199.8560781
200.263299417
200.760109425
200.743820572
200.743820572
200.743820572
200.727531719
200.760109425
200.263299417
200.27958827
200.723459506
200.727531719
200.295877123
200.727531719
199.872366953
199.819428182
200.760109425
199.819428182
200.263299417
200.316238189
199.803139329
200.263299417
200.263299417
199.819428182
200.295877123
199.819428182
199.835717034
200.263299417
199.819428182
199.819428182
201.151041889
200.299949336
200.263299417
199.839789248
199.823500395
200.295877123
199.803139329
199.819428182
199.835717034
199.839789248
200.263299417
200.295877123
200.299949336
199.839789248
200.27958827
201.155114102
199.819428182
199.819428182
199.819428182
199.839789248
199.835717034
199.819428182

Average distance is : 200.170 cm
Average deviation is : 0.384 cm
Block: 4
======================================
200.27958827
199.839789248
199.835717034
199.839789248
200.299949336
200.27958827
199.852005887
199.839789248
199.872366953
200.707170653
200.694954014
200.707170653
199.8560781
199.839789248
200.299949336
199.835717034
199.579167604
199.835717034
200.316238189
199.839789248
200.263299417
200.723459506
199.835717034
199.8560781
199.819428182
201.56233542
199.819428182
199.839789248
199.852005887
199.819428182
199.839789248
199.819428182
199.819428182
199.819428182
200.295877123
199.8560781
199.852005887
199.8560781
199.852005887
199.835717034
199.839789248
199.8560781
199.835717034
199.839789248
199.8560781
199.839789248
199.8560781
199.835717034
199.835717034
199.8560781
199.835717034
200.316238189
200.316238189
199.835717034
200.316238189
199.852005887
199.8560781
199.8560781
199.819428182
199.852005887
200.295877123
199.852005887
200.312165976
199.835717034
200.295877123
200.316238189
200.316238189
199.86829474
201.578624272
199.852005887
200.295877123
200.707170653
199.872366953
199.839789248
199.8560781

Average distance is : 200.041 cm
Average deviation is : 0.371 cm
Block: 5
======================================
200.27958827
200.316238189
200.283660483
200.283660483
200.299949336
200.332527041
200.295877123
200.295877123
200.299949336
199.852005887
199.835717034
199.852005887
199.852005887
199.835717034
199.852005887
199.852005887
199.852005887
200.316238189
200.312165976
199.852005887
200.727531719
199.872366953
200.27958827
199.8560781
199.839789248
200.283660483
199.839789248
199.839789248
201.171402955
200.299949336
200.299949336
199.8560781
199.839789248
199.872366953
200.316238189
199.872366953
199.835717034
199.872366953
200.316238189
199.8560781
200.27958827
200.312165976
199.835717034
199.835717034
199.8560781
200.332527041
200.316238189
200.295877123
200.316238189
199.872366953
199.8560781
199.8560781
199.852005887
199.835717034
199.852005887
200.316238189
200.743820572
199.86829474
199.86829474
200.316238189
200.299949336
200.316238189
200.316238189
199.852005887
199.872366953
200.316238189
199.8560781
199.852005887
200.299949336
200.283660483
200.316238189
200.295877123
200.776398277
199.86829474
200.295877123

Average distance is : 200.111 cm
Average deviation is : 0.287 cm
Block: 6
======================================
200.316238189
200.316238189
200.312165976
200.707170653
199.8560781
199.839789248
199.835717034
200.299949336
200.27958827
200.27958827
200.295877123
200.760109425
199.835717034
200.316238189
199.835717034
199.852005887
199.819428182
199.852005887
200.295877123
200.299949336
199.839789248
200.299949336
200.316238189
200.312165976
199.835717034
200.299949336
200.299949336
200.299949336
200.295877123
200.299949336
199.86829474
199.872366953
200.332527041
200.295877123
200.295877123
200.332527041
200.316238189
200.295877123
200.299949336
200.316238189
200.316238189
200.316238189
200.316238189
199.8560781
200.316238189
200.299949336
199.872366953
199.852005887
199.872366953
199.8560781
199.8560781
200.316238189
199.839789248
199.8560781
200.299949336
200.299949336
200.299949336
200.299949336
199.8560781
199.8560781
200.295877123
200.295877123
199.44478457
200.295877123
200.295877123
200.299949336
200.27958827
200.299949336
199.8560781
200.332527041
200.299949336
199.8560781
200.299949336
200.760109425
200.332527041

Average distance is : 200.166 cm
Average deviation is : 0.255 cm
Block: 7
======================================
199.835717034
200.27958827
200.299949336
200.299949336
199.872366953
199.872366953
200.723459506
200.312165976
200.27958827
199.839789248
199.852005887
200.299949336
199.819428182
199.852005887
201.167330742
200.299949336
200.299949336
200.299949336
200.776398277
200.299949336
199.835717034
199.835717034
199.852005887
200.743820572
200.27958827
200.299949336
200.316238189
199.839789248
200.316238189
200.760109425
200.332527041
200.760109425
200.295877123
200.316238189
200.283660483
200.316238189
199.888655806
199.86829474
200.316238189
200.316238189
200.312165976
200.316238189
200.316238189
200.299949336
200.312165976
199.872366953
200.299949336
199.835717034
200.316238189
199.8560781
200.295877123
199.852005887
199.8560781
199.835717034
200.332527041
200.316238189
199.852005887
199.852005887
200.316238189
200.283660483
200.299949336
200.316238189
199.835717034
199.852005887
199.835717034
199.86829474
201.171402955
199.872366953
200.316238189
200.299949336
200.299949336
200.295877123
200.295877123
200.332527041
199.872366953

Average distance is : 200.195 cm
Average deviation is : 0.311 cm
Block: 8
======================================
200.348815894
200.963720083
200.760109425
200.299949336
200.283660483
200.316238189
199.835717034
200.743820572
199.852005887
199.86829474
200.312165976
199.872366953
199.8560781
199.8560781
200.727531719
200.332527041
199.872366953
200.760109425
200.727531719
199.852005887
199.872366953
199.835717034
199.86829474
200.727531719
199.839789248
199.872366953
199.86829474
200.299949336
199.8560781
199.8560781
200.743820572
199.852005887
200.312165976
200.299949336
200.299949336
200.295877123
200.295877123
199.852005887
200.316238189
199.839789248
199.839789248
200.299949336
199.852005887
199.835717034
199.852005887
200.299949336
199.852005887
200.295877123
200.316238189
200.316238189
199.8560781
200.760109425
199.839789248
200.295877123
199.86829474
199.835717034
199.872366953
200.316238189
199.8560781
200.316238189
200.316238189
199.8560781
200.332527041
201.183619595
200.776398277
200.295877123
200.332527041
200.283660483
200.332527041
199.872366953
199.839789248
199.872366953
199.872366953
200.723459506
199.8560781

Average distance is : 200.170 cm
Average deviation is : 0.350 cm
Block: 9
======================================
201.167330742
199.852005887
200.760109425
199.888655806
200.776398277
199.888655806
199.888655806
200.316238189
199.888655806
199.872366953
199.852005887
199.852005887
199.8560781
199.872366953
200.332527041
199.835717034
199.872366953
199.8560781
200.316238189
199.872366953
199.835717034
199.8560781
201.598985338
199.872366953
199.86829474
199.872366953
200.332527041
199.872366953
199.8560781
199.8560781
199.852005887
199.872366953
200.727531719
199.8560781
199.872366953
199.852005887
199.86829474
199.8560781
199.8560781
200.727531719
199.86829474
200.727531719
199.8560781
200.723459506
199.852005887
199.8560781
199.8560781
199.872366953
199.86829474
199.852005887
199.8560781
199.872366953
199.8560781
199.86829474
199.852005887
199.835717034
199.872366953
199.835717034
199.835717034
199.835717034
199.872366953
199.872366953
200.316238189
200.295877123
201.594913125
200.743820572
199.872366953
199.884583592
199.852005887
199.872366953
199.872366953
199.872366953
199.872366953
199.8560781
199.852005887

Average distance is : 200.044 cm
Average deviation is : 0.401 cm
Block: 10
======================================
199.86829474
199.8560781
199.852005887
199.86829474
199.852005887
199.884583592
200.776398277
200.727531719
200.760109425
199.852005887
199.8560781
199.839789248
200.711242867
199.872366953
199.852005887
199.86829474
200.739748359
199.852005887
200.739748359
199.835717034
200.312165976
200.299949336
199.852005887
199.852005887
200.723459506
199.8560781
200.332527041
199.8560781
200.263299417
200.267371631
200.743820572
199.835717034
199.852005887
200.707170653
199.8560781
200.707170653
199.8560781
199.852005887
199.872366953
200.743820572
199.8560781
199.852005887
200.707170653
200.707170653
200.299949336
200.743820572
199.888655806
200.316238189
199.872366953
200.299949336
199.835717034
199.852005887
201.167330742
201.167330742
199.835717034
199.872366953
199.8560781
199.835717034
200.299949336
200.299949336
200.283660483
199.8560781
199.872366953
199.819428182
199.872366953
200.743820572
199.835717034
200.295877123
200.312165976
199.8560781
200.299949336
199.852005887
200.299949336
200.316238189
199.8560781

Average distance is : 200.161 cm
Average deviation is : 0.389 cm