
Block: 1
======================================
201.256919432
201.20398066
201.220269513
201.240630579
200.79268713
200.332527041
200.808975983
200.316238189
200.348815894
201.220269513
201.236558366
200.348815894
200.348815894
201.224341726
200.348815894
200.348815894
200.36917696
201.220269513
200.36917696
200.808975983
200.825264835
201.240630579
201.220269513
200.365104747
201.220269513
200.36917696
200.776398277
201.236558366
201.252847219
200.365104747
200.352888107
200.348815894
200.813048196
200.36917696
200.808975983
201.668212962
200.829337049
200.348815894
200.825264835
200.348815894
200.796759343
200.365104747
200.348815894
200.348815894
200.79268713
200.813048196
200.808975983
200.808975983
200.365104747
200.813048196

Block: 2
======================================
200.397682452
200.401754665
201.236558366
200.385465813
201.252847219
200.397682452
200.813048196
200.829337049
200.825264835
201.273208284
200.829337049
200.813048196
200.845625901
200.813048196
200.3813936
201.273208284
200.365104747
200.829337049
200.808975983
200.813048196
200.3813936
201.273208284
200.813048196
200.829337049
201.252847219
199.921233511
200.829337049
201.269136071
200.397682452
201.256919432
200.829337049
200.36917696
200.401754665
200.841553688
200.3813936
200.385465813
200.3813936
201.273208284
200.829337049
200.808975983
200.813048196
200.813048196
200.808975983
201.273208284
200.808975983
200.365104747
200.79268713
200.845625901
200.808975983
200.365104747

Block: 3
======================================
200.365104747
200.332527041
200.401754665
200.829337049
201.252847219
200.813048196
200.808975983
200.348815894
200.348815894
200.332527041
200.808975983
200.808975983
200.348815894
200.829337049
200.352888107
200.79268713
200.808975983
200.813048196
200.79268713
200.79268713
201.273208284
200.348815894
200.808975983
200.829337049
200.813048196
200.796759343
200.79268713
201.269136071
200.808975983
200.813048196
200.808975983
200.813048196
200.829337049
200.808975983
200.776398277
200.365104747
200.348815894
200.829337049
200.829337049
200.808975983
200.36917696
200.332527041
200.79268713
200.348815894
200.776398277
200.385465813
200.813048196
200.365104747
200.36917696
200.813048196

Block: 4
======================================
200.385465813
200.3813936
200.3813936
200.829337049
200.861914754
200.825264835
200.829337049
201.240630579
200.397682452
200.808975983
200.401754665
200.813048196
200.365104747
200.841553688
200.385465813
201.252847219
201.269136071
200.397682452
200.385465813
201.273208284
201.273208284
202.124300838
200.418043518
200.418043518
200.418043518
200.385465813
201.326147056
201.289497137
201.342435908
201.375013614
200.454693437
200.450621223
200.914853525
200.470982289
200.466910076
200.466910076
200.910781312
200.470982289
200.910781312
200.450621223
200.914853525
200.898564672
200.466910076
200.910781312
200.434332371
200.434332371
201.782234931
200.898564672
200.450621223
200.434332371

Block: 5
======================================
200.878203607
200.894492459
200.434332371
200.894492459
200.418043518
201.733368373
200.861914754
200.845625901
200.861914754
200.385465813
201.289497137
200.401754665
200.861914754
200.418043518
200.914853525
200.450621223
201.322074842
200.466910076
200.487271142
200.914853525
201.802595997
200.898564672
200.470982289
201.358724761
200.470982289
201.322074842
200.878203607
200.861914754
201.322074842
201.342435908
201.322074842
201.342435908
200.466910076
200.434332371
200.470982289
200.450621223
200.450621223
200.878203607
200.878203607
200.450621223
200.861914754
200.454693437
201.342435908
200.931142378
200.466910076
200.450621223
200.454693437
200.470982289
200.466910076
200.466910076

Block: 6
======================================
200.931142378
200.454693437
200.878203607
200.487271142
200.470982289
200.466910076
200.466910076
200.470982289
200.450621223
200.878203607
200.450621223
200.454693437
200.450621223
199.18823514
200.454693437
200.450621223
200.910781312
201.782234931
200.947431231
201.476818943
200.470982289
200.438404584
200.88227582
200.450621223
200.434332371
200.434332371
200.450621223
201.765946078
200.910781312
200.450621223
201.765946078
200.454693437
201.322074842
200.454693437
200.910781312
200.434332371
200.450621223
200.898564672
200.454693437
200.894492459
201.358724761
200.487271142
200.910781312
200.914853525
200.450621223
200.914853525
200.894492459
200.914853525
200.914853525
200.894492459

Block: 7
======================================
200.931142378
200.931142378
201.407591319
201.851462555
201.493107796
200.658304095
200.707170653
201.269136071
200.927070165
200.931142378
200.914853525
201.733368373
200.756037211
200.589076471
200.967792296
201.407591319
200.5361377
201.427952385
200.984081149
200.552426553
200.503559995
201.411663532
201.423880172
201.427952385
201.391302466
200.556498766
200.947431231
200.984081149
201.444241238
201.423880172
201.407591319
200.984081149
200.519848847
200.967792296
200.963720083
200.984081149
200.984081149
200.980008936
200.963720083
201.427952385
201.423880172
200.963720083
200.519848847
200.984081149
201.427952385
200.947431231
200.963720083
200.947431231
201.423880172
200.963720083

Block: 8
======================================
202.262756085
200.519848847
200.483198929
200.519848847
200.5361377
200.967792296
201.440169024
201.427952385
201.407591319
201.407591319
201.427952385
201.423880172
201.391302466
200.963720083
200.963720083
200.963720083
200.947431231
200.967792296
200.483198929
200.947431231
200.5361377
200.503559995
200.947431231
200.519848847
200.963720083
200.503559995
200.503559995
200.503559995
200.519848847
201.423880172
200.963720083
200.519848847
200.519848847
200.931142378
200.487271142
200.519848847
200.503559995
200.523921061
200.503559995
200.963720083
200.947431231
201.411663532
200.552426553
201.427952385
200.947431231
201.423880172
200.5361377
200.947431231
200.503559995
200.519848847

Block: 9
======================================
201.338363695
201.358724761
200.898564672
200.861914754
200.418043518
202.14058969
200.878203607
200.401754665
200.401754665
200.878203607
200.861914754
202.160950756
200.861914754
200.401754665
200.36917696
200.365104747
200.79268713
200.316238189
200.723459506
200.707170653
201.102175331
201.102175331
200.161494088
200.605365324
200.62572639
200.145205235
200.145205235
201.016658854
201.032947707
200.108555317
200.552426553
200.096338677
200.947431231
200.055616546
200.898564672
200.434332371
200.861914754
200.418043518
201.664140749
200.79268713
199.904944658
200.756037211
199.904944658
200.316238189
199.8560781
199.835717034
199.839789248
200.316238189
199.835717034
199.8560781

Block: 10
======================================
199.872366953
199.852005887
199.872366953
199.835717034
199.823500395
199.835717034
199.8560781
199.974172282
200.263299417
199.835717034
199.839789248
199.823500395
199.819428182
199.819428182
199.835717034
199.823500395
200.283660483
200.27958827
199.835717034
199.819428182
200.263299417
199.823500395
199.819428182
199.803139329
199.835717034
200.283660483
199.819428182
199.839789248
199.819428182
200.247010565
199.819428182
199.823500395
199.819428182
199.803139329
200.247010565
199.803139329
199.786850476
199.803139329
199.803139329
200.690881801
199.819428182
199.819428182
199.819428182
199.803139329
199.819428182
199.803139329
200.690881801
199.839789248
199.819428182
199.835717034

Block: 1
======================================
199.819428182
199.819428182
199.835717034
199.819428182
199.819428182
199.835717034
199.823500395
199.819428182
199.819428182
200.690881801
200.230721712
199.819428182
199.8560781
199.835717034
200.690881801
200.690881801
200.723459506
199.819428182
199.803139329
200.247010565
200.247010565
200.283660483
200.283660483
199.819428182
200.707170653
199.835717034
199.852005887
199.8560781
199.852005887
199.819428182
199.819428182
199.8560781
199.819428182
199.839789248
199.835717034
199.852005887
199.819428182
200.283660483
199.835717034
199.839789248
199.835717034
200.723459506
199.835717034
199.839789248
199.835717034
199.835717034
199.835717034
199.835717034
199.835717034
199.852005887

Block: 2
======================================
201.118464184
199.819428182
200.283660483
199.819428182
200.743820572
200.707170653
199.819428182
199.8560781
200.711242867
199.852005887
200.711242867
199.839789248
199.819428182
200.299949336
199.819428182
200.27958827
199.835717034
200.711242867
199.819428182
199.835717034
199.803139329
199.823500395
199.819428182
199.823500395
199.819428182
200.707170653
200.283660483
200.707170653
199.819428182
199.835717034
200.690881801
200.690881801
199.835717034
199.839789248
199.835717034
199.819428182
199.803139329
200.263299417
199.839789248
199.835717034
200.299949336
199.852005887
199.835717034
200.674592948
200.723459506
200.690881801
200.694954014
199.819428182
200.707170653
200.263299417

Block: 3
======================================
200.27958827
199.86829474
199.819428182
200.247010565
199.819428182
199.8560781
200.267371631
200.723459506
200.263299417
200.723459506
200.723459506
199.835717034
199.835717034
200.707170653
199.8560781
199.835717034
200.723459506
199.852005887
200.707170653
200.727531719
200.723459506
199.852005887
200.707170653
199.835717034
200.739748359
200.723459506
199.835717034
199.835717034
199.852005887
201.578624272
199.8560781
200.711242867
200.283660483
199.819428182
199.835717034
200.707170653
200.247010565
199.872366953
200.723459506
200.727531719
199.839789248
200.723459506
201.134753036
200.739748359
200.723459506
200.723459506
200.707170653
200.739748359
199.8560781
200.707170653

Block: 4
======================================
200.27958827
200.27958827
199.786850476
199.803139329
200.263299417
200.743820572
200.263299417
200.723459506
200.723459506
199.852005887
200.247010565
200.743820572
200.707170653
200.743820572
200.283660483
200.263299417
200.283660483
200.690881801
200.723459506
200.723459506
200.723459506
200.263299417
199.799067116
200.267371631
199.872366953
199.872366953
200.263299417
200.743820572
200.723459506
200.263299417
200.27958827
200.707170653
199.8560781
199.839789248
199.8560781
200.707170653
199.823500395
200.739748359
200.690881801
199.819428182
200.707170653
200.727531719
200.707170653
199.839789248
200.690881801
200.723459506
200.27958827
200.690881801
200.690881801
200.267371631

Block: 5
======================================
199.872366953
200.263299417
200.263299417
200.283660483
200.723459506
199.835717034
200.723459506
200.707170653
199.8560781
199.8560781
199.8560781
199.8560781
199.8560781
199.819428182
199.8560781
200.316238189
199.8560781
200.299949336
200.263299417
199.835717034
199.835717034
199.852005887
199.852005887
199.8560781
199.8560781
200.727531719
200.723459506
200.723459506
199.835717034
199.839789248
200.727531719
200.332527041
200.739748359
200.743820572
201.167330742
200.263299417
200.707170653
199.835717034
200.283660483
200.727531719
200.727531719
200.263299417
199.8560781
201.151041889
200.711242867
200.283660483
201.134753036
200.723459506
201.134753036
200.27958827

Block: 6
======================================
199.819428182
201.151041889
199.839789248
201.151041889
200.727531719
200.723459506
199.8560781
199.839789248
199.835717034
200.727531719
199.86829474
199.852005887
199.86829474
200.723459506
200.723459506
200.690881801
200.247010565
200.739748359
200.723459506
200.743820572
200.743820572
200.707170653
200.723459506
199.852005887
200.263299417
199.872366953
199.835717034
200.711242867
200.27958827
200.27958827
200.743820572
200.295877123
199.835717034
200.707170653
199.852005887
199.835717034
199.835717034
199.835717034
200.316238189
199.872366953
199.839789248
200.727531719
199.839789248
199.819428182
199.852005887
199.835717034
199.852005887
199.835717034
199.8560781
199.819428182

Block: 7
======================================
199.8560781
200.723459506
200.723459506
200.743820572
200.743820572
199.819428182
199.8560781
200.299949336
200.760109425
200.283660483
199.8560781
200.299949336
199.835717034
199.852005887
200.723459506
199.852005887
200.739748359
199.852005887
200.295877123
199.819428182
199.835717034
200.299949336
199.8560781
199.852005887
199.852005887
200.707170653
199.872366953
199.8560781
199.839789248
200.316238189
199.8560781
199.8560781
199.8560781
199.835717034
200.756037211
199.835717034
199.835717034
201.167330742
199.8560781
199.823500395
201.134753036
200.299949336
200.299949336
200.743820572
199.8560781
200.283660483
199.872366953
199.8560781
200.27958827
200.295877123

Block: 8
======================================
199.852005887
199.86829474
199.852005887
200.332527041
200.27958827
200.316238189
200.27958827
199.86829474
199.872366953
199.8560781
200.739748359
199.835717034
199.852005887
199.835717034
200.312165976
199.86829474
199.835717034
199.888655806
200.332527041
199.872366953
199.8560781
201.582696486
201.171402955
199.835717034
199.852005887
199.852005887
200.295877123
199.852005887
200.316238189
201.578624272
199.852005887
200.312165976
199.852005887
199.852005887
200.743820572
200.316238189
199.835717034
199.835717034
200.27958827
199.872366953
200.316238189
200.295877123
199.8560781
200.299949336
199.835717034
199.8560781
200.316238189
199.835717034
199.835717034
199.8560781

Block: 9
======================================
200.299949336
199.839789248
199.819428182
199.8560781
199.872366953
199.8560781
200.316238189
199.839789248
199.8560781
199.819428182
199.852005887
199.852005887
199.852005887
200.295877123
199.819428182
200.283660483
200.299949336
199.888655806
200.283660483
200.299949336
199.835717034
200.299949336
200.316238189
199.835717034
200.295877123
200.295877123
199.852005887
200.312165976
199.835717034
200.299949336
199.8560781
200.299949336
199.835717034
199.8560781
200.27958827
199.835717034
199.852005887
200.27958827
199.872366953
200.295877123
200.295877123
199.852005887
199.835717034
199.8560781
199.8560781
200.299949336
200.707170653
200.332527041
199.872366953
199.852005887

Block: 10
======================================
200.723459506
200.316238189
200.299949336
200.739748359
200.760109425
199.852005887
199.86829474
200.316238189
199.8560781
199.8560781
199.835717034
199.8560781
199.835717034
199.8560781
199.835717034
199.8560781
199.8560781
199.888655806
199.835717034
199.835717034
200.299949336
199.8560781
199.839789248
199.839789248
201.171402955
199.839789248
199.8560781
200.299949336
199.819428182
199.852005887
199.835717034
199.852005887
200.27958827
200.295877123
200.283660483
200.316238189
200.299949336
200.27958827
199.852005887
199.852005887
199.852005887
200.27958827
199.835717034
199.835717034
199.852005887
200.316238189
199.8560781
199.839789248
199.839789248
199.8560781
