
Block: 1
======================================
200.316238189
200.756037211
200.739748359
200.743820572
201.171402955
200.760109425
199.872366953
199.835717034
199.86829474
199.835717034
199.835717034
199.852005887
199.8560781
199.8560781
200.299949336
200.295877123
200.295877123
199.872366953
199.819428182
199.839789248
199.852005887
200.295877123
200.299949336
200.316238189
200.295877123
200.299949336
200.299949336
200.332527041
199.872366953
199.872366953
199.8560781
199.835717034
200.316238189
200.299949336
200.316238189
199.852005887
200.299949336
199.835717034
199.835717034
199.852005887
199.819428182
199.8560781
199.839789248
200.299949336
199.872366953
200.760109425
199.8560781
200.263299417
200.776398277
199.835717034
201.187691808
200.295877123
200.312165976
199.835717034
200.283660483
199.872366953
199.86829474
199.8560781
200.760109425
200.27958827
200.295877123
199.835717034
199.835717034
200.312165976
199.86829474
199.852005887
200.739748359
200.299949336
200.316238189
199.852005887
199.835717034
200.299949336
199.8560781
199.852005887
200.295877123
200.316238189
199.8560781
199.8560781
200.299949336
199.852005887
199.852005887
199.852005887
200.316238189
199.888655806
200.295877123
200.316238189
200.299949336
199.835717034
199.8560781
200.312165976
200.316238189
199.8560781
199.872366953
199.8560781
200.295877123
199.86829474
200.316238189
199.839789248
201.167330742
200.316238189

Average distance is : 200.135 cm
Average deviation is : 0.341 cm
Block: 2
======================================
199.852005887
199.8560781
199.839789248
200.283660483
199.86829474
200.312165976
199.872366953
200.299949336
199.835717034
200.299949336
200.312165976
200.312165976
199.872366953
199.839789248
199.8560781
200.299949336
199.872366953
201.611201978
199.872366953
199.872366953
199.872366953
199.852005887
199.835717034
199.835717034
199.852005887
200.295877123
199.872366953
199.8560781
199.839789248
200.299949336
200.332527041
200.295877123
200.312165976
199.852005887
199.835717034
199.835717034
200.316238189
199.8560781
201.167330742
200.316238189
199.8560781
199.8560781
199.8560781
199.8560781
199.839789248
199.8560781
199.872366953
199.872366953
199.8560781
199.835717034
199.852005887
199.852005887
199.852005887
199.852005887
199.819428182
199.86829474
200.299949336
200.723459506
200.743820572
200.316238189
199.872366953
199.872366953
199.8560781
199.839789248
199.839789248
199.872366953
199.8560781
199.8560781
199.852005887
199.86829474
200.316238189
199.872366953
200.295877123
199.8560781
199.8560781
199.835717034
200.739748359
199.8560781
200.707170653
199.8560781
199.872366953
199.852005887
200.316238189
199.872366953
199.839789248
199.872366953
199.852005887
200.332527041
199.872366953
199.8560781
199.8560781
200.312165976
201.594913125
199.835717034
201.155114102
199.839789248
200.299949336
199.835717034
199.8560781
200.316238189

Average distance is : 200.055 cm
Average deviation is : 0.367 cm
Block: 3
======================================
199.852005887
199.852005887
199.888655806
200.760109425
200.743820572
199.8560781
199.852005887
200.295877123
199.852005887
201.167330742
199.872366953
200.295877123
200.332527041
199.835717034
200.316238189
200.316238189
200.760109425
200.299949336
200.316238189
200.295877123
200.739748359
200.760109425
200.739748359
199.872366953
199.8560781
200.295877123
200.312165976
199.872366953
199.872366953
199.852005887
199.835717034
199.872366953
199.852005887
199.835717034
200.316238189
199.8560781
200.316238189
199.872366953
200.299949336
200.316238189
200.299949336
199.835717034
200.295877123
199.872366953
199.835717034
199.852005887
200.723459506
199.872366953
199.839789248
199.86829474
199.852005887
199.8560781
199.8560781
199.8560781
201.611201978
200.295877123
199.8560781
199.872366953
200.723459506
200.27958827
200.760109425
200.316238189
199.8560781
200.332527041
200.299949336
200.316238189
200.316238189
200.299949336
200.316238189
199.852005887
199.8560781
200.332527041
200.776398277
199.86829474
200.316238189
200.316238189
199.835717034
199.86829474
199.8560781
200.316238189
199.852005887
199.852005887
199.852005887
199.8560781
199.852005887
200.316238189
199.872366953
199.872366953
199.852005887
200.316238189
200.299949336
200.312165976
200.299949336
200.332527041
200.316238189
199.839789248
199.8560781
199.86829474
200.316238189
199.872366953

Average distance is : 200.145 cm
Average deviation is : 0.349 cm
Block: 4
======================================
199.8560781
199.852005887
199.872366953
200.295877123
200.295877123
200.316238189
200.756037211
200.760109425
200.316238189
200.316238189
199.872366953
199.872366953
199.86829474
199.872366953
200.283660483
199.8560781
199.835717034
199.872366953
200.316238189
199.8560781
199.8560781
199.839789248
200.295877123
200.332527041
199.8560781
200.316238189
200.316238189
200.316238189
199.839789248
199.872366953
199.8560781
199.8560781
199.8560781
199.872366953
200.316238189
200.316238189
199.872366953
199.8560781
200.312165976
200.299949336
200.316238189
199.8560781
199.872366953
200.299949336
200.299949336
201.167330742
199.8560781
199.872366953
200.316238189
199.872366953
199.8560781
200.316238189
200.230721712
199.839789248
199.852005887
200.723459506
199.872366953
199.86829474
199.872366953
200.316238189
200.760109425
200.743820572
200.760109425
199.872366953
199.872366953
199.852005887
200.316238189
200.299949336
199.839789248
199.852005887
199.872366953
199.8560781
199.839789248
199.8560781
199.8560781
200.295877123
199.835717034
199.835717034
199.839789248
199.839789248
199.8560781
199.852005887
199.8560781
199.8560781
200.27958827
199.819428182
199.835717034
200.299949336
199.839789248
200.299949336
200.295877123
201.578624272
199.835717034
199.852005887
200.316238189
200.723459506
199.888655806
199.8560781
199.8560781
199.835717034

Average distance is : 200.088 cm
Average deviation is : 0.335 cm
Block: 5
======================================
200.776398277
199.44478457
200.776398277
199.835717034
201.134753036
200.316238189
200.295877123
200.295877123
199.852005887
199.852005887
199.852005887
200.295877123
199.852005887
200.739748359
200.27958827
200.312165976
200.295877123
200.312165976
200.316238189
200.316238189
199.8560781
199.8560781
200.299949336
199.839789248
199.872366953
199.839789248
200.263299417
199.8560781
200.365104747
200.299949336
199.8560781
199.86829474
199.852005887
200.316238189
200.316238189
199.835717034
199.872366953
199.852005887
199.839789248
200.316238189
200.299949336
199.852005887
199.852005887
199.852005887
199.852005887
200.316238189
199.8560781
199.8560781
199.8560781
200.299949336
199.86829474
199.86829474
199.8560781
201.187691808
199.8560781
200.332527041
199.852005887
200.299949336
200.727531719
200.723459506
200.283660483
199.835717034
200.283660483
200.283660483
199.872366953
199.872366953
201.615274191
199.872366953
199.8560781
199.8560781
199.8560781
200.332527041
200.723459506
199.835717034
199.86829474
201.594913125
199.852005887
199.872366953
199.8560781
200.299949336
199.852005887
200.723459506
199.852005887
199.8560781
199.852005887
199.8560781
200.723459506
199.8560781
199.8560781
199.852005887
200.727531719
199.8560781
200.723459506
200.723459506
199.852005887
199.835717034
199.872366953
200.434332371
200.316238189
200.295877123

Average distance is : 200.145 cm
Average deviation is : 0.403 cm
Block: 6
======================================
199.839789248
199.839789248
199.839789248
199.839789248
200.727531719
200.727531719
200.723459506
199.8560781
200.727531719
200.739748359
200.263299417
200.316238189
200.299949336
200.27958827
199.852005887
200.743820572
199.8560781
199.852005887
200.247010565
200.739748359
200.263299417
200.723459506
200.723459506
200.727531719
200.267371631
200.727531719
199.819428182
200.723459506
200.743820572
200.743820572
200.727531719
199.8560781
200.711242867
199.8560781
199.835717034
200.723459506
199.852005887
199.86829474
200.723459506
200.723459506
200.723459506
199.852005887
200.707170653
200.723459506
200.316238189
199.852005887
199.852005887
200.723459506
199.8560781
199.839789248
199.839789248
200.727531719
201.578624272
199.8560781
200.727531719
200.711242867
199.86829474
200.723459506
200.739748359
199.86829474
199.835717034
200.723459506
200.27958827
199.839789248
200.723459506
200.283660483
200.723459506
200.707170653
200.723459506
199.835717034
200.723459506
200.316238189
200.760109425
200.299949336
200.723459506
199.852005887
199.852005887
199.8560781
200.723459506
200.739748359
200.723459506
199.852005887
200.739748359
200.263299417
200.723459506
200.707170653
200.707170653
200.27958827
199.872366953
200.707170653
201.171402955
199.8560781
199.8560781
199.835717034
199.8560781
200.707170653
199.852005887
200.707170653
199.835717034
199.835717034

Average distance is : 200.343 cm
Average deviation is : 0.429 cm
Block: 7
======================================
200.27958827
200.316238189
199.852005887
200.316238189
200.283660483
199.852005887
199.8560781
200.727531719
199.8560781
200.743820572
199.872366953
200.727531719
199.8560781
199.86829474
200.316238189
199.8560781
200.711242867
200.283660483
200.743820572
200.707170653
199.839789248
199.839789248
200.316238189
199.835717034
200.723459506
200.295877123
200.711242867
199.835717034
200.723459506
199.872366953
200.723459506
199.852005887
200.723459506
199.8560781
200.743820572
200.727531719
200.263299417
199.8560781
200.727531719
199.8560781
200.727531719
199.872366953
199.8560781
200.316238189
200.27958827
200.723459506
200.27958827
199.872366953
200.283660483
200.743820572
200.760109425
200.267371631
200.727531719
201.114391971
200.743820572
199.852005887
200.727531719
200.723459506
199.86829474
199.888655806
199.872366953
199.86829474
200.316238189
200.727531719
200.27958827
199.819428182
200.27958827
199.852005887
200.295877123
199.8560781
199.835717034
200.743820572
200.723459506
200.723459506
200.739748359
200.723459506
200.27958827
201.134753036
200.723459506
200.723459506
200.263299417
200.723459506
200.27958827
200.743820572
200.299949336
200.267371631
200.711242867
200.283660483
199.819428182
200.299949336
200.27958827
200.739748359
200.739748359
200.707170653
200.283660483
199.8560781
200.27958827
200.27958827
200.723459506
200.27958827

Average distance is : 200.334 cm
Average deviation is : 0.379 cm
Block: 8
======================================
200.743820572
200.283660483
200.263299417
200.295877123
200.283660483
200.727531719
199.852005887
200.295877123
200.263299417
200.743820572
199.835717034
199.819428182
200.299949336
200.283660483
200.743820572
200.267371631
200.723459506
199.819428182
199.86829474
200.723459506
200.727531719
200.711242867
199.872366953
199.835717034
199.835717034
200.295877123
199.852005887
199.803139329
200.723459506
200.723459506
200.723459506
200.723459506
200.723459506
200.739748359
200.739748359
199.839789248
199.8560781
200.743820572
199.8560781
199.8560781
200.727531719
199.8560781
200.707170653
200.707170653
200.743820572
200.723459506
200.723459506
200.723459506
200.723459506
200.727531719
199.8560781
199.852005887
199.835717034
200.727531719
199.86829474
200.723459506
199.835717034
199.835717034
200.743820572
200.316238189
200.727531719
200.723459506
200.707170653
199.86829474
199.872366953
200.299949336
199.839789248
199.835717034
199.852005887
200.295877123
200.312165976
200.263299417
200.727531719
199.888655806
199.8560781
199.852005887
199.803139329
200.723459506
199.8560781
200.727531719
200.743820572
200.723459506
200.723459506
201.183619595
199.852005887
200.727531719
199.8560781
199.819428182
199.852005887
199.835717034
199.839789248
199.872366953
199.8560781
200.299949336
199.86829474
200.723459506
200.723459506
200.316238189
199.835717034
200.727531719

Average distance is : 200.297 cm
Average deviation is : 0.410 cm
Block: 9
======================================
199.852005887
199.835717034
200.743820572
200.27958827
200.743820572
199.872366953
199.8560781
201.151041889
200.295877123
199.86829474
199.8560781
199.839789248
201.171402955
199.839789248
200.316238189
199.839789248
201.56233542
199.835717034
199.852005887
200.295877123
200.299949336
200.295877123
199.835717034
200.27958827
199.852005887
199.852005887
199.839789248
199.839789248
200.299949336
200.756037211
200.295877123
199.835717034
199.852005887
199.835717034
199.8560781
199.839789248
199.8560781
199.872366953
200.295877123
199.835717034
199.835717034
199.8560781
201.183619595
199.852005887
199.872366953
199.8560781
199.872366953
199.852005887
199.852005887
199.852005887
200.727531719
200.760109425
200.283660483
200.299949336
199.819428182
199.835717034
199.852005887
200.295877123
200.299949336
200.299949336
199.8560781
199.835717034
199.8560781
199.852005887
201.151041889
199.839789248
200.283660483
199.852005887
199.8560781
200.299949336
200.727531719
199.8560781
200.299949336
199.839789248
199.839789248
199.8560781
199.872366953
200.295877123
200.295877123
199.852005887
200.316238189
199.872366953
200.332527041
199.852005887
199.835717034
199.872366953
201.187691808
200.316238189
199.872366953
200.316238189
199.852005887
199.852005887
199.86829474
199.888655806
200.316238189
199.86829474
199.86829474
199.852005887
199.8560781
199.8560781

Average distance is : 200.101 cm
Average deviation is : 0.392 cm
Block: 10
======================================
200.316238189
200.299949336
200.316238189
200.316238189
200.299949336
199.888655806
199.8560781
200.316238189
200.316238189
199.852005887
200.727531719
200.743820572
199.86829474
199.888655806
200.743820572
199.872366953
200.332527041
200.743820572
200.295877123
200.743820572
199.852005887
199.852005887
200.316238189
200.332527041
199.852005887
199.872366953
200.316238189
199.8560781
199.839789248
199.8560781
199.8560781
200.760109425
200.312165976
200.316238189
200.316238189
199.888655806
200.760109425
200.776398277
200.760109425
200.760109425
201.20398066
199.852005887
200.316238189
200.299949336
200.776398277
200.312165976
200.316238189
199.8560781
200.332527041
200.332527041
200.332527041
200.332527041
200.3813936
200.316238189
200.316238189
200.316238189
199.86829474
200.316238189
199.888655806
200.295877123
199.839789248
200.295877123
200.295877123
200.299949336
200.316238189
200.316238189
200.316238189
200.312165976
200.760109425
199.888655806
199.888655806
199.852005887
200.332527041
200.316238189
200.299949336
200.776398277
200.756037211
201.183619595
200.760109425
200.312165976
200.295877123
200.316238189
200.312165976
200.332527041
199.888655806
200.312165976
199.8560781
200.316238189
200.760109425
200.299949336
199.8560781
200.316238189
199.852005887
199.852005887
200.316238189
200.332527041
200.316238189
199.852005887
200.299949336
200.316238189

Average distance is : 200.273 cm
Average deviation is : 0.324 cm