
Block: 1
======================================
300.589683247
300.21570425
300.231964207
300.195379305
300.691307974
300.675048018
300.284809065
300.638463116
300.231964207
300.231964207
300.227899218
300.21570425
300.195379305
300.195379305
300.605943203
300.146599436
300.158794403
301.492110825
300.57342329
300.162859392
300.211639261
301.049027014
300.146599436
300.146599436
300.638463116
300.605943203
301.028702068
300.130339479
300.195379305
300.996182156
300.077494621
300.963662243
300.093754578
300.093754578
300.963662243
300.110014534
300.605943203
300.772607756
300.809192657
300.70756793
300.231964207
300.280744076
300.70756793
300.264484119
300.264484119
300.317328978
300.248224163
300.231964207
300.264484119
300.248224163
301.150651741
301.134391785
300.776672745
300.264484119
300.70756793
300.313263988
300.723827887
300.297004032
300.280744076
300.264484119
300.264484119
300.280744076
300.723827887
300.264484119
300.70756793
300.264484119
300.264484119
300.284809065
300.723827887
300.248224163
300.740087843
300.70756793
300.878297472
300.70756793
300.723827887
300.727892876
301.183171654
300.723827887
300.70756793
300.723827887
300.264484119
300.760412788
301.183171654
300.740087843
300.70756793
300.723827887
300.264484119
301.134391785
300.211639261
301.081546926
300.248224163
300.622203159
300.162859392
300.162859392
300.195379305
300.142534447
300.264484119
300.297004032
300.264484119
300.317328978

Block: 2
======================================
301.134391785
300.675048018
301.183171654
301.231951523
300.435213661
300.520578432
301.081546926
301.64658041
300.776672745
300.947402287
300.34984889
300.829517603
300.366108847
301.695360279
300.366108847
300.84171257
300.366108847
300.825452614
300.451473618
300.435213661
300.809192657
300.809192657
300.809192657
300.809192657
300.809192657
301.268536425
300.809192657
300.467733574
300.809192657
300.813257647
300.825452614
301.284796381
300.382368803
300.467733574
300.829517603
300.366108847
300.34984889
300.829517603
300.345783901
300.34984889
300.382368803
300.829517603
300.809192657
301.284796381
300.809192657
301.268536425
300.776672745
300.809192657
300.84171257
301.284796381
300.382368803
301.272601414
301.268536425
300.366108847
300.414888716
300.451473618
301.252276468
300.435213661
301.284796381
301.272601414
300.386433792
300.825452614
300.862037516
30.723187542
30.5199380875
32.7719420433
34.5767971992
36.3653923988
83.5965006351
33.706889534
31.9020343781
33.4507952213
86.2387435436
300.414888716
300.366108847
300.366108847
300.382368803
300.845777559
300.431148672
300.382368803
301.272601414
300.813257647
301.390486097
300.845777559
300.825452614
301.268536425
300.809192657
301.28886137
301.268536425
301.268536425
300.845777559
300.825452614
301.268536425
301.272601414
300.382368803
301.699425268
300.825452614
300.829517603
301.28886137
300.333588934

Block: 3
======================================
300.451473618
301.28886137
301.284796381
300.825452614
300.84171257
300.382368803
300.825452614
300.451473618
301.28886137
301.284796381
300.471798563
300.84171257
300.845777559
300.845777559
300.825452614
300.84171257
301.305121326
301.28886137
300.366108847
300.451473618
301.284796381
301.28886137
300.382368803
300.84171257
300.386433792
300.467733574
300.84171257
300.414888716
300.386433792
301.284796381
300.845777559
300.809192657
300.386433792
300.382368803
300.398628759
300.845777559
300.366108847
300.845777559
300.825452614
300.366108847
300.862037516
300.414888716
300.825452614
300.809192657
300.418953705
300.382368803
300.845777559
300.825452614
300.825452614
300.829517603
301.272601414
300.809192657
301.252276468
300.825452614
300.825452614
300.34984889
300.414888716
300.467733574
301.268536425
301.28886137
300.382368803
300.435213661
300.809192657
300.382368803
300.467733574
300.418953705
300.414888716
300.910817385
300.386433792
300.910817385
300.451473618
301.272601414
300.366108847
300.845777559
300.825452614
300.829517603
300.386433792
300.398628759
301.28886137
300.84171257
300.402693748
301.28886137
300.845777559
300.398628759
300.382368803
300.451473618
301.284796381
300.825452614
300.398628759
300.825452614
300.829517603
300.825452614
300.451473618
300.829517603
300.366108847
301.305121326
300.825452614
300.34984889
300.382368803
301.272601414

Block: 4
======================================
301.272601414
300.382368803
300.845777559
300.825452614
301.305121326
300.845777559
300.84171257
300.398628759
301.301056337
300.471798563
300.467733574
300.471798563
301.284796381
301.28886137
301.284796381
300.488058519
300.402693748
300.402693748
301.28886137
300.84171257
300.451473618
300.845777559
300.467733574
300.878297472
300.451473618
300.34984889
300.414888716
300.386433792
300.398628759
300.402693748
300.451473618
300.451473618
300.418953705
300.414888716
300.451473618
301.268536425
300.857972527
300.451473618
301.305121326
301.28886137
301.284796381
300.825452614
300.467733574
301.28886137
300.382368803
300.825452614
300.386433792
300.825452614
300.382368803
300.878297472
301.252276468
301.268536425
300.809192657
300.878297472
300.366108847
300.845777559
300.894557428
300.910817385
300.829517603
300.825452614
300.829517603
300.825452614
300.825452614
300.845777559
300.825452614
300.829517603
300.809192657
301.272601414
301.252276468
301.284796381
301.284796381
300.809192657
300.825452614
300.813257647
300.825452614
300.829517603
300.813257647
300.825452614
300.84171257
300.829517603
300.829517603
300.809192657
300.809192657
300.825452614
300.825452614
300.878297472
300.829517603
302.975831842
300.829517603
300.809192657
300.878297472
300.809192657
300.825452614
301.256341457
300.894557428
300.809192657
301.711620235
300.825452614
300.878297472
300.825452614

Block: 5
======================================
301.28886137
300.792932701
301.256341457
300.809192657
301.252276468
300.813257647
300.809192657
300.862037516
300.809192657
300.825452614
300.825452614
300.809192657
300.829517603
301.272601414
301.252276468
301.252276468
301.272601414
300.809192657
300.809192657
302.154704046
300.809192657
301.695360279
301.317316294
301.284796381
301.711620235
300.809192657
301.28886137
301.256341457
301.252276468
300.809192657
301.252276468
301.28886137
301.337641239
300.809192657
301.272601414
300.825452614
300.825452614
300.809192657
300.845777559
300.829517603
300.84171257
301.28886137
301.28886137
300.813257647
300.809192657
301.272601414
301.272601414
301.284796381
301.272601414
300.398628759
301.268536425
301.28886137
300.910817385
301.268536425
301.272601414
301.268536425
301.28886137
300.878297472
300.809192657
300.84171257
301.28886137
300.845777559
302.13844409
300.845777559
300.84171257
300.845777559
301.272601414
300.84171257
300.825452614
300.829517603
301.284796381
300.402693748
301.268536425
301.305121326
301.28886137
300.894557428
300.825452614
301.305121326
300.862037516
301.284796381
300.894557428
301.28886137
300.418953705
300.84171257
300.398628759
300.825452614
301.268536425
301.305121326
300.398628759
300.862037516
301.284796381
301.28886137
300.398628759
300.878297472
300.943337297
300.914882374
300.398628759
300.93114233
300.414888716
300.402693748

Block: 6
======================================
300.857972527
300.910817385
300.845777559
301.301056337
300.382368803
300.825452614
300.845777559
301.284796381
300.825452614
301.305121326
301.268536425
300.386433792
300.857972527
300.382368803
300.382368803
301.28886137
300.398628759
300.418953705
300.382368803
300.910817385
300.845777559
301.28886137
300.382368803
300.914882374
300.402693748
300.825452614
300.910817385
301.28886137
300.418953705
300.845777559
300.414888716
301.28886137
300.402693748
301.268536425
300.471798563
301.284796381
301.305121326
300.398628759
301.268536425
300.386433792
300.382368803
300.402693748
300.382368803
301.28886137
300.402693748
301.301056337
300.382368803
300.398628759
301.284796381
300.382368803
300.386433792
300.382368803
300.862037516
301.272601414
300.398628759
300.402693748
300.366108847
300.84171257
300.382368803
300.910817385
300.829517603
301.268536425
302.191288948
301.284796381
301.268536425
300.914882374
300.414888716
300.829517603
301.28886137
301.284796381
301.28886137
300.825452614
300.845777559
300.829517603
301.252276468
301.272601414
301.268536425
301.28886137
300.825452614
300.418953705
301.353901196
301.268536425
301.337641239
300.809192657
301.321381283
300.386433792
300.894557428
300.84171257
300.894557428
300.914882374
301.268536425
300.398628759
300.366108847
301.272601414
300.398628759
300.84171257
300.894557428
300.402693748
300.402693748
300.825452614

Block: 7
======================================
300.910817385
300.84171257
300.382368803
300.894557428
300.84171257
300.857972527
300.382368803
300.402693748
300.366108847
300.451473618
300.386433792
300.398628759
300.857972527
300.402693748
300.825452614
300.809192657
300.398628759
300.382368803
300.382368803
300.382368803
300.386433792
300.382368803
300.84171257
300.402693748
300.366108847
300.845777559
300.402693748
300.402693748
300.402693748
300.829517603
300.382368803
301.731945181
300.857972527
300.366108847
301.284796381
300.402693748
300.402693748
300.34984889
300.825452614
300.382368803
300.414888716
300.386433792
300.386433792
300.84171257
300.862037516
300.825452614
300.927077341
300.84171257
301.268536425
300.878297472
300.84171257
300.402693748
300.398628759
301.268536425
301.272601414
301.272601414
300.84171257
300.845777559
300.382368803
300.894557428
300.398628759
300.84171257
300.398628759
300.825452614
300.845777559
300.382368803
300.402693748
300.382368803
300.874232483
300.845777559
301.28886137
300.862037516
300.845777559
300.402693748
300.398628759
300.825452614
302.601852846
300.418953705
300.418953705
300.382368803
300.862037516
300.84171257
300.398628759
300.825452614
300.857972527
301.764465094
300.878297472
300.862037516
300.829517603
300.857972527
300.402693748
300.418953705
300.382368803
300.862037516
300.402693748
300.418953705
300.398628759
300.402693748
300.418953705
300.398628759

Block: 8
======================================
301.305121326
300.829517603
301.337641239
301.337641239
300.862037516
300.398628759
300.862037516
301.337641239
300.862037516
300.862037516
300.878297472
300.927077341
300.862037516
300.857972527
300.878297472
300.418953705
301.28886137
300.874232483
300.878297472
300.418953705
300.382368803
300.910817385
300.845777559
300.857972527
300.845777559
300.418953705
300.435213661
300.927077341
300.414888716
301.764465094
301.305121326
301.305121326
301.748205137
300.398628759
300.402693748
300.845777559
301.284796381
301.305121326
301.748205137
301.731945181
301.801049995
300.874232483
300.857972527
300.845777559
301.748205137
301.748205137
300.927077341
300.402693748
301.305121326
300.84171257
300.857972527
300.418953705
300.93114233
302.634372759
300.93114233
300.402693748
300.435213661
301.284796381
300.874232483
300.878297472
301.374226141
300.862037516
301.748205137
300.862037516
301.321381283
300.845777559
300.910817385
302.191288948
300.862037516
300.874232483
300.862037516
300.862037516
300.857972527
300.857972527
300.878297472
300.878297472
300.862037516
300.878297472
300.862037516
300.862037516
300.862037516
300.857972527
300.862037516
300.857972527
300.845777559
300.878297472
300.878297472
300.84171257
300.874232483
300.878297472
300.878297472
301.305121326
301.305121326
300.878297472
300.862037516
301.305121326
300.862037516
300.825452614
301.305121326
301.321381283

Block: 1
======================================
301.06528697
301.443330956
300.589683247
300.536838388
301.455525923
301.06528697
301.459590912
301.439265966
301.443330956
300.996182156
301.016507101
301.439265966
300.996182156
300.996182156
301.455525923
301.016507101
301.524630737
301.000247145
301.455525923
300.996182156
301.012442112
301.439265966
300.589683247
301.081546926
301.459590912
301.016507101
301.455525923
301.443330956
301.000247145
300.996182156
300.996182156
301.000247145
300.996182156
301.081546926
301.439265966
301.012442112
301.455525923
300.979922199
300.996182156
300.996182156
301.000247145
300.979922199
301.012442112
301.000247145
300.553098345
301.012442112
300.536838388
300.553098345
301.012442112
301.508370781
301.459590912
301.455525923
300.996182156
301.000247145
300.553098345
301.455525923
301.016507101
301.012442112
301.000247145
300.536838388
300.996182156
300.996182156
300.996182156
300.536838388
300.605943203
301.000247145
300.979922199
300.996182156
300.642528105
300.536838388
300.536838388
300.996182156
300.622203159
300.996182156
300.569358301
301.000247145
300.996182156
301.51243577
300.61813817
300.57342329
301.097806883
300.585618258
300.57342329
300.569358301
300.553098345
300.622203159
301.06528697
301.016507101
301.455525923
300.553098345
301.524630737
300.638463116
301.455525923
301.000247145
301.455525923
300.642528105
300.553098345
300.569358301
300.569358301
300.622203159

Block: 2
======================================
301.012442112
300.979922199
300.996182156
301.459590912
301.455525923
301.012442112
300.516513443
300.996182156
301.455525923
300.557163334
300.589683247
301.439265966
301.016507101
300.996182156
300.553098345
301.443330956
301.439265966
301.439265966
301.443330956
301.42300601
300.979922199
301.42300601
300.979922199
300.979922199
300.996182156
301.016507101
301.081546926
300.996182156
301.508370781
300.996182156
301.524630737
300.996182156
300.996182156
300.996182156
301.459590912
301.012442112
301.049027014
300.553098345
300.536838388
301.000247145
300.557163334
300.553098345
301.455525923
300.996182156
301.016507101
300.996182156
300.979922199
300.996182156
301.000247145
300.996182156
301.016507101
301.081546926
301.439265966
301.455525923
301.016507101
300.979922199
301.492110825
301.012442112
301.000247145
300.553098345
301.000247145
301.012442112
301.016507101
301.455525923
301.459590912
301.016507101
301.455525923
301.032767057
301.081546926
301.42300601
300.569358301
301.049027014
301.459590912
301.455525923
300.557163334
300.589683247
300.569358301
300.589683247
300.57342329
301.028702068
301.049027014
301.016507101
301.032767057
300.585618258
301.016507101
301.492110825
301.016507101
301.012442112
301.032767057
300.553098345
300.569358301
301.475850868
301.028702068
300.57342329
301.028702068
300.658788061
300.569358301
300.605943203
301.012442112
301.032767057

Block: 3
======================================
300.569358301
300.553098345
300.569358301
300.553098345
300.589683247
301.016507101
300.569358301
301.012442112
301.032767057
300.553098345
301.028702068
301.016507101
300.585618258
301.459590912
301.032767057
301.028702068
300.57342329
300.638463116
301.016507101
300.553098345
301.032767057
300.589683247
300.585618258
300.57342329
300.57342329
300.569358301
300.589683247
300.569358301
301.081546926
301.097806883
301.032767057
300.553098345
300.589683247
301.902674723
300.605943203
300.557163334
301.097806883
300.569358301
300.557163334
300.553098345
300.569358301
300.589683247
300.622203159
300.638463116
300.569358301
300.569358301
301.016507101
301.455525923
301.016507101
300.57342329
300.569358301
300.553098345
300.589683247
301.455525923
300.553098345
300.557163334
300.536838388
301.028702068
300.553098345
300.557163334
301.081546926
301.455525923
301.439265966
301.459590912
301.439265966
301.439265966
301.443330956
301.000247145
300.996182156
301.06528697
300.996182156
300.553098345
300.979922199
301.439265966
300.553098345
300.57342329
301.439265966
301.866089821
300.553098345
301.06528697
300.557163334
300.536838388
301.459590912
301.492110825
300.557163334
300.553098345
301.012442112
300.536838388
300.569358301
301.081546926
301.06528697
301.012442112
301.439265966
301.443330956
300.979922199
300.979922199
300.996182156
300.996182156
300.57342329
300.57342329

Block: 4
======================================
300.536838388
300.979922199
300.553098345
301.06528697
301.455525923
301.012442112
300.553098345
300.553098345
301.459590912
301.016507101
300.569358301
300.553098345
301.06528697
301.049027014
300.585618258
301.455525923
300.57342329
300.557163334
301.439265966
300.569358301
301.439265966
301.016507101
301.049027014
301.016507101
300.536838388
301.443330956
300.57342329
301.081546926
301.902674723
301.459590912
301.439265966
300.536838388
300.57342329
300.979922199
300.979922199
300.57342329
300.569358301
301.475850868
301.439265966
301.459590912
301.028702068
301.012442112
300.553098345
300.536838388
301.06528697
301.06528697
300.622203159
300.569358301
300.536838388
300.553098345
301.085611916
300.622203159
301.439265966
300.57342329
301.012442112
300.57342329
301.028702068
300.553098345
301.455525923
300.536838388
300.605943203
301.012442112
301.012442112
300.57342329
301.028702068
300.57342329
300.557163334
301.081546926
300.569358301
301.044962025
301.049027014
301.016507101
300.553098345
301.012442112
300.557163334
301.012442112
300.553098345
300.569358301
300.569358301
300.553098345
300.536838388
300.569358301
301.06528697
301.06528697
300.996182156
301.012442112
301.049027014
301.459590912
301.439265966
300.996182156
301.902674723
300.536838388
300.569358301
300.996182156
301.012442112
300.979922199
301.012442112
301.016507101
301.06528697
301.081546926

Block: 5
======================================
300.553098345
300.589683247
301.42300601
301.028702068
301.439265966
301.06528697
301.87015481
301.081546926
300.996182156
301.012442112
300.553098345
301.455525923
301.439265966
301.012442112
300.536838388
301.455525923
301.443330956
301.492110825
301.081546926
301.081546926
300.557163334
301.06528697
300.57342329
301.081546926
300.553098345
301.492110825
301.439265966
300.996182156
300.996182156
301.42300601
301.42300601
301.032767057
301.439265966
301.439265966
301.42300601
300.57342329
301.508370781
301.439265966
300.963662243
302.309173632
301.439265966
301.459590912
301.42300601
301.439265966
301.42300601
300.979922199
300.996182156
300.996182156
301.42300601
300.996182156
301.455525923
300.979922199
300.979922199
301.459590912
301.000247145
300.979922199
301.42300601
301.06528697
300.979922199
301.000247145
300.979922199
301.439265966
301.443330956
300.996182156
300.979922199
300.996182156
300.979922199
300.569358301
301.455525923
301.459590912
301.42300601
301.439265966
301.459590912
301.016507101
301.443330956
301.439265966
301.06528697
300.553098345
301.06528697
300.553098345
300.979922199
300.963662243
301.459590912
300.536838388
301.439265966
301.044962025
300.553098345
301.439265966
300.996182156
301.000247145
300.983987188
300.979922199
300.979922199
300.979922199
300.979922199
300.979922199
300.996182156
300.996182156
300.979922199
301.000247145

Block: 6
======================================
301.012442112
301.406746054
300.979922199
301.032767057
301.902674723
301.016507101
301.06528697
300.553098345
300.963662243
300.536838388
300.979922199
300.979922199
301.42300601
301.443330956
300.959597254
300.979922199
301.049027014
301.42300601
301.42300601
300.979922199
301.439265966
301.42300601
300.979922199
300.979922199
300.979922199
300.979922199
300.979922199
300.996182156
300.996182156
300.996182156
302.309173632
300.963662243
300.979922199
301.439265966
303.162821341
300.996182156
300.996182156
300.979922199
300.979922199
300.979922199
301.016507101
300.979922199
300.536838388
300.520578432
300.996182156
300.553098345
300.979922199
301.000247145
300.979922199
300.979922199
300.983987188
301.42300601
300.996182156
301.032767057
300.996182156
300.979922199
301.032767057
301.06528697
300.553098345
301.049027014
300.979922199
300.963662243
301.886414766
300.996182156
301.866089821
300.996182156
300.996182156
300.963662243
300.979922199
300.979922199
301.406746054
301.032767057
300.996182156
301.016507101
300.996182156
300.520578432
300.979922199
300.979922199
300.520578432
301.032767057
300.979922199
300.979922199
300.979922199
300.979922199
300.996182156
300.979922199
300.963662243
300.979922199
300.536838388
301.049027014
301.028702068
300.536838388
301.406746054
300.520578432
300.979922199
300.979922199
300.979922199
301.42300601
300.979922199
300.996182156

Block: 7
======================================
300.520578432
301.016507101
300.569358301
301.06528697
300.516513443
300.979922199
301.028702068
301.443330956
300.979922199
300.996182156
300.520578432
300.963662243
300.979922199
300.963662243
300.979922199
301.42300601
301.386421108
300.979922199
301.439265966
301.439265966
301.42300601
300.963662243
300.979922199
301.42300601
301.406746054
300.979922199
300.963662243
300.983987188
300.963662243
300.979922199
300.979922199
300.996182156
300.979922199
301.032767057
300.996182156
300.963662243
300.963662243
300.979922199
300.963662243
301.012442112
300.979922199
301.000247145
300.979922199
300.996182156
300.996182156
300.963662243
300.979922199
300.963662243
301.492110825
301.866089821
300.536838388
301.012442112
300.996182156
301.492110825
300.536838388
300.979922199
300.979922199
300.553098345
300.553098345
300.979922199
300.979922199
300.536838388
300.569358301
301.42300601
300.553098345
301.439265966
301.439265966
301.439265966
300.979922199
301.439265966
301.439265966
301.443330956
301.439265966
300.979922199
300.553098345
300.536838388
301.000247145
300.520578432
301.012442112
300.553098345
301.016507101
300.536838388
301.049027014
301.06528697
301.443330956
302.325433588
300.553098345
300.569358301
300.553098345
300.569358301
300.979922199
300.996182156
301.42300601
300.979922199
300.996182156
301.866089821
301.443330956
301.42300601
300.979922199
301.439265966

Block: 8
======================================
300.979922199
300.536838388
300.947402287
300.520578432
301.459590912
300.979922199
302.345758533
301.439265966
301.439265966
301.439265966
300.963662243
301.06528697
300.553098345
301.439265966
301.492110825
300.963662243
301.06528697
301.492110825
300.996182156
300.536838388
301.016507101
301.508370781
301.459590912
300.536838388
301.439265966
300.569358301
301.42300601
300.996182156
301.443330956
301.081546926
300.553098345
301.439265966
301.443330956
300.963662243
301.085611916
300.536838388
301.049027014
300.553098345
300.553098345
300.996182156
301.081546926
301.42300601
300.536838388
300.557163334
300.979922199
301.455525923
301.439265966
300.536838388
301.439265966
301.439265966
301.032767057
300.57342329
301.081546926
301.459590912
300.553098345
300.553098345
301.459590912
301.42300601
301.439265966
300.553098345
301.455525923
301.439265966
300.520578432
301.42300601
301.508370781
301.06528697
300.57342329
301.459590912
301.081546926
301.044962025
301.081546926
301.06528697
301.081546926
301.012442112
301.06528697
300.536838388
301.016507101
301.455525923
300.536838388
300.553098345
301.439265966
301.459590912
301.42300601
301.028702068
301.443330956
301.459590912
300.553098345
301.459590912
301.439265966
300.585618258
301.459590912
300.553098345
300.996182156
300.553098345
301.443330956
301.439265966
300.622203159
300.553098345
300.569358301
300.605943203

Block: 9
======================================
300.536838388
300.553098345
300.569358301
300.569358301
300.996182156
300.553098345
301.471785879
301.455525923
300.553098345
301.032767057
300.57342329
300.553098345
300.536838388
300.654723072
301.012442112
301.443330956
300.589683247
301.439265966
301.459590912
300.622203159
300.569358301
300.57342329
300.569358301
301.898609734
301.016507101
301.028702068
301.016507101
301.028702068
301.459590912
301.081546926
300.642528105
300.589683247
300.569358301
300.569358301
301.081546926
301.081546926
301.06528697
301.016507101
300.569358301
301.097806883
300.585618258
301.459590912
301.012442112
301.016507101
300.557163334
301.012442112
300.996182156
300.996182156
300.553098345
301.081546926
301.032767057
300.569358301
301.012442112
301.000247145
300.553098345
301.012442112
301.524630737
300.553098345
301.012442112
301.081546926
300.57342329
300.585618258
301.475850868
301.028702068
300.553098345
301.455525923
300.569358301
64.7877961159
60.543947506
62.2796978474
63.0357858181
61.856938982
63.0357858181
61.4463750839
63.4422847271
61.0561361313
62.2146580219
62.263437891
62.6414818764
61.4301151276
62.2349829674
61.856938982
62.62522192
61.8406790257
62.9626160145
61.0723960876
62.9829409599
61.4992199421
63.3894398689
61.4829599857
62.9788759708
61.9260437965
62.9788759708
61.088656044
63.3894398689
61.088656044
63.800003767
60.682157135
64.2268276215
61.4992199421

Block: 10
======================================
301.42300601
301.475850868
301.42300601
300.979922199
300.553098345
300.536838388
301.016507101
300.569358301
301.455525923
300.569358301
300.520578432
300.979922199
301.012442112
300.536838388
300.553098345
300.557163334
301.016507101
300.536838388
300.638463116
301.439265966
300.963662243
301.455525923
301.443330956
300.520578432
300.553098345
300.996182156
300.520578432
300.516513443
300.979922199
300.983987188
301.049027014
300.963662243
301.87015481
300.979922199
300.979922199
300.979922199
300.520578432
300.979922199
300.520578432
300.996182156
300.536838388
300.520578432
301.443330956
300.963662243
300.520578432
300.963662243
300.979922199
300.536838388
300.520578432
300.520578432
300.979922199
300.536838388
300.520578432
300.516513443
300.516513443
300.520578432
300.536838388
301.203496599
300.963662243
300.963662243
300.979922199
300.959597254
300.536838388
300.520578432
301.032767057
300.500253487
300.963662243
300.520578432
301.42300601
300.500253487
300.520578432
301.386421108
301.42300601
301.032767057
300.589683247
300.516513443
301.406746054
300.979922199
301.049027014
301.42300601
301.406746054
300.963662243
301.386421108
300.536838388
301.42300601
300.536838388
300.963662243
301.42300601
301.386421108
301.374226141
300.536838388
300.963662243
300.963662243
300.959597254
301.390486097
301.049027014
300.520578432
300.536838388
300.536838388
301.028702068

Block: 1
======================================
300.894557428
300.910817385
300.451473618
300.435213661
300.947402287
300.878297472
300.418953705
300.894557428
301.337641239
300.894557428
300.435213661
300.878297472
301.390486097
300.435213661
300.894557428
300.435213661
301.764465094
300.435213661
300.963662243
300.93114233
300.878297472
300.878297472
300.398628759
300.857972527
300.894557428
300.435213661
300.947402287
300.894557428
301.305121326
301.321381283
301.321381283
301.305121326
300.857972527
300.947402287
301.321381283
300.947402287
300.894557428
300.894557428
300.431148672
300.418953705
301.301056337
300.894557428
300.435213661
301.305121326
301.321381283
300.878297472
300.435213661
301.301056337
301.305121326
300.418953705
300.927077341
300.878297472
300.878297472
300.947402287
300.418953705
301.305121326
300.927077341
300.878297472
300.93114233
300.857972527
300.878297472
300.894557428
301.764465094
301.305121326
300.894557428
300.894557428
300.894557428
300.894557428
300.894557428
300.927077341
301.28886137
300.947402287
300.943337297
300.874232483
300.878297472
300.894557428
301.748205137
300.878297472
300.878297472
301.764465094
300.878297472
300.862037516
300.878297472
300.878297472
300.943337297
300.878297472
300.963662243
301.78072505
300.947402287
301.301056337
300.947402287
300.927077341
300.894557428
300.878297472
300.894557428
300.878297472
300.947402287
300.894557428
300.894557428
300.878297472

Block: 2
======================================
301.796985006
301.321381283
301.317316294
301.337641239
300.894557428
301.42300601
300.878297472
300.894557428
300.878297472
300.878297472
301.321381283
300.862037516
301.337641239
300.878297472
301.321381283
300.894557428
301.406746054
301.337641239
300.894557428
300.947402287
300.910817385
301.406746054
300.894557428
300.894557428
300.894557428
301.337641239
300.874232483
301.337641239
301.370161152
300.894557428
300.894557428
300.947402287
300.894557428
300.910817385
300.898622417
300.947402287
300.894557428
300.894557428
300.878297472
300.910817385
300.878297472
300.914882374
302.211613894
300.894557428
300.910817385
300.894557428
300.894557428
301.78072505
301.78072505
301.801049995
301.78072505
300.963662243
301.406746054
300.943337297
300.874232483
301.337641239
300.878297472
300.874232483
300.894557428
301.305121326
300.894557428
300.963662243
300.878297472
301.406746054
301.321381283
301.317316294
301.337641239
301.78072505
301.78072505
300.894557428
301.337641239
301.337641239
300.914882374
300.894557428
301.341706228
301.353901196
301.849829865
301.784790039
301.78072505
301.784790039
301.337641239
300.979922199
300.910817385
300.874232483
300.894557428
302.240068817
302.22787385
300.947402287
300.963662243
300.947402287
300.947402287
301.374226141
300.878297472
300.894557428
300.927077341
301.796985006
300.979922199
301.78072505
300.963662243
301.796985006

Block: 3
======================================
301.784790039
301.337641239
301.353901196
300.878297472
301.801049995
301.796985006
300.947402287
300.894557428
300.947402287
300.894557428
300.878297472
301.337641239
300.894557428
300.910817385
300.894557428
301.406746054
300.910817385
300.947402287
300.878297472
300.894557428
300.910817385
301.19943161
300.894557428
300.894557428
300.959597254
300.914882374
300.947402287
300.947402287
300.963662243
300.878297472
300.963662243
300.910817385
300.979922199
300.947402287
300.910817385
300.894557428
300.963662243
300.910817385
301.337641239
301.337641239
300.467733574
300.435213661
301.321381283
300.894557428
300.914882374
300.963662243
300.451473618
300.455538607
300.894557428
300.927077341
301.341706228
300.878297472
301.321381283
301.337641239
301.321381283
301.321381283
301.301056337
300.878297472
301.796985006
300.963662243
300.894557428
301.784790039
301.321381283
301.317316294
301.321381283
301.374226141
301.321381283
301.341706228
301.321381283
301.321381283
300.914882374
300.878297472
301.337641239
301.402681065
301.301056337
301.337641239
300.894557428
300.910817385
300.947402287
300.947402287
300.894557428
301.78072505
301.337641239
301.796985006
301.78072505
301.849829865
300.878297472
300.898622417
300.894557428
300.894557428
301.406746054
301.357966185
300.878297472
301.796985006
301.406746054
301.321381283
300.894557428
301.801049995
300.910817385
301.801049995

Block: 4
======================================
300.862037516
300.894557428
301.321381283
301.353901196
301.337641239
301.337641239
302.240068817
300.910817385
301.42300601
301.439265966
301.357966185
301.390486097
300.894557428
301.374226141
301.353901196
301.42300601
300.910817385
301.353901196
301.866089821
300.93114233
301.796985006
301.817309952
301.374226141
300.894557428
301.341706228
301.337641239
301.374226141
301.353901196
301.817309952
300.910817385
303.109976482
301.801049995
301.439265966
301.357966185
301.353901196
301.796985006
300.894557428
300.996182156
301.817309952
301.353901196
301.000247145
300.959597254
301.390486097
301.813244963
301.443330956
300.910817385
300.894557428
301.833569908
300.894557428
301.370161152
301.370161152
301.357966185
300.910817385
301.390486097
300.910817385
301.353901196
301.357966185
302.244133806
301.353901196
301.374226141
301.374226141
300.894557428
301.443330956
301.370161152
301.374226141
301.882349777
300.910817385
301.813244963
300.910817385
301.357966185
300.910817385
300.910817385
300.914882374
301.353901196
301.374226141
301.374226141
301.357966185
301.353901196
300.910817385
301.357966185
301.370161152
301.357966185
301.374226141
301.370161152
301.337641239
300.910817385
300.894557428
300.914882374
301.817309952
300.910817385
301.357966185
301.353901196
301.341706228
300.894557428
301.42300601
300.894557428
300.898622417
300.894557428
301.357966185
301.866089821

Block: 5
======================================
300.898622417
300.878297472
301.337641239
300.878297472
300.894557428
300.914882374
302.207548904
301.78072505
300.894557428
300.963662243
301.78072505
300.910817385
301.353901196
301.337641239
301.337641239
300.874232483
300.898622417
300.878297472
301.390486097
300.894557428
300.894557428
300.963662243
301.866089821
300.947402287
301.784790039
301.849829865
301.337641239
300.910817385
300.963662243
300.914882374
300.894557428
300.910817385
300.910817385
300.914882374
301.353901196
301.42300601
301.353901196
301.353901196
300.914882374
300.910817385
300.927077341
300.914882374
300.914882374
300.927077341
300.894557428
301.390486097
300.963662243
300.979922199
300.894557428
300.914882374
300.910817385
300.963662243
300.963662243
300.914882374
300.910817385
301.353901196
300.910817385
300.910817385
300.914882374
300.910817385
300.979922199
300.914882374
300.963662243
300.910817385
300.910817385
300.894557428
300.979922199
300.963662243
300.910817385
300.894557428
300.894557428
300.894557428
300.894557428
301.353901196
300.894557428
301.406746054
303.536800337
300.894557428
300.910817385
300.93114233
300.910817385
301.402681065
301.406746054
301.370161152
301.357966185
301.353901196
300.914882374
300.914882374
300.910817385
300.910817385
300.894557428
300.947402287
300.927077341
300.894557428
300.894557428
300.898622417
301.784790039
301.796985006
301.427070999
300.910817385

Block: 6
======================================
301.386421108
300.910817385
300.894557428
301.386421108
300.894557428
301.370161152
301.353901196
300.910817385
301.443330956
300.927077341
301.374226141
301.337641239
300.914882374
301.357966185
301.813244963
301.817309952
301.796985006
301.357966185
301.796985006
301.813244963
301.817309952
301.475850868
301.813244963
301.817309952
301.817309952
300.979922199
300.927077341
301.439265966
301.817309952
301.882349777
301.353901196
301.817309952
300.927077341
301.817309952
301.813244963
300.93114233
301.833569908
301.801049995
300.996182156
301.374226141
301.813244963
300.93114233
300.93114233
300.963662243
300.910817385
300.910817385
301.439265966
301.796985006
300.947402287
300.927077341
300.947402287
300.927077341
300.943337297
300.947402287
301.374226141
301.796985006
301.459590912
301.829504919
300.93114233
301.813244963
300.947402287
300.927077341
300.927077341
300.947402287
300.914882374
300.910817385
301.406746054
300.927077341
301.829504919
301.439265966
300.943337297
301.817309952
300.927077341
300.947402287
301.833569908
301.833569908
301.439265966
300.93114233
300.943337297
300.947402287
300.943337297
301.386421108
301.390486097
301.849829865
301.475850868
300.943337297
301.829504919
300.943337297
300.996182156
300.943337297
300.927077341
300.947402287
300.943337297
300.947402287
300.914882374
301.012442112
300.943337297
300.947402287
300.943337297
300.947402287

Block: 7
======================================
300.947402287
301.455525923
301.42300601
300.914882374
301.390486097
301.386421108
301.016507101
301.849829865
301.455525923
301.390486097
300.927077341
301.012442112
301.406746054
301.374226141
301.849829865
301.406746054
300.947402287
302.292913675
300.963662243
300.963662243
300.943337297
301.406746054
301.42300601
301.402681065
300.996182156
300.947402287
300.979922199
301.406746054
301.42300601
301.42300601
301.406746054
301.06528697
300.553098345
300.963662243
301.886414766
301.049027014
301.42300601
301.06528697
300.536838388
301.439265966
300.979922199
300.979922199
301.000247145
301.000247145
300.536838388
300.963662243
300.536838388
300.979922199
300.520578432
300.979922199
300.516513443
300.996182156
301.406746054
300.963662243
300.979922199
300.979922199
300.979922199
300.959597254
301.886414766
300.996182156
301.012442112
300.516513443
301.000247145
301.000247145
300.979922199
300.979922199
301.081546926
301.42300601
301.443330956
300.963662243
301.439265966
301.42300601
300.979922199
301.439265966
301.42300601
300.979922199
301.439265966
300.996182156
300.996182156
301.439265966
300.536838388
300.996182156
300.979922199
301.012442112
301.459590912
300.996182156
301.508370781
301.459590912
300.996182156
300.979922199
300.979922199
301.000247145
301.012442112
300.536838388
300.996182156
301.000247145
300.996182156
301.012442112
300.979922199
300.996182156

Block: 8
======================================
301.492110825
301.443330956
301.492110825
301.439265966
300.57342329
301.016507101
300.536838388
300.996182156
300.996182156
301.439265966
301.471785879
301.439265966
300.963662243
301.016507101
300.996182156
301.42300601
300.963662243
300.979922199
300.536838388
301.439265966
301.443330956
301.443330956
300.536838388
300.979922199
301.439265966
300.979922199
300.983987188
301.443330956
301.443330956
302.292913675
300.979922199
300.979922199
300.557163334
301.044962025
300.963662243
301.439265966
301.012442112
301.000247145
301.439265966
301.032767057
301.085611916
301.443330956
301.439265966
300.996182156
300.553098345
301.42300601
301.000247145
301.439265966
300.569358301
300.569358301
301.459590912
301.081546926
301.097806883
300.983987188
301.06528697
301.492110825
301.455525923
301.459590912
301.028702068
301.459590912
300.536838388
300.553098345
301.000247145
301.443330956
301.455525923
300.553098345
300.589683247
300.979922199
301.455525923
301.000247145
300.996182156
301.475850868
301.455525923
300.589683247
301.439265966
301.459590912
300.589683247
301.455525923
300.589683247
300.996182156
300.589683247
301.455525923
300.553098345
301.081546926
301.91486969
301.000247145
301.455525923
300.569358301
301.439265966
301.455525923
300.996182156
301.455525923
301.459590912
301.439265966
301.459590912
301.42300601
301.459590912
300.569358301
300.536838388
300.553098345

Block: 9
======================================
300.654723072
300.605943203
300.553098345
301.455525923
300.589683247
301.455525923
301.049027014
300.569358301
300.585618258
300.57342329
301.459590912
300.57342329
301.097806883
300.996182156
301.524630737
300.605943203
300.569358301
300.569358301
300.638463116
300.638463116
300.553098345
300.589683247
300.536838388
301.918934679
300.585618258
300.569358301
301.012442112
300.569358301
300.569358301
301.918934679
300.569358301
300.57342329
300.553098345
301.016507101
301.032767057
300.61813817
300.557163334
300.996182156
300.569358301
300.57342329
301.016507101
300.557163334
300.569358301
300.589683247
300.553098345
300.553098345
301.081546926
301.012442112
300.569358301
300.569358301
300.589683247
300.57342329
300.585618258
300.638463116
300.622203159
300.57342329
301.488045835
300.553098345
301.475850868
301.475850868
301.000247145
300.654723072
300.638463116
301.459590912
300.589683247
300.638463116
301.012442112
300.57342329
300.622203159
300.622203159
300.642528105
301.012442112
300.638463116
301.544955683
300.638463116
301.000247145
300.638463116
301.459590912
300.553098345
301.459590912
301.012442112
301.455525923
300.979922199
300.605943203
301.459590912
301.455525923
300.57342329
300.622203159
300.553098345
301.455525923
300.569358301
300.589683247
300.585618258
301.455525923
300.569358301
300.61813817
300.569358301
301.455525923
300.638463116
300.569358301

Block: 10
======================================
301.455525923
301.459590912
301.118131828
301.455525923
301.101871872
301.488045835
300.605943203
301.049027014
301.459590912
300.585618258
301.049027014
300.585618258
300.585618258
300.642528105
300.553098345
300.589683247
300.569358301
300.585618258
301.012442112
301.012442112
300.675048018
301.471785879
300.654723072
301.032767057
301.471785879
300.638463116
301.032767057
300.589683247
300.654723072
300.605943203
301.085611916
300.569358301
301.032767057
300.589683247
301.455525923
301.049027014
301.492110825
300.585618258
301.528695726
300.585618258
301.455525923
301.028702068
301.439265966
301.459590912
301.000247145
301.081546926
300.589683247
301.475850868
300.589683247
300.569358301
301.455525923
300.557163334
300.569358301
300.57342329
301.016507101
301.032767057
300.589683247
300.569358301
301.012442112
301.032767057
300.569358301
301.032767057
300.638463116
300.585618258
301.492110825
301.016507101
301.459590912
300.605943203
300.691307974
301.475850868
300.585618258
300.589683247
301.902674723
300.569358301
300.654723072
301.134391785
300.585618258
300.638463116
301.012442112
301.492110825
300.57342329
300.569358301
301.492110825
301.492110825
301.475850868
301.097806883
301.455525923
301.016507101
301.475850868
301.475850868
301.455525923
301.097806883
300.589683247
300.996182156
300.589683247
300.638463116
301.475850868
300.585618258
301.032767057
301.455525923
