
Block: 1
======================================
301.561215639
301.593735552
301.540890694
301.593735552
302.463643217
301.55715065
302.000234461
301.55715065
301.540890694
301.561215639
301.577475595
302.447383261
301.983974504
302.463643217
302.00429945
302.427058315
301.983974504
301.967714548
301.983974504
302.000234461
302.000234461
301.540890694
301.524630737
302.431123304
301.983974504
301.577475595
302.463643217
301.988039494
302.00429945
302.447383261
302.49616313
301.988039494
301.561215639
302.431123304
302.00429945
301.971779537
302.431123304
301.988039494
302.00429945
301.540890694
301.544955683
302.073404264
302.00429945
302.057144308
302.053079319
301.983974504
301.951454592
301.988039494
301.967714548
301.55715065

Block: 2
======================================
302.057144308
301.971779537
302.857947159
301.988039494
302.000234461
301.988039494
302.447383261
301.988039494
301.971779537
301.983974504
301.988039494
301.988039494
301.988039494
302.410798359
301.524630737
301.528695726
302.463643217
302.447383261
302.020559406
302.447383261
301.508370781
301.524630737
301.524630737
302.410798359
301.524630737
301.528695726
302.394538403
302.394538403
301.951454592
301.935194635
301.935194635
301.955519581
301.951454592
301.471785879
301.455525923
301.459590912
302.345758533
301.886414766
301.882349777
302.292913675
301.833569908
301.813244963
301.849829865
301.406746054
301.849829865
302.244133806
301.390486097
301.813244963
301.796985006
302.191288948

Block: 3
======================================
302.142509079
301.695360279
302.158769035
301.715685225
302.158769035
302.13844409
301.268536425
301.284796381
301.284796381
301.78072505
301.268536425
302.191288948
301.268536425
301.28886137
301.813244963
301.764465094
301.748205137
301.321381283
301.321381283
301.301056337
301.78072505
301.784790039
301.796985006
301.78072505
301.78072505
301.764465094
301.78072505
301.784790039
301.78072505
301.78072505
301.321381283
302.223808861
302.240068817
301.866089821
302.292913675
301.764465094
301.321381283
301.760400105
301.78072505
301.321381283
301.78072505
301.78072505
301.78072505
301.78072505
301.764465094
301.78072505
301.748205137
302.223808861
301.748205137
301.321381283

Block: 4
======================================
301.727880192
301.78072505
301.796985006
301.817309952
301.813244963
301.817309952
302.207548904
301.317316294
301.764465094
302.223808861
301.370161152
302.207548904
301.731945181
301.78072505
301.662840366
301.662840366
301.679100323
302.13844409
301.679100323
301.19943161
301.748205137
301.679100323
301.203496599
302.13844409
301.64658041
301.695360279
301.19943161
301.219756556
301.658775377
301.662840366
301.679100323
301.219756556
301.731945181
301.662840366
301.764465094
301.748205137
301.658775377
302.512423086
302.069339275
301.662840366
302.634372759
302.244133806
302.292913675
303.927039289
302.13844409
301.609995508
301.662840366
301.609995508
301.630320454
301.64658041

Block: 5
======================================
301.118131828
302.837622213
301.577475595
301.609995508
302.053079319
302.479903173
301.593735552
301.918934679
302.670957661
302.752257442
301.016507101
301.406746054
301.42300601
301.406746054
301.42300601
301.390486097
301.390486097
301.406746054
300.959597254
300.93114233
300.963662243
300.927077341
301.386421108
300.947402287
301.849829865
300.93114233
300.979922199
302.292913675
301.817309952
300.947402287
301.42300601
301.406746054
301.829504919
301.829504919
300.927077341
301.42300601
301.817309952
301.829504919
301.833569908
301.817309952
301.833569908
300.947402287
301.475850868
300.927077341
300.963662243
301.390486097
301.849829865
301.833569908
301.849829865
301.471785879

Block: 6
======================================
301.866089821
300.947402287
301.849829865
301.845764875
301.406746054
300.943337297
301.406746054
301.849829865
300.947402287
301.459590912
301.406746054
301.813244963
301.390486097
301.386421108
301.390486097
300.947402287
301.402681065
301.390486097
301.390486097
300.943337297
301.390486097
301.406746054
301.406746054
301.406746054
301.402681065
301.402681065
300.943337297
301.406746054
300.927077341
300.963662243
301.390486097
301.406746054
301.390486097
301.406746054
301.406746054
301.406746054
300.947402287
300.979922199
301.87015481
301.406746054
301.849829865
301.390486097
301.390486097
301.390486097
301.402681065
301.42300601
301.406746054
301.42300601
301.406746054
301.475850868

Block: 7
======================================
300.979922199
300.947402287
301.459590912
300.979922199
302.36201849
301.016507101
301.000247145
300.979922199
301.42300601
301.902674723
300.996182156
301.475850868
301.000247145
301.524630737
300.979922199
301.439265966
300.979922199
301.443330956
301.455525923
300.979922199
300.979922199
301.524630737
301.000247145
301.459590912
301.439265966
301.000247145
300.979922199
301.918934679
301.000247145
300.996182156
301.459590912
301.439265966
301.439265966
301.439265966
300.979922199
301.508370781
300.996182156
302.329498577
301.459590912
301.42300601
301.439265966
301.012442112
301.898609734
301.886414766
301.012442112
301.508370781
302.341693544
301.508370781
300.996182156
301.886414766

Block: 8
======================================
300.996182156
301.42300601
301.42300601
301.406746054
301.882349777
300.979922199
301.459590912
301.886414766
301.882349777
301.443330956
301.882349777
301.427070999
301.42300601
301.508370781
301.406746054
301.866089821
301.886414766
301.87015481
301.866089821
302.752257442
301.866089821
301.866089821
301.866089821
301.935194635
301.849829865
301.42300601
303.162821341
301.866089821
301.866089821
301.866089821
301.866089821
301.406746054
301.406746054
301.886414766
301.91486969
301.42300601
301.439265966
301.406746054
300.979922199
302.309173632
301.91486969
301.492110825
301.427070999
301.406746054
301.406746054
303.179081297
301.42300601
301.439265966
301.87015481
301.406746054

Block: 9
======================================
301.439265966
301.42300601
301.866089821
301.475850868
302.735997486
300.979922199
301.42300601
301.406746054
301.849829865
300.959597254
301.42300601
301.443330956
301.492110825
301.390486097
301.42300601
301.406746054
301.849829865
301.849829865
301.849829865
301.866089821
301.829504919
301.898609734
301.390486097
301.849829865
300.963662243
301.42300601
301.833569908
301.492110825
301.866089821
301.866089821
301.849829865
301.386421108
301.406746054
301.866089821
301.406746054
301.849829865
300.963662243
301.406746054
301.866089821
301.866089821
300.963662243
301.87015481
301.406746054
301.866089821
301.406746054
301.370161152
301.402681065
301.406746054
301.406746054
301.471785879

Block: 10
======================================
301.390486097
300.947402287
301.402681065
301.817309952
301.406746054
301.406746054
301.406746054
301.849829865
301.370161152
301.406746054
302.735997486
301.390486097
301.406746054
301.475850868
300.947402287
301.406746054
300.947402287
300.963662243
301.390486097
301.390486097
301.42300601
301.406746054
301.390486097
301.390486097
301.390486097
300.947402287
301.390486097
301.402681065
301.406746054
301.42300601
301.406746054
300.963662243
302.292913675
301.406746054
301.406746054
301.406746054
300.947402287
300.947402287
301.459590912
301.459590912
301.42300601
300.947402287
300.963662243
301.406746054
300.963662243
301.475850868
301.833569908
301.833569908
300.947402287
301.42300601

Block: 1
======================================
301.524630737
301.544955683
301.524630737
301.06528697
300.605943203
300.622203159
301.081546926
301.081546926
301.081546926
301.06528697
301.081546926
301.06528697
301.081546926
300.638463116
301.508370781
301.524630737
300.70756793
301.06528697
301.524630737
301.081546926
301.081546926
300.638463116
300.638463116
300.622203159
301.101871872
300.622203159
300.654723072
300.638463116
300.638463116
301.06528697
301.528695726
300.638463116
300.589683247
300.703502941
300.622203159
301.081546926
300.622203159
301.06528697
300.622203159
300.638463116
301.081546926
300.622203159
301.508370781
300.638463116
300.622203159
300.638463116
300.622203159
300.622203159
301.130326796
300.605943203

Block: 2
======================================
301.081546926
301.044962025
301.028702068
301.902674723
301.130326796
300.622203159
300.658788061
300.622203159
300.642528105
300.670983028
301.508370781
300.70756793
300.691307974
300.638463116
300.654723072
300.622203159
301.134391785
300.622203159
300.675048018
301.085611916
301.085611916
301.06528697
301.06528697
300.585618258
301.134391785
300.622203159
301.085611916
300.605943203
300.605943203
300.622203159
301.081546926
300.589683247
300.654723072
301.06528697
301.508370781
300.670983028
300.605943203
300.622203159
300.622203159
300.658788061
300.605943203
301.081546926
301.049027014
301.51243577
301.134391785
300.622203159
301.134391785
301.508370781
300.605943203
300.622203159

Block: 3
======================================
301.475850868
301.508370781
300.691307974
300.605943203
300.601878214
301.06528697
300.638463116
300.605943203
300.622203159
300.622203159
300.691307974
300.675048018
300.638463116
300.622203159
300.601878214
301.049027014
300.675048018
301.114066839
301.528695726
300.622203159
300.589683247
300.589683247
300.622203159
300.605943203
301.524630737
301.028702068
300.622203159
300.605943203
300.589683247
301.951454592
300.675048018
300.589683247
300.605943203
300.585618258
300.605943203
300.605943203
300.622203159
301.049027014
300.585618258
300.658788061
300.605943203
300.638463116
300.654723072
301.492110825
300.605943203
300.675048018
300.605943203
300.654723072
300.589683247
300.675048018

Block: 4
======================================
300.670983028
300.601878214
301.028702068
301.049027014
301.06528697
301.032767057
301.032767057
300.638463116
300.670983028
300.589683247
301.06528697
301.118131828
300.654723072
301.150651741
300.601878214
300.589683247
300.589683247
301.492110825
301.492110825
301.508370781
301.508370781
301.032767057
301.508370781
300.691307974
300.605943203
300.605943203
301.049027014
300.658788061
300.654723072
301.475850868
301.032767057
301.114066839
301.032767057
300.622203159
300.605943203
300.585618258
300.642528105
300.605943203
300.605943203
300.691307974
300.601878214
301.049027014
300.670983028
301.508370781
301.492110825
300.605943203
300.622203159
300.605943203
300.605943203
300.654723072

Block: 5
======================================
300.589683247
300.605943203
300.605943203
300.589683247
301.049027014
300.589683247
301.101871872
300.622203159
300.622203159
300.687242985
301.06528697
301.097806883
300.638463116
300.654723072
300.585618258
300.675048018
300.605943203
301.049027014
300.622203159
301.081546926
300.601878214
301.101871872
300.622203159
300.605943203
300.605943203
300.638463116
301.134391785
301.508370781
300.601878214
300.605943203
300.622203159
300.605943203
301.492110825
301.049027014
300.622203159
301.06528697
300.585618258
300.605943203
300.605943203
301.150651741
301.508370781
301.06528697
301.935194635
300.605943203
301.492110825
301.508370781
300.675048018
301.032767057
301.492110825
300.675048018

Block: 6
======================================
301.049027014
300.57342329
300.622203159
301.028702068
300.605943203
301.508370781
301.049027014
301.049027014
301.06528697
301.049027014
300.605943203
300.622203159
301.032767057
300.622203159
301.114066839
301.06528697
300.675048018
301.114066839
301.508370781
301.508370781
301.492110825
301.049027014
301.049027014
300.589683247
301.032767057
300.585618258
301.049027014
301.492110825
301.028702068
300.601878214
301.134391785
301.492110825
300.605943203
301.492110825
301.049027014
301.492110825
301.488045835
301.028702068
300.654723072
301.032767057
301.508370781
301.492110825
301.492110825
301.475850868
301.471785879
301.492110825
300.605943203
301.508370781
301.081546926
301.492110825

Block: 7
======================================
301.081546926
300.605943203
300.585618258
300.605943203
300.605943203
300.642528105
300.658788061
300.601878214
301.508370781
301.06528697
300.601878214
301.492110825
301.150651741
301.492110825
300.654723072
300.605943203
300.622203159
301.508370781
301.508370781
301.492110825
301.049027014
301.049027014
301.492110825
300.601878214
301.492110825
300.622203159
300.622203159
300.601878214
300.675048018
301.032767057
301.492110825
301.044962025
300.605943203
300.605943203
301.508370781
300.670983028
300.654723072
300.670983028
300.605943203
301.508370781
300.605943203
301.049027014
300.638463116
301.508370781
300.687242985
301.049027014
301.06528697
300.622203159
301.524630737
300.638463116

Block: 8
======================================
301.049027014
301.471785879
301.524630737
301.524630737
301.114066839
300.691307974
301.544955683
301.508370781
300.605943203
300.622203159
301.492110825
300.675048018
300.605943203
300.601878214
301.081546926
300.622203159
300.605943203
301.475850868
301.492110825
301.032767057
301.016507101
301.492110825
301.508370781
300.622203159
301.081546926
300.605943203
301.492110825
301.012442112
300.658788061
301.028702068
301.51243577
301.028702068
301.488045835
301.508370781
300.601878214
300.622203159
301.049027014
301.492110825
301.028702068
301.028702068
300.638463116
301.06528697
301.06528697
301.488045835
301.028702068
300.658788061
301.049027014
301.032767057
301.492110825
301.012442112

Block: 9
======================================
300.589683247
300.589683247
301.016507101
301.049027014
301.032767057
301.032767057
300.57342329
301.028702068
301.049027014
301.032767057
300.622203159
300.569358301
301.049027014
301.016507101
300.589683247
300.605943203
301.028702068
300.57342329
300.569358301
301.049027014
301.032767057
300.670983028
301.049027014
301.049027014
300.589683247
300.605943203
300.605943203
301.049027014
300.605943203
301.049027014
301.081546926
301.016507101
301.049027014
300.589683247
301.049027014
301.032767057
301.475850868
301.012442112
300.589683247
301.049027014
300.605943203
301.492110825
301.488045835
301.475850868
301.561215639
300.585618258
301.032767057
300.605943203
301.492110825
301.492110825

Block: 10
======================================
301.118131828
300.589683247
300.57342329
300.589683247
301.028702068
301.032767057
300.670983028
301.492110825
301.097806883
301.081546926
300.585618258
301.475850868
301.012442112
301.475850868
301.455525923
300.638463116
301.016507101
301.016507101
301.012442112
301.028702068
300.605943203
301.475850868
301.032767057
301.471785879
301.012442112
301.012442112
301.561215639
301.012442112
301.049027014
300.569358301
301.492110825
301.049027014
301.032767057
300.654723072
301.032767057
300.658788061
300.622203159
301.032767057
301.049027014
301.492110825
301.016507101
300.670983028
302.788842344
301.488045835
301.492110825
301.475850868
301.028702068
301.032767057
301.475850868
301.475850868

Block: 1
======================================
301.272601414
300.370173836
300.809192657
301.268536425
301.268536425
300.788867712
301.284796381
301.28886137
300.382368803
300.402693748
300.93114233
300.402693748
300.451473618
300.398628759
300.825452614
300.809192657
300.825452614
300.829517603
301.268536425
300.382368803
301.268536425
301.268536425
301.272601414
300.398628759
300.825452614
300.414888716
301.256341457
301.252276468
300.825452614
301.268536425
301.256341457
301.256341457
301.268536425
300.809192657
300.894557428
300.825452614
300.878297472
300.382368803
300.382368803
301.321381283
300.878297472
301.272601414
301.252276468
301.252276468
300.845777559
301.252276468
301.268536425
300.366108847
301.268536425
300.894557428

Block: 2
======================================
300.809192657
301.268536425
300.878297472
300.894557428
300.825452614
300.366108847
300.825452614
300.894557428
300.34984889
300.382368803
300.382368803
300.366108847
300.386433792
300.366108847
300.398628759
300.825452614
300.878297472
300.366108847
300.366108847
300.398628759
300.382368803
300.34984889
300.386433792
300.382368803
300.825452614
301.28886137
301.284796381
300.451473618
300.386433792
300.382368803
300.382368803
301.28886137
300.910817385
301.272601414
300.366108847
300.894557428
301.272601414
301.268536425
300.366108847
300.825452614
302.126249123
301.28886137
301.284796381
300.825452614
301.28886137
300.927077341
300.914882374
301.284796381
300.402693748
300.809192657

Block: 3
======================================
300.825452614
301.252276468
301.272601414
301.268536425
300.398628759
300.878297472
301.28886137
300.382368803
301.268536425
300.845777559
300.84171257
300.382368803
300.825452614
301.252276468
300.809192657
300.829517603
300.825452614
300.845777559
300.862037516
300.398628759
301.28886137
300.386433792
300.382368803
301.252276468
300.382368803
300.382368803
300.366108847
300.398628759
300.398628759
300.386433792
300.398628759
300.386433792
300.825452614
300.898622417
300.34984889
300.825452614
300.845777559
300.370173836
300.382368803
301.252276468
300.894557428
300.927077341
300.386433792
300.366108847
300.382368803
300.84171257
300.829517603
300.809192657
300.809192657
300.894557428

Block: 4
======================================
300.398628759
300.825452614
300.382368803
300.418953705
300.809192657
300.894557428
300.825452614
300.370173836
300.910817385
300.84171257
300.894557428
300.402693748
300.382368803
301.268536425
300.84171257
300.84171257
300.829517603
300.825452614
300.845777559
300.84171257
300.809192657
300.84171257
300.382368803
300.382368803
300.386433792
300.382368803
300.386433792
300.825452614
301.268536425
300.366108847
300.382368803
300.345783901
300.825452614
300.845777559
300.366108847
300.382368803
300.382368803
300.927077341
300.382368803
300.382368803
300.370173836
301.284796381
300.402693748
300.809192657
300.857972527
300.402693748
300.382368803
300.398628759
301.272601414
300.809192657

Block: 5
======================================
300.386433792
300.398628759
300.386433792
301.252276468
300.829517603
301.28886137
300.825452614
300.435213661
300.809192657
301.284796381
300.366108847
300.382368803
300.366108847
300.34984889
300.382368803
300.431148672
300.366108847
300.366108847
300.382368803
300.878297472
300.398628759
301.268536425
301.272601414
301.252276468
301.252276468
301.268536425
301.256341457
300.809192657
300.809192657
300.829517603
301.268536425
300.809192657
300.894557428
301.284796381
300.382368803
300.366108847
300.910817385
300.366108847
300.792932701
300.386433792
301.252276468
301.715685225
300.894557428
300.345783901
300.809192657
300.809192657
300.829517603
300.366108847
300.829517603
300.382368803

Block: 6
======================================
300.825452614
300.435213661
301.252276468
301.252276468
300.382368803
300.825452614
300.809192657
300.845777559
300.366108847
300.84171257
300.382368803
300.862037516
300.894557428
300.366108847
300.825452614
300.809192657
300.825452614
300.845777559
301.268536425
300.370173836
300.845777559
300.894557428
300.386433792
300.366108847
300.431148672
300.382368803
300.366108847
300.366108847
300.382368803
301.256341457
300.366108847
300.402693748
300.825452614
300.825452614
301.268536425
300.386433792
300.382368803
300.382368803
300.414888716
300.398628759
300.398628759
300.435213661
300.366108847
300.402693748
300.366108847
300.382368803
301.252276468
300.809192657
301.252276468
301.268536425

Block: 7
======================================
300.366108847
300.894557428
300.386433792
300.366108847
301.272601414
301.252276468
301.256341457
300.382368803
301.268536425
300.910817385
300.829517603
300.84171257
301.711620235
301.252276468
300.34984889
301.252276468
300.366108847
300.366108847
300.809192657
301.699425268
300.825452614
300.809192657
301.256341457
300.792932701
300.386433792
300.878297472
300.829517603
300.382368803
300.845777559
301.236016512
300.825452614
300.809192657
300.382368803
300.829517603
300.84171257
300.386433792
300.829517603
301.321381283
300.382368803
300.825452614
300.845777559
300.874232483
300.366108847
300.370173836
300.34984889
300.894557428
300.386433792
300.366108847
300.878297472
300.857972527

Block: 8
======================================
300.382368803
300.398628759
300.910817385
300.825452614
300.84171257
300.825452614
300.382368803
300.825452614
300.382368803
300.431148672
300.366108847
300.84171257
300.382368803
300.382368803
300.845777559
300.825452614
300.845777559
300.366108847
300.825452614
301.301056337
300.845777559
300.813257647
300.84171257
300.845777559
301.305121326
301.357966185
300.414888716
300.845777559
300.84171257
300.382368803
300.829517603
300.809192657
300.825452614
301.272601414
300.418953705
300.398628759
300.398628759
300.825452614
300.914882374
300.48399353
300.845777559
300.366108847
300.451473618
300.382368803
300.402693748
300.398628759
300.451473618
300.857972527
300.845777559
300.402693748

Block: 9
======================================
300.402693748
301.321381283
301.284796381
300.435213661
300.382368803
300.386433792
300.84171257
300.386433792
300.382368803
301.272601414
300.386433792
300.402693748
300.825452614
300.402693748
300.398628759
300.825452614
300.382368803
300.845777559
301.272601414
300.398628759
300.825452614
300.366108847
300.825452614
300.402693748
300.382368803
300.914882374
300.84171257
300.382368803
300.366108847
300.402693748
300.84171257
301.28886137
300.845777559
300.84171257
300.825452614
300.451473618
300.84171257
301.284796381
300.418953705
300.398628759
300.386433792
300.435213661
301.28886137
301.268536425
300.402693748
301.305121326
300.878297472
300.471798563
300.910817385
300.471798563

Block: 10
======================================
300.471798563
301.321381283
300.84171257
301.301056337
300.84171257
300.914882374
300.862037516
300.418953705
300.418953705
300.467733574
301.321381283
300.414888716
300.366108847
300.84171257
300.825452614
301.301056337
301.28886137
300.93114233
301.731945181
300.418953705
300.857972527
300.382368803
300.862037516
301.305121326
301.28886137
301.321381283
301.28886137
301.28886137
300.93114233
300.910817385
300.467733574
300.418953705
301.321381283
300.467733574
300.398628759
300.93114233
300.414888716
300.910817385
300.878297472
301.305121326
300.947402287
300.418953705
300.414888716
300.435213661
300.398628759
300.418953705
300.914882374
300.910817385
300.435213661
301.305121326
