
Block: 1
======================================
401.739918017
400.890821481
401.315369749
401.72374475
400.838258362
400.838258362
400.842301679
400.838258362
401.299196482
401.278979897

Block: 2
======================================
401.756091285
400.858474946
401.72374475
402.180639553
402.621361089
403.470457625
402.180639553
402.19681282
401.315369749
402.217029405

Block: 3
======================================
403.045909357
403.062082624
403.470457625
402.637534356
402.637534356
402.605187821
403.87478931
402.160422969
403.062082624
402.621361089

Block: 4
======================================
402.19681282
403.907135844
401.756091285
405.556809115
401.756091285
401.739918017
402.164466286
403.438111091
402.144249701
402.164466286

Block: 5
======================================
402.605187821
402.164466286
401.315369749
402.605187821
402.637534356
402.160422969
403.045909357
402.637534356
402.180639553
401.719701433

Block: 6
======================================
402.65775094
403.486630893
402.229159355
403.098472476
404.760275698
403.078255892
403.082299209
403.943525696
402.212986088
401.808654404

Block: 7
======================================
402.301939058
401.400279403
401.400279403
401.925910592
401.012120986
400.587572718
400.551182866
400.551182866
400.991904402
401.008077669

Block: 8
======================================
400.975731134
400.959557867
403.551323962
400.991904402
400.995947719
401.87739079
401.400279403
401.400279403
401.400279403
402.314069009

Block: 9
======================================
403.179338813
401.028294253
400.991904402
401.008077669
401.448799205
401.028294253
400.991904402
401.012120986
401.012120986
400.991904402

Block: 10
======================================
400.991904402
400.567356133
401.432625937
400.57139945
400.599702668
400.551182866
400.57139945
401.008077669
401.012120986
400.567356133
