
Block: 1
======================================
200.760109425
200.177782941
200.177782941
201.065525413
200.177782941
200.654231882
200.161494088
200.177782941
200.198144007
200.181855154
200.621654177
200.658304095
200.198144007
200.198144007
201.118464184
200.658304095
200.181855154
200.658304095
200.674592948
200.642015243
201.102175331
200.177782941
200.230721712
200.214432859
200.674592948
200.194071794
200.230721712
200.283660483
201.118464184
200.27958827
200.267371631
201.085886478
201.102175331
200.674592948
200.230721712
200.637943029
201.085886478
200.230721712
201.102175331
201.102175331
201.098103118
201.118464184
200.658304095
201.118464184
200.642015243
200.658304095
201.134753036
200.654231882
200.674592948
200.674592948

Average distance is : 200.596 cm
Average deviation is : 0.364 cm
Block: 2
======================================
200.654231882
200.194071794
200.642015243
200.637943029
200.181855154
200.658304095
200.674592948
200.637943029
201.098103118
200.230721712
201.118464184
200.637943029
200.214432859
200.230721712
201.085886478
201.102175331
200.283660483
201.118464184
200.654231882
201.102175331
200.230721712
200.214432859
200.27958827
201.118464184
201.118464184
200.214432859
200.210360646
200.230721712
200.743820572
200.230721712
200.214432859
200.263299417
200.214432859
200.230721712
200.263299417
200.263299417
201.102175331
200.210360646
200.299949336
200.670520735
200.230721712
200.230721712
200.214432859
200.707170653
200.743820572
201.134753036
201.118464184
200.263299417
201.134753036
200.743820572

Average distance is : 200.560 cm
Average deviation is : 0.366 cm
Block: 3
======================================
200.214432859
201.081814265
200.230721712
201.102175331
200.27958827
200.674592948
200.658304095
201.134753036
200.654231882
200.670520735
200.194071794
200.263299417
200.674592948
200.658304095
201.134753036
201.102175331
200.263299417
200.27958827
201.134753036
201.102175331
201.118464184
201.134753036
201.118464184
201.098103118
200.760109425
200.739748359
201.102175331
201.118464184
201.118464184
201.134753036
201.134753036
200.670520735
200.312165976
200.247010565
200.230721712
200.295877123
200.299949336
201.118464184
200.658304095
201.118464184
201.114391971
200.295877123
200.247010565
200.230721712
201.118464184
200.654231882
200.247010565
200.760109425
200.316238189
200.247010565

Average distance is : 200.705 cm
Average deviation is : 0.378 cm
Block: 4
======================================
200.267371631
200.739748359
201.134753036
201.118464184
200.845625901
200.214432859
200.230721712
200.247010565
200.707170653
200.230721712
200.247010565
200.230721712
200.230721712
200.230721712
200.230721712
200.230721712
200.214432859
200.230721712
200.267371631
201.134753036
200.230721712
200.230721712
200.230721712
200.194071794
200.230721712
200.756037211
200.230721712
200.247010565
200.230721712
200.230721712
200.230721712
200.214432859
200.230721712
200.214432859
200.214432859
200.670520735
200.674592948
201.102175331
201.118464184
201.118464184
201.118464184
200.263299417
200.214432859
200.743820572
200.230721712
201.118464184
200.295877123
200.27958827
200.247010565
201.102175331

Average distance is : 200.464 cm
Average deviation is : 0.355 cm
Block: 5
======================================
201.102175331
200.230721712
200.711242867
200.690881801
200.214432859
200.27958827
200.214432859
201.102175331
200.743820572
200.658304095
200.674592948
201.102175331
200.658304095
201.102175331
200.658304095
200.658304095
200.739748359
201.118464184
200.658304095
201.118464184
200.674592948
201.118464184
200.637943029
201.118464184
200.637943029
200.674592948
200.658304095
200.637943029
200.658304095
200.658304095
200.674592948
200.674592948
200.658304095
200.642015243
200.658304095
201.118464184
201.118464184
201.118464184
200.658304095
200.674592948
201.118464184
201.102175331
200.739748359
200.214432859
200.27958827
201.118464184
201.118464184
201.118464184
200.760109425
200.739748359

Average distance is : 200.764 cm
Average deviation is : 0.281 cm
Block: 6
======================================
200.674592948
200.210360646
200.658304095
201.118464184
200.674592948
200.226649499
201.118464184
201.118464184
200.727531719
201.118464184
201.118464184
201.118464184
201.114391971
201.081814265
200.743820572
201.102175331
201.102175331
201.13882525
200.210360646
200.214432859
201.118464184
200.642015243
201.102175331
201.118464184
201.118464184
200.226649499
200.760109425
200.674592948
200.214432859
200.690881801
200.247010565
200.654231882
200.198144007
200.637943029
200.316238189
200.247010565
200.743820572
200.210360646
200.230721712
200.210360646
200.707170653
200.690881801
200.283660483
200.743820572
200.214432859
200.230721712
200.690881801
201.118464184
200.690881801
200.230721712

Average distance is : 200.671 cm
Average deviation is : 0.364 cm
Block: 7
======================================
201.134753036
201.085886478
201.102175331
200.658304095
200.690881801
200.226649499
200.214432859
200.226649499
200.283660483
200.210360646
200.226649499
200.210360646
200.707170653
200.210360646
200.214432859
200.283660483
200.210360646
200.210360646
200.690881801
200.247010565
200.267371631
200.723459506
200.210360646
200.727531719
201.118464184
200.226649499
200.230721712
200.210360646
200.230721712
200.247010565
200.214432859
201.118464184
200.214432859
200.674592948
200.214432859
201.102175331
200.230721712
201.13882525
200.214432859
200.214432859
200.247010565
200.230721712
201.102175331
201.118464184
200.230721712
200.247010565
200.210360646
200.263299417
200.690881801
200.194071794

Average distance is : 200.462 cm
Average deviation is : 0.352 cm
Block: 8
======================================
200.247010565
200.263299417
201.102175331
201.102175331
200.723459506
200.226649499
200.214432859
200.230721712
200.214432859
200.247010565
201.134753036
201.118464184
201.114391971
201.118464184
200.760109425
200.230721712
200.230721712
200.247010565
200.247010565
200.295877123
200.226649499
200.230721712
200.707170653
200.299949336
200.230721712
201.118464184
200.247010565
200.27958827
200.690881801
200.690881801
200.230721712
200.295877123
200.247010565
200.690881801
200.230721712
200.230721712
200.230721712
200.230721712
200.226649499
201.098103118
200.760109425
200.743820572
200.723459506
200.226649499
200.267371631
200.226649499
200.226649499
200.690881801
201.13882525
200.230721712

Average distance is : 200.495 cm
Average deviation is : 0.349 cm
Block: 9
======================================
200.299949336
200.727531719
201.134753036
201.118464184
200.299949336
200.230721712
200.230721712
200.707170653
200.247010565
200.654231882
200.760109425
200.247010565
200.230721712
200.226649499
200.214432859
200.230721712
200.214432859
200.214432859
200.247010565
200.247010565
200.299949336
200.299949336
200.283660483
200.743820572
200.299949336
200.230721712
200.230721712
200.230721712
200.247010565
200.230721712
201.134753036
201.134753036
200.727531719
200.230721712
200.247010565
200.226649499
200.247010565
200.230721712
200.760109425
200.247010565
200.230721712
200.27958827
200.230721712
200.230721712
200.760109425
200.760109425
200.247010565
200.230721712
200.743820572
200.214432859

Average distance is : 200.414 cm
Average deviation is : 0.291 cm
Block: 10
======================================
200.727531719
200.210360646
200.776398277
201.098103118
200.674592948
200.247010565
200.230721712
200.247010565
200.247010565
200.210360646
200.295877123
200.230721712
200.723459506
200.739748359
200.316238189
200.756037211
200.690881801
200.247010565
200.27958827
200.214432859
200.247010565
200.230721712
200.756037211
200.316238189
200.230721712
200.690881801
200.247010565
200.654231882
200.690881801
200.690881801
200.247010565
200.210360646
200.230721712
200.674592948
200.247010565
200.230721712
200.230721712
200.230721712
200.723459506
200.690881801
200.230721712
200.247010565
200.690881801
200.690881801
200.230721712
200.674592948
200.674592948
200.707170653
200.247010565
200.690881801

Average distance is : 200.454 cm
Average deviation is : 0.248 cm