
Block: 1
======================================
200.365104747
200.658304095
199.921233511
200.348815894
200.796759343
200.776398277
200.332527041
200.348815894
200.352888107
200.348815894
200.348815894
200.385465813
200.79268713
200.776398277
200.813048196
200.332527041
200.348815894
200.36917696
200.79268713
200.79268713
200.808975983
200.79268713
109.66877296
199.461073422
199.941594577
200.776398277
110.027127719
199.102718663
111.770034957
197.819971514
200.79268713
200.79268713
200.352888107
199.937522364
200.808975983
200.79268713
199.921233511
199.921233511
199.921233511
200.79268713
200.776398277
199.921233511
199.904944658
199.925305724
112.234267259
196.968878961
114.742750573
194.745450568
199.904944658
200.776398277

Average distance is : 191.282 cm
Average deviation is : 26.828 cm
Block: 2
======================================
199.921233511
112.849171448
197.547133231
200.348815894
200.808975983
110.027127719
199.546589899
113.806141543
194.920555735
200.352888107
200.332527041
199.925305724
200.776398277
200.312165976
200.332527041
200.348815894
200.365104747
200.776398277
114.14820745
194.54183991
115.068527627
194.936844587
200.79268713
200.776398277
200.332527041
199.888655806
200.316238189
200.79268713
112.999843335
196.610524201
200.332527041
200.79268713
200.332527041
108.813608193
199.95788343
199.477362275
199.904944658
201.20398066
199.888655806
111.843334794
197.32723372
200.348815894
199.888655806
111.395391345
197.75074389
200.332527041
200.348815894
109.652484107
199.477362275
199.888655806

Average distance is : 182.069 cm
Average deviation is : 35.403 cm
Block: 3
======================================
199.888655806
200.332527041
112.971337843
197.017745519
112.095812011
195.702420664
200.348815894
111.244719458
198.776941609
111.448330116
197.306872654
201.20398066
112.181328487
197.856621432
200.79268713
112.576333165
196.985167813
200.332527041
109.721711731
199.937522364
200.348815894
199.937522364
200.79268713
200.365104747
200.332527041
200.813048196
111.757818317
197.852549219
200.365104747
108.854330325
200.36917696
109.652484107
200.401754665
199.941594577
200.79268713
200.808975983
200.365104747
111.822973728
197.392389131
200.332527041
111.395391345
199.066068745
114.30295155
196.1462919
200.79268713
110.935231256
198.267914963
199.941594577
199.904944658
200.776398277

Average distance is : 174.871 cm
Average deviation is : 39.949 cm
Block: 4
======================================
201.664140749
200.79268713
199.925305724
200.79268713
110.951520109
199.937522364
200.813048196
199.941594577
200.352888107
200.808975983
199.937522364
200.808975983
199.921233511
200.316238189
199.921233511
200.79268713
199.872366953
200.365104747
200.813048196
200.332527041
200.332527041
200.776398277
200.79268713
200.808975983
200.418043518
199.921233511
199.937522364
199.921233511
200.36917696
200.332527041
199.925305724
200.332527041
200.796759343
199.941594577
200.79268713
200.776398277
199.904944658
200.796759343
199.904944658
200.79268713
200.79268713
200.79268713
199.904944658
200.79268713
199.909016871
200.796759343
200.796759343
199.921233511
200.79268713
199.937522364

Average distance is : 198.621 cm
Average deviation is : 12.659 cm
Block: 5
======================================
199.925305724
199.921233511
199.888655806
199.904944658
200.79268713
199.941594577
199.937522364
200.808975983
199.921233511
200.813048196
199.95788343
200.813048196
199.925305724
199.941594577
200.78047049
199.909016871
200.813048196
199.904944658
199.937522364
199.921233511
200.79268713
199.909016871
199.941594577
200.79268713
200.3813936
110.010838866
198.707713985
113.598458672
195.995620012
114.062690973
195.547676563
199.921233511
199.921233511
200.3813936
200.796759343
200.813048196
200.348815894
199.921233511
200.79268713
199.921233511
111.411680198
197.771104956
199.909016871
200.79268713
200.080049825
199.921233511
199.921233511
199.937522364
200.796759343
199.925305724

Average distance is : 192.936 cm
Average deviation is : 24.055 cm
Block: 6
======================================
199.888655806
200.776398277
200.776398277
200.796759343
200.332527041
201.20398066
200.352888107
200.332527041
113.431497931
195.653554106
199.888655806
199.921233511
200.352888107
199.904944658
199.904944658
199.888655806
199.925305724
200.79268713
200.348815894
200.332527041
200.796759343
110.084138703
199.530301046
200.348815894
200.332527041
200.332527041
199.904944658
200.332527041
200.796759343
200.352888107
110.116716409
199.049779892
199.904944658
200.332527041
199.86829474
111.415752411
198.540753245
200.352888107
201.220269513
199.872366953
200.776398277
201.183619595
200.332527041
200.79268713
200.348815894
200.808975983
200.332527041
199.925305724
200.348815894
200.332527041

Average distance is : 193.069 cm
Average deviation is : 24.385 cm
Block: 7
======================================
200.348815894
201.187691808
200.348815894
199.888655806
201.199908447
199.86829474
200.332527041
200.332527041
200.332527041
200.316238189
200.79268713
111.753746104
197.392389131
113.085359812
196.504646659
114.368106961
194.374879169
115.170332956
195.702420664
113.496653342
195.584326482
114.453623438
195.12009418
200.348815894
200.316238189
200.348815894
200.796759343
200.365104747
108.833969259
199.493651128
199.941594577
200.776398277
201.187691808
200.756037211
200.332527041
113.443714571
196.130003047
200.332527041
200.776398277
112.148750782
197.836260366
199.872366953
110.59316535
198.129459715
200.79268713
200.352888107
199.921233511
200.760109425
199.925305724
201.187691808

Average distance is : 182.153 cm
Average deviation is : 35.111 cm
Block: 8
======================================
200.332527041
199.921233511
199.872366953
200.36917696
199.872366953
199.904944658
199.904944658
200.316238189
199.921233511
199.852005887
200.332527041
200.776398277
200.79268713
200.776398277
199.904944658
113.427425718
195.669842958
200.348815894
199.904944658
200.312165976
200.332527041
200.348815894
200.79268713
199.904944658
200.316238189
200.776398277
200.776398277
200.808975983
200.332527041
201.220269513
108.73216393
199.530301046
199.925305724
200.79268713
200.348815894
111.753746104
197.376100278
113.838719249
196.166652966
200.79268713
110.491360021
198.231265044
199.921233511
200.776398277
199.904944658
200.776398277
200.796759343
200.348815894
199.888655806
110.540226579

Average distance is : 189.381 cm
Average deviation is : 29.091 cm
Block: 9
======================================
200.776398277
200.776398277
109.159746313
199.514012194
200.79268713
199.888655806
200.348815894
200.796759343
200.348815894
200.348815894
200.79268713
110.491360021
200.385465813
200.385465813
199.888655806
200.348815894
199.888655806
199.904944658
199.904944658
200.316238189
200.348815894
200.332527041
200.808975983
110.470998955
199.070140958
200.332527041
200.295877123
200.776398277
199.904944658
110.935231256
199.033491039
200.79268713
200.79268713
200.332527041
111.36281364
197.787393808
200.332527041
200.332527041
200.79268713
199.884583592
112.625199723
197.343522573
200.79268713
200.332527041
200.79268713
200.79268713
200.79268713
109.212685084
199.497723341
200.36917696

Average distance is : 187.647 cm
Average deviation is : 31.409 cm
Block: 10
======================================
199.86829474
199.888655806
201.631563044
200.796759343
200.348815894
200.760109425
200.332527041
200.332527041
200.348815894
199.86829474
110.951520109
198.605908656
200.348815894
199.888655806
200.316238189
200.316238189
200.332527041
111.346524787
199.066068745
199.888655806
199.86829474
199.8560781
200.316238189
199.8560781
199.888655806
199.888655806
199.86829474
200.316238189
111.36281364
199.921233511
200.316238189
110.955592322
199.904944658
201.187691808
199.888655806
200.316238189
199.95788343
199.872366953
200.332527041
110.951520109
198.593692017
111.415752411
198.589619803
200.316238189
200.316238189
199.888655806
200.332527041
199.872366953
199.888655806
200.776398277

Average distance is : 189.401 cm
Average deviation is : 29.189 cm