
Block: 1
======================================
6.06390037537
50.4051447868
50.4051447868
36.703852272
50.8529531479
50.3887114525
35.787693882
50.4051447868
50.4010364532
37.1352272987
49.9737697601
49.9860947609
38.856619072
50.0066364288
49.9737697601
40.3931358337
49.9737697601
49.9902030945
40.5287108421
50.4010364532
50.4174697876
39.5098441124
50.4010364532
50.0066364288
39.891919136
50.0066364288
50.4215781212
39.4769774437
50.4010364532
50.4215781212
39.6166607857
49.9737697601
49.9696614265
40.0110608101
49.9532280922
50.3846031189
40.4095691681
50.4010364532
49.9696614265
39.8549441338
50.4215781212
50.3846031189
39.444110775
50.4215781212
49.9860947609
39.6659607887
50.3846031189
50.3681697845
39.2715607643
49.9860947609
50.0066364288
40.6848275185
50.8324114799
50.4174697876
39.1483107567
50.8324114799
49.9696614265
40.0809024811
50.4010364532
49.9737697601
49.9902030945
49.9737697601
49.9737697601
49.9737697601
49.9860947609
50.0230697632
50.4051447868
50.3681697845
49.9860947609
50.0066364288
50.0230697632
49.9860947609
50.4051447868
41.7694275856
50.4010364532

Average distance is : 46.748 cm
Average deviation is : 6.801 cm
Block: 2
======================================
50.8324114799
50.4174697876
50.7995448112
50.8365198135
50.8324114799
50.8159781456
50.8159781456
50.8324114799
50.4010364532
50.8159781456
50.4174697876
50.8529531479
50.8159781456
50.8159781456
41.1490692139
50.8159781456
49.9737697601
39.1318774223
50.3846031189
50.3846031189
39.493410778
50.3887114525
50.8159781456
39.2510190964
50.8324114799
50.7995448112
38.5279523849
50.7995448112
50.4010364532
39.2510190964
50.3846031189
50.3846031189
39.3414024353
50.8159781456
50.4051447868
39.3907024384
50.4051447868
50.3846031189
39.8385107994
50.4215781212
50.4174697876
39.444110775
50.4051447868
50.3846031189
39.6823941231
50.4215781212
50.8159781456
38.8894857407
50.4010364532
50.8324114799
39.0497107506
50.4380114555
50.8159781456
39.513952446
50.8159781456
50.8159781456
38.8935940742
50.3846031189
50.8488448143
39.1318774223
50.8488448143
50.4010364532
38.9963024139
50.3846031189
50.4174697876
39.8056441307
50.8324114799
50.8365198135
38.856619072
50.7995448112
50.8324114799
38.7908857346
50.7995448112
50.8365198135
38.7539107323

Average distance is : 47.454 cm
Average deviation is : 5.135 cm
Block: 3
======================================
50.7954364777
50.8159781456
50.4051447868
50.7995448112
50.8365198135
50.8159781456
50.8488448143
50.7790031433
50.7995448112
50.8159781456
50.8324114799
50.7954364777
50.8324114799
50.8159781456
50.8324114799
48.539961338
50.8159781456
50.7666781425
38.2198273659
50.7954364777
50.8488448143
39.234585762
50.7954364777
50.8324114799
38.856619072
50.8159781456
50.8488448143
38.7539107323
50.8324114799
50.8693864822
38.7703440666
50.8365198135
50.8159781456
37.5830356598
50.8159781456
50.8324114799
38.5977940559
50.9885281563
50.8324114799
38.4786523819
50.7461364746
50.8324114799
38.3225357056
50.7995448112
50.8159781456
37.9445690155
50.8159781456
50.8159781456
38.5484940529
50.8488448143
50.8324114799
38.1869606972
50.8365198135
50.8324114799
38.1171190262
50.8159781456
50.8365198135
38.3061023712
50.8159781456
50.7995448112
38.0308440208
50.8488448143
50.3681697845
37.7186106682
50.4215781212
50.8159781456
38.3923773766
50.8159781456
50.8324114799
38.5813607216
50.8324114799
50.4010364532
38.7539107323
50.8159781456
50.7995448112

Average distance is : 47.620 cm
Average deviation is : 5.424 cm
Block: 4
======================================
10.9404923439
50.3681697845
50.3517364502
37.0982522964
50.3353031158
50.3681697845
36.7901272774
50.8159781456
50.8159781456
33.8773187637
50.8159781456
50.8324114799
38.8073190689
50.8159781456
50.8159781456
38.8935940742
50.8159781456
50.7995448112
38.9470024109
50.7995448112
50.7995448112
38.8730524063
50.7954364777
50.8324114799
38.7703440666
50.8159781456
50.7954364777
38.5813607216
50.8159781456
50.7461364746
38.786777401
50.8159781456
50.8159781456
39.2017190933
50.8159781456
50.7995448112
38.7374773979
50.8159781456
50.7831114769
38.8935940742
50.8159781456
50.8529531479
37.5131939888
50.7995448112
50.8324114799
38.8237524033
50.8159781456
50.8159781456
38.4950857162
50.7831114769
50.7502448082
39.0291690826
50.7831114769
50.7995448112
38.3225357056
50.8159781456
50.8324114799
38.1705273628
50.7461364746
50.8488448143
39.234585762
50.7995448112
50.8159781456
38.3225357056
50.8488448143
50.8324114799
38.8073190689
50.7666781425
50.8159781456
38.905919075
50.3846031189
50.7954364777
39.1688524246
50.7995448112
50.7461364746

Average distance is : 46.268 cm
Average deviation is : 7.150 cm
Block: 5
======================================
50.4174697876
50.7995448112
50.7954364777
50.8365198135
50.8324114799
50.7666781425
51.4527698517
36.5682772636
50.3681697845
50.7461364746
37.5131939888
50.8159781456
50.8159781456
38.5649273872
50.8159781456
50.8159781456
39.09490242
50.7831114769
50.8159781456
38.5813607216
50.8324114799
50.8488448143
38.3061023712
50.8159781456
50.8529531479
38.6347690582
50.8159781456
50.8159781456
39.2715607643
50.8159781456
50.8159781456
38.4457857132
50.8324114799
50.8159781456
38.7703440666
50.8159781456
50.8324114799
39.115444088
50.8159781456
50.3681697845
39.045602417
50.7831114769
50.8159781456
38.7539107323
50.4215781212
50.7954364777
39.0825774193
50.3846031189
50.4380114555
39.7522357941
50.7995448112
50.8324114799
38.8032107353
50.8365198135
50.8159781456
39.0086274147
50.7995448112
50.7831114769
38.8032107353
50.8159781456
50.4051447868
39.0620357513
50.7995448112
50.8159781456
38.3061023712
50.4174697876
50.4174697876
40.0644691467
50.4051447868
50.7831114769
39.2181524277
50.4010364532
50.7790031433
39.3372941017
50.8159781456

Average distance is : 47.073 cm
Average deviation is : 5.563 cm
Block: 6
======================================
50.3476281166
50.3846031189
50.4010364532
50.3517364502
50.7666781425
50.7461364746
50.3311947823
50.3147614479
50.3681697845
50.8488448143
50.8324114799
50.3681697845
50.8159781456
50.7954364777
44.3905444145
50.7954364777
50.8324114799
38.3389690399
50.8159781456
50.7831114769
38.8401857376
50.7995448112
50.7954364777
38.7374773979
50.8159781456
50.7954364777
38.8894857407
50.3517364502
50.7995448112
39.0784690857
50.8159781456
50.8324114799
39.0127357483
50.762569809
50.8365198135
38.3923773766
50.8159781456
50.8324114799
38.5279523849
50.8159781456
50.7790031433
38.6019023895
50.7995448112
50.7790031433
39.3537274361
50.7790031433
50.8324114799
38.7539107323
50.8324114799
50.8324114799
38.6676357269
50.3311947823
50.8159781456
38.975760746
50.8324114799
50.8365198135
38.6512023926
50.7995448112
50.8324114799
38.6347690582
50.8159781456
50.8159781456
38.9921940804
50.7831114769
50.8324114799
38.7703440666
50.7995448112
50.8159781456
38.856619072
49.8176530838
50.4010364532
35.8246688843
50.8488448143
50.4051447868
38.6347690582

Average distance is : 47.391 cm
Average deviation is : 5.385 cm
Block: 7
======================================
50.3846031189
50.3517364502
50.8324114799
50.3846031189
50.3517364502
50.3147614479
50.3517364502
50.3353031158
50.7954364777
50.7954364777
50.8324114799
50.8159781456
50.7995448112
50.8324114799
50.7954364777
40.9231108665
50.8159781456
50.8159781456
39.2017190933
50.7954364777
50.3476281166
39.115444088
50.7954364777
50.8159781456
38.1869606972
50.7995448112
50.8488448143
39.0990107536
50.8324114799
50.7995448112
38.7210440636
50.8324114799
50.7995448112
38.8073190689
50.8159781456
50.3476281166
39.0784690857
50.8159781456
50.7995448112
38.7374773979
50.7995448112
50.8159781456
38.7374773979
50.8159781456
50.8529531479
38.8771607399
50.8159781456
50.8159781456
38.8073190689
50.8159781456
50.8324114799
38.7005023956
50.8324114799
50.8159781456
38.2198273659
50.8324114799
50.8324114799
39.374269104
50.8159781456
50.7995448112
38.5156273842
50.8529531479
50.8324114799
38.2732357025
50.7831114769
50.762569809
38.856619072
50.3681697845
50.8365198135
39.6823941231
50.7954364777
50.8324114799
38.786777401
50.8159781456
50.8159781456

Average distance is : 47.586 cm
Average deviation is : 5.263 cm
Block: 8
======================================
11.8730840683
50.3846031189
50.3681697845
36.2190689087
50.7666781425
50.8488448143
35.787693882
50.3188697815
50.3681697845
35.7918022156
50.8365198135
50.7995448112
39.234585762
50.8324114799
50.8365198135
38.8730524063
50.8365198135
50.8159781456
38.7374773979
50.8159781456
50.8324114799
38.4950857162
50.7995448112
50.8324114799
39.2879940987
50.8159781456
50.4215781212
38.8196440697
50.7954364777
50.8324114799
39.374269104
50.8488448143
50.7995448112
38.7005023956
50.8159781456
50.3887114525
38.2403690338
50.8488448143
50.7995448112
50.8159781456
50.7995448112
50.8159781456
50.8529531479
50.8488448143
50.8324114799
50.7954364777
50.8324114799
50.8324114799
50.3681697845
50.4010364532
49.9902030945
50.0066364288
41.8557025909
49.9902030945
49.9737697601
40.3767024994
50.8324114799
50.8324114799
39.961760807
50.8159781456
50.7790031433
38.4622190475
50.8365198135
50.7790031433
38.905919075
50.8365198135
50.8324114799
38.7703440666
50.8159781456
50.8324114799
38.8196440697
50.8159781456
50.8159781456
38.8032107353
50.8159781456

Average distance is : 46.971 cm
Average deviation is : 6.777 cm
Block: 9
======================================
50.8159781456
1.91448345184
50.7790031433
50.8324114799
50.8529531479
50.8159781456
50.7995448112
38.7703440666
50.7995448112
50.8324114799
38.7539107323
50.7995448112
50.8159781456
38.8730524063
50.8159781456
50.7954364777
38.9593274117
50.8529531479
50.8529531479
38.9428940773
50.8324114799
50.3846031189
39.0990107536
50.7995448112
50.7995448112
39.0784690857
50.8324114799
50.3887114525
39.0332774162
50.8365198135
50.3311947823
39.3537274361
50.8324114799
50.7831114769
38.7539107323
50.8365198135
50.8159781456
38.9921940804
50.8159781456
50.7790031433
38.9593274117
50.8324114799
50.8159781456
38.5813607216
50.8365198135
50.7995448112
38.8771607399
50.8159781456
50.7790031433
38.9100274086
50.8365198135
50.7995448112
39.5262774467
50.8365198135
50.8159781456
38.6512023926
50.8159781456
50.7461364746
39.0661440849
50.8159781456
50.7995448112
38.8237524033
50.762569809
50.8529531479
39.1483107567
50.8365198135
50.8488448143
38.8237524033
50.8159781456
50.8324114799
38.2526940346
50.8324114799
50.8159781456
39.5796857834
50.3846031189

Average distance is : 46.501 cm
Average deviation is : 7.567 cm
Block: 10
======================================
50.7995448112
0.152008342743
50.3147614479
50.7995448112
50.1586447716
50.3353031158
50.3517364502
36.2396105766
50.3681697845
50.8159781456
37.5460606575
50.8159781456
50.8159781456
38.9593274117
50.7995448112
50.8365198135
38.458110714
50.3846031189
50.3353031158
40.2534524918
50.7995448112
50.7995448112
38.4950857162
50.8159781456
50.8159781456
39.444110775
50.3311947823
50.7297031403
39.3907024384
50.8159781456
50.3681697845
38.4457857132
49.9532280922
50.4051447868
40.3027524948
49.9696614265
50.0230697632
40.5451441765
50.3846031189
50.7995448112
39.7522357941
50.7831114769
50.7995448112
38.4622190475
50.8159781456
50.8365198135
39.5303857803
50.8159781456
50.8159781456
38.856619072
50.3846031189
50.8324114799
39.444110775
50.4010364532
50.8159781456
38.8894857407
50.7995448112
50.8159781456
39.4276774406
50.8159781456
50.7995448112
38.9100274086
50.8324114799
50.4215781212
39.4235691071
50.8159781456
50.8159781456
38.8730524063
50.8324114799
50.8324114799
38.4786523819
50.8324114799
50.7831114769
39.0990107536
50.8365198135

Average distance is : 46.398 cm
Average deviation is : 7.652 cm