
Block: 1
======================================
272.038400388
399.431184101
399.01067915
399.059198952
398.145409346
399.01067915
399.48374722
399.026852417
398.586130881
399.0228091
399.451400685
399.0228091
399.075372219
398.565914297
399.043025684
399.043025684
399.026852417
399.01067915
399.467573953
399.075372219
399.435227418
398.994505882
399.451400685
399.059198952
399.026852417
399.451400685
399.026852417
399.01067915
399.006635833
399.043025684
398.569957614
399.0228091
399.043025684
399.398837566
399.026852417
399.026852417
399.01067915
398.990462565
398.161582613
399.01067915
399.026852417
399.431184101
399.043025684
399.435227418
399.01067915
398.54974103
399.059198952
399.01067915
399.026852417
398.553784347
398.569957614
398.990462565
398.582087564
399.01067915
399.043025684
399.026852417
399.026852417
398.974289298
399.467573953
399.01067915
399.006635833
399.467573953
399.026852417
399.467573953
399.451400685
399.026852417
399.026852417
399.026852417
399.0228091
398.569957614
399.059198952
399.467573953
399.01067915
399.026852417
399.467573953

Block: 2
======================================
399.431184101
399.451400685
399.431184101
398.533567762
399.043025684
398.54974103
399.415010834
157.394194674
114.676552248
157.345674872
114.692725515
156.973689723
114.846371555
158.938741708
114.862544823
158.073471904
115.695468092
158.057298636
115.679294825
157.66914022
116.540521312
156.820043683
116.524348044
157.276938486
116.099799776
157.224375367
116.576911163
157.2082021
116.132146311
157.66914022
116.12001636
157.665096903
116.136189628
157.66914022
116.132146311
157.733833289
116.014890122
157.786396408
115.998716855
157.36184814
116.407091856
157.36184814
116.407091856
157.378021407
116.831640124
156.953473139
116.843770075
156.921126604
116.863986659
156.904953337
116.730557203
156.617877841
117.134888887
156.193329573
118.032505226
155.74856472
118.020375276
155.344233036
118.42470696
155.344233036
118.477270079
155.328059769
70.9399939775
202.691473246
71.9427365541
201.401655173
72.7716165066
200.997323489
73.5843231916
199.776241803
74.8579679966
198.943318534
75.229953146
198.518770266
75.686847949

Block: 3
======================================
399.431184101
399.435227418
399.059198952
399.875948954
399.026852417
399.059198952
399.01067915
399.48374722
399.48374722
399.467573953
399.48374722
399.908295488
399.467573953
399.908295488
399.431184101
399.516093755
399.499920487
399.463530636
399.467573953
399.499920487
399.467573953
399.499920487
399.467573953
399.48374722
399.924468756
399.01067915
399.503963804
399.463530636
399.467573953
399.026852417
399.892122221
399.463530636
399.447357368
399.059198952
399.451400685
399.499920487
399.924468756
399.924468756
399.888078904
399.467573953
399.908295488
399.888078904
399.908295488
399.908295488
399.447357368
399.043025684
399.499920487
399.467573953
399.520137072
399.904252172
399.463530636
399.48374722
399.451400685
399.48374722
399.467573953
399.48374722
399.467573953
399.043025684
399.888078904
399.871905637
399.908295488
399.924468756
399.908295488
399.467573953
399.888078904
399.467573953
399.908295488
399.516093755
399.431184101
399.888078904
399.435227418
399.888078904
399.451400685
399.467573953
398.990462565

Block: 4
======================================
399.451400685
399.431184101
399.415010834
399.467573953
399.928512073
399.552483606
399.435227418
399.48374722
399.447357368
399.48374722
399.48374722
399.463530636
399.467573953
399.451400685
399.447357368
399.467573953
399.026852417
399.451400685
399.447357368
399.48374722
399.451400685
399.415010834
399.451400685
399.026852417
399.467573953
399.451400685
399.48374722
399.431184101
399.451400685
399.447357368
399.451400685
399.451400685
399.467573953
399.467573953
398.990462565
399.871905637
399.01067915
399.451400685
399.435227418
398.54974103
399.451400685
399.398837566
399.006635833
399.435227418
398.958116031
398.586130881
399.447357368
399.435227418
399.431184101
399.415010834
399.467573953
399.435227418
399.447357368
399.451400685
399.415010834
399.451400685
399.01067915
399.01067915
399.026852417
398.990462565
399.431184101
398.569957614
399.617176676
399.447357368
398.990462565
399.855732369
398.978332615
399.435227418
399.415010834
399.871905637
399.451400685
399.467573953
399.435227418
399.419054151
399.871905637

Block: 5
======================================
399.419054151
399.415010834
399.431184101
399.01067915
398.565914297
398.974289298
399.415010834
399.419054151
398.994505882
398.990462565
399.435227418
399.026852417
398.958116031
399.467573953
398.978332615
398.54974103
399.398837566
399.01067915
399.398837566
399.431184101
398.565914297
399.398837566
399.01067915
398.517394495
398.990462565
399.419054151
399.435227418
399.01067915
399.006635833
398.974289298
399.447357368
398.958116031
398.582087564
399.431184101
398.978332615
399.026852417
399.026852417
398.958116031
398.990462565
398.978332615
398.990462565
399.431184101
399.01067915
399.01067915
398.54974103
398.978332615
399.382664299
399.398837566
398.990462565
398.994505882
399.415010834
398.990462565
399.01067915
398.937899446
399.431184101
399.419054151
399.382664299
399.415010834
399.431184101
399.415010834
399.435227418
398.958116031
399.402880883
398.533567762
399.435227418
398.958116031
399.435227418
398.974289298
398.553784347
398.974289298
398.974289298
399.419054151
398.941942763
398.553784347
398.941942763

Block: 6
======================================
399.447357368
399.382664299
399.382664299
399.419054151
399.431184101
398.517394495
399.415010834
399.419054151
398.974289298
399.398837566
399.398837566
398.978332615
399.415010834
398.941942763
398.974289298
399.415010834
399.415010834
398.941942763
399.398837566
399.398837566
399.398837566
399.415010834
399.402880883
399.382664299
398.958116031
398.958116031
399.398837566
399.398837566
399.382664299
399.398837566
399.378620982
399.415010834
399.346274447
399.398837566
398.941942763
399.823385835
399.382664299
398.958116031
399.419054151
399.415010834
399.366491032
399.402880883
399.807212567
399.366491032
399.415010834
399.382664299
399.382664299
399.382664299
398.958116031
398.921726179
399.419054151
399.366491032
399.382664299
399.415010834
399.382664299
399.362447715
399.398837566
399.382664299
399.350317764
399.382664299
398.481004643
398.978332615
399.786995983
399.786995983
398.937899446
399.378620982
399.786995983
399.33010118
399.362447715
399.415010834
399.33010118
399.366491032
398.958116031
398.958116031
398.921726179

Block: 7
======================================
399.362447715
398.905552912
399.346274447
398.941942763
399.382664299
399.382664299
399.362447715
399.33010118
399.382664299
398.921726179
398.925769496
399.382664299
398.941942763
398.925769496
399.350317764
398.517394495
399.362447715
398.958116031
399.382664299
398.921726179
398.909596229
399.334144497
399.366491032
399.398837566
399.366491032
399.382664299
399.350317764
399.350317764
399.33010118
399.398837566
398.941942763
399.350317764
399.80316925
398.481004643
399.366491032
399.366491032
399.33010118
398.501221228
399.366491032
398.958116031
398.905552912
399.362447715
399.366491032
399.362447715
399.346274447
399.334144497
399.382664299
399.398837566
399.346274447
399.382664299
399.366491032
399.362447715
399.33010118
398.941942763
399.350317764
398.925769496
398.958116031
398.905552912
398.921726179
398.905552912
399.33010118
399.366491032
399.350317764
399.346274447
399.346274447
399.362447715
399.378620982
399.346274447
398.497177911
398.889379644
398.937899446
399.33010118
399.346274447
399.33010118
399.350317764

Block: 8
======================================
399.366491032
398.905552912
399.346274447
399.398837566
399.346274447
399.346274447
399.382664299
399.350317764
398.925769496
399.33010118
399.346274447
399.382664299
398.921726179
399.33010118
399.382664299
398.909596229
398.921726179
398.941942763
399.346274447
398.905552912
399.350317764
399.346274447
399.366491032
398.921726179
399.346274447
399.362447715
398.925769496
398.905552912
399.362447715
399.378620982
399.350317764
398.873206377
399.786995983
399.350317764
399.350317764
399.362447715
399.334144497
399.33010118
399.350317764
399.297754645
399.754649448
399.297754645
399.350317764
399.382664299
399.33010118
399.350317764
399.346274447
399.297754645
398.905552912
398.909596229
399.33010118
399.313927913
399.33010118
399.31797123
399.362447715
398.889379644
398.889379644
399.33010118
398.48504796
399.313927913
399.754649448
399.346274447
399.33010118
399.334144497
399.313927913
398.873206377
399.33010118
399.313927913
399.31797123
399.33010118
399.738476181
398.889379644
399.366491032
399.770822716
399.313927913

Block: 9
======================================
398.468874693
399.33010118
399.313927913
399.313927913
399.334144497
399.334144497
398.889379644
398.889379644
398.889379644
398.448658109
398.448658109
399.334144497
399.313927913
398.873206377
399.313927913
399.33010118
398.873206377
398.873206377
398.432484841
398.893422961
399.362447715
399.127935338
399.297754645
398.873206377
399.366491032
399.313927913
399.334144497
399.366491032
399.297754645
399.346274447
398.893422961
399.362447715
399.33010118
399.297754645
399.33010118
399.313927913
399.313927913
399.297754645
399.313927913
399.313927913
399.350317764
399.33010118
399.313927913
399.738476181
398.873206377
398.468874693
397.991763306
398.889379644
399.313927913
398.909596229
399.313927913
398.836816525
398.893422961
399.346274447
399.33010118
399.33010118
398.909596229
399.33010118
399.334144497
399.350317764
398.873206377
399.366491032
398.873206377
399.313927913
398.909596229
398.941942763
399.33010118
399.313927913
399.334144497
399.313927913
399.297754645
398.909596229
399.313927913
399.350317764
399.33010118

Block: 10
======================================
399.350317764
399.277538061
398.464831376
399.334144497
399.313927913
398.85703311
398.893422961
399.33010118
399.334144497
399.346274447
399.313927913
399.366491032
399.346274447
399.350317764
399.297754645
399.313927913
399.7910393
399.334144497
399.313927913
399.334144497
399.31797123
399.346274447
399.334144497
399.313927913
398.873206377
399.281581378
398.909596229
399.33010118
399.346274447
398.889379644
399.366491032
399.313927913
398.889379644
399.33010118
399.297754645
398.464831376
399.313927913
399.33010118
399.350317764
398.873206377
398.873206377
399.346274447
399.313927913
398.889379644
398.840859842
398.873206377
399.33010118
399.33010118
399.362447715
398.873206377
399.346274447
399.350317764
399.350317764
398.889379644
398.873206377
399.346274447
399.313927913
399.33010118
399.297754645
399.33010118
399.297754645
399.313927913
399.346274447
398.873206377
399.313927913
399.334144497
399.346274447
399.313927913
399.33010118
398.85703311
399.281581378
398.416311574
398.921726179
399.313927913
399.346274447
