
Block: 1
======================================
200.263299417
200.27958827
200.263299417
200.247010565
200.27958827

Average distance is : 200.267 cm
Average deviation is : 0.014 cm
Block: 2
======================================
200.299949336
200.27958827
200.316238189
200.295877123
200.263299417

Average distance is : 200.291 cm
Average deviation is : 0.020 cm
Block: 3
======================================
200.283660483
200.299949336
199.86829474
200.283660483
200.295877123

Average distance is : 200.206 cm
Average deviation is : 0.189 cm
Block: 4
======================================
200.283660483
200.247010565
200.295877123
200.312165976
199.835717034

Average distance is : 200.195 cm
Average deviation is : 0.202 cm
Block: 5
======================================
200.295877123
200.365104747
200.295877123
200.263299417
200.316238189

Average distance is : 200.307 cm
Average deviation is : 0.037 cm
Block: 6
======================================
199.86829474
200.316238189
199.803139329
199.803139329
200.27958827

Average distance is : 200.014 cm
Average deviation is : 0.261 cm
Block: 7
======================================
200.263299417
200.27958827
200.332527041
200.299949336
200.263299417

Average distance is : 200.288 cm
Average deviation is : 0.029 cm
Block: 8
======================================
200.247010565
200.332527041
200.312165976
199.872366953
200.263299417

Average distance is : 200.205 cm
Average deviation is : 0.189 cm
Block: 9
======================================
200.263299417
200.332527041
200.332527041
200.283660483
200.283660483

Average distance is : 200.299 cm
Average deviation is : 0.032 cm
Block: 10
======================================
200.283660483
200.348815894
200.332527041
200.295877123
200.295877123

Average distance is : 200.311 cm
Average deviation is : 0.028 cm