
Block: 1
======================================
198.26384275
198.231265044
197.803682661
197.787393808
197.819971514

Average distance is : 197.981 cm
Average deviation is : 0.244 cm
Block: 2
======================================
198.300492668
198.25162611
198.26384275
198.247553897
198.247553897

Average distance is : 198.262 cm
Average deviation is : 0.022 cm
Block: 3
======================================
197.824043727
198.284203815
197.803682661
197.803682661
198.231265044

Average distance is : 197.989 cm
Average deviation is : 0.246 cm
Block: 4
======================================
198.267914963
198.300492668
198.231265044
198.267914963
198.284203815

Average distance is : 198.270 cm
Average deviation is : 0.026 cm
Block: 5
======================================
197.807754874
197.819971514
197.819971514
198.300492668
198.284203815

Average distance is : 198.006 cm
Average deviation is : 0.261 cm
Block: 6
======================================
198.26384275
197.771104956
198.231265044
198.267914963
198.214976192

Average distance is : 198.150 cm
Average deviation is : 0.213 cm
Block: 7
======================================
198.247553897
197.787393808
198.25162611
198.280131602
198.247553897

Average distance is : 198.163 cm
Average deviation is : 0.210 cm
Block: 8
======================================
198.247553897
198.231265044
198.300492668
198.231265044
198.247553897

Average distance is : 198.252 cm
Average deviation is : 0.029 cm
Block: 9
======================================
198.247553897
198.214976192
198.300492668
197.807754874
198.26384275

Average distance is : 198.167 cm
Average deviation is : 0.203 cm
Block: 10
======================================
198.214976192
198.26384275
198.25162611
197.803682661
197.771104956

Average distance is : 198.061 cm
Average deviation is : 0.251 cm