
Block: 1
======================================
399.467573953
399.059198952
399.499920487
128.767511439
399.467573953
399.516093755
282.741060066
399.026852417
399.48374722
399.467573953
321.560945058
398.618477416
399.026852417
399.467573953
399.447357368
399.908295488
320.271126986
399.48374722
399.908295488
321.945060158
399.091545486
399.908295488
399.908295488
399.924468756
399.94468534

Average distance is : 374.596 cm
Average deviation is : 61.167 cm
Block: 2
======================================
399.924468756
399.924468756
399.892122221
399.892122221
399.924468756
399.924468756
399.447357368
399.908295488
399.924468756
399.924468756
399.48374722
399.908295488
322.810329962
397.312486076
399.924468756
399.908295488
399.467573953
399.451400685
399.940642023
399.892122221
400.32880044
400.332843757
399.924468756
399.940642023
399.924468756

Average distance is : 396.689 cm
Average deviation is : 15.402 cm
Block: 3
======================================
399.038982368
319.624196291
400.349017024
399.026852417
398.990462565
322.438344812
399.043025684
399.467573953
322.899282932
399.091545486
322.38982501
398.210102415
322.422171545
399.111762071
399.043025684
321.997623277
398.246492267
323.22274828
398.230318999
323.707946301
396.394653153
325.543612146
394.191045475
324.69451561
398.569957614

Average distance is : 368.238 cm
Average deviation is : 37.816 cm
Block: 4
======================================
399.48374722
319.741452479
400.300497222
320.287300253
398.994505882
322.899282932
397.70468781
325.102890611
395.108878398
298.222920251
399.095588803
399.516093755
399.463530636
321.168743324
399.059198952
322.474734664
398.618477416
399.48374722
399.520137072
399.516093755
320.639068818
399.111762071
399.516093755
399.503963804
399.026852417

Average distance is : 373.342 cm
Average deviation is : 38.461 cm
Block: 5
======================================
399.568656874
320.453076243
399.888078904
399.059198952
399.520137072
399.977031875
399.075372219
399.499920487
399.532267022
399.536310339
399.091545486
399.536310339
399.043025684
323.776682687
396.394653153
325.543612146
395.108878398
399.499920487
399.552483606
321.981450009
398.687213802
322.862893081
398.24244895
399.977031875
322.034013128

Average distance is : 380.698 cm
Average deviation is : 33.248 cm
Block: 6
======================================
399.924468756
320.594592333
400.381363559
321.116180205
399.568656874
399.977031875
399.977031875
399.993205142
399.95681529
399.548440289
399.977031875
399.059198952
322.947802734
398.634650683
399.940642023
399.972988558
399.977031875
399.536310339
320.626938868
399.568656874
399.977031875
399.059198952
399.532267022
399.960858607
399.908295488

Average distance is : 387.189 cm
Average deviation is : 29.345 cm
Block: 7
======================================
399.532267022
399.940642023
399.520137072
399.503963804
399.499920487
399.94468534
399.892122221
399.960858607
399.467573953
320.234737134
399.516093755
399.904252172
287.605170226
399.924468756
399.924468756
322.9154562
398.569957614
322.017839861
400.349017024
320.691631937
399.552483606
322.422171545
397.348875928
400.381363559
320.659285402

Average distance is : 376.371 cm
Average deviation is : 38.554 cm
Block: 8
======================================
399.552483606
399.516093755
399.94468534
399.568656874
399.520137072
399.532267022
399.94468534
399.532267022
399.552483606
399.532267022
399.499920487
399.977031875
399.516093755
399.516093755
399.516093755
399.552483606
399.940642023
399.552483606
399.960858607
399.499920487
399.516093755
399.520137072
399.532267022
399.536310339
399.516093755

Average distance is : 399.614 cm
Average deviation is : 0.174 cm
Block: 9
======================================
399.568656874
399.520137072
399.503963804
399.516093755
319.745495796
365.382412982
399.516093755
399.075372219
399.095588803
399.977031875
399.520137072
399.075372219
399.095588803
321.116180205
399.127935338
399.48374722
320.182174015
398.650823951
321.932930207
399.144108605
399.552483606
399.516093755
321.067660403
399.111762071
320.659285402

Average distance is : 379.125 cm
Average deviation is : 34.137 cm
Block: 10
======================================
399.972988558
399.552483606
399.043025684
399.059198952
399.503963804
399.520137072
399.499920487
399.516093755
321.965276742
399.451400685
321.573075008
399.043025684
399.940642023
319.810188866
399.48374722
399.520137072
399.516093755
399.924468756
399.503963804
399.516093755
399.516093755
399.928512073
399.940642023
399.977031875
399.520137072

Average distance is : 390.152 cm
Average deviation is : 26.022 cm