
Block: 1
======================================
300.435213661
301.357966185
300.910817385
300.947402287
300.451473618

Block: 2
======================================
300.914882374
300.910817385
301.353901196
300.451473618
300.894557428

Block: 3
======================================
300.910817385
300.48399353
300.435213661
300.488058519
300.451473618

Block: 4
======================================
300.93114233
301.386421108
300.894557428
301.374226141
301.374226141

Block: 5
======================================
301.817309952
300.894557428
300.894557428
301.353901196
301.374226141

Block: 6
======================================
301.78072505
301.337641239
301.849829865
301.849829865
301.764465094

Block: 7
======================================
301.849829865
302.207548904
302.244133806
302.207548904
302.292913675

Block: 8
======================================
302.654697704
302.191288948
302.207548904
303.07745657
302.207548904

Block: 9
======================================
303.146561384
302.634372759
303.07745657
302.211613894
302.207548904

Block: 10
======================================
302.240068817
302.256328773
303.114041471
302.240068817
302.223808861
