
Block: 1
======================================
301.114066839
301.918934679
301.459590912
301.951454592
301.118131828
301.471785879
301.475850868
301.492110825
301.114066839
300.585618258
301.118131828
301.049027014
301.902674723
301.032767057
301.06528697
301.06528697
301.475850868
301.471785879
301.06528697
301.028702068
301.032767057
301.935194635
301.032767057
301.049027014
301.049027014

Block: 2
======================================
301.101871872
301.097806883
301.203496599
301.471785879
301.443330956
301.114066839
301.028702068
301.028702068
301.935194635
300.605943203
301.049027014
301.935194635
301.471785879
301.049027014
301.032767057
301.06528697
301.114066839
301.06528697
301.118131828
301.044962025
301.049027014
301.134391785
301.028702068
301.06528697
301.049027014

Block: 3
======================================
301.049027014
301.049027014
301.049027014
301.032767057
301.492110825
301.097806883
301.561215639
301.049027014
301.049027014
301.097806883
301.06528697
301.044962025
301.044962025
301.049027014
301.049027014
301.492110825
301.049027014
301.049027014
301.06528697
301.049027014
301.049027014
301.049027014
301.049027014
301.028702068
300.622203159

Block: 4
======================================
301.130326796
301.492110825
301.06528697
301.097806883
301.044962025
301.134391785
301.492110825
301.488045835
300.605943203
300.622203159
300.622203159
300.622203159
301.508370781
301.492110825
300.622203159
301.049027014
301.508370781
300.622203159
301.508370781
301.044962025
300.605943203
301.51243577
300.622203159
301.06528697
300.605943203

Block: 5
======================================
301.032767057
300.589683247
300.601878214
300.605943203
301.012442112
301.06528697
301.06528697
301.044962025
301.049027014
301.097806883
301.069351959
301.044962025
301.069351959
300.622203159
300.585618258
301.06528697
300.622203159
301.049027014
300.589683247
301.561215639
301.085611916
301.028702068
300.585618258
300.589683247
301.032767057

Block: 6
======================================
300.585618258
300.589683247
301.049027014
300.622203159
300.605943203
301.049027014
301.492110825
301.049027014
300.589683247
301.049027014
301.049027014
300.605943203
301.049027014
301.049027014
301.032767057
300.589683247
300.675048018
301.492110825
301.049027014
300.585618258
301.06528697
301.028702068
300.569358301
301.049027014
301.016507101

Block: 7
======================================
300.687242985
301.544955683
301.524630737
301.492110825
301.06528697
301.06528697
300.589683247
301.06528697
301.06528697
301.032767057
301.049027014
301.049027014
301.049027014
301.049027014
300.605943203
301.951454592
301.049027014
300.675048018
301.049027014
301.55715065
300.622203159
301.049027014
301.06528697
301.049027014
301.028702068

Block: 8
======================================
301.081546926
300.622203159
301.492110825
300.622203159
300.675048018
301.471785879
301.032767057
301.508370781
301.028702068
300.569358301
301.049027014
300.585618258
300.569358301
300.569358301
300.605943203
300.589683247
301.049027014
300.589683247
300.585618258
300.589683247
300.589683247
300.589683247
301.06528697
301.06528697
301.049027014

Block: 9
======================================
300.589683247
300.585618258
300.658788061
301.166911697
300.589683247
300.585618258
300.605943203
300.605943203
301.049027014
301.049027014
301.508370781
301.492110825
301.044962025
301.049027014
301.06528697
300.585618258
301.044962025
300.585618258
301.028702068
300.605943203
301.544955683
300.589683247
301.049027014
301.049027014
300.589683247

Block: 10
======================================
301.540890694
300.57342329
300.670983028
300.622203159
300.638463116
301.049027014
300.589683247
301.032767057
300.589683247
301.049027014
300.622203159
301.508370781
301.044962025
300.585618258
301.049027014
301.028702068
301.028702068
301.044962025
300.675048018
300.589683247
301.049027014
301.049027014
301.049027014
301.06528697
300.605943203
