
Block: 1
======================================
99.8965811729
100.297191739
100.350881815
99.8965811729
99.9007111788
100.297191739
100.313711762
99.8635411263
99.8965811729
100.297191739
100.313711762
100.313711762
100.313711762
99.8965811729
100.297191739
100.330231786
100.297191739
100.313711762
100.280671716
100.297191739
100.317841768
100.297191739
100.297191739
100.297191739
99.8470211029
99.8470211029
99.8800611496
100.350881815
100.313711762
100.297191739
100.313711762
99.8635411263
99.8635411263
99.8635411263
100.297191739
99.8965811729
100.280671716
99.8263710737
99.8800611496
100.313711762
100.317841768
100.313711762
99.8635411263
99.8470211029
99.4629305601
100.313711762
100.334361792
99.970921278
99.8800611496
99.8635411263
100.313711762
100.313711762
100.313711762
100.297191739
100.313711762
99.8800611496
100.313711762
100.313711762
100.297191739
99.8841911554
100.297191739
100.367401838
100.350881815
100.313711762
99.8965811729
100.313711762
99.9007111788
100.297191739
100.27654171
99.8635411263
100.313711762
99.8841911554
100.313711762
100.313711762
100.193941593
99.8800611496
99.8800611496
99.8305010796
99.8635411263
99.8676711321
100.313711762
100.280671716
99.8841911554
100.297191739
99.8635411263
99.8635411263
100.313711762
99.8470211029
99.4133704901
99.8263710737
99.8800611496
100.297191739
99.8470211029
99.8470211029
99.8470211029
99.8841911554
100.297191739
100.313711762
100.313711762
100.313711762

Average distance is : 100.112 cm
Average deviation is : 0.236 cm
Block: 2
======================================
99.8635411263
99.8841911554
100.297191739
99.9007111788
100.330231786
100.313711762
99.9172312021
99.8635411263
99.8800611496
100.260021687
99.8470211029
99.8635411263
100.367401838
100.297191739
99.8800611496
100.313711762
100.317841768
100.297191739
99.8305010796
100.260021687
99.8965811729
99.8305010796
99.8800611496
100.313711762
99.8965811729
100.297191739
100.297191739
100.317841768
100.297191739
99.8635411263
100.297191739
99.8800611496
100.297191739
100.297191739
100.297191739
100.313711762
100.313711762
100.297191739
99.9007111788
99.8263710737
99.8965811729
99.8139810562
99.9172312021
100.330231786
99.9007111788
99.8470211029
99.8305010796
100.317841768
100.297191739
100.330231786
100.313711762
100.313711762
100.317841768
100.297191739
99.8635411263
100.280671716
99.8800611496
99.8470211029
99.8305010796
99.4133704901
99.8841911554
100.313711762
100.330231786
100.313711762
100.313711762
100.313711762
100.313711762
100.297191739
99.8841911554
100.313711762
99.8676711321
99.8470211029
99.8263710737
100.334361792
100.280671716
99.9131011963
100.313711762
99.8305010796
99.8470211029
99.8139810562
99.9007111788
100.313711762
99.8635411263
99.8800611496
99.8305010796
99.8800611496
99.8470211029
99.8800611496
100.313711762
100.297191739
99.8800611496
100.297191739
100.313711762
99.8305010796
99.8470211029
100.313711762
100.297191739
99.8800611496
100.297191739
100.317841768

Average distance is : 100.087 cm
Average deviation is : 0.232 cm
Block: 3
======================================
99.8800611496
99.8841911554
100.301321745
100.301321745
100.280671716
100.297191739
100.313711762
100.330231786
99.8635411263
99.8965811729
100.317841768
99.8635411263
99.9131011963
99.9172312021
99.8676711321
99.4464105368
99.8676711321
99.8676711321
99.8965811729
99.8965811729
100.317841768
100.301321745
100.334361792
100.317841768
100.317841768
100.280671716
100.297191739
100.313711762
100.313711762
100.334361792
100.317841768
100.313711762
100.313711762
100.297191739
100.313711762
99.4670605659
100.363271832
100.313711762
100.27654171
100.317841768
100.350881815
100.330231786
100.280671716
99.9007111788
99.8841911554
99.9007111788
100.313711762
100.297191739
99.8470211029
99.8676711321
99.8841911554
99.8470211029
99.8635411263
100.317841768
99.8800611496
99.6570408344
99.8470211029
99.8841911554
100.297191739
100.280671716
100.297191739
100.297191739
100.313711762
100.297191739
100.297191739
99.8635411263
100.297191739
100.280671716
99.8800611496
100.297191739
100.334361792
100.297191739
99.8470211029
100.297191739
100.297191739
99.8800611496
100.297191739
99.8800611496
100.297191739
100.297191739
99.8635411263
100.313711762
99.8635411263
99.4505405426
100.297191739
100.280671716
99.8965811729
100.297191739
99.8841911554
100.313711762
99.8470211029
99.8800611496
99.8841911554
100.27654171
99.8800611496
99.8965811729
99.8635411263
99.8635411263
99.8800611496
100.297191739

Average distance is : 100.102 cm
Average deviation is : 0.243 cm
Block: 4
======================================
99.8965811729
100.297191739
100.297191739
100.334361792
100.330231786
100.313711762
100.297191739
100.313711762
100.297191739
100.317841768
100.297191739
100.297191739
99.9007111788
100.313711762
99.8800611496
100.297191739
99.970921278
99.9007111788
99.9172312021
99.8305010796
99.9172312021
99.9007111788
99.9172312021
99.8841911554
100.334361792
100.330231786
100.313711762
100.334361792
100.313711762
100.297191739
100.317841768
100.350881815
100.313711762
100.313711762
100.313711762
100.313711762
100.317841768
100.334361792
100.313711762
100.317841768
100.297191739
99.8470211029
99.8470211029
100.280671716
100.297191739
99.8635411263
99.8635411263
100.346751809
100.350881815
100.297191739
99.8841911554
99.4133704901
99.8635411263
100.297191739
99.8841911554
100.330231786
100.297191739
100.297191739
99.8841911554
100.317841768
100.334361792
100.334361792
100.297191739
100.297191739
99.8305010796
100.313711762
100.27654171
99.9007111788
100.280671716
99.8800611496
100.280671716
100.330231786
100.330231786
100.317841768
100.317841768
100.334361792
100.350881815
100.313711762
100.313711762
100.330231786
100.313711762
100.297191739
99.9007111788
100.313711762
100.334361792
100.297191739
99.8800611496
100.297191739
100.297191739
100.297191739
100.297191739
100.280671716
99.8841911554
100.313711762
100.297191739
100.297191739
100.264151692
100.280671716
99.8635411263
100.297191739

Average distance is : 100.191 cm
Average deviation is : 0.205 cm
Block: 5
======================================
99.8800611496
100.313711762
100.313711762
100.317841768
100.400441885
100.313711762
100.363271832
100.383921862
100.363271832
99.9337512255
100.383921862
100.383921862
99.9502712488
99.9337512255
99.9502712488
99.9502712488
100.383921862
99.8841911554
100.363271832
100.334361792
100.297191739
99.8800611496
99.9007111788
99.9007111788
99.9296212196
99.8965811729
100.383921862
99.8800611496
100.367401838
100.350881815
99.9172312021
100.400441885
100.383921862
100.383921862
100.367401838
100.346751809
99.9337512255
100.383921862
99.9502712488
100.350881815
100.367401838
100.350881815
100.383921862
99.9337512255
100.350881815
100.383921862
100.383921862
100.383921862
99.9337512255
100.330231786
100.383921862
100.557382107
99.9502712488
99.8965811729
99.9007111788
99.8800611496
99.8800611496
99.4505405426
99.9007111788
100.346751809
100.367401838
100.350881815
100.313711762
100.313711762
100.363271832
100.313711762
100.346751809
99.8965811729
100.367401838
100.367401838
100.330231786
100.330231786
99.8965811729
100.313711762
100.383921862
100.330231786
100.350881815
100.330231786
99.8965811729
100.383921862
100.330231786
100.367401838
100.317841768
99.8635411263
99.9007111788
99.8676711321
99.9007111788
100.297191739
99.9007111788
100.334361792
100.350881815
100.297191739
100.330231786
100.297191739
99.9007111788
100.313711762
100.334361792
100.297191739
100.334361792
100.313711762

Average distance is : 100.197 cm
Average deviation is : 0.225 cm
Block: 6
======================================
99.9502712488
99.8635411263
100.367401838
99.9337512255
99.9172312021
99.9502712488
99.9337512255
99.516620636
99.9296212196
99.9172312021
99.9337512255
100.346751809
100.367401838
100.350881815
100.346751809
100.383921862
99.9172312021
100.350881815
100.297191739
99.8470211029
100.317841768
100.313711762
100.313711762
99.8841911554
100.330231786
99.8965811729
99.8470211029
99.4298905134
99.9131011963
100.367401838
100.280671716
99.9172312021
99.8965811729
100.730842352
100.350881815
100.383921862
99.9337512255
100.363271832
100.350881815
100.383921862
100.383921862
100.346751809
99.9172312021
99.9337512255
100.367401838
100.367401838
99.9337512255
99.9337512255
100.350881815
100.317841768
100.330231786
100.346751809
100.350881815
99.8800611496
99.8800611496
100.297191739
100.297191739
100.313711762
100.297191739
100.334361792
100.297191739
100.313711762
100.346751809
100.350881815
100.367401838
100.367401838
100.317841768
100.367401838
100.346751809
100.350881815
100.363271832
100.367401838
100.367401838
100.367401838
100.346751809
100.334361792
100.350881815
100.346751809
100.334361792
99.8635411263
99.8635411263
99.8470211029
100.330231786
100.313711762
99.8965811729
99.9337512255
99.8841911554
99.8676711321
100.350881815
100.317841768
99.8635411263
99.8635411263
100.313711762
100.297191739
100.313711762
100.313711762
99.8635411263
100.334361792
100.346751809
100.367401838

Average distance is : 100.178 cm
Average deviation is : 0.239 cm
Block: 7
======================================
99.8800611496
99.8841911554
99.8635411263
100.313711762
100.297191739
99.9007111788
99.8965811729
100.313711762
100.313711762
99.9007111788
99.8800611496
99.8800611496
99.8800611496
100.313711762
99.8635411263
99.8635411263
99.8800611496
100.297191739
100.313711762
100.297191739
99.8800611496
100.334361792
100.330231786
100.297191739
100.330231786
100.313711762
100.297191739
99.9007111788
99.8800611496
99.8965811729
100.334361792
99.8800611496
99.8800611496
100.27654171
99.8800611496
99.9007111788
99.8635411263
99.8800611496
100.317841768
100.330231786
100.330231786
100.313711762
99.8676711321
99.8841911554
100.297191739
100.330231786
100.313711762
99.8965811729
99.9007111788
99.8841911554
99.8800611496
100.297191739
99.8470211029
99.8635411263
99.8470211029
99.8635411263
99.8841911554
99.8800611496
100.297191739
100.334361792
100.313711762
94.0071928501
99.8965811729
99.9007111788
99.8800611496
100.317841768
100.346751809
100.317841768
100.313711762
99.8635411263
100.313711762
99.8800611496
99.8635411263
99.9007111788
100.330231786
99.9007111788
100.313711762
100.297191739
100.313711762
99.8635411263
100.330231786
99.8676711321
99.8635411263
99.8841911554
100.313711762
100.297191739
100.297191739
99.8965811729
100.313711762
99.8800611496
99.8800611496
99.8635411263
100.297191739
99.8841911554
100.297191739
100.297191739
100.313711762
99.8635411263
100.313711762
99.8800611496

Average distance is : 100.020 cm
Average deviation is : 0.645 cm
Block: 8
======================================
99.9337512255
99.9131011963
100.313711762
100.280671716
99.9007111788
100.317841768
99.8841911554
99.8635411263
100.27654171
100.297191739
99.8965811729
99.8841911554
100.313711762
100.367401838
100.350881815
100.297191739
100.297191739
100.330231786
100.280671716
99.8965811729
99.8841911554
100.313711762
100.297191739
99.8635411263
99.8800611496
100.297191739
100.297191739
100.297191739
100.313711762
99.8800611496
99.8965811729
100.313711762
100.313711762
99.8635411263
100.313711762
99.8635411263
99.8800611496
99.9007111788
99.8841911554
100.346751809
99.9337512255
99.9007111788
99.8800611496
99.9007111788
99.9007111788
99.8635411263
99.8841911554
100.350881815
99.9007111788
99.8635411263
99.9007111788
100.313711762
99.9172312021
100.297191739
100.037001371
100.317841768
99.8841911554
100.313711762
99.8800611496
100.280671716
99.8965811729
100.313711762
99.8800611496
100.330231786
99.8800611496
99.8800611496
99.8470211029
99.8841911554
99.8800611496
100.313711762
99.8965811729
100.297191739
99.8676711321
100.367401838
100.313711762
100.27654171
100.297191739
99.9007111788
99.8800611496
100.297191739
99.8841911554
100.280671716
99.8800611496
100.297191739
99.8470211029
99.9007111788
99.8800611496
99.8470211029
99.9007111788
100.313711762
99.8841911554
99.8800611496
100.297191739
100.317841768
99.8470211029
99.8965811729
99.8635411263
100.330231786
100.086561441
100.297191739

Average distance is : 100.075 cm
Average deviation is : 0.211 cm
Block: 9
======================================
99.8800611496
99.8841911554
100.330231786
100.297191739
100.313711762
100.297191739
100.297191739
99.9007111788
100.317841768
99.8841911554
100.297191739
100.280671716
99.8841911554
99.8800611496
100.313711762
100.313711762
100.297191739
99.8800611496
99.8841911554
100.297191739
100.330231786
99.9007111788
100.313711762
99.8800611496
100.313711762
99.8965811729
100.297191739
100.317841768
100.313711762
100.330231786
100.350881815
100.313711762
100.313711762
100.297191739
100.313711762
100.297191739
100.313711762
100.297191739
100.313711762
100.280671716
99.9007111788
100.313711762
100.330231786
100.313711762
100.313711762
100.297191739
100.317841768
100.313711762
99.8800611496
100.313711762
100.350881815
100.313711762
100.280671716
99.8841911554
99.8841911554
99.8841911554
100.317841768
99.9007111788
100.317841768
99.9007111788
100.313711762
99.8965811729
99.8965811729
99.8841911554
100.313711762
100.334361792
100.297191739
99.8841911554
100.313711762
99.8841911554
100.317841768
99.8800611496
100.313711762
99.9007111788
100.330231786
100.313711762
99.8800611496
100.280671716
100.346751809
100.313711762
100.317841768
100.330231786
100.350881815
100.346751809
99.8800611496
100.313711762
100.297191739
100.334361792
100.334361792
100.330231786
99.8800611496
99.8965811729
100.313711762
100.313711762
100.313711762
99.8800611496
100.330231786
100.313711762
99.8676711321
99.8635411263

Average distance is : 100.178 cm
Average deviation is : 0.201 cm
Block: 10
======================================
99.8841911554
99.8841911554
100.313711762
100.313711762
99.8965811729
100.297191739
99.9007111788
100.330231786
100.334361792
100.317841768
99.8841911554
99.8800611496
100.330231786
100.313711762
99.8800611496
100.313711762
99.9172312021
99.8841911554
99.8965811729
99.8635411263
99.8635411263
100.330231786
100.330231786
99.8800611496
100.334361792
100.334361792
100.313711762
100.280671716
99.9007111788
99.8676711321
100.280671716
99.8800611496
99.8635411263
100.297191739
99.9007111788
100.334361792
100.346751809
100.297191739
99.8635411263
99.9007111788
100.317841768
100.297191739
99.8841911554
99.8965811729
99.8965811729
100.297191739
99.8800611496
100.280671716
99.9131011963
99.8800611496
100.27654171
99.8635411263
99.8841911554
100.313711762
100.297191739
99.9007111788
99.8965811729
100.297191739
100.367401838
99.8841911554
99.8965811729
100.313711762
99.8800611496
100.297191739
99.8635411263
100.330231786
100.313711762
100.313711762
100.313711762
100.367401838
100.297191739
100.313711762
100.280671716
99.9131011963
100.350881815
100.350881815
100.280671716
99.8470211029
99.9172312021
99.8635411263
99.8635411263
100.313711762
99.8800611496
100.297191739
99.8800611496
99.8800611496
100.297191739
99.9007111788
99.8965811729
100.297191739
99.8635411263
99.8841911554
100.297191739
99.8800611496
99.8800611496
100.313711762
99.8800611496
99.8800611496
100.27654171
100.334361792

Average distance is : 100.099 cm
Average deviation is : 0.216 cm
Average distance for 10x100 is : 100.124 cm
Average deviation for 10x100 is : 0.265 cm
 Percentage of values that failed: 0.000