
Block: 1
======================================
99.9502712488
99.9007111788
99.9007111788
100.317841768
100.313711762

Block: 2
======================================
99.9337512255
99.8965811729
100.363271832
100.383921862
99.9337512255

Block: 3
======================================
99.8470211029
100.346751809
99.8635411263
100.313711762
100.313711762

Block: 4
======================================
99.8470211029
99.9131011963
100.280671716
99.4133704901
99.8800611496

Block: 5
======================================
99.8965811729
99.8800611496
99.8841911554
99.9172312021
99.8635411263

Block: 6
======================================
99.8800611496
100.264151692
100.313711762
99.8470211029
99.8470211029

Block: 7
======================================
99.8635411263
100.313711762
99.9007111788
99.8841911554
100.383921862

Block: 8
======================================
100.297191739
99.8841911554
99.8635411263
99.8635411263
99.5868307352

Block: 9
======================================
99.8676711321
99.8635411263
99.8841911554
99.8470211029
99.9007111788

Block: 10
======================================
99.9502712488
99.8470211029
99.9007111788
99.8470211029
99.9007111788
