
Block: 1
======================================
50.2674213886
50.2838836193
50.2674213886
50.3168080807
50.3209236383
50.30034585
50.2838836193
50.3168080807
50.2674213886
50.30034585
50.30034585
50.3168080807
50.2838836193
50.337385869
50.3168080807
50.3332703114
50.3168080807
50.3168080807
50.337385869
50.30034585
50.337385869
50.2838836193
50.3168080807
50.30034585
50.3168080807
50.3209236383
50.30034585
50.30034585
50.7324794054
50.2838836193
50.3044614077
50.3044614077
50.2674213886
50.7160171747
50.3168080807
50.3168080807
50.30034585
50.30034585
50.3209236383
50.2838836193
50.2838836193
50.3168080807
50.2674213886
50.3332703114
50.30034585
50.2838836193
50.30034585
50.3168080807
50.30034585
50.2838836193

Average distance is : 50.320 cm
Average deviation is : 0.086 cm
Block: 2
======================================
50.3168080807
50.2838836193
50.2838836193
50.2838836193
50.3044614077
50.2509591579
50.3332703114
50.3209236383
50.30034585
50.3332703114
50.2838836193
50.30034585
50.2674213886
50.2468436003
50.30034585
50.2838836193
50.3044614077
50.2838836193
50.30034585
50.30034585
50.3168080807
50.2838836193
50.7489416361
50.7654038668
50.7324794054
50.30034585
50.263305831
50.2674213886
50.2838836193
50.2838836193
50.30034585
50.2838836193
50.30034585
50.3209236383
50.3168080807
50.3332703114
50.2838836193
50.337385869
50.30034585
50.7324794054
50.3044614077
50.7324794054
50.7160171747
50.7324794054
50.7324794054
50.2838836193
50.3332703114
50.30034585
50.699554944
50.30034585

Average distance is : 50.375 cm
Average deviation is : 0.170 cm
Block: 3
======================================
50.2838836193
50.3168080807
50.30034585
50.30034585
50.2838836193
50.7489416361
50.30034585
50.3168080807
50.30034585
50.30034585
50.30034585
50.2838836193
50.2838836193
50.2838836193
50.3044614077
50.3044614077
50.3168080807
50.7324794054
50.2674213886
50.2838836193
50.3332703114
50.3168080807
50.2838836193
50.337385869
50.3168080807
50.2838836193
50.3044614077
50.3209236383
50.3168080807
50.2838836193
50.3168080807
50.2838836193
50.5925504446
50.2838836193
50.30034585
50.2838836193
50.30034585
50.2838836193
50.3209236383
50.2674213886
50.3168080807
50.2838836193
50.30034585
50.263305831
50.3044614077
50.2674213886
50.30034585
50.3332703114
50.30034585
50.3538480997

Average distance is : 50.323 cm
Average deviation is : 0.097 cm
Block: 4
======================================
50.3044614077
50.3209236383
50.2674213886
50.3209236383
50.30034585
50.3209236383
50.263305831
50.3332703114
50.337385869
50.3044614077
50.3209236383
50.30034585
50.3332703114
50.3044614077
50.7530571938
51.1810751915
50.30034585
50.30034585
50.3168080807
50.3168080807
50.337385869
50.2838836193
50.3332703114
50.30034585
50.30034585
50.30034585
50.2674213886
50.30034585
50.3044614077
50.30034585
50.3168080807
50.3168080807
50.3044614077
50.30034585
50.2838836193
50.2838836193
50.2838836193
50.3168080807
50.30034585
50.3044614077
50.30034585
50.3209236383
50.3168080807
50.30034585
50.30034585
50.2674213886
50.30034585
50.30034585
50.3209236383
50.30034585

Average distance is : 50.331 cm
Average deviation is : 0.139 cm
Block: 5
======================================
50.1316079855
50.337385869
50.3044614077
50.3168080807
50.263305831
50.7530571938
50.3168080807
50.30034585
50.3168080807
50.2838836193
50.30034585
50.3044614077
50.337385869
50.3168080807
50.337385869
50.30034585
50.2509591579
50.30034585
50.30034585
50.30034585
50.3044614077
50.30034585
50.3538480997
50.2838836193
50.5760882139
50.337385869
50.30034585
50.2838836193
50.2838836193
50.2838836193
50.30034585
50.30034585
50.30034585
50.30034585
50.30034585
50.337385869
50.7654038668
50.30034585
50.2838836193
50.2838836193
50.3044614077
50.3209236383
50.2838836193
50.2838836193
50.2838836193
50.30034585
50.2838836193
50.7160171747
50.2838836193
50.30034585

Average distance is : 50.330 cm
Average deviation is : 0.117 cm
Block: 6
======================================
50.3209236383
50.2838836193
50.3168080807
50.3209236383
50.30034585
50.3168080807
50.3168080807
50.7530571938
50.2838836193
50.6830927134
50.7324794054
50.2838836193
50.3209236383
50.2838836193
50.3168080807
50.2838836193
50.30034585
50.2674213886
50.2838836193
50.3209236383
50.3703103304
50.3168080807
50.3168080807
50.30034585
50.2838836193
50.2838836193
50.3332703114
50.30034585
50.2838836193
50.2838836193
50.30034585
50.2838836193
50.2838836193
50.337385869
50.3044614077
50.3209236383
50.30034585
50.2838836193
50.3332703114
50.3044614077
50.2838836193
50.7489416361
50.2838836193
50.2674213886
50.30034585
50.2838836193
50.699554944
50.2838836193
50.7324794054
50.7324794054

Average distance is : 50.361 cm
Average deviation is : 0.150 cm
Block: 7
======================================
50.3168080807
50.7324794054
50.7818660975
50.3332703114
50.2838836193
50.7489416361
50.6789771557
50.3168080807
50.2674213886
50.3332703114
50.3209236383
50.30034585
50.30034585
50.3168080807
50.3209236383
50.30034585
50.3168080807
50.2674213886
50.3044614077
50.30034585
50.699554944
50.3209236383
50.30034585
50.30034585
50.2838836193
50.30034585
50.7489416361
50.7160171747
50.2838836193
50.2838836193
50.2838836193
50.6954393864
50.699554944
50.2838836193
50.2838836193
50.2674213886
50.2838836193
50.3044614077
50.263305831
50.3168080807
50.30034585
50.2674213886
50.30034585
50.30034585
50.2838836193
50.3168080807
50.3168080807
50.2838836193
50.2674213886
50.30034585

Average distance is : 50.374 cm
Average deviation is : 0.166 cm
Block: 8
======================================
50.30034585
50.30034585
50.2674213886
50.2509591579
50.3044614077
50.7324794054
50.3209236383
50.2838836193
50.2838836193
50.3044614077
50.2674213886
50.2838836193
50.3168080807
50.2838836193
50.6789771557
50.2674213886
50.3209236383
50.2838836193
50.6789771557
50.2838836193
50.3209236383
50.7324794054
50.30034585
50.7489416361
50.3168080807
50.30034585
50.2838836193
50.2509591579
50.30034585
50.3044614077
50.3538480997
50.30034585
50.3209236383
50.3168080807
50.349732542
50.2838836193
50.2509591579
50.3209236383
50.2838836193
50.3168080807
50.3168080807
50.2838836193
50.30034585
50.3168080807
51.0287995577
50.337385869
50.3168080807
50.3209236383
50.2674213886
50.30034585

Average distance is : 50.355 cm
Average deviation is : 0.161 cm
Block: 9
======================================
50.6954393864
50.263305831
50.3538480997
50.30034585
50.3332703114
50.30034585
50.337385869
50.30034585
50.30034585
50.2674213886
50.30034585
50.337385869
50.2838836193
50.3168080807
50.337385869
50.2674213886
50.337385869
50.3209236383
50.2838836193
50.3168080807
50.3168080807
50.3044614077
50.337385869
50.30034585
50.3044614077
50.2838836193
50.3168080807
50.30034585
50.30034585
50.3332703114
50.2838836193
50.3168080807
50.30034585
50.2838836193
50.3168080807
50.7160171747
50.3168080807
50.30034585
50.30034585
50.3168080807
50.3168080807
50.7489416361
50.337385869
50.7695194244
50.7324794054
50.2674213886
50.2838836193
50.3703103304
50.30034585
50.7489416361

Average distance is : 50.360 cm
Average deviation is : 0.142 cm
Block: 10
======================================
50.7324794054
50.6830927134
50.30034585
50.7119016171
50.2674213886
50.2674213886
50.3044614077
50.3332703114
50.3209236383
50.2838836193
50.3044614077
50.30034585
50.7324794054
50.2838836193
50.2838836193
50.7654038668
50.30034585
50.337385869
50.7489416361
50.30034585
50.2838836193
50.3168080807
50.263305831
50.30034585
50.3168080807
50.337385869
50.3044614077
50.30034585
50.30034585
50.3209236383
50.3209236383
50.30034585
50.30034585
50.3538480997
50.2674213886
50.7530571938
50.30034585
50.2838836193
50.3209236383
50.30034585
50.3209236383
50.30034585
50.30034585
50.3209236383
50.2838836193
50.30034585
50.2838836193
50.3209236383
50.3332703114
50.2509591579

Average distance is : 50.362 cm
Average deviation is : 0.152 cm