
Block: 1
======================================
200.348815894
200.352888107
200.332527041
199.884583592
199.904944658

Average distance is : 200.165 cm
Average deviation is : 0.247 cm
Block: 2
======================================
200.776398277
200.743820572
199.888655806
200.352888107
200.348815894

Average distance is : 200.422 cm
Average deviation is : 0.362 cm
Block: 3
======================================
200.808975983
200.776398277
199.904944658
200.316238189
199.888655806

Average distance is : 200.339 cm
Average deviation is : 0.448 cm
Block: 4
======================================
199.888655806
200.312165976
199.904944658
199.941594577
199.904944658

Average distance is : 199.990 cm
Average deviation is : 0.181 cm
Block: 5
======================================
200.332527041
200.776398277
200.332527041
200.776398277
200.332527041

Average distance is : 200.510 cm
Average deviation is : 0.243 cm
Block: 6
======================================
199.921233511
199.921233511
200.776398277
200.79268713
199.904944658

Average distance is : 200.263 cm
Average deviation is : 0.476 cm
Block: 7
======================================
199.925305724
200.332527041
200.348815894
199.888655806
200.348815894

Average distance is : 200.169 cm
Average deviation is : 0.239 cm
Block: 8
======================================
200.332527041
200.760109425
200.776398277
200.829337049
200.299949336

Average distance is : 200.600 cm
Average deviation is : 0.260 cm
Block: 9
======================================
200.332527041
200.79268713
199.904944658
199.872366953
201.611201978

Average distance is : 200.503 cm
Average deviation is : 0.724 cm
Block: 10
======================================
199.872366953
200.36917696
199.872366953
199.888655806
199.888655806

Average distance is : 199.978 cm
Average deviation is : 0.219 cm