
Block: 1
======================================
199.8560781
199.888655806
200.776398277
200.760109425
200.743820572
199.872366953
199.872366953
199.872366953
199.872366953
199.888655806
200.332527041
199.872366953
200.299949336
199.872366953
199.872366953
200.332527041
200.332527041
200.348815894
200.332527041
200.295877123
199.872366953
199.8560781
200.332527041
199.8560781
200.316238189
199.8560781
200.332527041
199.8560781
200.332527041
200.332527041
200.332527041
200.332527041
200.316238189
199.872366953
200.332527041
200.332527041
200.756037211
199.888655806
199.888655806
199.86829474
200.332527041
200.776398277
200.776398277
199.904944658
200.776398277
199.904944658
200.332527041
199.904944658
200.332527041
200.312165976
200.332527041
200.348815894
200.332527041
199.872366953
199.888655806
199.852005887
200.332527041
200.316238189
200.316238189
200.348815894
200.332527041
200.776398277
200.760109425
200.760109425
200.312165976
199.86829474
200.332527041
200.776398277
200.760109425
199.921233511
200.776398277
199.904944658
200.760109425
199.888655806
200.776398277

Block: 2
======================================
200.332527041
200.760109425
199.852005887
199.888655806
199.904944658
200.776398277
201.20398066
200.756037211
200.776398277
200.316238189
201.171402955
200.79268713
200.776398277
200.760109425
200.776398277
199.888655806
200.776398277
200.776398277
200.316238189
199.888655806
199.925305724
200.760109425
199.904944658
200.776398277
200.776398277
199.888655806
199.888655806
200.760109425
200.760109425
199.888655806
200.776398277
200.760109425
199.904944658
200.776398277
200.332527041
200.756037211
200.79268713
199.921233511
199.904944658
201.171402955
199.888655806
200.776398277
200.796759343
200.776398277
200.332527041
200.316238189
199.888655806
199.904944658
199.904944658
200.348815894
200.776398277
200.332527041
199.909016871
200.332527041
199.904944658
200.332527041
200.316238189
200.316238189
200.316238189
200.332527041
199.888655806
200.332527041
200.316238189
199.909016871
200.316238189
200.316238189
200.299949336
200.348815894
200.332527041
200.332527041
200.760109425
200.79268713
199.888655806
199.888655806
199.904944658

Block: 3
======================================
201.183619595
200.348815894
201.20398066
199.888655806
199.872366953
200.332527041
199.904944658
199.872366953
199.941594577
200.316238189
200.776398277
199.884583592
199.904944658
200.79268713
199.904944658
199.904944658
200.316238189
199.904944658
200.796759343
200.776398277
200.776398277
199.909016871
200.776398277
200.760109425
199.909016871
200.316238189
200.760109425
200.79268713
199.925305724
199.904944658
200.316238189
199.904944658
199.904944658
201.183619595
200.332527041
199.888655806
199.909016871
199.888655806
199.888655806
200.316238189
200.316238189
200.332527041
199.872366953
199.852005887
200.348815894
200.332527041
200.316238189
199.86829474
200.332527041
201.20398066
200.316238189
199.872366953
199.888655806
199.888655806
199.852005887
199.852005887
199.86829474
199.872366953
200.316238189
200.348815894
200.332527041
201.171402955
200.332527041
199.888655806
200.332527041
200.760109425
201.171402955
199.852005887
199.86829474
200.316238189
199.872366953
200.332527041
199.872366953
199.852005887
200.348815894

Block: 4
======================================
200.316238189
200.776398277
200.707170653
199.8560781
199.872366953
200.332527041
199.888655806
199.888655806
199.872366953
199.839789248
199.835717034
199.835717034
200.299949336
200.332527041
200.316238189
200.332527041
199.872366953
199.872366953
199.888655806
199.8560781
199.8560781
200.332527041
201.183619595
199.86829474
200.316238189
201.199908447
200.332527041
199.888655806
199.872366953
199.888655806
199.872366953
199.8560781
200.316238189
200.316238189
200.316238189
200.316238189
199.86829474
199.852005887
199.852005887
199.86829474
199.888655806
201.199908447
200.332527041
199.872366953
200.332527041
200.332527041
199.872366953
199.888655806
200.743820572
199.872366953
199.872366953
200.316238189
200.316238189
199.872366953
200.332527041
200.348815894
199.852005887
200.316238189
199.872366953
199.872366953
199.872366953
199.872366953
199.8560781
199.852005887
199.852005887
200.332527041
200.332527041
199.872366953
199.8560781
200.316238189
199.884583592
199.888655806
199.872366953
200.332527041
199.8560781

Block: 5
======================================
200.776398277
200.332527041
200.739748359
199.888655806
199.888655806
200.760109425
200.316238189
199.872366953
199.86829474
201.20398066
200.332527041
199.888655806
199.86829474
200.760109425
200.760109425
200.776398277
200.760109425
200.743820572
200.295877123
199.86829474
199.872366953
200.723459506
199.86829474
199.852005887
199.8560781
200.743820572
199.872366953
199.888655806
199.888655806
200.332527041
199.872366953
199.888655806
200.760109425
200.332527041
199.872366953
199.852005887
199.872366953
199.872366953
199.872366953
200.316238189
200.316238189
200.316238189
200.756037211
199.852005887
199.888655806
199.852005887
199.852005887
199.888655806
199.872366953
199.872366953
199.86829474
199.86829474
199.872366953
199.888655806
199.872366953
201.20398066
199.8560781
199.888655806
199.888655806
199.884583592
199.872366953
199.888655806
200.332527041
199.86829474
199.872366953
199.872366953
200.316238189
200.332527041
201.167330742
200.776398277
199.8560781
200.332527041
200.332527041
200.316238189
199.872366953

Block: 6
======================================
199.872366953
199.888655806
199.86829474
199.888655806
199.888655806
199.888655806
199.872366953
200.760109425
199.872366953
200.776398277
200.332527041
200.332527041
200.332527041
199.86829474
199.852005887
199.852005887
199.888655806
201.171402955
199.888655806
200.332527041
200.316238189
199.86829474
200.332527041
200.316238189
200.299949336
199.888655806
200.332527041
200.316238189
199.872366953
199.86829474
200.332527041
200.316238189
200.316238189
199.888655806
199.872366953
200.316238189
199.872366953
200.295877123
199.852005887
199.86829474
199.852005887
199.8560781
199.872366953
199.888655806
200.776398277
200.760109425
200.332527041
200.760109425
199.872366953
199.86829474
199.852005887
199.872366953
199.888655806
199.86829474
200.332527041
199.872366953
200.332527041
200.348815894
200.312165976
199.86829474
199.872366953
199.872366953
199.8560781
200.316238189
199.872366953
199.872366953
201.631563044
199.872366953
199.872366953
199.872366953
200.316238189
200.332527041
199.872366953
199.888655806
199.872366953

Block: 7
======================================
200.316238189
200.316238189
200.332527041
201.187691808
200.299949336
200.776398277
200.776398277
200.295877123
201.220269513
199.8560781
199.888655806
200.312165976
200.756037211
200.312165976
199.835717034
200.316238189
200.312165976
200.316238189
200.316238189
200.316238189
200.316238189
199.872366953
199.8560781
200.316238189
200.316238189
199.8560781
201.20398066
200.316238189
200.316238189
200.316238189
201.187691808
200.332527041
200.316238189
199.8560781
200.295877123
200.760109425
200.739748359
199.872366953
200.776398277
200.760109425
199.872366953
201.167330742
200.312165976
200.760109425
199.904944658
200.316238189
200.776398277
200.776398277
200.776398277
200.739748359
200.776398277
200.283660483
199.839789248
200.760109425
200.760109425
200.760109425
200.312165976
200.316238189
200.776398277
199.888655806
199.839789248
200.299949336
200.776398277
200.760109425
200.332527041
199.8560781
200.299949336
200.299949336
200.316238189
199.872366953
199.872366953
200.299949336
200.299949336
201.167330742
200.316238189

Block: 8
======================================
200.760109425
200.776398277
200.316238189
200.332527041
200.299949336
200.316238189
199.909016871
200.316238189
200.316238189
200.316238189
200.332527041
199.86829474
199.888655806
200.312165976
200.312165976
200.332527041
200.312165976
200.332527041
200.332527041
200.299949336
200.316238189
200.776398277
200.316238189
200.776398277
200.316238189
200.316238189
200.776398277
199.888655806
200.316238189
200.760109425
200.316238189
200.299949336
200.776398277
200.332527041
200.316238189
200.316238189
200.332527041
200.312165976
200.760109425
200.312165976
199.888655806
200.332527041
201.187691808
200.316238189
200.776398277
200.332527041
200.332527041
199.888655806
200.295877123
199.888655806
200.332527041
200.316238189
200.756037211
200.79268713
200.743820572
200.776398277
200.316238189
200.299949336
199.888655806
201.187691808
200.299949336
200.295877123
200.776398277
200.776398277
199.904944658
200.316238189
200.316238189
200.316238189
200.776398277
199.888655806
200.776398277
200.776398277
200.295877123
200.796759343
200.295877123

Block: 9
======================================
200.776398277
199.884583592
199.872366953
200.776398277
199.904944658
200.776398277
199.888655806
199.95788343
200.365104747
199.904944658
199.888655806
199.888655806
200.27958827
200.332527041
200.756037211
200.756037211
199.904944658
199.888655806
200.776398277
200.743820572
199.888655806
199.888655806
199.852005887
200.36917696
199.888655806
199.888655806
200.776398277
200.760109425
199.888655806
200.385465813
199.904944658
199.909016871
200.760109425
200.79268713
200.776398277
200.776398277
200.760109425
199.888655806
199.888655806
200.776398277
199.904944658
199.921233511
199.904944658
200.79268713
199.888655806
199.888655806
200.776398277
199.909016871
199.904944658
200.332527041
200.352888107
200.776398277
199.904944658
199.904944658
199.888655806
199.888655806
200.760109425
199.904944658
200.776398277
199.872366953
199.888655806
199.904944658
200.743820572
200.760109425
199.904944658
200.776398277
200.316238189
200.776398277
200.79268713
199.888655806
199.888655806
200.365104747
200.760109425
199.884583592
200.776398277

Block: 10
======================================
200.316238189
200.332527041
200.760109425
199.872366953
199.86829474
199.872366953
199.888655806
199.872366953
200.760109425
199.904944658
199.888655806
199.872366953
199.872366953
199.888655806
199.888655806
199.909016871
201.62749083
199.904944658
199.888655806
200.776398277
200.739748359
200.739748359
200.78047049
199.884583592
200.316238189
200.332527041
199.888655806
199.86829474
200.760109425
199.888655806
199.904944658
200.776398277
200.776398277
200.760109425
200.316238189
200.316238189
200.760109425
200.776398277
200.760109425
200.332527041
200.760109425
200.739748359
200.312165976
200.776398277
199.888655806
200.316238189
200.348815894
200.760109425
200.332527041
200.332527041
200.316238189
200.760109425
199.904944658
200.776398277
200.776398277
199.872366953
200.776398277
200.316238189
200.312165976
200.332527041
199.872366953
200.332527041
201.167330742
200.316238189
200.760109425
200.760109425
200.760109425
200.299949336
200.743820572
200.760109425
200.727531719
199.888655806
200.739748359
200.316238189
200.760109425
