
Block: 1
======================================
199.872366953
199.921233511
199.941594577
199.86829474
199.888655806
200.776398277
200.78047049
200.79268713
201.183619595
200.776398277
200.79268713
200.79268713
200.348815894
199.921233511
199.888655806
199.888655806
199.872366953
200.365104747
201.20398066
199.904944658
200.348815894
200.316238189
200.79268713
200.776398277
200.332527041
200.776398277
200.760109425
200.760109425
199.884583592
199.904944658
199.904944658
199.904944658
199.909016871
200.316238189
200.332527041
200.776398277
199.904944658
200.79268713
199.904944658
199.888655806
199.941594577
200.332527041
200.776398277
199.888655806
200.796759343
200.776398277
200.332527041
200.776398277
200.332527041
200.316238189

Block: 2
======================================
199.904944658
199.888655806
200.352888107
199.8560781
200.332527041
200.312165976
200.316238189
199.904944658
200.503559995
199.904944658
199.904944658
200.776398277
200.776398277
199.925305724
200.776398277
200.776398277
199.904944658
200.776398277
200.316238189
199.904944658
200.79268713
200.312165976
200.776398277
200.760109425
199.909016871
200.332527041
200.316238189
200.760109425
200.760109425
200.760109425
200.348815894
200.776398277
199.888655806
200.365104747
199.888655806
199.904944658
199.904944658
200.348815894
200.776398277
200.776398277
200.332527041
199.925305724
200.760109425
199.904944658
199.904944658
200.79268713
200.776398277
199.888655806
199.888655806
200.760109425

Block: 3
======================================
199.888655806
199.921233511
200.401754665
200.776398277
199.941594577
200.348815894
199.884583592
200.332527041
199.888655806
200.348815894
200.348815894
199.888655806
199.904944658
200.365104747
200.348815894
199.921233511
199.888655806
199.904944658
200.226649499
201.631563044
199.921233511
200.365104747
199.909016871
199.904944658
199.888655806
199.904944658
199.904944658
199.904944658
200.352888107
199.904944658
200.776398277
200.348815894
201.647851896
199.904944658
200.79268713
199.909016871
200.365104747
199.904944658
200.79268713
199.888655806
199.872366953
200.385465813
200.776398277
199.904944658
199.921233511
200.796759343
200.36917696
199.904944658
200.776398277
200.776398277

Block: 4
======================================
200.316238189
200.654231882
199.888655806
199.884583592
199.86829474
199.904944658
199.888655806
199.904944658
200.36917696
199.921233511
200.776398277
199.921233511
199.888655806
200.776398277
200.332527041
200.332527041
200.776398277
200.776398277
200.332527041
200.316238189
200.312165976
200.776398277
200.78047049
200.776398277
200.316238189
200.332527041
199.904944658
200.776398277
200.776398277
199.925305724
199.904944658
200.348815894
200.776398277
200.808975983
200.796759343
200.385465813
199.925305724
200.776398277
200.78047049
199.904944658
200.776398277
200.79268713
200.776398277
200.79268713
200.79268713
200.332527041
201.220269513
200.79268713
200.348815894
200.332527041

Block: 5
======================================
200.776398277
199.941594577
200.352888107
199.941594577
200.776398277
200.365104747
200.36917696
200.36917696
199.904944658
199.904944658
199.904944658
200.365104747
199.925305724
200.79268713
200.36917696
200.79268713
199.904944658
199.921233511
200.796759343
200.776398277
199.904944658
199.921233511
199.909016871
200.79268713
199.904944658
200.3813936
200.365104747
200.79268713
199.904944658
199.904944658
200.332527041
200.776398277
200.79268713
200.316238189
200.79268713
199.921233511
200.332527041
200.776398277
200.776398277
200.79268713
200.796759343
200.332527041
200.316238189
200.796759343
200.79268713
200.316238189
200.332527041
200.760109425
200.776398277
200.776398277

Block: 6
======================================
199.904944658
201.187691808
200.760109425
200.813048196
200.813048196
200.332527041
200.348815894
200.316238189
200.316238189
200.316238189
200.316238189
200.332527041
199.872366953
199.888655806
200.332527041
200.332527041
199.888655806
200.348815894
200.756037211
200.332527041
199.888655806
199.86829474
200.316238189
200.332527041
200.352888107
199.888655806
199.888655806
199.888655806
199.904944658
199.888655806
200.332527041
200.332527041
200.332527041
200.352888107
200.348815894
199.909016871
200.332527041
200.332527041
200.332527041
200.316238189
200.348815894
199.888655806
200.332527041
200.332527041
199.888655806
200.332527041
200.79268713
200.348815894
199.872366953
200.332527041

Block: 7
======================================
199.904944658
200.348815894
199.888655806
200.36917696
200.3813936
199.904944658
199.925305724
199.904944658
201.20398066
200.776398277
199.888655806
200.332527041
200.332527041
200.316238189
200.332527041
200.332527041
200.332527041
199.888655806
199.872366953
200.332527041
200.503559995
200.332527041
200.352888107
200.813048196
200.348815894
201.220269513
200.332527041
199.888655806
200.352888107
200.332527041
200.316238189
200.79268713
200.808975983
200.79268713
200.79268713
201.220269513
199.941594577
199.888655806
199.925305724
200.316238189
201.20398066
200.332527041
200.79268713
200.352888107
200.332527041
199.888655806
199.872366953
200.348815894
200.332527041
200.316238189

Block: 8
======================================
199.904944658
199.888655806
200.316238189
200.760109425
199.8560781
200.776398277
200.776398277
200.79268713
200.348815894
199.872366953
199.888655806
200.332527041
200.348815894
199.888655806
199.872366953
199.904944658
199.888655806
200.332527041
200.352888107
199.888655806
199.872366953
199.872366953
199.8560781
200.332527041
199.888655806
200.348815894
199.872366953
200.348815894
199.888655806
199.86829474
199.872366953
199.921233511
200.332527041
200.316238189
199.888655806
200.332527041
199.888655806
200.332527041
199.888655806
199.888655806
199.888655806
199.888655806
200.348815894
201.220269513
200.348815894
199.909016871
199.872366953
200.332527041
199.86829474
199.888655806

Block: 9
======================================
199.904944658
201.598985338
200.332527041
200.312165976
200.776398277
200.3813936
199.909016871
200.760109425
200.332527041
199.888655806
200.332527041
200.760109425
200.79268713
200.79268713
200.332527041
200.332527041
200.348815894
201.187691808
200.332527041
199.86829474
199.904944658
200.348815894
201.240630579
200.348815894
200.332527041
200.332527041
200.352888107
200.332527041
200.348815894
199.872366953
199.872366953
199.888655806
200.332527041
199.8560781
200.332527041
199.872366953
200.332527041
199.86829474
200.316238189
200.332527041
200.332527041
199.888655806
200.348815894
199.884583592
200.348815894
199.8560781
199.8560781
199.86829474
199.872366953
199.872366953

Block: 10
======================================
199.888655806
199.872366953
199.872366953
199.888655806
199.86829474
200.348815894
200.352888107
200.348815894
200.332527041
200.316238189
200.332527041
199.888655806
200.332527041
200.316238189
199.888655806
200.316238189
200.312165976
200.332527041
200.776398277
200.332527041
200.332527041
199.872366953
200.332527041
200.316238189
200.79268713
199.888655806
200.316238189
200.348815894
200.332527041
200.332527041
200.332527041
200.79268713
200.312165976
200.316238189
200.316238189
200.776398277
200.796759343
199.904944658
200.776398277
200.776398277
200.332527041
200.348815894
200.332527041
200.332527041
200.332527041
200.808975983
200.352888107
200.332527041
200.332527041
200.295877123
