
Block: 1
======================================
199.921233511
199.921233511
199.909016871
199.904944658
199.904944658
199.941594577
200.348815894
199.888655806
200.332527041
200.332527041
200.348815894
199.921233511
199.888655806
199.904944658
199.941594577
199.904944658
199.904944658
199.888655806
199.921233511
199.904944658
200.760109425
199.921233511
199.921233511
199.909016871
200.796759343

Block: 2
======================================
200.385465813
200.332527041
199.514012194
200.332527041
200.352888107
199.904944658
199.884583592
201.647851896
199.909016871
199.904944658
200.796759343
201.20398066
200.796759343
199.921233511
200.79268713
199.904944658
200.385465813
199.921233511
200.79268713
199.904944658
199.904944658
199.904944658
200.332527041
200.776398277
199.904944658

Block: 3
======================================
199.888655806
199.937522364
199.888655806
199.904944658
199.925305724
199.925305724
199.921233511
199.925305724
199.904944658
199.921233511
200.776398277
199.904944658
200.348815894
199.904944658
200.776398277
199.904944658
200.79268713
199.925305724
199.904944658
199.904944658
200.79268713
199.921233511
199.921233511
199.921233511
200.332527041

Block: 4
======================================
200.776398277
200.385465813
199.888655806
199.888655806
200.79268713
200.3813936
199.904944658
199.937522364
199.909016871
199.904944658
199.904944658
199.921233511
200.808975983
200.79268713
199.921233511
200.36917696
200.808975983
200.796759343
199.921233511
200.776398277
199.909016871
199.921233511
199.909016871
199.888655806
200.348815894

Block: 5
======================================
200.365104747
200.401754665
200.348815894
200.36917696
199.941594577
200.348815894
200.36917696
200.365104747
199.921233511
200.776398277
200.79268713
199.921233511
199.904944658
200.79268713
199.937522364
199.937522364
199.904944658
199.941594577
200.3813936
199.909016871
199.921233511
199.941594577
199.925305724
200.36917696
199.921233511

Block: 6
======================================
200.760109425
200.332527041
200.845625901
200.776398277
200.365104747
200.776398277
200.352888107
200.808975983
200.36917696
200.3813936
199.941594577
200.385465813
200.401754665
199.925305724
199.904944658
200.776398277
200.79268713
199.941594577
200.365104747
199.921233511
199.921233511
199.904944658
200.385465813
199.925305724
199.888655806

Block: 7
======================================
200.776398277
200.332527041
199.909016871
199.925305724
199.941594577
199.904944658
199.921233511
200.776398277
200.79268713
200.796759343
199.921233511
200.796759343
199.904944658
199.904944658
199.904944658
199.925305724
200.776398277
199.925305724
200.79268713
200.385465813
199.921233511
200.36917696
200.79268713
199.925305724
200.36917696

Block: 8
======================================
200.348815894
199.888655806
200.36917696
200.316238189
199.904944658
200.79268713
200.332527041
200.79268713
200.328454828
200.348815894
200.332527041
200.332527041
200.332527041
200.352888107
200.316238189
199.872366953
200.332527041
200.348815894
200.348815894
200.348815894
200.332527041
200.348815894
199.888655806
200.352888107
200.796759343

Block: 9
======================================
199.888655806
200.316238189
200.316238189
199.904944658
200.568715405
199.888655806
200.316238189
200.332527041
200.776398277
200.316238189
199.852005887
200.332527041
200.316238189
199.8560781
200.332527041
199.888655806
201.183619595
200.79268713
200.332527041
200.332527041
200.332527041
200.760109425
200.776398277
200.316238189
200.312165976

Block: 10
======================================
199.872366953
199.8560781
199.872366953
199.888655806
199.888655806
200.332527041
199.888655806
200.813048196
200.332527041
199.872366953
200.316238189
200.332527041
201.20398066
200.352888107
199.872366953
200.332527041
199.872366953
200.332527041
200.756037211
200.332527041
199.904944658
200.776398277
200.316238189
200.79268713
200.79268713
