
Block: 1
======================================
201.118464184
200.198144007
200.690881801
200.210360646
111.635651922

Average distance is : 182.771 cm
Average deviation is : 39.768 cm
Block: 2
======================================
200.674592948
200.674592948
200.210360646
200.226649499
113.822430396

Average distance is : 183.122 cm
Average deviation is : 38.740 cm
Block: 3
======================================
201.102175331
200.230721712
200.214432859
199.803139329
200.210360646

Average distance is : 200.312 cm
Average deviation is : 0.477 cm
Block: 4
======================================
200.247010565
200.226649499
201.151041889
200.267371631
200.230721712

Average distance is : 200.425 cm
Average deviation is : 0.406 cm
Block: 5
======================================
200.230721712
201.134753036
200.247010565
200.226649499
200.230721712

Average distance is : 200.414 cm
Average deviation is : 0.403 cm
Block: 6
======================================
200.230721712
200.247010565
200.247010565
200.247010565
200.247010565

Average distance is : 200.244 cm
Average deviation is : 0.007 cm
Block: 7
======================================
200.674592948
200.658304095
200.230721712
112.079523158
196.765268302

Average distance is : 182.082 cm
Average deviation is : 39.167 cm
Block: 8
======================================
200.690881801
107.107350874
201.065525413
200.621654177
201.134753036

Average distance is : 182.124 cm
Average deviation is : 41.936 cm
Block: 9
======================================
200.263299417
111.977717829
199.066068745
113.325620389
197.75074389

Average distance is : 164.477 cm
Average deviation is : 47.320 cm
Block: 10
======================================
200.247010565
201.114391971
200.247010565
200.226649499
200.263299417

Average distance is : 200.420 cm
Average deviation is : 0.389 cm