
Block: 1
======================================
300.471798563
300.471798563
300.467733574
300.927077341
300.93114233
300.910817385
300.48399353
301.833569908
300.910817385
300.451473618

Block: 2
======================================
300.93114233
300.910817385
300.467733574
300.93114233
300.947402287
301.374226141
300.488058519
300.927077341
300.927077341
300.927077341

Block: 3
======================================
301.390486097
300.927077341
300.467733574
300.467733574
300.471798563
300.93114233
300.93114233
300.947402287
300.467733574
300.48399353

Block: 4
======================================
301.406746054
300.504318476
301.032767057
301.406746054
300.943337297
300.943337297
300.947402287
300.500253487
300.504318476
300.943337297

Block: 5
======================================
300.996182156
301.353901196
300.467733574
300.520578432
300.947402287
300.488058519
300.48399353
300.48399353
300.943337297
300.488058519

Block: 6
======================================
300.48399353
300.963662243
300.504318476
300.927077341
300.467733574
300.467733574
300.947402287
300.504318476
300.48399353
300.504318476

Block: 7
======================================
300.910817385
301.390486097
301.374226141
300.927077341
300.48399353
300.93114233
301.374226141
301.370161152
300.467733574
300.48399353

Block: 8
======================================
300.488058519
300.467733574
300.947402287
300.48399353
300.467733574
300.467733574
300.48399353
300.963662243
300.48399353
300.488058519

Block: 9
======================================
300.48399353
300.48399353
300.488058519
300.500253487
300.488058519
300.536838388
300.488058519
300.467733574
300.48399353
300.48399353

Block: 10
======================================
300.467733574
300.963662243
300.48399353
300.504318476
300.93114233
300.467733574
300.451473618
300.93114233
300.488058519
300.927077341
