
Block: 1
======================================
301.317316294
300.467733574
300.431148672
300.431148672
300.451473618
300.451473618
300.451473618
300.451473618
300.963662243
300.418953705
300.435213661
300.435213661
300.431148672
300.451473618
300.910817385
300.862037516
300.455538607
300.963662243
300.435213661
300.914882374
300.947402287
300.894557428
300.878297472
301.321381283
301.321381283
300.467733574
300.431148672
300.451473618
301.337641239
300.451473618
300.963662243
300.435213661
300.467733574
300.467733574
300.910817385
300.520578432
300.435213661
300.504318476
300.451473618
300.435213661
300.467733574
300.963662243
300.435213661
300.435213661
300.93114233
300.500253487
300.963662243
300.451473618
300.451473618
300.414888716

Block: 2
======================================
300.979922199
300.435213661
300.414888716
300.927077341
300.894557428
300.878297472
300.910817385
300.435213661
300.471798563
300.48399353
300.451473618
300.536838388
301.357966185
300.418953705
300.894557428
300.910817385
300.435213661
300.435213661
300.488058519
300.894557428
300.451473618
300.894557428
300.894557428
300.894557428
300.435213661
300.878297472
300.910817385
300.451473618
300.894557428
300.910817385
300.874232483
300.536838388
300.878297472
300.451473618
300.435213661
300.435213661
300.979922199
300.983987188
300.979922199
300.467733574
300.451473618
300.910817385
300.451473618
300.910817385
300.894557428
300.910817385
300.451473618
300.894557428
300.435213661
300.467733574

Block: 3
======================================
301.337641239
300.451473618
300.516513443
301.337641239
300.894557428
300.451473618
300.910817385
300.451473618
300.451473618
300.898622417
300.451473618
300.910817385
300.451473618
300.435213661
300.520578432
300.435213661
301.801049995
300.451473618
300.451473618
300.894557428
300.894557428
300.947402287
300.910817385
300.894557428
300.431148672
300.431148672
300.467733574
300.963662243
300.467733574
300.93114233
300.910817385
300.435213661
300.963662243
300.914882374
300.910817385
301.337641239
300.467733574
300.435213661
300.894557428
300.451473618
300.455538607
300.894557428
300.467733574
300.451473618
300.894557428
300.963662243
300.894557428
300.93114233
300.435213661
300.435213661

Block: 4
======================================
300.894557428
300.878297472
300.431148672
300.979922199
300.435213661
300.874232483
300.451473618
300.894557428
301.353901196
300.910817385
300.894557428
300.910817385
300.979922199
301.374226141
300.398628759
300.878297472
300.894557428
300.894557428
300.914882374
300.451473618
300.894557428
300.894557428
300.451473618
300.451473618
300.451473618
301.353901196
300.910817385
301.390486097
300.48399353
300.48399353
300.894557428
301.353901196
301.374226141
300.467733574
300.898622417
301.337641239
301.42300601
300.914882374
301.353901196
300.910817385
300.894557428
301.353901196
301.374226141
301.353901196
301.353901196
301.357966185
301.370161152
301.42300601
301.357966185
301.370161152

Block: 5
======================================
300.959597254
300.943337297
300.979922199
301.390486097
300.996182156
300.963662243
301.012442112
300.959597254
300.93114233
300.947402287
301.406746054
300.979922199
300.516513443
301.406746054
301.032767057
301.032767057
301.012442112
301.406746054
300.963662243
301.406746054
301.049027014
301.049027014
300.536838388
300.516513443
300.536838388
300.996182156
301.049027014
300.996182156
300.979922199
300.996182156
300.979922199
300.979922199
300.979922199
300.979922199
300.979922199
300.996182156
300.996182156
300.996182156
301.016507101
300.996182156
301.443330956
300.996182156
301.012442112
300.996182156
300.979922199
301.000247145
300.996182156
300.553098345
301.049027014
301.000247145

Block: 6
======================================
301.012442112
300.536838388
301.069351959
300.553098345
300.557163334
301.016507101
300.553098345
301.032767057
301.012442112
300.569358301
300.553098345
301.012442112
301.012442112
301.439265966
300.553098345
300.553098345
301.081546926
300.996182156
301.085611916
301.000247145
300.553098345
301.427070999
301.06528697
300.536838388
300.996182156
300.996182156
301.000247145
301.06528697
301.081546926
301.42300601
301.06528697
300.569358301
301.012442112
300.979922199
300.996182156
301.032767057
300.553098345
301.028702068
301.000247145
301.081546926
300.553098345
301.012442112
300.557163334
300.553098345
301.081546926
301.000247145
301.012442112
301.000247145
300.996182156
301.012442112

Block: 7
======================================
300.569358301
300.557163334
301.016507101
300.963662243
300.536838388
301.032767057
301.081546926
301.101871872
301.028702068
300.569358301
300.996182156
301.06528697
300.569358301
301.012442112
300.536838388
300.569358301
301.044962025
301.439265966
301.471785879
301.439265966
301.032767057
300.536838388
301.459590912
301.459590912
300.557163334
301.016507101
301.06528697
301.032767057
301.012442112
300.57342329
300.996182156
301.032767057
300.979922199
301.012442112
300.557163334
300.57342329
300.557163334
300.557163334
301.016507101
301.012442112
301.455525923
301.439265966
300.553098345
301.012442112
301.012442112
301.049027014
300.996182156
300.996182156
301.049027014
301.06528697

Block: 8
======================================
301.06528697
301.492110825
301.118131828
301.049027014
301.459590912
301.028702068
301.475850868
301.455525923
301.492110825
301.459590912
301.918934679
302.805102301
301.455525923
301.898609734
301.918934679
301.475850868
301.471785879
301.935194635
301.101871872
301.898609734
301.032767057
301.032767057
301.91486969
301.471785879
301.918934679
301.935194635
301.049027014
301.561215639
301.561215639
301.55715065
301.475850868
301.475850868
301.492110825
301.471785879
301.081546926
301.049027014
301.593735552
301.028702068
301.508370781
301.508370781
301.081546926
301.012442112
301.55715065
301.049027014
301.049027014
301.049027014
301.081546926
301.492110825
301.049027014
301.118131828

Block: 9
======================================
301.049027014
301.028702068
301.097806883
301.561215639
301.049027014
301.049027014
301.114066839
301.101871872
301.544955683
301.032767057
301.032767057
301.028702068
301.032767057
301.049027014
301.049027014
301.049027014
301.935194635
301.898609734
301.91486969
301.935194635
301.085611916
301.918934679
301.918934679
301.012442112
301.471785879
301.032767057
301.081546926
301.902674723
301.475850868
301.044962025
301.544955683
301.540890694
301.475850868
301.967714548
301.902674723
301.902674723
301.032767057
301.032767057
301.016507101
301.044962025
301.918934679
301.898609734
301.012442112
301.443330956
301.459590912
301.012442112
301.101871872
301.455525923
301.475850868
301.459590912

Block: 10
======================================
301.918934679
301.935194635
301.049027014
301.012442112
301.902674723
301.049027014
301.097806883
301.032767057
300.57342329
301.044962025
301.508370781
300.589683247
300.569358301
300.605943203
301.114066839
300.589683247
301.028702068
301.028702068
301.032767057
301.06528697
302.378278446
300.569358301
301.935194635
300.585618258
301.488045835
301.032767057
300.569358301
300.585618258
301.114066839
301.101871872
300.57342329
300.589683247
301.032767057
300.589683247
300.601878214
301.06528697
300.585618258
301.06528697
300.589683247
301.028702068
301.475850868
301.032767057
301.06528697
300.589683247
301.06528697
300.605943203
301.049027014
301.06528697
300.569358301
301.032767057
