
Block: 1
======================================
301.06528697
300.569358301
300.553098345
300.658788061
300.569358301
301.049027014
300.569358301
301.06528697
301.016507101
301.032767057
300.569358301
300.569358301
300.569358301
301.081546926
301.459590912
300.589683247
301.459590912
300.57342329
301.443330956
301.459590912
301.081546926
301.455525923
300.553098345
300.569358301
300.569358301
301.455525923
301.032767057
300.569358301
300.57342329
301.455525923
300.57342329
301.06528697
301.455525923
301.459590912
301.012442112
301.459590912
300.585618258
301.459590912
301.012442112
301.42300601
301.455525923
301.439265966
300.996182156
301.000247145
301.455525923
301.012442112
301.866089821
300.553098345
300.979922199
300.536838388
300.996182156
300.520578432
301.049027014
300.979922199
300.996182156
300.963662243
300.979922199
300.979922199
301.06528697
300.996182156
301.049027014
301.049027014
300.996182156
300.996182156
301.508370781
300.996182156
300.979922199
300.996182156
301.016507101
300.979922199
301.000247145
301.955519581
300.979922199
301.882349777
300.979922199

Block: 2
======================================
300.963662243
301.439265966
301.439265966
300.557163334
300.536838388
300.536838388
300.963662243
301.866089821
300.520578432
300.536838388
300.536838388
300.996182156
300.996182156
300.536838388
300.996182156
300.996182156
301.42300601
300.979922199
300.536838388
300.963662243
300.979922199
301.032767057
300.996182156
301.028702068
300.996182156
300.520578432
300.996182156
300.979922199
300.979922199
300.536838388
301.866089821
300.979922199
301.866089821
301.049027014
300.996182156
301.406746054
300.979922199
300.963662243
300.963662243
301.42300601
301.049027014
301.049027014
300.504318476
300.963662243
301.028702068
301.406746054
301.427070999
300.979922199
300.520578432
300.979922199
300.979922199
300.996182156
300.536838388
300.504318476
300.500253487
301.06528697
300.979922199
300.996182156
300.943337297
301.049027014
300.520578432
301.849829865
300.996182156
300.520578432
300.516513443
300.520578432
300.520578432
300.536838388
300.500253487
301.049027014
300.536838388
300.979922199
300.520578432
300.520578432
300.963662243

Block: 3
======================================
301.42300601
300.959597254
301.471785879
300.947402287
300.520578432
300.979922199
300.983987188
301.049027014
300.520578432
301.406746054
301.390486097
301.42300601
301.049027014
301.42300601
301.42300601
300.996182156
300.504318476
300.516513443
301.42300601
300.504318476
300.520578432
300.520578432
301.406746054
301.406746054
300.48399353
300.557163334
300.520578432
300.488058519
300.943337297
301.42300601
300.963662243
300.943337297
300.959597254
300.557163334
300.959597254
300.57342329
301.406746054
300.947402287
300.504318476
300.963662243
300.520578432
300.963662243
300.520578432
300.520578432
300.589683247
300.520578432
301.406746054
300.504318476
301.406746054
300.585618258
300.57342329
301.427070999
301.028702068
300.569358301
300.471798563
301.386421108
301.406746054
301.427070999
300.963662243
300.947402287
300.467733574
300.488058519
300.943337297
301.390486097
301.390486097
300.943337297
300.947402287
300.500253487
300.947402287
300.48399353
300.943337297
300.467733574
300.927077341
300.93114233
300.48399353

Block: 4
======================================
300.553098345
300.520578432
300.500253487
299.719775581
301.386421108
300.947402287
301.012442112
300.569358301
300.947402287
300.520578432
300.947402287
300.927077341
300.943337297
300.963662243
300.520578432
300.963662243
300.947402287
300.947402287
301.443330956
301.374226141
301.833569908
300.996182156
300.500253487
300.48399353
300.500253487
300.504318476
300.504318476
300.996182156
301.374226141
300.488058519
301.012442112
301.000247145
300.520578432
300.500253487
301.370161152
300.48399353
300.914882374
300.93114233
301.370161152
301.370161152
300.996182156
300.894557428
301.370161152
300.943337297
301.012442112
300.500253487
300.553098345
301.42300601
300.500253487
301.390486097
300.488058519
301.374226141
300.48399353
301.390486097
301.455525923
300.927077341
300.48399353
300.467733574
300.910817385
300.910817385
301.390486097
301.390486097
300.48399353
300.93114233
301.374226141
300.927077341
301.42300601
301.353901196
300.93114233
300.947402287
300.93114233
300.963662243
301.390486097
301.353901196
300.927077341

Block: 5
======================================
301.374226141
300.947402287
300.894557428
300.504318476
300.927077341
300.93114233
301.386421108
300.927077341
300.927077341
301.374226141
300.93114233
300.93114233
300.914882374
301.406746054
300.467733574
300.910817385
300.927077341
300.467733574
301.374226141
300.93114233
300.914882374
301.374226141
300.536838388
300.963662243
301.374226141
300.894557428
300.536838388
301.817309952
300.740087843
300.93114233
301.390486097
300.488058519
300.48399353
300.910817385
301.386421108
300.93114233
300.927077341
301.374226141
300.504318476
300.500253487
300.504318476
300.553098345
301.813244963
300.48399353
300.947402287
301.390486097
301.374226141
300.488058519
301.374226141
300.553098345
301.370161152
300.536838388
300.488058519
300.48399353
300.520578432
300.553098345
300.57342329
301.370161152
300.500253487
301.390486097
300.914882374
300.536838388
301.353901196
300.488058519
300.488058519
300.947402287
300.48399353
300.504318476
300.536838388
300.48399353
300.996182156
301.374226141
300.504318476
300.467733574
300.504318476

Block: 6
======================================
300.963662243
300.467733574
301.374226141
300.48399353
300.553098345
300.93114233
301.370161152
300.927077341
301.386421108
300.910817385
300.467733574
301.374226141
301.406746054
300.488058519
300.504318476
300.500253487
300.48399353
300.467733574
301.390486097
300.553098345
300.48399353
301.370161152
300.504318476
301.374226141
300.93114233
300.910817385
300.585618258
300.927077341
300.569358301
300.557163334
300.93114233
301.42300601
300.536838388
300.927077341
300.947402287
301.390486097
300.93114233
300.57342329
300.553098345
300.553098345
301.353901196
300.927077341
300.500253487
301.370161152
300.48399353
300.488058519
300.504318476
300.211639261
300.488058519
300.488058519
300.553098345
300.504318476
300.488058519
300.488058519
300.553098345
301.370161152
300.48399353
300.488058519
301.390486097
300.536838388
300.500253487
300.48399353
300.48399353
300.504318476
300.874232483
300.48399353
301.374226141
300.488058519
300.520578432
300.488058519
301.374226141
300.536838388
300.500253487
300.504318476
300.536838388

Block: 7
======================================
300.927077341
300.48399353
300.927077341
300.467733574
300.488058519
301.370161152
300.927077341
300.910817385
300.488058519
300.979922199
300.93114233
300.48399353
300.471798563
300.996182156
300.569358301
300.947402287
300.947402287
300.488058519
300.553098345
300.48399353
300.536838388
300.48399353
300.467733574
300.488058519
300.48399353
300.504318476
300.910817385
300.471798563
300.504318476
300.488058519
300.504318476
301.353901196
300.488058519
300.536838388
300.488058519
300.48399353
300.947402287
300.93114233
300.93114233
300.500253487
300.451473618
300.467733574
300.467733574
301.000247145
300.48399353
301.370161152
300.48399353
300.504318476
300.963662243
300.467733574
300.536838388
300.48399353
300.48399353
300.488058519
300.927077341
300.48399353
300.48399353
300.48399353
300.93114233
300.48399353
300.467733574
300.451473618
300.48399353
300.927077341
300.48399353
300.553098345
300.48399353
301.012442112
300.488058519
300.48399353
300.963662243
300.536838388
301.353901196
300.947402287
300.471798563

Block: 8
======================================
300.557163334
300.504318476
300.48399353
300.471798563
300.553098345
300.927077341
300.471798563
300.48399353
300.504318476
300.48399353
300.500253487
301.357966185
300.467733574
300.467733574
300.504318476
300.48399353
300.520578432
300.48399353
300.504318476
300.947402287
300.488058519
300.500253487
300.93114233
300.520578432
301.370161152
300.504318476
300.48399353
300.467733574
300.488058519
300.488058519
300.467733574
300.504318476
300.488058519
301.000247145
300.520578432
300.553098345
301.374226141
301.390486097
300.504318476
300.536838388
300.536838388
300.488058519
300.48399353
300.520578432
300.553098345
301.370161152
300.947402287
300.536838388
300.504318476
300.553098345
300.48399353
300.504318476
301.370161152
300.536838388
300.467733574
300.557163334
300.504318476
300.536838388
300.520578432
300.500253487
300.536838388
300.504318476
300.48399353
300.947402287
300.947402287
301.374226141
300.943337297
300.93114233
301.829504919
300.471798563
300.927077341
300.48399353
300.488058519
300.93114233
300.536838388

Block: 9
======================================
300.536838388
301.353901196
300.910817385
301.370161152
300.48399353
300.471798563
300.536838388
300.927077341
300.943337297
300.471798563
300.488058519
300.93114233
300.504318476
300.451473618
300.467733574
299.085637283
301.370161152
301.386421108
300.910817385
300.48399353
300.504318476
300.520578432
301.353901196
300.927077341
301.370161152
301.370161152
301.390486097
301.370161152
300.504318476
300.536838388
300.500253487
300.947402287
300.48399353
300.947402287
300.943337297
300.488058519
300.927077341
300.947402287
301.390486097
300.927077341
300.471798563
300.48399353
301.032767057
300.48399353
300.467733574
300.467733574
300.467733574
300.467733574
300.48399353
300.947402287
300.500253487
300.910817385
301.390486097
300.914882374
300.910817385
300.947402287
300.467733574
300.553098345
300.536838388
300.927077341
300.467733574
300.947402287
300.927077341
300.467733574
300.48399353
301.833569908
300.947402287
300.943337297
300.488058519
300.467733574
300.48399353
300.963662243
301.390486097
300.48399353
300.488058519

Block: 10
======================================
300.504318476
300.488058519
300.959597254
300.467733574
300.979922199
300.93114233
300.943337297
300.488058519
300.536838388
300.504318476
300.500253487
301.357966185
300.467733574
300.48399353
300.467733574
300.947402287
300.947402287
300.488058519
300.943337297
300.382368803
300.914882374
300.536838388
300.553098345
300.48399353
301.386421108
300.943337297
301.016507101
301.012442112
301.357966185
300.504318476
300.947402287
300.927077341
300.553098345
301.374226141
300.467733574
300.536838388
300.48399353
300.48399353
300.536838388
300.48399353
300.504318476
300.500253487
300.467733574
300.488058519
300.48399353
300.504318476
300.488058519
300.520578432
300.943337297
300.488058519
300.910817385
300.488058519
300.467733574
300.488058519
300.927077341
300.927077341
300.927077341
300.927077341
300.947402287
300.943337297
300.504318476
300.947402287
300.927077341
301.374226141
300.504318476
300.947402287
300.48399353
300.927077341
301.390486097
300.48399353
300.93114233
300.48399353
300.488058519
300.93114233
300.467733574
