
Block: 1
======================================
201.20398066
200.845625901
200.385465813
201.171402955
201.20398066
200.776398277
200.348815894
200.776398277
200.332527041
200.299949336
200.283660483
200.283660483
200.283660483
200.299949336
200.316238189
200.295877123
200.295877123
200.263299417
200.776398277
200.299949336
200.743820572
200.316238189
200.776398277
200.27958827
200.365104747
200.808975983
200.332527041
200.316238189
200.760109425
200.332527041
200.776398277
200.743820572
200.365104747
200.760109425
200.760109425
200.776398277
200.760109425
201.220269513
201.220269513
200.756037211
200.760109425
200.299949336
200.743820572
200.739748359
200.743820572
201.20398066
200.739748359
201.220269513
200.776398277
201.199908447

Block: 2
======================================
200.760109425
200.312165976
200.796759343
200.760109425
201.20398066
200.316238189
201.240630579
201.187691808
200.743820572
200.760109425
200.760109425
200.743820572
201.20398066
201.236558366
201.20398066
200.861914754
200.776398277
200.861914754
201.236558366
200.776398277
200.332527041
201.20398066
201.220269513
200.760109425
200.776398277
201.220269513
201.220269513
200.332527041
201.187691808
201.20398066
201.187691808
201.220269513
201.220269513
200.776398277
200.760109425
201.20398066
200.79268713
200.776398277
200.299949336
200.760109425
200.760109425
200.776398277
200.401754665
201.240630579
200.743820572
200.79268713
201.220269513
200.878203607
200.418043518
200.79268713

Block: 3
======================================
201.20398066
201.273208284
201.220269513
200.861914754
200.776398277
200.776398277
201.220269513
200.760109425
201.220269513
200.861914754
200.348815894
201.220269513
201.252847219
201.236558366
200.760109425
200.796759343
201.220269513
200.760109425
200.760109425
200.760109425
200.776398277
200.813048196
200.760109425
200.27958827
200.776398277
200.743820572
200.776398277
200.760109425
201.220269513
200.776398277
200.283660483
200.316238189
200.79268713
200.760109425
200.743820572
200.776398277
200.796759343
200.760109425
200.27958827
200.316238189
200.776398277
200.776398277
200.79268713
200.760109425
200.760109425
200.776398277
200.776398277
200.756037211
201.20398066
201.256919432

Block: 4
======================================
200.348815894
200.776398277
200.27958827
201.220269513
201.236558366
200.79268713
200.776398277
200.756037211
200.79268713
200.332527041
200.316238189
200.760109425
200.760109425
200.79268713
200.760109425
200.760109425
200.776398277
201.236558366
200.776398277
200.299949336
200.776398277
200.776398277
200.776398277
200.295877123
200.776398277
200.845625901
201.236558366
200.299949336
200.283660483
200.760109425
200.756037211
200.776398277
200.776398277
200.776398277
200.332527041
200.79268713
200.829337049
200.829337049
200.776398277
200.295877123
200.295877123
200.332527041
200.299949336
200.299949336
200.295877123
200.739748359
200.760109425
200.776398277
200.776398277
201.647851896

Block: 5
======================================
201.220269513
200.743820572
201.187691808
201.20398066
201.171402955
200.723459506
200.776398277
200.756037211
200.263299417
200.760109425
200.316238189
200.316238189
200.739748359
200.79268713
200.776398277
200.845625901
200.299949336
200.299949336
200.332527041
201.647851896
200.743820572
200.263299417
200.27958827
200.299949336
200.760109425
200.760109425
200.760109425
201.20398066
200.813048196
200.27958827
200.723459506
200.316238189
201.187691808
200.348815894
200.295877123
200.27958827
200.299949336
200.813048196
200.299949336
200.760109425
200.299949336
200.299949336
200.299949336
200.332527041
200.299949336
200.283660483
200.299949336
200.283660483
200.316238189
200.299949336

Block: 6
======================================
200.760109425
200.385465813
200.743820572
200.760109425
200.316238189
200.316238189
200.727531719
200.299949336
200.756037211
200.727531719
200.756037211
200.743820572
201.220269513
200.348815894
201.20398066
200.365104747
200.760109425
200.299949336
200.743820572
200.743820572
200.739748359
200.739748359
200.743820572
200.743820572
200.760109425
200.727531719
200.760109425
200.263299417
200.27958827
200.295877123
200.743820572
201.187691808
200.316238189
200.332527041
200.332527041
200.299949336
200.283660483
200.727531719
200.743820572
200.348815894
201.187691808
200.760109425
200.283660483
200.760109425
200.723459506
200.743820572
200.316238189
200.760109425
200.760109425
201.20398066

Block: 7
======================================
200.743820572
200.263299417
200.776398277
200.723459506
200.760109425
200.776398277
200.829337049
200.299949336
200.295877123
200.295877123
200.27958827
200.283660483
200.283660483
200.27958827
200.27958827
200.299949336
201.187691808
200.316238189
201.155114102
200.813048196
201.187691808
200.295877123
200.825264835
200.727531719
200.739748359
200.739748359
200.813048196
200.825264835
200.295877123
200.760109425
200.27958827
200.299949336
200.760109425
200.760109425
200.283660483
200.283660483
200.756037211
200.756037211
200.283660483
200.776398277
200.756037211
200.312165976
200.760109425
200.299949336
200.299949336
200.316238189
200.743820572
200.79268713
200.316238189
200.776398277

Block: 8
======================================
200.739748359
200.27958827
200.79268713
200.295877123
200.808975983
200.825264835
200.316238189
200.332527041
200.299949336
200.316238189
201.187691808
200.295877123
200.295877123
200.808975983
200.299949336
200.316238189
200.283660483
200.760109425
200.760109425
200.295877123
200.27958827
200.295877123
200.756037211
200.743820572
200.743820572
200.283660483
200.760109425
200.760109425
200.743820572
200.299949336
200.299949336
200.825264835
200.813048196
200.299949336
200.27958827
200.283660483
200.299949336
200.743820572
200.808975983
200.808975983
200.299949336
200.295877123
200.283660483
200.316238189
201.20398066
201.167330742
200.283660483
200.743820572
200.295877123
201.199908447

Block: 9
======================================
200.316238189
200.776398277
200.27958827
200.739748359
200.316238189
200.776398277
200.299949336
200.312165976
201.20398066
200.743820572
200.776398277
200.299949336
200.739748359
200.27958827
200.739748359
200.813048196
200.760109425
200.760109425
200.316238189
200.27958827
200.283660483
200.760109425
200.295877123
200.27958827
200.760109425
200.776398277
200.27958827
200.299949336
200.813048196
200.760109425
200.743820572
200.760109425
200.743820572
200.267371631
200.283660483
200.760109425
200.743820572
200.295877123
200.776398277
200.332527041
200.27958827
200.756037211
200.756037211
200.312165976
200.295877123
200.743820572
200.365104747
200.760109425
200.727531719
200.283660483

Block: 10
======================================
200.760109425
200.760109425
200.295877123
200.332527041
200.27958827
200.739748359
200.299949336
200.776398277
200.299949336
200.283660483
200.743820572
200.743820572
200.295877123
200.299949336
201.631563044
200.27958827
201.171402955
200.267371631
200.743820572
200.312165976
200.267371631
200.299949336
201.171402955
201.171402955
200.27958827
200.739748359
200.841553688
200.743820572
200.27958827
200.299949336
200.743820572
200.267371631
200.27958827
200.316238189
200.760109425
200.283660483
200.776398277
200.299949336
200.760109425
200.263299417
200.27958827
200.283660483
200.299949336
200.299949336
200.299949336
200.295877123
200.27958827
200.283660483
200.760109425
201.167330742
