
Block: 1
======================================
400.280280638
400.704828906
401.586271977
400.704828906
400.704828906
400.349017024
400.688655639
401.194070244
400.332843757
400.316670489
400.332843757
400.26410737
401.161723709
400.284323955
401.145550442
401.161723709
400.247934103
400.704828906
400.247934103
400.78973856
400.296453905
401.129377174
401.145550442
400.721002173
400.757392025

Block: 2
======================================
400.247934103
400.26410737
400.672482371
401.145550442
400.704828906
401.214286828
400.684612322
400.704828906
400.26410737
400.672482371
400.704828906
400.704828906
400.704828906
401.553925443
400.688655639
400.688655639
400.753348708
400.688655639
400.247934103
400.227717519
401.145550442
400.753348708
400.769521976
400.280280638
400.684612322

Block: 3
======================================
400.753348708
400.757392025
400.704828906
400.26410737
400.688655639
400.668439054
400.280280638
400.688655639
400.704828906
400.704828906
400.773565292
400.668439054
400.704828906
400.704828906
400.704828906
401.145550442
400.280280638
401.165767026
401.210243511
401.161723709
401.161723709
401.177896976
401.181940293
401.145550442
400.332843757

Block: 4
======================================
400.721002173
400.284323955
400.312627172
400.737175441
400.737175441
400.78973856
400.332843757
401.161723709
400.284323955
400.721002173
400.280280638
400.349017024
400.280280638
400.78973856
401.161723709
400.78973856
400.72504549
400.72504549
401.161723709
401.161723709
400.704828906
401.145550442
400.773565292
401.606488562
401.145550442

Block: 5
======================================
401.161723709
401.622661829
400.688655639
401.57009871
400.805911827
400.741218758
400.72504549
400.72504549
401.165767026
401.161723709
401.230460095
400.721002173
400.741218758
400.78973856
401.687354898
400.753348708
400.805911827
400.805911827
402.047210097
401.161723709
400.78973856
400.753348708
400.737175441
400.737175441
400.753348708

Block: 6
======================================
402.063383365
400.737175441
400.757392025
400.773565292
401.194070244
400.32880044
401.214286828
401.266849947
400.741218758
400.312627172
400.773565292
400.296453905
400.316670489
401.622661829
400.838258362
401.214286828
401.214286828
400.757392025
400.773565292
400.332843757
401.194070244
400.349017024
400.381363559
401.214286828
400.773565292

Block: 7
======================================
400.78973856
401.230460095
400.757392025
401.234503412
401.214286828
400.78973856
400.773565292
400.842301679
401.283023214
401.198113561
400.332843757
400.349017024
400.332843757
400.838258362
400.349017024
400.78973856
401.230460095
401.214286828
400.349017024
400.349017024
400.769521976
400.349017024
400.332843757
400.312627172
400.401580143

Block: 8
======================================
400.32880044
401.198113561
400.737175441
400.32880044
400.300497222
400.32880044
400.312627172
400.78973856
400.773565292
400.769521976
400.78973856
400.332843757
400.78973856
400.401580143
400.349017024
400.397536826
400.332843757
400.312627172
400.316670489
400.349017024
400.344973707
400.773565292
400.316670489
400.32880044
400.757392025

Block: 9
======================================
400.296453905
401.177896976
400.296453905
400.312627172
400.381363559
400.296453905
400.773565292
400.757392025
400.332843757
400.773565292
400.332843757
400.332843757
400.757392025
400.332843757
400.349017024
400.397536826
401.230460095
400.397536826
401.214286828
401.230460095
400.349017024
400.316670489
400.753348708
400.312627172
400.296453905

Block: 10
======================================
400.280280638
400.316670489
400.365190291
400.296453905
400.737175441
400.381363559
400.741218758
400.349017024
400.296453905
401.246633363
400.365190291
400.296453905
401.230460095
400.349017024
400.280280638
400.296453905
400.805911827
400.349017024
400.721002173
400.300497222
400.741218758
400.300497222
401.230460095
400.280280638
400.72504549
