
Block: 1
======================================
298.914907742
299.32547164
299.345796585
298.882387829
298.918972731

Block: 2
======================================
298.898647785
299.32547164
298.898647785
298.882387829
298.866127872

Block: 3
======================================
298.866127872
298.902712774
299.362056541
298.866127872
299.32547164

Block: 4
======================================
299.309211683
298.882387829
299.309211683
299.362056541
299.32547164

Block: 5
======================================
299.362056541
298.882387829
299.378316498
299.374251509
299.32547164

Block: 6
======================================
299.309211683
298.918972731
299.378316498
299.394576454
298.459628963

Block: 7
======================================
299.341731596
299.378316498
298.931167698
299.32547164
299.378316498

Block: 8
======================================
299.32547164
298.951492643
299.345796585
299.394576454
298.918972731

Block: 9
======================================
298.951492643
299.357991552
299.394576454
299.378316498
299.394576454

Block: 10
======================================
299.378316498
299.378316498
299.341731596
299.374251509
299.374251509
