
Block: 1
======================================
100.433481932
100.454131961
100.854742527
102.601734996
101.680743694
100.470651984
101.697263718
100.817572474
100.416961908
100.801052451
101.717913747
100.400441885
101.024072766
100.416961908
100.834092498
100.850612521
100.834092498
101.701393723
101.717913747
100.416961908
100.817572474
100.850612521
100.813442469
100.404571891
100.437611938
101.717913747
100.796922445
100.400441885
100.817572474
100.421091914
101.284263134
100.834092498
100.437611938
100.437611938
100.834092498
100.437611938
101.267743111
100.421091914
100.416961908
100.834092498
100.854742527
100.416961908
100.404571891
100.817572474
100.834092498
100.421091914
100.400441885
100.421091914
100.796922445
101.668353677
101.701393723
100.801052451
100.421091914
100.400441885
100.834092498
100.400441885
100.416961908
100.416961908
100.416961908
100.416961908
100.801052451
100.850612521
100.437611938
100.817572474
100.850612521
100.400441885
101.284263134
100.454131961
100.416961908
100.416961908
100.400441885
100.454131961
100.817572474
100.796922445
101.697263718

Average distance is : 100.786 cm
Average deviation is : 0.469 cm
Block: 2
======================================
101.701393723
100.850612521
100.834092498
100.887782574
100.421091914
100.834092498
100.400441885
100.416961908
100.813442469
100.817572474
101.664223671
100.421091914
100.416961908
100.437611938
100.834092498
101.234703064
101.267743111
100.454131961
100.416961908
100.433481932
100.813442469
100.850612521
100.437611938
100.400441885
100.421091914
101.251223087
100.801052451
100.416961908
101.6848737
100.437611938
100.796922445
100.817572474
100.416961908
100.867132545
101.267743111
100.416961908
100.433481932
100.404571891
101.284263134
100.437611938
100.416961908
101.697263718
100.813442469
100.437611938
100.437611938
100.801052451
101.701393723
101.267743111
100.817572474
100.834092498
100.404571891
100.421091914
100.421091914
100.437611938
100.400441885
100.416961908
100.400441885
100.817572474
100.416961908
100.433481932
100.416961908
100.817572474
101.214053035
100.421091914
100.817572474
100.813442469
100.416961908
100.421091914
101.284263134
100.400441885
100.400441885
100.437611938
100.416961908
100.796922445
100.383921862

Average distance is : 100.713 cm
Average deviation is : 0.384 cm
Block: 3
======================================
100.400441885
101.717913747
100.817572474
100.383921862
100.400441885
101.6848737
101.697263718
100.400441885
100.834092498
100.437611938
100.421091914
100.801052451
101.218183041
101.230573058
100.796922445
100.796922445
100.834092498
100.817572474
100.437611938
100.437611938
100.416961908
100.404571891
100.400441885
100.416961908
100.416961908
100.400441885
100.433481932
100.817572474
100.416961908
100.400441885
100.416961908
100.433481932
101.247093081
100.421091914
101.251223087
100.400441885
100.817572474
100.400441885
100.834092498
100.796922445
100.817572474
100.834092498
100.834092498
100.416961908
101.284263134
100.416961908
101.267743111
100.416961908
100.416961908
100.421091914
100.437611938
101.701393723
100.433481932
100.400441885
100.400441885
100.817572474
101.6848737
100.433481932
100.383921862
101.267743111
100.421091914
101.697263718
101.214053035
101.218183041
100.400441885
100.400441885
100.850612521
100.400441885
100.416961908
100.437611938
100.421091914
100.437611938
100.801052451
100.433481932
101.214053035

Average distance is : 100.719 cm
Average deviation is : 0.412 cm
Block: 4
======================================
100.454131961
100.416961908
100.834092498
100.421091914
100.834092498
100.834092498
100.416961908
100.850612521
100.433481932
100.416961908
100.416961908
100.421091914
100.400441885
100.437611938
100.817572474
101.267743111
101.664223671
100.421091914
100.433481932
101.267743111
100.454131961
101.701393723
100.87126255
100.437611938
100.850612521
100.817572474
100.796922445
100.400441885
100.416961908
100.817572474
101.267743111
100.400441885
100.400441885
100.383921862
101.701393723
101.284263134
100.383921862
100.817572474
101.701393723
100.437611938
100.416961908
101.230573058
100.421091914
101.251223087
100.817572474
101.6848737
100.817572474
100.416961908
100.437611938
101.680743694
100.834092498
100.437611938
100.813442469
101.680743694
100.416961908
100.421091914
100.817572474
100.433481932
100.437611938
100.416961908
100.383921862
101.251223087
100.400441885
101.234703064
100.437611938
101.284263134
100.400441885
100.850612521
100.421091914
100.784532428
100.796922445
101.247093081
101.251223087
101.6848737
101.230573058

Average distance is : 100.791 cm
Average deviation is : 0.435 cm
Block: 5
======================================
101.6848737
101.267743111
100.437611938
100.454131961
100.400441885
101.668353677
101.267743111
100.416961908
100.400441885
100.421091914
100.416961908
101.680743694
100.416961908
100.796922445
100.850612521
100.421091914
101.251223087
100.834092498
100.817572474
100.796922445
101.251223087
100.796922445
100.433481932
101.284263134
100.416961908
100.400441885
100.838222504
100.817572474
100.437611938
100.421091914
101.668353677
101.701393723
100.416961908
100.838222504
101.6848737
100.416961908
100.813442469
100.817572474
101.717913747
100.421091914
101.214053035
101.267743111
101.701393723
101.284263134
101.234703064
101.263613105
100.400441885
101.201663017
100.817572474
100.400441885
100.404571891
100.400441885
100.400441885
100.421091914
100.416961908
100.850612521
100.801052451
100.834092498
100.416961908
100.400441885
101.251223087
100.817572474
100.421091914
100.817572474
100.834092498
100.400441885
100.817572474
100.817572474
101.267743111
100.416961908
100.416961908
100.400441885
100.817572474
100.416961908
100.416961908

Average distance is : 100.810 cm
Average deviation is : 0.434 cm
Block: 6
======================================
100.796922445
101.284263134
100.383921862
101.300783157
101.214053035
100.404571891
100.416961908
100.838222504
101.701393723
101.247093081
101.6848737
100.796922445
101.218183041
101.251223087
100.433481932
100.433481932
101.300783157
101.680743694
100.801052451
100.817572474
100.834092498
100.796922445
100.801052451
101.680743694
100.400441885
101.234703064
100.817572474
100.801052451
100.817572474
100.421091914
100.416961908
100.817572474
101.214053035
100.817572474
100.400441885
101.230573058
101.701393723
100.834092498
101.651833653
100.796922445
100.416961908
100.383921862
101.230573058
100.404571891
100.796922445
100.400441885
100.817572474
101.701393723
100.813442469
100.416961908
100.850612521
100.887782574
100.817572474
100.421091914
100.801052451
101.6848737
100.400441885
101.267743111
101.218183041
100.400441885
101.6848737
100.850612521
101.247093081
100.817572474
101.664223671
100.437611938
100.817572474
100.817572474
100.421091914
101.6848737
100.437611938
100.383921862
100.433481932
101.668353677
100.817572474

Average distance is : 100.917 cm
Average deviation is : 0.442 cm
Block: 7
======================================
100.796922445
101.717913747
100.400441885
100.400441885
100.796922445
100.363271832
100.421091914
100.817572474
100.817572474
101.247093081
101.218183041
101.6848737
101.267743111
100.421091914
100.784532428
100.421091914
100.834092498
100.801052451
100.400441885
101.251223087
100.817572474
100.416961908
100.780402422
100.796922445
100.801052451
100.854742527
100.416961908
100.383921862
100.817572474
101.717913747
100.796922445
100.850612521
100.817572474
100.363271832
100.817572474
100.383921862
100.433481932
100.437611938
100.400441885
101.28839314
101.267743111
100.817572474
100.834092498
100.834092498
101.668353677
100.400441885
100.437611938
100.416961908
101.230573058
100.834092498
100.784532428
100.817572474
100.801052451
100.437611938
100.817572474
100.421091914
100.367401838
100.801052451
100.400441885
100.404571891
100.416961908
101.284263134
100.383921862
100.400441885
101.6848737
101.267743111
101.701393723
100.437611938
100.383921862
101.680743694
100.817572474
100.437611938
100.383921862
101.251223087
100.400441885

Average distance is : 100.786 cm
Average deviation is : 0.411 cm
Block: 8
======================================
100.801052451
100.400441885
100.834092498
100.768012404
100.437611938
100.367401838
101.197533011
100.400441885
100.834092498
100.421091914
100.796922445
100.796922445
101.697263718
100.416961908
100.404571891
101.6848737
100.834092498
100.416961908
101.251223087
100.817572474
100.383921862
100.834092498
100.416961908
101.214053035
100.416961908
100.801052451
101.701393723
100.834092498
100.817572474
100.400441885
100.383921862
100.817572474
100.421091914
101.214053035
100.383921862
100.817572474
101.234703064
100.437611938
100.400441885
100.796922445
100.796922445
100.367401838
101.680743694
101.230573058
100.801052451
100.817572474
101.234703064
100.416961908
100.400441885
101.251223087
101.267743111
100.817572474
100.850612521
100.813442469
100.850612521
100.416961908
100.780402422
101.680743694
101.267743111
100.400441885
101.680743694
101.680743694
101.214053035
100.400441885
101.680743694
100.400441885
100.400441885
100.404571891
100.400441885
101.284263134
101.701393723
100.801052451
100.404571891
100.421091914
100.416961908

Average distance is : 100.823 cm
Average deviation is : 0.436 cm
Block: 9
======================================
100.383921862
100.813442469
100.363271832
100.801052451
101.267743111
101.251223087
100.421091914
100.801052451
100.421091914
100.813442469
100.437611938
100.437611938
101.230573058
100.817572474
100.850612521
100.796922445
100.817572474
100.454131961
100.383921862
100.437611938
100.817572474
100.801052451
100.416961908
100.817572474
100.817572474
100.421091914
100.796922445
101.701393723
100.421091914
100.416961908
100.801052451
100.383921862
100.383921862
100.817572474
100.404571891
100.421091914
100.834092498
100.421091914
100.817572474
100.801052451
100.416961908
100.817572474
100.801052451
100.400441885
100.817572474
100.383921862
101.668353677
100.421091914
101.214053035
100.416961908
100.784532428
100.817572474
101.284263134
100.400441885
100.400441885
101.701393723
100.400441885
100.838222504
100.850612521
101.668353677
100.416961908
100.817572474
101.251223087
100.817572474
100.817572474
100.383921862
100.400441885
100.87126255
101.251223087
100.834092498
100.383921862
101.284263134
100.404571891
100.834092498
100.400441885

Average distance is : 100.736 cm
Average deviation is : 0.357 cm
Block: 10
======================================
100.416961908
100.454131961
100.433481932
101.668353677
100.433481932
101.680743694
101.251223087
100.404571891
100.817572474
100.834092498
100.854742527
100.416961908
100.416961908
101.664223671
100.367401838
101.267743111
101.263613105
100.838222504
100.796922445
101.230573058
101.300783157
100.437611938
101.701393723
100.383921862
100.433481932
101.701393723
101.251223087
101.218183041
101.701393723
100.87126255
100.817572474
100.416961908
100.437611938
101.6848737
100.834092498
101.717913747
101.6848737
101.230573058
100.404571891
100.454131961
101.230573058
100.834092498
101.664223671
100.796922445
101.701393723
100.416961908
100.400441885
101.304913163
101.234703064
100.867132545
100.437611938
100.454131961
100.834092498
100.454131961
101.717913747
100.817572474
100.454131961
100.817572474
101.267743111
100.433481932
101.267743111
100.433481932
100.400441885
100.834092498
100.416961908
100.433481932
100.433481932
100.850612521
100.796922445
100.780402422
100.867132545
100.400441885
100.817572474
100.817572474
101.247093081

Average distance is : 100.895 cm
Average deviation is : 0.461 cm
Average distance for 10x75 is : 100.798 cm
Average deviation for 10x75 is : 0.424 cm
 Percentage of values that failed: 0.000