
Block: 1
======================================
300.500253487
301.044962025
300.569358301
300.557163334
300.553098345
300.57342329
300.622203159
300.979922199
301.443330956
301.42300601
300.979922199
300.996182156
301.012442112
300.996182156
300.996182156
300.536838388
301.000247145
301.016507101
300.996182156
301.439265966
301.459590912
300.585618258
301.032767057
300.553098345
301.000247145
300.57342329
300.585618258
300.553098345
301.016507101
301.012442112
301.012442112
301.000247145
300.638463116
300.553098345
301.000247145
300.536838388
300.569358301
301.459590912
301.471785879
301.012442112
300.569358301
301.459590912
300.996182156
300.57342329
300.553098345
301.524630737
301.000247145
300.622203159
301.016507101
301.471785879

Block: 2
======================================
301.459590912
300.57342329
300.642528105
301.032767057
300.57342329
300.536838388
300.654723072
300.996182156
300.553098345
301.455525923
300.638463116
300.516513443
300.996182156
300.585618258
301.42300601
300.996182156
301.016507101
301.455525923
300.536838388
300.569358301
300.553098345
300.569358301
300.61813817
300.553098345
301.000247145
300.622203159
300.569358301
300.996182156
301.016507101
301.032767057
301.439265966
300.569358301
300.979922199
301.000247145
300.57342329
301.012442112
301.000247145
300.57342329
301.443330956
300.996182156
300.979922199
301.000247145
300.569358301
301.012442112
301.443330956
301.439265966
300.553098345
301.000247145
301.012442112
300.553098345

Block: 3
======================================
300.622203159
300.553098345
300.569358301
300.622203159
300.553098345
300.57342329
300.553098345
300.601878214
300.57342329
301.016507101
300.642528105
300.57342329
301.032767057
301.443330956
301.443330956
300.585618258
300.638463116
300.622203159
301.443330956
300.605943203
300.638463116
300.585618258
300.557163334
300.553098345
300.553098345
300.996182156
301.06528697
301.459590912
301.455525923
301.455525923
300.622203159
300.589683247
301.455525923
301.439265966
300.601878214
300.57342329
300.569358301
300.585618258
301.475850868
300.536838388
300.589683247
301.475850868
300.642528105
300.57342329
300.642528105
300.622203159
301.439265966
300.569358301
301.459590912
301.455525923

Block: 4
======================================
301.443330956
300.553098345
300.589683247
301.012442112
301.000247145
300.605943203
301.459590912
301.455525923
300.792932701
301.000247145
300.57342329
300.553098345
300.569358301
300.553098345
300.601878214
300.658788061
300.996182156
300.996182156
300.654723072
300.553098345
300.553098345
300.557163334
300.57342329
300.996182156
300.569358301
300.553098345
301.012442112
301.000247145
300.569358301
301.459590912
300.996182156
301.459590912
300.57342329
300.622203159
300.622203159
301.459590912
301.049027014
300.622203159
301.455525923
300.57342329
300.569358301
301.000247145
301.012442112
301.459590912
301.032767057
301.475850868
301.097806883
301.471785879
300.536838388
300.553098345

Block: 5
======================================
300.569358301
300.996182156
301.000247145
300.553098345
301.427070999
300.996182156
301.081546926
301.085611916
300.553098345
300.536838388
301.032767057
300.996182156
300.557163334
300.553098345
301.012442112
300.996182156
300.996182156
301.032767057
301.012442112
301.475850868
301.459590912
300.996182156
300.553098345
300.57342329
301.012442112
300.557163334
300.536838388
300.569358301
301.016507101
300.569358301
300.553098345
300.983987188
301.049027014
300.996182156
300.996182156
301.012442112
301.016507101
300.979922199
301.475850868
300.553098345
301.000247145
300.983987188
300.996182156
300.569358301
301.000247145
300.553098345
301.443330956
301.455525923
301.439265966
301.049027014

Block: 6
======================================
301.012442112
301.459590912
300.638463116
301.032767057
300.569358301
300.557163334
300.57342329
300.589683247
301.012442112
301.032767057
301.488045835
301.032767057
301.028702068
300.553098345
301.459590912
301.492110825
300.569358301
300.569358301
300.585618258
301.012442112
301.028702068
300.569358301
301.012442112
300.996182156
301.016507101
301.459590912
300.585618258
301.032767057
301.097806883
301.032767057
300.569358301
300.569358301
301.032767057
300.585618258
300.569358301
300.622203159
301.032767057
300.585618258
300.569358301
301.032767057
300.605943203
300.57342329
300.589683247
300.589683247
301.032767057
300.585618258
301.081546926
301.475850868
301.524630737
300.569358301

Block: 7
======================================
300.57342329
300.585618258
300.589683247
300.601878214
300.585618258
301.471785879
301.475850868
301.475850868
300.569358301
300.569358301
300.585618258
300.553098345
301.028702068
301.101871872
300.585618258
300.589683247
300.601878214
301.918934679
300.585618258
300.557163334
301.016507101
301.016507101
301.032767057
301.028702068
301.012442112
301.016507101
300.57342329
300.605943203
300.553098345
300.605943203
301.012442112
301.032767057
301.101871872
301.032767057
300.585618258
301.540890694
300.585618258
300.569358301
301.016507101
301.049027014
301.012442112
301.032767057
301.085611916
300.57342329
301.081546926
301.016507101
301.049027014
300.57342329
300.585618258
301.06528697

Block: 8
======================================
300.569358301
301.012442112
301.081546926
301.06528697
300.589683247
301.455525923
300.569358301
301.118131828
300.569358301
301.016507101
301.032767057
300.569358301
301.012442112
301.016507101
301.012442112
300.553098345
300.569358301
301.032767057
301.016507101
301.524630737
301.012442112
301.032767057
301.016507101
301.049027014
301.016507101
300.589683247
301.032767057
301.016507101
300.553098345
300.605943203
301.492110825
301.028702068
301.012442112
301.492110825
301.114066839
301.492110825
301.475850868
301.492110825
301.475850868
300.605943203
301.028702068
301.044962025
301.016507101
301.488045835
300.589683247
301.032767057
301.06528697
301.097806883
300.605943203
301.032767057

Block: 9
======================================
301.06528697
300.638463116
300.622203159
301.049027014
301.492110825
301.032767057
301.012442112
300.605943203
301.492110825
301.471785879
301.032767057
301.032767057
301.118131828
301.101871872
300.996182156
301.455525923
301.492110825
300.605943203
301.032767057
301.475850868
301.475850868
300.585618258
300.585618258
301.049027014
300.589683247
301.049027014
301.028702068
301.475850868
301.028702068
300.622203159
301.016507101
300.605943203
301.028702068
300.605943203
301.032767057
300.589683247
301.475850868
300.57342329
301.475850868
300.553098345
301.028702068
301.032767057
301.032767057
301.471785879
301.028702068
300.585618258
301.044962025
301.028702068
301.028702068
301.016507101

Block: 10
======================================
301.475850868
301.028702068
301.471785879
300.792932701
301.049027014
300.589683247
300.589683247
301.032767057
301.471785879
301.032767057
300.605943203
301.028702068
301.028702068
300.589683247
300.601878214
301.032767057
301.044962025
300.569358301
301.049027014
301.931129646
301.049027014
301.049027014
301.044962025
301.097806883
302.36201849
301.492110825
301.459590912
300.622203159
301.488045835
301.471785879
300.585618258
301.508370781
301.028702068
301.06528697
301.118131828
300.569358301
301.032767057
301.032767057
301.081546926
300.57342329
301.049027014
301.097806883
301.06528697
301.492110825
301.049027014
301.114066839
301.032767057
301.044962025
301.118131828
301.488045835
