
Block: 1
======================================
301.455525923
300.589683247
301.471785879
300.585618258
301.06528697
300.589683247
301.044962025
301.492110825
300.654723072
301.492110825
301.049027014
300.585618258
301.492110825
300.605943203
301.044962025
300.622203159
300.675048018
301.475850868
300.658788061
301.492110825
301.081546926
300.585618258
300.622203159
300.642528105
300.553098345
301.475850868
301.492110825
300.670983028
300.670983028
301.492110825
301.081546926
301.028702068
301.032767057
301.032767057
301.049027014
301.049027014
300.670983028
300.691307974
301.049027014
301.492110825
301.06528697
301.06528697
301.049027014
300.605943203
300.605943203
300.589683247
300.589683247
301.032767057
301.049027014
300.605943203
300.654723072
301.492110825
301.032767057
300.585618258
301.06528697
300.605943203
301.918934679
300.569358301
301.028702068
300.589683247
301.032767057
300.585618258
300.589683247
300.589683247
301.028702068
301.032767057
300.553098345
301.492110825
300.569358301
300.57342329
300.589683247
301.06528697
300.605943203
300.553098345
301.032767057

Block: 2
======================================
301.032767057
301.049027014
301.032767057
301.049027014
301.06528697
301.049027014
301.044962025
301.032767057
301.049027014
300.585618258
301.049027014
300.605943203
300.589683247
300.605943203
300.605943203
300.601878214
301.130326796
300.605943203
300.589683247
301.475850868
301.475850868
301.492110825
300.589683247
300.605943203
301.049027014
301.475850868
300.675048018
300.605943203
301.049027014
300.57342329
300.589683247
300.589683247
300.601878214
301.044962025
301.06528697
301.049027014
301.492110825
300.589683247
300.589683247
300.605943203
301.044962025
301.06528697
301.049027014
301.049027014
301.06528697
301.492110825
300.654723072
300.585618258
300.670983028
300.654723072
300.57342329
300.585618258
300.585618258
300.605943203
300.638463116
301.049027014
300.585618258
301.032767057
300.585618258
301.097806883
301.032767057
300.585618258
301.049027014
301.028702068
300.585618258
300.605943203
301.049027014
300.557163334
301.032767057
301.016507101
300.589683247
301.118131828
300.57342329
300.589683247
300.589683247

Block: 3
======================================
300.601878214
301.488045835
301.524630737
301.492110825
301.049027014
301.049027014
300.589683247
301.118131828
301.508370781
300.691307974
300.605943203
301.471785879
300.605943203
301.492110825
301.049027014
300.605943203
301.049027014
300.605943203
300.57342329
300.569358301
300.605943203
300.589683247
300.589683247
301.032767057
300.57342329
300.57342329
300.57342329
300.622203159
301.032767057
300.569358301
300.585618258
301.101871872
301.114066839
300.585618258
300.601878214
300.569358301
300.658788061
300.569358301
301.032767057
300.589683247
300.57342329
300.589683247
301.101871872
300.585618258
300.605943203
301.032767057
300.585618258
301.118131828
301.492110825
301.492110825
301.475850868
301.471785879
300.601878214
300.605943203
301.049027014
300.57342329
301.032767057
301.032767057
300.589683247
300.57342329
301.044962025
300.589683247
300.569358301
300.569358301
300.589683247
301.028702068
300.589683247
301.028702068
301.044962025
301.012442112
301.032767057
301.475850868
300.601878214
300.638463116
300.585618258

Block: 4
======================================
300.638463116
301.049027014
300.585618258
300.569358301
300.622203159
300.638463116
300.589683247
301.049027014
300.589683247
300.605943203
301.032767057
300.585618258
300.589683247
300.57342329
300.585618258
301.028702068
300.585618258
301.028702068
300.589683247
300.585618258
300.589683247
300.605943203
301.032767057
300.589683247
300.605943203
301.459590912
301.114066839
301.097806883
300.57342329
301.032767057
300.585618258
300.569358301
300.605943203
301.475850868
301.081546926
300.569358301
300.658788061
300.569358301
300.658788061
301.492110825
300.589683247
300.605943203
301.101871872
300.589683247
300.585618258
300.601878214
301.049027014
301.012442112
301.012442112
301.508370781
301.492110825
301.492110825
300.589683247
300.553098345
301.492110825
302.378278446
300.622203159
301.455525923
301.492110825
301.488045835
301.06528697
300.585618258
300.57342329
300.585618258
300.569358301
300.585618258
300.589683247
301.06528697
300.57342329
300.569358301
301.032767057
301.028702068
300.589683247
301.032767057
300.589683247

Block: 5
======================================
301.475850868
301.016507101
301.459590912
300.585618258
301.049027014
300.589683247
301.028702068
300.605943203
301.049027014
301.032767057
301.032767057
300.605943203
301.028702068
302.36201849
301.028702068
300.589683247
301.028702068
301.049027014
301.097806883
301.032767057
300.605943203
301.459590912
301.032767057
301.118131828
301.028702068
301.475850868
301.455525923
301.049027014
301.492110825
301.028702068
301.028702068
301.012442112
301.016507101
301.032767057
301.049027014
300.57342329
300.894557428
301.032767057
300.589683247
301.471785879
301.032767057
301.032767057
301.032767057
301.049027014
301.032767057
301.032767057
300.589683247
300.605943203
301.028702068
301.101871872
300.589683247
300.569358301
300.589683247
301.032767057
301.049027014
300.57342329
300.585618258
301.118131828
301.114066839
301.114066839
300.601878214
301.028702068
301.049027014
300.585618258
301.032767057
301.049027014
300.622203159
301.097806883
300.589683247
300.605943203
301.06528697
300.589683247
301.528695726
301.475850868
301.081546926

Block: 6
======================================
300.589683247
301.049027014
301.044962025
301.028702068
301.016507101
300.589683247
301.101871872
301.012442112
301.097806883
301.475850868
300.569358301
301.561215639
301.032767057
300.57342329
300.605943203
300.585618258
301.049027014
301.044962025
300.569358301
300.585618258
300.687242985
301.114066839
301.032767057
300.675048018
301.508370781
301.508370781
301.06528697
301.049027014
301.06528697
301.508370781
301.049027014
300.622203159
301.049027014
300.589683247
300.605943203
300.675048018
300.585618258
300.585618258
301.06528697
300.601878214
300.585618258
301.032767057
301.049027014
301.049027014
300.740087843
300.569358301
300.589683247
301.028702068
301.508370781
300.605943203
301.118131828
300.585618258
301.475850868
301.028702068
300.622203159
300.589683247
301.475850868
300.605943203
300.589683247
301.032767057
300.57342329
301.097806883
301.118131828
301.049027014
300.585618258
300.589683247
301.097806883
301.475850868
300.585618258
301.475850868
301.049027014
301.097806883
301.475850868
301.455525923
300.642528105

Block: 7
======================================
301.028702068
301.044962025
301.471785879
301.016507101
301.049027014
301.475850868
300.605943203
301.097806883
301.475850868
301.049027014
301.488045835
301.471785879
301.114066839
301.101871872
300.601878214
300.622203159
300.622203159
300.589683247
300.569358301
300.585618258
301.049027014
301.471785879
301.032767057
301.475850868
301.028702068
301.032767057
301.028702068
301.016507101
300.589683247
301.032767057
301.032767057
301.471785879
301.455525923
301.044962025
301.049027014
300.585618258
300.589683247
301.097806883
301.114066839
300.605943203
301.097806883
300.605943203
300.57342329
300.589683247
300.589683247
301.097806883
301.475850868
300.605943203
301.935194635
301.471785879
300.585618258
300.585618258
301.028702068
301.028702068
300.622203159
301.471785879
301.475850868
301.06528697
300.93114233
301.097806883
301.114066839
301.114066839
301.488045835
301.028702068
300.622203159
301.016507101
301.044962025
301.012442112
301.475850868
301.049027014
301.114066839
301.118131828
301.028702068
301.049027014
301.097806883

Block: 8
======================================
301.028702068
301.032767057
301.028702068
301.028702068
301.049027014
300.57342329
301.508370781
301.475850868
301.492110825
301.032767057
301.508370781
301.049027014
301.032767057
301.118131828
301.032767057
301.049027014
300.605943203
300.569358301
302.378278446
300.585618258
300.585618258
301.06528697
301.049027014
300.605943203
301.016507101
301.097806883
301.081546926
301.049027014
300.601878214
301.06528697
301.049027014
300.638463116
301.166911697
301.049027014
301.492110825
301.028702068
301.508370781
301.134391785
301.049027014
301.06528697
301.492110825
301.492110825
301.488045835
300.622203159
301.06528697
301.06528697
300.605943203
300.605943203
301.028702068
301.032767057
301.492110825
301.492110825
301.06528697
301.049027014
301.049027014
301.492110825
301.492110825
301.118131828
300.601878214
300.638463116
301.492110825
300.638463116
301.508370781
301.049027014
301.049027014
301.049027014
301.492110825
300.589683247
300.622203159
300.605943203
301.081546926
301.524630737
301.06528697
301.508370781
301.06528697

Block: 9
======================================
300.605943203
301.06528697
301.544955683
301.06528697
301.049027014
301.012442112
301.06528697
301.049027014
300.605943203
300.605943203
300.605943203
301.069351959
300.605943203
301.049027014
300.605943203
301.028702068
301.06528697
300.605943203
301.049027014
301.06528697
301.06528697
301.032767057
301.06528697
300.605943203
300.605943203
301.475850868
300.622203159
301.049027014
301.06528697
301.081546926
300.622203159
301.524630737
300.605943203
301.577475595
301.081546926
301.06528697
301.508370781
300.638463116
300.622203159
300.622203159
301.150651741
300.605943203
301.524630737
301.028702068
301.134391785
301.130326796
300.622203159
300.638463116
301.081546926
301.049027014
301.488045835
300.601878214
301.118131828
301.508370781
301.085611916
301.06528697
301.06528697
301.492110825
301.524630737
301.06528697
301.069351959
300.605943203
301.508370781
301.528695726
301.508370781
301.130326796
300.605943203
301.508370781
301.06528697
300.622203159
300.605943203
301.524630737
301.06528697
300.622203159
301.06528697

Block: 10
======================================
300.691307974
301.951454592
300.622203159
300.622203159
300.622203159
301.508370781
300.654723072
301.049027014
300.605943203
301.06528697
300.622203159
300.605943203
301.166911697
300.638463116
300.691307974
300.687242985
300.638463116
300.638463116
300.622203159
300.642528105
300.654723072
300.675048018
301.508370781
301.540890694
301.524630737
301.540890694
301.049027014
301.081546926
300.638463116
300.638463116
300.642528105
301.508370781
301.51243577
300.675048018
300.61813817
301.150651741
301.101871872
300.687242985
300.642528105
301.528695726
301.524630737
300.622203159
300.61813817
300.687242985
301.528695726
301.508370781
301.06528697
300.638463116
300.70756793
300.654723072
300.70756793
300.691307974
301.06528697
301.081546926
301.508370781
301.081546926
300.605943203
301.06528697
301.508370781
301.524630737
300.638463116
300.638463116
300.622203159
300.622203159
300.638463116
300.654723072
300.638463116
301.049027014
300.675048018
301.097806883
301.150651741
300.638463116
301.524630737
301.524630737
300.638463116
