
Block: 1
======================================
299.719775581
299.719775581
299.272626781
299.240106869
299.68319068
299.68319068
299.719775581
299.736035538
299.32547164
299.719775581
299.719775581
299.699450636
299.703515625
299.736035538
299.703515625
299.68319068
299.260431814
299.703515625
299.68319068
299.276691771
299.703515625
299.309211683
299.736035538
299.272626781
299.687255669
299.703515625
299.719775581
299.715710592
299.309211683
299.736035538
299.719775581
299.699450636
299.256366825
299.719775581
299.719775581
299.719775581
299.736035538
299.276691771
299.699450636
299.260431814
299.719775581
299.68319068
299.699450636
299.719775581
299.719775581
299.719775581
299.736035538
299.703515625
299.719775581
299.719775581

Average distance is : 299.617 cm
Average deviation is : 0.183 cm
Block: 2
======================================
299.703515625
299.703515625
299.752295494
299.719775581
299.240106869
299.715710592
299.703515625
299.703515625
299.736035538
299.256366825
299.272626781
299.256366825
299.276691771
299.240106869
299.715710592
299.736035538
299.715710592
299.292951727
299.256366825
299.703515625
299.715710592
299.666930723
299.719775581
299.292951727
299.715710592
298.83360796
299.719775581
299.736035538
299.703515625
299.715710592
299.260431814
299.687255669
299.288886738
299.687255669
299.292951727
299.699450636
299.260431814
299.715710592
299.736035538
299.736035538
299.309211683
299.288886738
299.292951727
299.309211683
299.703515625
299.699450636
299.699450636
299.260431814
299.292951727
299.719775581

Average distance is : 299.529 cm
Average deviation is : 0.236 cm
Block: 3
======================================
299.703515625
299.666930723
299.223846912
299.699450636
299.68319068
299.687255669
299.260431814
299.240106869
299.256366825
299.703515625
299.703515625
299.687255669
299.703515625
299.699450636
299.256366825
299.256366825
299.715710592
299.719775581
299.597825909
299.256366825
299.650670767
299.240106869
299.666930723
299.715710592
299.68319068
299.68319068
299.703515625
299.687255669
299.670995712
299.68319068
299.650670767
299.223846912
299.703515625
299.666930723
299.260431814
299.699450636
299.260431814
299.650670767
299.650670767
299.666930723
299.223846912
299.223846912
299.703515625
299.719775581
299.666930723
299.703515625
299.715710592
299.68319068
299.687255669
299.687255669

Average distance is : 299.571 cm
Average deviation is : 0.197 cm
Block: 4
======================================
299.68319068
299.68319068
299.650670767
299.666930723
299.244171858
299.68319068
299.223846912
299.666930723
299.240106869
299.68319068
299.666930723
299.699450636
299.666930723
299.666930723
299.223846912
299.207586956
299.666930723
299.68319068
299.703515625
299.699450636
299.223846912
299.68319068
299.699450636
299.68319068
299.223846912
299.719775581
299.666930723
299.666930723
299.223846912
299.260431814
299.715710592
299.666930723
299.68319068
299.699450636
299.650670767
299.703515625
299.223846912
299.240106869
299.699450636
299.699450636
299.650670767
299.699450636
299.256366825
299.666930723
299.68319068
299.736035538
299.687255669
299.223846912
299.240106869
299.223846912

Average distance is : 299.548 cm
Average deviation is : 0.210 cm
Block: 5
======================================
299.68319068
299.736035538
299.68319068
299.715710592
299.256366825
299.292951727
299.687255669
299.68319068
299.699450636
299.276691771
299.68319068
299.68319068
299.207586956
299.687255669
299.240106869
299.240106869
299.256366825
299.703515625
299.223846912
299.68319068
299.244171858
299.699450636
299.666930723
299.240106869
299.650670767
299.650670767
299.68319068
299.244171858
299.207586956
299.666930723
299.256366825
299.687255669
299.68319068
299.719775581
299.240106869
299.687255669
299.240106869
299.240106869
299.276691771
299.666930723
299.63441081
299.699450636
299.223846912
299.256366825
299.260431814
299.68319068
299.276691771
299.687255669
299.699450636
299.272626781

Average distance is : 299.493 cm
Average deviation is : 0.220 cm
Block: 6
======================================
299.68319068
299.670995712
299.68319068
299.223846912
299.650670767
299.699450636
299.699450636
299.699450636
299.68319068
299.666930723
299.650670767
299.240106869
299.240106869
299.687255669
299.260431814
299.666930723
299.699450636
299.719775581
299.256366825
299.68319068
299.68319068
299.687255669
299.260431814
299.276691771
299.260431814
299.260431814
299.207586956
299.276691771
299.666930723
299.256366825
299.687255669
299.68319068
299.292951727
299.223846912
299.666930723
299.244171858
299.244171858
299.699450636
299.703515625
299.68319068
299.244171858
299.207586956
299.292951727
299.719775581
299.699450636
299.68319068
299.272626781
299.687255669
299.272626781
299.699450636

Average distance is : 299.504 cm
Average deviation is : 0.217 cm
Block: 7
======================================
299.666930723
299.276691771
299.666930723
299.666930723
299.256366825
299.68319068
299.68319068
299.719775581
299.68319068
299.687255669
299.68319068
299.272626781
299.719775581
299.309211683
299.276691771
299.272626781
299.719775581
299.292951727
299.292951727
299.309211683
299.292951727
299.292951727
299.719775581
299.292951727
298.849867916
299.736035538
299.703515625
299.272626781
299.68319068
299.719775581
299.68319068
299.687255669
299.715710592
299.687255669
299.68319068
299.256366825
299.699450636
299.309211683
299.699450636
299.703515625
299.699450636
299.687255669
299.699450636
299.309211683
299.260431814
299.260431814
299.244171858
299.719775581
299.272626781
299.32547164

Average distance is : 299.506 cm
Average deviation is : 0.226 cm
Block: 8
======================================
299.256366825
299.240106869
299.699450636
299.699450636
299.715710592
299.272626781
299.256366825
299.703515625
299.68319068
299.666930723
299.719775581
299.699450636
299.703515625
299.703515625
299.666930723
299.666930723
299.703515625
299.256366825
299.699450636
299.719775581
299.68319068
299.719775581
299.666930723
299.68319068
299.650670767
299.719775581
299.666930723
299.703515625
299.666930723
299.687255669
299.666930723
299.207586956
299.223846912
299.260431814
299.715710592
299.227911901
299.699450636
299.687255669
299.699450636
299.703515625
299.650670767
299.666930723
299.256366825
299.666930723
299.240106869
299.68319068
299.703515625
299.68319068
299.666930723
299.699450636

Average distance is : 299.592 cm
Average deviation is : 0.187 cm
Block: 9
======================================
299.68319068
299.666930723
299.68319068
299.666930723
299.240106869
299.240106869
299.687255669
299.666930723
299.837660265
299.703515625
299.223846912
299.68319068
299.68319068
299.666930723
299.207586956
299.699450636
299.666930723
299.650670767
299.687255669
299.666930723
299.666930723
299.223846912
299.687255669
299.666930723
299.207586956
299.223846912
299.223846912
299.666930723
299.68319068
299.650670767
299.719775581
299.63441081
299.699450636
299.650670767
299.68319068
299.666930723
299.666930723
299.666930723
299.670995712
299.207586956
299.256366825
299.670995712
299.666930723
299.687255669
299.240106869
299.207586956
299.687255669
299.207586956
299.191327
299.650670767

Average distance is : 299.551 cm
Average deviation is : 0.209 cm
Block: 10
======================================
299.207586956
299.650670767
299.666930723
299.687255669
299.666930723
299.650670767
299.63441081
299.646605778
299.650670767
299.68319068
299.703515625
299.687255669
299.650670767
299.191327
299.68319068
299.666930723
299.650670767
299.614085865
299.630345821
299.650670767
299.650670767
299.63441081
299.666930723
299.650670767
299.666930723
299.63441081
299.650670767
299.666930723
299.666930723
299.670995712
299.187262011
299.687255669
299.223846912
299.223846912
299.207586956
299.203521967
299.646605778
299.666930723
299.630345821
299.650670767
299.650670767
299.630345821
299.63441081
299.650670767
299.666930723
299.68319068
299.650670767
299.63441081
299.666930723
299.650670767

Average distance is : 299.594 cm
Average deviation is : 0.159 cm