
Block: 1
======================================
400.672482371
400.672482371
400.231760836
401.129377174
400.247934103
401.145550442
401.129377174
400.26410737
401.145550442
400.688655639
400.26410737
401.57009871
400.26410737
401.129377174
400.688655639
401.129377174
401.145550442
400.672482371
400.247934103
401.586271977
401.129377174
400.672482371
402.41515193
401.113203907
400.704828906
401.125333858
400.672482371
401.57009871
400.688655639
401.974430394
401.092987323
401.978473711
400.672482371
401.549882126
402.807353663
400.63609252
400.652265787
400.63609252
401.09703064
401.09703064
401.09703064
401.549882126
401.060640788
401.076814055
401.092987323
401.09703064
400.619919252
401.517535591
401.076814055
401.501362324
401.501362324
401.080857372
401.080857372
401.469015789
401.962300444
401.925910592
401.080857372
401.092987323
401.501362324
401.076814055
401.064684105
400.619919252
401.501362324
400.63609252
400.652265787
401.076814055
400.63609252
400.599702668
401.076814055
400.63609252
401.060640788
401.501362324
400.63609252
401.060640788
402.807353663
401.064684105
400.603745985
401.076814055
402.366632128
401.060640788
401.044467521
400.619919252
400.583529401
401.060640788
400.603745985
400.583529401
400.619919252
401.060640788
401.060640788
400.163024449
401.925910592
400.158981133
400.603745985
400.179197717
401.040424204
400.163024449
401.064684105
400.587572718
401.028294253
400.603745985

Block: 2
======================================
400.583529401
401.028294253
400.603745985
401.889520741
400.583529401
402.330242276
400.551182866
400.603745985
402.738617277
401.464972472
401.028294253
400.567356133
400.583529401
400.583529401
401.012120986
401.008077669
401.008077669
401.469015789
400.995947719
400.57139945
400.567356133
400.587572718
401.893564057
400.567356133
401.87739079
401.012120986
401.024250937
401.469015789
401.024250937
401.044467521
401.012120986
400.991904402
401.469015789
401.012120986
401.028294253
401.469015789
401.485189056
400.599702668
400.587572718
400.567356133
400.603745985
401.452842522
400.603745985
400.603745985
402.334285593
401.485189056
401.028294253
401.012120986
401.469015789
401.925910592
401.448799205
401.028294253
401.024250937
401.464972472
402.334285593
401.028294253
401.501362324
402.370675445
400.603745985
400.619919252
401.044467521
401.044467521
401.044467521
400.158981133
401.501362324
401.501362324
400.603745985
400.179197717
401.044467521
400.619919252
400.619919252
400.603745985
401.517535591
401.521578908
401.060640788
401.080857372
400.603745985
400.619919252
401.501362324
400.603745985
401.076814055
400.619919252
401.962300444
400.599702668
400.603745985
401.076814055
400.587572718
400.603745985
400.603745985
400.619919252
400.603745985
401.060640788
401.092987323
400.603745985
401.060640788
400.623962569
402.382805395
400.603745985
401.060640788
401.076814055

Block: 3
======================================
402.823526931
401.994646978
401.145550442
400.656309104
401.586271977
401.113203907
400.672482371
400.704828906
401.553925443
401.606488562
401.602445245
401.113203907
401.586271977
401.586271977
401.586271977
401.145550442
401.113203907
401.566055393
400.688655639
401.602445245
401.994646978
402.010820246
401.129377174
401.129377174
400.704828906
400.704828906
401.145550442
401.994646978
401.125333858
400.72504549
400.704828906
401.145550442
400.280280638
400.721002173
400.280280638
400.721002173
400.704828906
400.737175441
401.586271977
400.280280638
401.145550442
400.704828906
400.721002173
400.721002173
400.737175441
400.721002173
401.129377174
401.586271977
400.296453905
400.72504549
400.72504549
400.280280638
401.198113561
401.194070244
400.721002173
400.316670489
400.316670489
400.312627172
400.316670489
401.181940293
400.769521976
400.316670489
400.312627172
400.296453905
400.296453905
400.737175441
400.300497222
401.161723709
400.296453905
401.602445245
400.296453905
400.757392025
400.316670489
400.312627172
400.332843757
400.300497222
400.296453905
400.312627172
400.753348708
400.296453905
400.296453905
400.300497222
400.741218758
400.280280638
400.721002173
400.737175441
400.704828906
402.006776929
400.737175441
400.284323955
400.284323955
400.737175441
400.72504549
400.300497222
401.145550442
400.296453905
402.026993513
400.704828906
401.165767026
400.757392025

Block: 4
======================================
400.721002173
400.26410737
401.145550442
400.296453905
402.006776929
400.721002173
401.57009871
402.010820246
401.161723709
400.704828906
400.247934103
401.161723709
401.57009871
400.296453905
400.684612322
400.721002173
402.010820246
400.296453905
402.010820246
400.247934103
401.10916059
401.586271977
400.721002173
400.26410737
400.284323955
400.708872223
400.72504549
400.704828906
400.247934103
400.247934103
400.26410737
401.129377174
400.721002173
401.549882126
400.704828906
400.704828906
400.721002173
400.247934103
400.26410737
400.704828906
401.549882126
401.145550442
400.704828906
400.26410737
400.704828906
400.247934103
401.962300444
401.129377174
400.688655639
400.704828906
401.994646978
401.129377174
401.533708858
401.09703064
400.656309104
400.652265787
401.092987323
400.652265787
401.113203907
401.09703064
400.656309104
400.672482371
401.533708858
401.533708858
402.382805395
401.113203907
400.652265787
401.092987323
401.092987323
400.652265787
400.652265787
400.63609252
401.080857372
402.386848712
401.537752175
400.619919252
400.668439054
401.517535591
402.807353663
401.092987323
401.076814055
401.060640788
400.640135837
401.060640788
402.382805395
401.076814055
401.076814055
400.656309104
401.553925443
401.092987323
401.958257127
400.656309104
401.080857372
401.553925443
401.537752175
400.63609252
400.63609252
401.092987323
402.823526931
401.076814055

Block: 5
======================================
401.060640788
400.619919252
401.064684105
401.517535591
401.060640788
401.080857372
401.076814055
400.63609252
401.09703064
401.060640788
400.668439054
401.09703064
401.537752175
401.517535591
401.092987323
401.080857372
401.076814055
400.652265787
401.092987323
402.382805395
401.076814055
401.113203907
400.227717519
401.958257127
401.10916059
400.63609252
401.942083859
400.672482371
401.549882126
400.688655639
400.668439054
400.672482371
401.076814055
401.533708858
400.211544251
400.199414301
400.656309104
401.09703064
401.517535591
400.63609252
401.113203907
400.672482371
400.672482371
400.668439054
400.672482371
400.656309104
401.113203907
400.668439054
401.113203907
400.672482371
400.688655639
400.704828906
400.656309104
401.537752175
400.227717519
400.656309104
400.672482371
400.684612322
400.672482371
400.668439054
400.688655639
400.684612322
401.129377174
400.656309104
400.211544251
401.129377174
400.688655639
400.231760836
401.125333858
400.672482371
401.129377174
400.247934103
400.280280638
400.668439054
400.688655639
400.26410737
400.688655639
401.129377174
400.26410737
400.26410737
400.668439054
400.231760836
400.684612322
401.113203907
400.211544251
400.668439054
400.704828906
400.688655639
400.26410737
400.704828906
400.704828906
400.688655639
402.010820246
400.280280638
400.668439054
400.227717519
401.113203907
400.243890786
400.688655639
401.129377174

Block: 6
======================================
400.652265787
403.264248466
400.672482371
401.076814055
402.398978662
400.652265787
401.533708858
401.076814055
401.09703064
401.09703064
401.092987323
401.962300444
401.517535591
401.517535591
400.652265787
401.092987323
400.63609252
401.09703064
401.076814055
401.092987323
402.807353663
400.672482371
401.076814055
401.113203907
401.10916059
400.656309104
401.09703064
400.668439054
401.553925443
401.994646978
401.57009871
400.704828906
401.129377174
401.990603662
401.129377174
400.247934103
400.26410737
400.247934103
401.586271977
400.704828906
400.231760836
400.26410737
401.129377174
401.994646978
400.704828906
400.26410737
400.280280638
400.72504549
400.721002173
399.855732369
400.280280638
400.737175441
401.57009871
399.839559102
400.280280638
400.737175441
400.26410737
401.161723709
400.704828906
400.704828906
401.57009871
401.161723709
401.161723709
400.737175441
400.704828906
400.26410737
400.296453905
401.145550442
400.721002173
400.26410737
401.165767026
401.161723709
400.72504549
400.704828906
400.26410737
400.741218758
400.721002173
400.704828906
401.181940293
400.741218758
400.737175441
400.721002173
401.145550442
400.741218758
400.721002173
400.300497222
401.161723709
400.741218758
401.177896976
401.165767026
401.145550442
400.737175441
401.586271977
400.280280638
401.177896976
400.721002173
400.280280638
400.72504549
400.737175441
401.145550442

Block: 7
======================================
401.586271977
400.721002173
400.316670489
400.741218758
401.602445245
401.161723709
400.280280638
400.688655639
400.741218758
400.280280638
400.721002173
400.704828906
400.312627172
400.721002173
400.26410737
400.280280638
400.045768261
400.296453905
401.129377174
400.704828906
400.704828906
401.586271977
400.721002173
401.181940293
401.586271977
400.296453905
400.280280638
400.280280638
400.284323955
400.296453905
400.284323955
399.855732369
400.704828906
400.704828906
400.247934103
400.741218758
402.026993513
400.721002173
400.280280638
401.566055393
401.586271977
400.284323955
400.296453905
400.721002173
399.823385835
400.721002173
400.26410737
401.602445245
400.26410737
400.284323955
400.296453905
401.145550442
400.247934103
400.280280638
400.26410737
400.26410737
399.855732369
400.247934103
401.145550442
400.704828906
400.704828906
400.704828906
400.284323955
400.704828906
400.721002173
400.672482371
400.280280638
401.553925443
400.247934103
400.688655639
400.704828906
400.72504549
400.284323955
400.721002173
400.284323955
402.010820246
401.994646978
400.247934103
400.688655639
401.57009871
400.708872223
400.26410737
400.26410737
402.431325197
400.26410737
400.26410737
400.26410737
400.231760836
401.974430394
400.672482371
401.129377174
400.652265787
400.684612322
400.688655639
400.688655639
400.26410737
400.688655639
400.215587568
401.994646978
400.243890786

Block: 8
======================================
400.668439054
400.668439054
400.668439054
400.672482371
400.688655639
400.243890786
402.010820246
400.227717519
400.243890786
400.260064054
401.533708858
400.227717519
400.247934103
400.247934103
400.231760836
400.688655639
400.672482371
400.672482371
400.672482371
400.247934103
400.247934103
400.227717519
401.113203907
400.211544251
402.398978662
401.994646978
400.672482371
400.231760836
401.517535591
401.092987323
401.129377174
401.946127176
401.521578908
401.129377174
400.215587568
401.10916059
400.247934103
400.668439054
400.668439054
401.533708858
400.668439054
400.247934103
400.688655639
400.672482371
401.958257127
400.656309104
400.211544251
400.672482371
402.386848712
401.09703064
400.231760836
400.640135837
400.211544251
400.672482371
400.231760836
400.656309104
401.076814055
400.215587568
400.211544251
400.652265787
400.688655639
400.231760836
401.09703064
400.247934103
400.231760836
400.672482371
401.129377174
402.386848712
400.227717519
400.668439054
401.113203907
400.215587568
401.092987323
400.211544251
401.113203907
400.656309104
400.215587568
400.231760836
400.652265787
401.10916059
400.688655639
402.382805395
400.211544251
401.09703064
400.231760836
400.684612322
401.092987323
400.195370984
401.553925443
401.958257127
400.672482371
401.958257127
400.215587568
400.672482371
400.684612322
400.211544251
400.688655639
401.57009871
400.231760836
400.227717519

Block: 9
======================================
400.247934103
400.195370984
400.26410737
400.668439054
401.125333858
400.231760836
400.688655639
401.974430394
401.958257127
400.231760836
400.231760836
400.704828906
400.672482371
400.26410737
401.978473711
400.704828906
401.537752175
400.652265787
400.672482371
402.403021979
400.668439054
400.668439054
400.684612322
400.26410737
400.684612322
400.227717519
401.129377174
401.533708858
402.41515193
401.553925443
400.704828906
400.684612322
401.553925443
400.704828906
401.590315294
400.684612322
401.57009871
400.684612322
400.688655639
401.978473711
400.688655639
400.26410737
400.280280638
400.672482371
400.688655639
400.688655639
400.684612322
400.26410737
400.688655639
400.231760836
400.704828906
400.688655639
401.553925443
400.247934103
401.125333858
400.672482371
400.704828906
400.688655639
400.247934103
400.704828906
400.688655639
400.688655639
400.26410737
401.129377174
400.688655639
400.688655639
400.668439054
400.688655639
400.672482371
400.688655639
401.129377174
400.231760836
400.704828906
401.129377174
401.553925443
401.553925443
401.113203907
401.113203907
402.419195247
400.623962569
402.41515193
400.652265787
401.092987323
400.619919252
401.974430394
401.517535591
401.092987323
401.958257127
401.501362324
401.521578908
401.501362324
401.485189056
402.791180396
402.807353663
402.35045886
401.905694008
402.366632128
401.501362324
402.382805395
402.386848712

Block: 10
======================================
401.076814055
401.080857372
401.517535591
401.978473711
401.517535591
401.521578908
401.044467521
401.962300444
401.060640788
401.521578908
403.688796735
401.060640788
401.978473711
401.962300444
401.958257127
401.501362324
401.521578908
401.517535591
401.521578908
401.533708858
401.09703064
401.553925443
401.080857372
401.978473711
401.978473711
401.553925443
401.113203907
401.994646978
402.010820246
402.892263317
401.145550442
401.57009871
401.586271977
401.145550442
402.026993513
401.145550442
401.161723709
401.57009871
403.316811585
401.586271977
401.161723709
401.129377174
402.451541781
402.010820246
400.704828906
401.145550442
400.688655639
400.721002173
402.87609005
402.471758366
401.606488562
400.741218758
400.737175441
401.165767026
400.737175441
401.177896976
401.177896976
401.177896976
400.704828906
400.300497222
401.161723709
401.145550442
400.737175441
400.773565292
400.316670489
400.741218758
400.316670489
400.300497222
400.316670489
400.741218758
400.312627172
401.181940293
400.296453905
400.296453905
400.721002173
400.721002173
402.026993513
402.04316678
400.737175441
400.741218758
401.602445245
400.284323955
400.312627172
401.165767026
400.721002173
400.737175441
402.483888316
402.026993513
400.721002173
402.04316678
400.26410737
400.737175441
402.047210097
402.026993513
400.72504549
400.300497222
400.721002173
400.704828906
401.145550442
400.737175441
