
Block: 1
======================================
301.439265966
300.569358301
302.325433588
300.996182156
300.589683247
302.329498577
300.553098345
301.016507101
301.032767057
301.012442112
300.553098345
301.459590912
300.553098345
301.012442112
300.996182156
301.443330956
301.866089821
300.569358301
301.443330956
301.183171654
300.996182156
301.000247145
301.016507101
300.57342329
300.996182156
300.553098345
300.569358301
300.553098345
300.569358301
300.569358301
300.557163334
300.536838388
300.996182156
300.557163334
301.032767057
300.57342329
300.569358301
300.569358301
300.996182156
300.093754578
300.585618258
301.886414766
301.439265966
300.536838388
300.569358301
300.553098345
300.569358301
300.12627449
300.996182156
301.459590912
300.536838388
300.996182156
301.459590912
300.12627449
301.882349777
300.553098345
301.455525923
300.553098345
300.569358301
300.130339479
300.996182156
301.459590912
300.569358301
300.553098345
300.569358301
301.032767057
300.57342329
300.57342329
301.459590912
301.459590912
300.146599436
300.142534447
301.459590912
301.455525923
301.016507101

Block: 2
======================================
301.016507101
300.569358301
300.130339479
301.455525923
300.536838388
301.016507101
300.57342329
301.000247145
301.012442112
302.735997486
300.553098345
301.012442112
301.898609734
301.42300601
301.459590912
300.569358301
301.012442112
301.000247145
301.849829865
301.016507101
301.459590912
300.996182156
300.57342329
301.000247145
301.016507101
301.455525923
301.902674723
301.443330956
301.012442112
300.536838388
300.536838388
301.443330956
301.016507101
300.553098345
300.520578432
300.557163334
300.553098345
300.536838388
300.569358301
300.557163334
300.553098345
300.996182156
301.012442112
300.553098345
300.536838388
300.996182156
300.601878214
300.57342329
300.979922199
302.309173632
300.996182156
300.553098345
300.57342329
300.553098345
301.439265966
300.57342329
300.569358301
300.589683247
300.536838388
300.553098345
300.979922199
301.443330956
300.996182156
301.42300601
300.553098345
300.57342329
300.557163334
300.996182156
300.979922199
300.553098345
300.553098345
302.71973753
301.016507101
301.882349777
300.979922199

Block: 3
======================================
300.516513443
300.553098345
300.569358301
300.553098345
300.520578432
300.979922199
301.42300601
300.996182156
300.569358301
300.996182156
302.27258873
300.57342329
301.012442112
300.520578432
300.520578432
301.42300601
300.536838388
300.979922199
300.536838388
301.406746054
300.520578432
301.443330956
301.42300601
300.536838388
300.520578432
300.979922199
300.536838388
300.536838388
301.016507101
300.979922199
301.406746054
300.516513443
300.536838388
300.536838388
300.536838388
300.536838388
300.536838388
301.406746054
301.829504919
300.536838388
300.557163334
300.553098345
301.443330956
301.849829865
301.439265966
301.42300601
302.27258873
300.979922199
300.553098345
301.000247145
300.536838388
300.536838388
302.276653719
300.553098345
301.42300601
301.439265966
300.536838388
300.979922199
300.979922199
301.42300601
300.553098345
301.849829865
300.536838388
301.000247145
300.569358301
301.42300601
300.553098345
301.012442112
301.016507101
300.536838388
300.553098345
300.536838388
301.886414766
300.996182156
301.87015481

Block: 4
======================================
301.42300601
300.520578432
300.979922199
300.979922199
300.520578432
301.000247145
300.536838388
300.520578432
300.553098345
300.979922199
300.553098345
300.996182156
300.536838388
300.963662243
300.536838388
300.979922199
300.57342329
300.520578432
300.979922199
300.963662243
300.996182156
300.536838388
301.42300601
300.996182156
300.536838388
301.439265966
300.963662243
300.996182156
300.557163334
300.979922199
300.979922199
300.520578432
300.979922199
300.536838388
300.979922199
300.979922199
301.42300601
301.406746054
300.553098345
300.979922199
300.553098345
300.536838388
300.979922199
301.406746054
301.42300601
300.536838388
301.42300601
300.536838388
300.979922199
301.87015481
301.42300601
300.536838388
301.849829865
300.979922199
300.536838388
300.553098345
300.536838388
300.569358301
300.553098345
301.439265966
300.589683247
300.536838388
300.553098345
300.57342329
300.979922199
300.516513443
301.443330956
301.439265966
300.536838388
300.536838388
300.963662243
300.536838388
300.536838388
300.569358301
300.536838388

Block: 5
======================================
300.57342329
300.553098345
301.016507101
300.996182156
301.439265966
300.569358301
300.553098345
300.996182156
301.459590912
300.536838388
300.553098345
300.569358301
300.57342329
300.553098345
300.979922199
300.553098345
301.000247145
300.979922199
300.979922199
301.443330956
300.536838388
301.833569908
301.012442112
301.42300601
300.57342329
301.443330956
300.553098345
301.000247145
300.996182156
300.553098345
301.012442112
301.012442112
301.406746054
300.979922199
301.443330956
302.325433588
301.42300601
301.42300601
300.553098345
300.947402287
300.979922199
301.42300601
301.42300601
300.520578432
301.455525923
300.963662243
301.87015481
300.557163334
300.979922199
300.536838388
300.553098345
300.553098345
300.536838388
300.536838388
301.833569908
300.536838388
300.536838388
300.553098345
300.536838388
300.553098345
300.996182156
300.536838388
300.996182156
300.553098345
300.557163334
300.553098345
300.557163334
300.57342329
300.553098345
300.979922199
300.979922199
301.42300601
300.557163334
300.557163334
300.979922199

Block: 6
======================================
301.032767057
300.536838388
301.012442112
300.569358301
300.979922199
300.959597254
301.42300601
301.439265966
300.553098345
300.569358301
301.42300601
301.443330956
300.553098345
300.553098345
300.553098345
300.996182156
301.012442112
300.57342329
300.536838388
300.585618258
300.553098345
300.996182156
301.42300601
300.553098345
300.979922199
300.57342329
301.455525923
300.536838388
300.996182156
301.000247145
301.459590912
300.569358301
300.589683247
301.032767057
300.57342329
300.585618258
301.475850868
300.601878214
300.569358301
300.585618258
300.57342329
301.866089821
300.996182156
301.455525923
301.439265966
300.569358301
300.996182156
300.553098345
301.455525923
301.016507101
300.589683247
300.57342329
300.569358301
300.553098345
301.455525923
301.012442112
300.996182156
300.589683247
301.012442112
300.57342329
301.443330956
300.536838388
301.443330956
301.016507101
300.57342329
300.553098345
300.57342329
300.569358301
300.553098345
300.996182156
300.553098345
300.57342329
300.557163334
300.553098345
300.585618258

Block: 7
======================================
301.016507101
301.016507101
300.569358301
300.569358301
300.996182156
300.996182156
301.882349777
300.569358301
301.000247145
300.553098345
301.459590912
301.459590912
300.585618258
301.012442112
300.589683247
300.569358301
301.016507101
301.898609734
302.345758533
301.459590912
300.569358301
301.016507101
300.605943203
302.325433588
300.569358301
300.569358301
300.553098345
301.439265966
300.996182156
301.886414766
300.996182156
300.996182156
300.996182156
300.996182156
300.585618258
301.012442112
300.536838388
300.553098345
300.996182156
301.032767057
300.57342329
300.553098345
300.553098345
301.012442112
301.012442112
301.475850868
300.553098345
300.996182156
300.569358301
300.12627449
300.569358301
300.585618258
301.032767057
301.882349777
300.008389807
301.471785879
300.996182156
301.443330956
301.016507101
301.012442112
300.569358301
301.016507101
300.57342329
301.475850868
300.57342329
300.57342329
300.589683247
300.57342329
300.553098345
301.012442112
300.996182156
301.016507101
301.455525923
300.996182156
300.536838388

Block: 8
======================================
300.553098345
300.520578432
300.553098345
301.016507101
301.833569908
301.016507101
300.57342329
300.536838388
301.439265966
300.569358301
301.012442112
300.57342329
300.536838388
301.455525923
301.898609734
301.000247145
300.57342329
301.455525923
300.569358301
301.012442112
300.553098345
300.589683247
300.536838388
300.57342329
300.553098345
300.569358301
300.536838388
301.012442112
300.569358301
300.569358301
300.996182156
301.455525923
300.589683247
300.589683247
300.996182156
301.455525923
300.569358301
300.569358301
300.553098345
300.996182156
301.439265966
301.016507101
301.443330956
301.032767057
300.996182156
301.000247145
301.012442112
301.032767057
300.996182156
300.569358301
301.455525923
300.553098345
300.585618258
300.553098345
301.866089821
301.016507101
300.996182156
300.569358301
300.553098345
301.000247145
300.996182156
300.996182156
300.57342329
301.439265966
300.601878214
301.898609734
300.605943203
301.016507101
301.000247145
300.57342329
301.012442112
300.553098345
300.536838388
300.553098345
300.569358301

Block: 9
======================================
301.902674723
300.536838388
300.57342329
300.979922199
301.012442112
301.455525923
300.557163334
300.589683247
300.557163334
300.57342329
302.735997486
300.557163334
300.996182156
300.57342329
301.032767057
300.996182156
301.012442112
301.455525923
301.443330956
300.569358301
300.57342329
301.459590912
300.585618258
300.996182156
300.553098345
300.557163334
300.589683247
301.866089821
302.292913675
301.439265966
301.012442112
300.569358301
300.553098345
300.553098345
300.57342329
300.979922199
300.553098345
300.569358301
301.028702068
301.012442112
301.42300601
300.553098345
301.42300601
301.427070999
301.849829865
300.536838388
301.443330956
300.996182156
300.536838388
300.520578432
301.87015481
300.536838388
300.996182156
301.012442112
301.000247145
300.983987188
300.536838388
300.553098345
301.016507101
300.557163334
301.42300601
301.012442112
301.866089821
300.996182156
300.979922199
301.42300601
301.42300601
300.996182156
301.012442112
300.553098345
301.443330956
300.553098345
301.439265966
300.557163334
300.536838388

Block: 10
======================================
302.565267944
301.87015481
300.979922199
301.012442112
300.536838388
302.309173632
300.553098345
301.866089821
300.536838388
300.536838388
300.996182156
301.012442112
300.557163334
300.536838388
301.016507101
300.536838388
301.849829865
300.569358301
301.443330956
301.000247145
300.569358301
301.012442112
301.439265966
300.553098345
300.536838388
301.439265966
301.000247145
300.57342329
300.963662243
301.032767057
300.585618258
300.996182156
301.439265966
300.557163334
300.553098345
300.553098345
300.569358301
300.536838388
300.996182156
301.028702068
300.536838388
300.569358301
301.849829865
301.439265966
300.553098345
301.882349777
300.996182156
300.553098345
300.553098345
301.42300601
300.996182156
300.520578432
300.553098345
300.520578432
300.996182156
302.309173632
301.42300601
302.292913675
301.012442112
300.996182156
300.557163334
301.882349777
300.532773399
300.589683247
300.979922199
300.963662243
300.553098345
300.979922199
301.439265966
300.979922199
300.553098345
301.016507101
300.553098345
300.553098345
301.439265966
