
Block: 1
======================================
300.195379305
301.06528697
300.195379305
299.756360483
300.61813817
299.736035538
299.736035538
299.736035538
300.179119349
300.675048018
300.195379305
300.211639261
300.231964207
300.195379305
300.195379305
299.77262044
300.231964207
300.211639261
300.670983028
300.195379305
300.654723072
300.638463116
300.195379305
300.211639261
300.195379305
300.195379305
300.211639261
300.211639261
300.21570425
299.76855545
300.195379305
299.752295494
300.195379305
300.179119349
300.179119349
300.195379305
300.179119349
300.642528105
300.179119349
300.195379305
301.524630737
300.179119349
300.211639261
299.76855545
300.231964207
300.670983028
300.175054359
301.097806883
299.76855545
299.77262044

Block: 2
======================================
299.752295494
300.231964207
300.211639261
300.195379305
300.227899218
299.77262044
301.101871872
299.805140352
300.21570425
300.211639261
299.784815407
300.211639261
300.654723072
300.691307974
299.76855545
300.654723072
300.638463116
300.179119349
300.638463116
299.719775581
299.76855545
300.638463116
300.638463116
299.756360483
300.670983028
299.788880396
301.097806883
300.675048018
300.654723072
300.195379305
300.638463116
300.179119349
300.195379305
300.638463116
301.114066839
299.76855545
299.736035538
300.211639261
300.21570425
300.654723072
300.638463116
300.195379305
300.638463116
299.752295494
300.654723072
300.654723072
300.658788061
300.638463116
300.195379305
300.179119349

Block: 3
======================================
300.675048018
299.77262044
300.179119349
300.622203159
300.21570425
299.752295494
300.195379305
300.211639261
300.179119349
299.736035538
300.179119349
300.175054359
300.654723072
300.211639261
300.199444294
300.195379305
299.76855545
300.179119349
300.658788061
299.76855545
300.211639261
300.195379305
300.654723072
300.658788061
300.195379305
301.508370781
300.654723072
301.081546926
300.21570425
299.752295494
300.638463116
300.179119349
300.638463116
299.752295494
299.736035538
299.752295494
300.654723072
300.658788061
300.195379305
299.752295494
299.752295494
300.211639261
300.622203159
300.658788061
299.76855545
300.654723072
300.654723072
300.654723072
300.638463116
300.654723072

Block: 4
======================================
300.21570425
299.736035538
300.21570425
299.76855545
301.118131828
300.638463116
300.21570425
300.638463116
300.638463116
300.195379305
300.195379305
300.211639261
300.21570425
300.675048018
300.195379305
300.199444294
299.736035538
300.195379305
300.179119349
300.195379305
300.195379305
300.638463116
300.195379305
300.211639261
301.528695726
300.675048018
300.211639261
299.736035538
300.195379305
299.736035538
299.736035538
300.211639261
300.211639261
300.654723072
300.638463116
301.524630737
300.21570425
300.195379305
300.211639261
300.211639261
300.195379305
300.638463116
300.179119349
299.76855545
300.195379305
300.195379305
300.179119349
300.642528105
300.179119349
300.231964207

Block: 5
======================================
301.081546926
300.195379305
300.179119349
299.736035538
300.605943203
301.524630737
300.638463116
300.654723072
300.195379305
300.211639261
300.21570425
300.195379305
300.211639261
300.658788061
299.76855545
300.622203159
299.76855545
300.179119349
300.195379305
300.211639261
300.642528105
301.081546926
299.752295494
299.76855545
300.195379305
300.211639261
301.081546926
299.736035538
299.752295494
300.179119349
300.211639261
300.654723072
299.736035538
300.195379305
300.211639261
300.195379305
300.654723072
300.195379305
301.097806883
300.199444294
300.654723072
300.654723072
300.195379305
300.211639261
300.162859392
300.658788061
300.195379305
300.211639261
300.195379305
299.752295494

Block: 6
======================================
300.199444294
300.195379305
300.642528105
299.76855545
299.870180178
300.638463116
300.654723072
300.654723072
300.654723072
300.658788061
299.784815407
300.654723072
300.654723072
299.77262044
300.670983028
299.788880396
299.752295494
299.76855545
300.654723072
299.752295494
300.654723072
300.179119349
299.76855545
300.21570425
300.638463116
300.195379305
300.21570425
300.638463116
300.211639261
300.195379305
300.211639261
300.195379305
300.179119349
300.691307974
300.654723072
300.195379305
300.211639261
300.211639261
300.195379305
300.670983028
299.752295494
300.211639261
300.675048018
300.638463116
299.752295494
300.211639261
299.752295494
300.21570425
299.752295494
301.097806883

Block: 7
======================================
299.752295494
300.21570425
300.195379305
300.227899218
300.687242985
300.231964207
300.21570425
300.195379305
300.195379305
300.195379305
300.195379305
299.752295494
300.21570425
301.081546926
301.097806883
300.21570425
300.654723072
300.654723072
300.211639261
300.195379305
300.211639261
300.211639261
301.540890694
300.211639261
300.670983028
300.658788061
300.211639261
300.654723072
300.195379305
300.195379305
300.231964207
300.195379305
300.675048018
300.195379305
300.195379305
300.211639261
300.211639261
299.76855545
300.227899218
301.101871872
299.752295494
300.211639261
301.097806883
300.211639261
300.658788061
300.248224163
300.199444294
300.654723072
300.642528105
300.211639261

Block: 8
======================================
300.231964207
300.211639261
299.77262044
300.638463116
300.654723072
300.654723072
300.199444294
300.195379305
299.736035538
300.21570425
299.77262044
300.195379305
300.654723072
300.195379305
300.195379305
300.642528105
300.195379305
300.211639261
299.752295494
300.654723072
300.195379305
300.227899218
299.77262044
299.752295494
301.118131828
300.195379305
299.77262044
300.195379305
301.101871872
300.211639261
299.752295494
300.211639261
300.199444294
299.76855545
301.085611916
299.736035538
300.195379305
299.736035538
300.21570425
299.752295494
299.752295494
301.118131828
300.638463116
301.118131828
299.76855545
300.638463116
300.622203159
301.085611916
299.752295494
299.736035538

Block: 9
======================================
300.638463116
300.158794403
300.21570425
301.101871872
299.752295494
300.638463116
299.752295494
300.231964207
300.227899218
299.752295494
299.76855545
299.752295494
299.77262044
300.179119349
299.736035538
300.231964207
299.736035538
300.179119349
299.756360483
299.752295494
300.211639261
301.101871872
299.788880396
300.638463116
300.21570425
300.211639261
299.752295494
301.114066839
299.76855545
299.736035538
299.731970549
299.752295494
300.211639261
299.77262044
300.691307974
300.227899218
300.21570425
300.195379305
299.752295494
299.752295494
299.752295494
299.736035538
299.715710592
299.752295494
300.195379305
300.179119349
300.195379305
300.642528105
300.658788061
300.654723072

Block: 10
======================================
300.670983028
300.658788061
300.658788061
300.195379305
300.195379305
300.638463116
299.752295494
299.752295494
300.179119349
300.658788061
299.715710592
300.195379305
300.211639261
299.752295494
300.179119349
299.736035538
299.736035538
300.675048018
300.195379305
300.195379305
299.752295494
300.199444294
299.736035538
301.081546926
299.77262044
300.195379305
299.76855545
300.199444294
300.195379305
300.211639261
300.195379305
300.638463116
300.179119349
300.638463116
300.658788061
300.654723072
299.736035538
300.195379305
300.195379305
300.195379305
300.654723072
300.195379305
300.195379305
299.731970549
300.211639261
300.211639261
299.77262044
299.76855545
299.752295494
300.195379305
