
Block: 1
======================================
99.9502712488
99.970921278
99.9172312021
99.9337512255
99.9502712488

Average distance is : 99.944 cm
Average deviation is : 0.020 cm
Block: 2
======================================
99.9337512255
99.9007111788
100.350881815
100.383921862
100.383921862

Average distance is : 100.191 cm
Average deviation is : 0.250 cm
Block: 3
======================================
99.9502712488
99.9131011963
99.970921278
99.9502712488
99.9337512255

Average distance is : 99.944 cm
Average deviation is : 0.022 cm
Block: 4
======================================
99.8965811729
100.330231786
99.9131011963
99.9337512255
99.9667912722

Average distance is : 100.008 cm
Average deviation is : 0.182 cm
Block: 5
======================================
99.9337512255
99.9337512255
99.8800611496
99.8841911554
99.9667912722

Average distance is : 99.920 cm
Average deviation is : 0.037 cm
Block: 6
======================================
99.9007111788
99.8800611496
99.8965811729
100.350881815
99.9502712488

Average distance is : 99.996 cm
Average deviation is : 0.200 cm
Block: 7
======================================
99.8470211029
99.8965811729
99.8841911554
99.8635411263
99.8470211029

Average distance is : 99.868 cm
Average deviation is : 0.022 cm
Block: 8
======================================
99.8841911554
100.334361792
99.9337512255
99.8470211029
99.9172312021

Average distance is : 99.983 cm
Average deviation is : 0.199 cm
Block: 9
======================================
99.8800611496
99.9007111788
99.8841911554
99.8800611496
99.9502712488

Average distance is : 99.899 cm
Average deviation is : 0.030 cm
Block: 10
======================================
99.9007111788
99.9007111788
99.8800611496
99.9172312021
100.297191739

Average distance is : 99.979 cm
Average deviation is : 0.178 cm
Average distance for 10x5 is : 99.973 cm
Average deviation for 10x5 is : 0.114 cm
 Percentage of values that failed: 0.000