
Block: 1
======================================
99.9007111788
99.8635411263
99.8800611496
99.8635411263
99.8841911554
99.8800611496
99.8965811729
99.8800611496
99.8841911554
99.8800611496
99.8635411263
99.8841911554
99.8965811729
99.8800611496
99.8470211029
99.9172312021
100.297191739
99.9007111788
99.8635411263
100.313711762
99.8635411263
99.8800611496
99.8800611496
99.8965811729
99.8800611496
99.9007111788
99.8965811729
99.8800611496
99.8800611496
99.8800611496
99.9007111788
99.9007111788
99.9007111788
99.9007111788
99.8965811729
99.8965811729
99.8800611496
99.9131011963
99.9131011963
99.8800611496
99.8965811729
99.9007111788
99.8800611496
99.8800611496
99.8800611496
99.9007111788
99.9172312021
99.8965811729
99.8800611496
99.8841911554
99.8841911554
99.9007111788
99.8800611496
99.8635411263
99.8635411263
99.8800611496
99.9007111788
99.9007111788
99.9007111788
99.8841911554
99.8635411263
99.8635411263
99.9172312021
99.8470211029
99.8800611496
100.313711762
99.8800611496
99.8841911554
99.8800611496
99.8635411263
99.8470211029
99.8676711321
99.8800611496
99.9007111788
99.9337512255
99.8841911554
99.8841911554
99.8635411263
99.8841911554
99.8635411263
99.8841911554
99.8800611496
99.9007111788
99.8635411263
99.8841911554
99.9007111788
99.8965811729
99.8965811729
99.8800611496
99.8635411263
99.8841911554
100.313711762
99.9131011963
99.8800611496
99.8841911554
99.8800611496
99.8800611496
99.8676711321
100.280671716
100.297191739

Block: 2
======================================
99.8841911554
100.297191739
99.8800611496
99.9172312021
99.8635411263
99.8841911554
99.8800611496
99.8800611496
99.9007111788
99.8800611496
99.9007111788
99.8305010796
99.9007111788
99.8800611496
99.8841911554
99.8841911554
99.8841911554
99.8470211029
100.297191739
99.8800611496
99.8470211029
99.9131011963
100.317841768
99.8676711321
99.8800611496
99.8965811729
99.8800611496
99.9172312021
99.8841911554
99.8965811729
99.8635411263
99.8635411263
99.9172312021
99.8676711321
99.9172312021
99.8800611496
99.9007111788
99.8800611496
99.8965811729
99.8635411263
99.8800611496
99.8800611496
99.9337512255
99.8635411263
99.9337512255
99.9007111788
99.8965811729
99.8841911554
99.8800611496
99.8800611496
99.8800611496
99.9131011963
99.8965811729
100.297191739
99.8800611496
100.313711762
99.8800611496
99.8800611496
99.8965811729
99.8800611496
99.8841911554
99.8800611496
99.8965811729
99.8800611496
99.8800611496
100.280671716
99.8635411263
99.8841911554
99.9172312021
99.8965811729
99.9131011963
99.8635411263
99.9007111788
99.8635411263
99.8800611496
99.8635411263
99.8676711321
100.297191739
99.8676711321
100.280671716
99.8965811729
99.8635411263
99.8800611496
99.8965811729
99.8800611496
99.8635411263
99.9007111788
99.8635411263
99.8965811729
100.297191739
99.8841911554
99.8635411263
99.8635411263
99.8800611496
99.8965811729
99.8800611496
99.8841911554
99.8841911554
99.8841911554
99.8841911554

Block: 3
======================================
100.313711762
100.301321745
99.8635411263
99.9007111788
99.8800611496
99.8965811729
99.9007111788
99.8676711321
99.8841911554
99.8800611496
99.8841911554
99.9007111788
99.8635411263
99.9007111788
99.9007111788
100.330231786
99.9172312021
99.9007111788
99.9007111788
99.8965811729
99.8965811729
100.334361792
99.8965811729
99.8635411263
99.8841911554
99.9007111788
99.8841911554
99.8635411263
100.317841768
100.27654171
99.9337512255
99.9131011963
99.9131011963
99.9007111788
100.383921862
99.9172312021
99.8841911554
99.8841911554
99.9007111788
99.8965811729
100.330231786
99.9131011963
99.8800611496
99.8800611496
99.8965811729
99.8965811729
99.9172312021
99.8800611496
99.8800611496
99.8635411263
99.9172312021
99.8800611496
99.9007111788
99.9337512255
99.9172312021
99.9337512255
99.9007111788
99.9172312021
99.8800611496
99.9007111788
99.9007111788
99.9172312021
99.8841911554
99.8841911554
100.317841768
99.8841911554
99.8800611496
99.8965811729
99.8800611496
99.8965811729
99.8965811729
99.8841911554
99.9007111788
99.9131011963
99.8965811729
99.8800611496
100.334361792
99.9007111788
99.9172312021
99.8965811729
99.9007111788
99.9007111788
99.8800611496
99.8800611496
99.8965811729
99.9172312021
99.8800611496
99.9007111788
100.330231786
99.8965811729
99.8965811729
99.8965811729
99.8965811729
99.9007111788
99.9007111788
99.9172312021
99.8676711321
99.8800611496
99.9172312021
99.8965811729

Block: 4
======================================
99.8841911554
99.8965811729
99.8841911554
99.8965811729
99.8965811729
99.8800611496
99.9007111788
99.9007111788
99.8965811729
99.8965811729
99.9007111788
100.330231786
99.8305010796
100.334361792
99.9007111788
99.9007111788
99.9131011963
99.8841911554
99.9007111788
99.8841911554
99.8635411263
99.8800611496
100.280671716
100.313711762
99.8800611496
99.8965811729
99.8635411263
99.9337512255
99.9007111788
99.9007111788
99.9007111788
99.8800611496
99.8841911554
99.8965811729
99.8635411263
99.9172312021
99.9131011963
99.9337512255
99.8965811729
99.9172312021
100.297191739
99.9337512255
99.9007111788
99.9007111788
99.8800611496
99.8470211029
99.9172312021
99.8800611496
99.8965811729
99.8635411263
99.9131011963
99.9131011963
99.8965811729
99.8965811729
99.9007111788
99.9172312021
99.9007111788
99.8841911554
99.9172312021
99.8965811729
99.8800611496
99.9172312021
99.8965811729
99.9007111788
99.9007111788
99.8800611496
99.8800611496
99.8965811729
99.9007111788
99.8841911554
99.8841911554
99.8800611496
99.8965811729
99.8800611496
99.8965811729
99.9131011963
99.8965811729
99.8800611496
99.8635411263
99.8800611496
99.8965811729
99.9172312021
99.9172312021
99.9172312021
99.8841911554
99.8841911554
99.9172312021
99.8800611496
99.8800611496
99.8800611496
99.8841911554
99.8841911554
99.9007111788
99.9007111788
99.9172312021
99.8800611496
99.8800611496
99.8841911554
99.8800611496
99.8965811729

Block: 5
======================================
99.8965811729
100.334361792
100.313711762
99.8800611496
99.9007111788
99.9131011963
99.8965811729
99.8635411263
99.8800611496
99.8841911554
99.9172312021
99.8841911554
99.8965811729
99.8800611496
100.313711762
99.9007111788
99.8841911554
99.9007111788
99.8676711321
99.8635411263
99.8635411263
99.8635411263
99.8800611496
99.8676711321
99.8800611496
99.8841911554
99.8635411263
99.8841911554
99.8635411263
99.8841911554
99.8800611496
99.8800611496
99.8635411263
99.8841911554
99.8635411263
99.8965811729
99.8635411263
100.264151692
99.8841911554
99.8800611496
99.8635411263
99.9172312021
99.9172312021
99.8841911554
99.8841911554
99.8965811729
99.8841911554
99.8965811729
99.8635411263
99.9007111788
99.8965811729
99.8800611496
99.8635411263
99.8965811729
99.9172312021
99.9172312021
99.9007111788
99.9007111788
99.9007111788
99.9007111788
99.9007111788
99.9007111788
99.8800611496
99.8965811729
99.9131011963
99.9131011963
99.8965811729
99.8965811729
99.9131011963
99.8965811729
99.8965811729
99.8965811729
99.8800611496
99.9007111788
99.9172312021
99.9007111788
99.8470211029
99.8800611496
99.8965811729
99.8965811729
99.8965811729
99.8841911554
99.8841911554
99.9007111788
99.8965811729
99.9007111788
99.8676711321
99.9007111788
99.8965811729
99.8965811729
99.8965811729
99.8965811729
99.9007111788
99.8800611496
99.8965811729
99.8841911554
99.9007111788
99.9131011963
99.8841911554
99.9007111788

Block: 6
======================================
99.8635411263
99.8635411263
99.8470211029
99.8635411263
100.297191739
99.9172312021
99.9007111788
99.9007111788
99.9172312021
99.9172312021
99.9172312021
99.8965811729
99.9007111788
99.9007111788
100.334361792
100.313711762
99.8965811729
99.8800611496
99.8800611496
99.8841911554
99.9007111788
99.8676711321
99.8800611496
99.9007111788
99.8965811729
99.8800611496
99.8841911554
99.8800611496
99.8800611496
99.8965811729
99.8800611496
99.9172312021
100.346751809
99.9337512255
99.8800611496
99.8676711321
99.9007111788
99.9007111788
99.9007111788
100.313711762
100.297191739
100.297191739
100.317841768
99.8841911554
100.297191739
100.367401838
100.350881815
99.9337512255
99.8965811729
99.8841911554
99.8965811729
99.8800611496
100.313711762
100.367401838
99.8965811729
100.330231786
99.9172312021
99.8841911554
100.313711762
99.8800611496
99.8965811729
99.8841911554
99.8800611496
99.8965811729
99.8800611496
99.8800611496
99.8800611496
99.9337512255
99.9337512255
100.367401838
99.9337512255
100.297191739
99.9502712488
99.8965811729
99.9007111788
99.8841911554
99.8800611496
100.313711762
99.9502712488
99.8800611496
99.8965811729
99.9007111788
99.8635411263
99.8800611496
99.8635411263
99.8965811729
99.8965811729
99.8965811729
99.9007111788
99.8965811729
99.8800611496
99.8800611496
99.9007111788
99.9007111788
99.8841911554
100.334361792
99.9131011963
99.8800611496
99.8841911554
100.334361792

Block: 7
======================================
99.8965811729
99.9007111788
99.9172312021
99.9502712488
100.280671716
99.8965811729
99.9007111788
100.297191739
99.9172312021
100.297191739
99.8800611496
100.350881815
99.8965811729
99.8635411263
99.9337512255
100.334361792
99.9007111788
99.9007111788
99.9337512255
99.8800611496
99.9007111788
99.8470211029
99.9172312021
99.9172312021
99.9007111788
99.8841911554
99.8965811729
99.8965811729
99.9172312021
99.9007111788
99.9007111788
99.8841911554
99.9337512255
99.8965811729
99.9296212196
99.9337512255
99.9007111788
100.330231786
99.8965811729
99.8965811729
99.9337512255
99.9172312021
99.8841911554
99.9007111788
99.8965811729
99.8800611496
99.9007111788
99.9172312021
99.9172312021
99.8965811729
99.9172312021
99.9007111788
99.8965811729
99.9131011963
100.313711762
100.317841768
99.8965811729
99.8965811729
99.9337512255
99.8800611496
99.9337512255
100.363271832
99.9337512255
99.8800611496
99.9337512255
99.9337512255
99.8965811729
99.8800611496
99.8841911554
99.9337512255
99.9007111788
99.9502712488
100.317841768
99.9502712488
99.9007111788
99.9337512255
99.8841911554
99.8841911554
99.9007111788
99.9007111788
99.8965811729
99.8800611496
99.9131011963
99.9337512255
99.9502712488
99.8965811729
99.9172312021
99.8965811729
99.8965811729
99.9172312021
99.8965811729
99.8965811729
99.8965811729
99.9172312021
99.8965811729
99.8800611496
99.9502712488
99.9007111788
99.9007111788
99.9172312021

Block: 8
======================================
99.9007111788
100.330231786
99.9007111788
100.317841768
99.8841911554
99.9502712488
99.9131011963
99.9007111788
99.9172312021
99.9337512255
100.317841768
99.8965811729
100.330231786
99.9337512255
100.313711762
100.313711762
100.367401838
99.8800611496
99.8965811729
100.313711762
99.9131011963
99.8635411263
99.9667912722
99.8635411263
100.330231786
100.350881815
100.383921862
100.313711762
100.313711762
99.9007111788
100.260021687
100.313711762
100.334361792
99.9337512255
99.9337512255
99.8635411263
99.9172312021
100.313711762
100.27654171
100.313711762
100.363271832
99.9337512255
99.9502712488
99.9502712488
99.9337512255
99.9502712488
99.9337512255
99.9337512255
99.9502712488
100.383921862
99.9172312021
99.9337512255
99.9502712488
99.9502712488
99.8965811729
100.367401838
99.9337512255
99.8800611496
99.9502712488
99.9502712488
99.9667912722
99.9007111788
100.297191739
100.383921862
99.9172312021
99.9172312021
99.9007111788
99.9007111788
99.970921278
99.8965811729
99.8965811729
99.8965811729
99.9131011963
99.9172312021
99.9172312021
99.8965811729
99.9337512255
99.8965811729
99.9337512255
99.9007111788
99.9502712488
99.9337512255
99.9337512255
99.9337512255
99.8965811729
99.8800611496
99.8965811729
100.350881815
99.9502712488
99.9337512255
99.9007111788
99.9502712488
99.9502712488
99.9337512255
99.9502712488
99.9502712488
99.9131011963
99.9007111788
100.297191739
100.383921862

Block: 9
======================================
99.8965811729
99.8800611496
99.9502712488
99.8841911554
100.330231786
99.9502712488
99.9007111788
99.9172312021
99.8800611496
99.9131011963
99.9007111788
99.9172312021
99.9172312021
99.8965811729
99.8965811729
99.9172312021
99.9007111788
99.9172312021
99.9172312021
99.9172312021
99.9172312021
99.9172312021
100.313711762
99.9172312021
99.9131011963
99.9172312021
99.9007111788
99.9007111788
99.9131011963
99.9172312021
99.9172312021
99.9007111788
100.363271832
100.313711762
100.317841768
99.8841911554
99.8800611496
99.8965811729
99.8841911554
99.9337512255
99.8841911554
99.9337512255
99.9007111788
99.9007111788
99.8841911554
99.9337512255
99.8800611496
99.8965811729
100.297191739
99.9007111788
99.9007111788
99.9131011963
99.8841911554
99.8841911554
99.9337512255
99.8841911554
99.8841911554
99.9007111788
99.9502712488
99.9337512255
100.313711762
100.313711762
100.350881815
99.9502712488
99.9337512255
99.9172312021
99.9007111788
100.313711762
99.9172312021
100.330231786
99.9131011963
99.9502712488
100.297191739
100.297191739
99.9337512255
99.8800611496
100.313711762
100.313711762
100.313711762
100.297191739
100.350881815
99.9502712488
99.9131011963
99.9131011963
100.350881815
99.9172312021
99.9337512255
99.8965811729
99.9544012547
99.9007111788
99.9502712488
99.9337512255
99.8841911554
100.313711762
100.363271832
99.9337512255
99.8800611496
100.363271832
99.9337512255
99.9502712488

Block: 10
======================================
99.9502712488
99.8965811729
99.8841911554
99.9502712488
99.8841911554
99.9337512255
99.9337512255
99.8800611496
99.9502712488
99.8841911554
99.9337512255
99.9007111788
99.9337512255
99.9337512255
99.9007111788
99.9337512255
99.8965811729
99.8965811729
99.9337512255
100.297191739
99.8965811729
99.9337512255
100.383921862
99.9502712488
99.9502712488
99.9007111788
99.8841911554
99.9502712488
99.9502712488
99.9502712488
99.8965811729
99.9502712488
99.9337512255
99.9007111788
100.313711762
99.9172312021
100.297191739
100.367401838
99.9667912722
99.8965811729
99.9172312021
99.9337512255
99.9172312021
99.8965811729
99.9131011963
99.8965811729
100.297191739
100.313711762
100.363271832
99.9172312021
99.8965811729
99.9337512255
99.9502712488
99.9337512255
99.8800611496
99.9337512255
99.8800611496
99.8965811729
99.9502712488
99.9007111788
99.9172312021
99.9544012547
99.8800611496
99.8965811729
99.9337512255
99.9007111788
99.8841911554
99.9172312021
99.9502712488
99.9131011963
100.297191739
99.9337512255
99.9337512255
99.8841911554
99.9337512255
99.9667912722
99.9337512255
99.9502712488
99.9337512255
99.9337512255
99.9502712488
99.9007111788
100.317841768
100.350881815
100.313711762
100.334361792
100.350881815
99.8800611496
99.9502712488
99.9337512255
99.9502712488
99.9337512255
99.9007111788
99.9337512255
100.297191739
99.8800611496
99.9337512255
99.9007111788
99.9337512255
99.8800611496
