
Block: 1
======================================
200.128916383
200.161494088
200.589076471
200.161494088
199.648395228
200.568715405
199.701334
199.685045147
199.701334
200.605365324
199.685045147
199.680972934
199.701334
199.697261786
200.141133022
201.012586641
199.697261786
199.701334
200.128916383
199.680972934
199.717622852
200.161494088
199.680972934
199.685045147
199.257462764
199.257462764
199.680972934
200.145205235
199.664684081
199.701334
199.701334
199.717622852
200.11262753
199.241173911
199.701334
199.685045147
200.145205235
200.585004258
200.145205235
199.257462764
199.257462764
199.701334
200.128916383
199.257462764
200.12484417
199.701334
199.737983918
200.108555317
199.680972934
199.253390551
200.145205235
199.697261786
199.253390551
199.701334
200.161494088
199.701334
199.685045147
199.717622852
199.257462764
200.141133022
200.165566301
199.237101698
199.257462764
199.685045147
200.181855154
199.717622852
199.680972934
200.161494088
199.241173911
199.701334
200.161494088
200.161494088
199.701334
200.145205235
200.145205235
199.257462764
199.717622852
199.273751616
199.273751616
199.717622852
199.701334
199.253390551
199.685045147
199.237101698
199.701334
199.273751616
200.589076471
200.141133022
199.685045147
199.701334
199.664684081
200.128916383
199.717622852
199.701334
199.685045147
199.680972934
199.685045147
199.701334
199.273751616
199.680972934

Block: 2
======================================
199.717622852
200.12484417
199.273751616
199.717622852
199.697261786
199.701334
199.701334
199.717622852
200.092266464
200.161494088
199.701334
199.697261786
201.782234931
199.717622852
200.141133022
200.128916383
199.717622852
199.717622852
200.161494088
199.697261786
199.717622852
199.273751616
200.585004258
200.145205235
199.733911705
199.701334
199.290040469
199.701334
200.145205235
199.701334
200.141133022
199.685045147
199.750200558
199.701334
200.161494088
199.697261786
199.733911705
200.161494088
200.145205235
199.273751616
199.717622852
200.568715405
199.701334
200.141133022
199.717622852
199.685045147
201.427952385
199.717622852
199.717622852
199.257462764
200.145205235
200.145205235
200.145205235
200.605365324
199.237101698
199.701334
199.717622852
200.161494088
199.697261786
199.701334
199.733911705
200.161494088
200.145205235
199.717622852
200.589076471
199.697261786
199.257462764
199.685045147
199.237101698
199.273751616
199.701334
199.717622852
199.685045147
199.257462764
199.224885058
201.46053009
201.032947707
199.717622852
200.141133022
199.701334
200.605365324
199.717622852
199.701334
199.241173911
199.717622852
199.273751616
200.161494088
199.717622852
200.605365324
199.717622852
199.701334
199.717622852
199.253390551
200.589076471
199.237101698
199.701334
200.552426553
200.605365324
199.717622852
199.685045147

Block: 3
======================================
200.161494088
199.701334
201.016658854
200.177782941
200.145205235
199.733911705
199.717622852
199.680972934
200.161494088
199.717622852
199.717622852
200.145205235
199.290040469
200.177782941
199.306329322
199.717622852
201.444241238
199.717622852
199.717622852
199.253390551
200.177782941
199.701334
200.145205235
200.181855154
200.161494088
199.701334
199.375556946
200.145205235
201.444241238
200.165566301
200.605365324
199.273751616
200.621654177
201.012586641
199.733911705
199.737983918
199.717622852
200.609437537
199.697261786
200.62572639
200.165566301
200.161494088
199.701334
199.733911705
199.701334
200.605365324
199.733911705
200.145205235
200.145205235
200.145205235
199.733911705
199.717622852
199.737983918
200.177782941
199.717622852
199.701334
199.717622852
200.177782941
200.605365324
199.701334
200.145205235
199.701334
199.733911705
200.145205235
199.819428182
199.290040469
200.605365324
200.161494088
199.717622852
199.697261786
201.46053009
199.290040469
200.145205235
199.290040469
199.290040469
200.621654177
200.605365324
199.701334
199.290040469
200.145205235
199.717622852
200.177782941
199.697261786
199.733911705
199.733911705
200.161494088
199.290040469
199.701334
199.733911705
200.177782941
199.717622852
200.605365324
199.269679403
199.697261786
199.717622852
199.717622852
199.273751616
200.62572639
199.290040469
199.717622852

Block: 4
======================================
199.257462764
200.605365324
200.161494088
199.737983918
199.717622852
200.161494088
200.605365324
199.701334
199.273751616
199.733911705
199.310401535
200.214432859
199.685045147
199.269679403
201.440169024
200.145205235
199.717622852
200.181855154
199.733911705
199.733911705
199.701334
200.161494088
199.733911705
200.145205235
200.181855154
199.717622852
199.701334
200.141133022
200.161494088
200.177782941
201.016658854
199.253390551
199.733911705
200.642015243
199.290040469
199.717622852
199.717622852
200.177782941
199.717622852
200.145205235
200.589076471
199.273751616
199.294112682
199.733911705
199.294112682
200.161494088
199.733911705
199.290040469
200.161494088
200.145205235
200.605365324
200.145205235
199.273751616
200.605365324
200.141133022
200.145205235
199.701334
200.177782941
199.273751616
199.733911705
199.717622852
199.733911705
199.717622852
199.717622852
200.198144007
200.621654177
199.717622852
199.717622852
200.181855154
199.733911705
199.253390551
201.456457877
199.733911705
200.145205235
199.737983918
199.717622852
199.273751616
200.589076471
199.701334
200.161494088
199.737983918
199.717622852
199.697261786
199.717622852
200.161494088
200.161494088
199.733911705
199.733911705
199.717622852
200.145205235
199.733911705
199.717622852
199.273751616
200.161494088
200.161494088
199.273751616
200.161494088
199.750200558
200.145205235
199.733911705

Block: 5
======================================
200.210360646
199.717622852
199.701334
200.589076471
199.733911705
199.733911705
199.273751616
199.717622852
200.589076471
200.145205235
199.754272771
199.733911705
199.701334
199.754272771
199.273751616
200.161494088
199.717622852
200.181855154
199.733911705
199.717622852
199.717622852
200.177782941
199.750200558
199.733911705
199.754272771
199.273751616
199.733911705
199.733911705
199.273751616
200.161494088
199.733911705
199.733911705
200.177782941
200.161494088
199.717622852
199.733911705
200.605365324
199.733911705
199.737983918
200.161494088
199.717622852
199.257462764
199.733911705
200.161494088
200.145205235
199.737983918
199.717622852
200.585004258
199.733911705
200.605365324
199.737983918
201.032947707
199.257462764
200.161494088
201.04923656
200.161494088
199.717622852
199.717622852
199.717622852
200.177782941
199.306329322
199.717622852
199.701334
199.290040469
199.273751616
199.750200558
199.273751616
200.181855154
199.733911705
199.733911705
200.165566301
200.161494088
199.290040469
199.717622852
199.701334
200.161494088
201.46053009
199.737983918
200.177782941
200.181855154
199.737983918
199.294112682
199.257462764
199.273751616
199.701334
199.717622852
200.605365324
199.717622852
200.568715405
200.161494088
199.290040469
200.161494088
199.733911705
199.701334
199.733911705
200.161494088
199.701334
199.717622852
199.733911705
199.273751616

Block: 6
======================================
199.717622852
199.733911705
199.717622852
199.717622852
199.701334
200.177782941
200.128916383
199.697261786
200.145205235
200.198144007
200.605365324
201.427952385
199.717622852
199.701334
199.701334
200.128916383
200.145205235
200.605365324
200.605365324
200.161494088
199.717622852
199.717622852
200.161494088
200.605365324
200.605365324
200.161494088
200.161494088
199.717622852
199.701334
199.717622852
199.717622852
200.161494088
199.717622852
199.717622852
199.701334
200.621654177
199.685045147
199.717622852
200.605365324
199.273751616
199.733911705
199.680972934
199.717622852
200.589076471
201.04923656
200.128916383
199.733911705
200.161494088
200.161494088
199.717622852
199.717622852
199.294112682
199.697261786
200.621654177
199.273751616
199.717622852
200.198144007
199.733911705
200.145205235
201.032947707
200.605365324
199.717622852
201.032947707
199.701334
199.701334
199.697261786
200.605365324
199.701334
199.717622852
200.161494088
200.161494088
200.161494088
199.701334
200.145205235
199.701334
200.605365324
200.161494088
200.161494088
200.177782941
200.605365324
200.181855154
199.733911705
199.717622852
200.589076471
200.145205235
200.141133022
199.717622852
200.589076471
199.290040469
200.161494088
200.605365324
199.701334
199.680972934
199.685045147
199.717622852
200.589076471
199.733911705
199.685045147
199.701334
199.273751616

Block: 7
======================================
199.737983918
201.000370002
200.12484417
199.273751616
199.701334
200.145205235
199.697261786
199.257462764
199.257462764
199.717622852
199.290040469
199.290040469
199.253390551
199.717622852
199.290040469
199.717622852
199.701334
199.737983918
199.310401535
199.737983918
200.161494088
200.161494088
199.701334
199.257462764
199.273751616
199.717622852
201.423880172
199.733911705
200.161494088
199.701334
200.145205235
199.717622852
200.161494088
200.161494088
199.717622852
199.717622852
201.46053009
199.701334
200.145205235
200.161494088
199.717622852
200.128916383
199.717622852
199.717622852
201.46053009
199.290040469
200.141133022
200.161494088
199.269679403
199.273751616
199.717622852
200.161494088
200.145205235
199.717622852
199.717622852
200.585004258
199.737983918
200.161494088
199.717622852
200.181855154
201.012586641
200.161494088
199.717622852
199.701334
200.177782941
199.273751616
199.737983918
200.589076471
201.016658854
199.701334
199.701334
200.161494088
199.737983918
199.737983918
199.701334
199.717622852
199.697261786
200.161494088
199.717622852
199.701334
199.717622852
199.717622852
199.680972934
200.145205235
199.701334
199.680972934
200.145205235
199.717622852
200.589076471
200.585004258
200.605365324
199.697261786
199.701334
199.717622852
199.685045147
199.697261786
199.697261786
199.717622852
199.701334
200.145205235

Block: 8
======================================
199.273751616
199.701334
199.717622852
200.161494088
200.161494088
200.145205235
199.253390551
199.273751616
199.273751616
199.290040469
200.605365324
199.257462764
199.273751616
199.664684081
199.717622852
199.733911705
200.161494088
200.161494088
199.701334
200.605365324
200.605365324
199.733911705
200.145205235
199.273751616
200.605365324
200.198144007
200.145205235
200.128916383
199.697261786
200.145205235
199.717622852
199.733911705
200.161494088
199.685045147
199.701334
199.733911705
199.717622852
200.589076471
199.701334
199.290040469
200.62572639
199.273751616
199.717622852
200.605365324
200.141133022
199.717622852
199.273751616
200.177782941
199.733911705
200.161494088
201.476818943
200.609437537
200.145205235
199.273751616
200.161494088
199.701334
199.717622852
199.701334
200.161494088
199.733911705
199.273751616
199.273751616
199.701334
199.697261786
199.733911705
199.733911705
200.161494088
200.177782941
200.177782941
199.290040469
199.701334
199.701334
200.605365324
200.145205235
199.733911705
200.161494088
199.733911705
199.273751616
199.290040469
200.177782941
200.145205235
199.717622852
200.609437537
199.750200558
200.161494088
200.177782941
199.257462764
199.737983918
199.717622852
200.145205235
200.177782941
199.701334
200.589076471
199.290040469
200.161494088
199.701334
199.701334
200.161494088
199.717622852
200.145205235

Block: 9
======================================
199.680972934
200.605365324
199.733911705
186.686540699
199.717622852
200.161494088
199.717622852
200.605365324
199.717622852
199.701334
200.605365324
199.253390551
200.177782941
199.701334
199.257462764
199.733911705
199.717622852
200.145205235
200.145205235
199.701334
201.444241238
200.145205235
199.717622852
200.161494088
199.701334
199.717622852
199.701334
200.165566301
199.701334
199.701334
199.717622852
199.697261786
199.733911705
199.750200558
199.717622852
200.161494088
199.701334
199.717622852
199.717622852
200.12484417
200.605365324
200.165566301
200.62572639
199.701334
199.701334
199.697261786
200.161494088
199.733911705
199.717622852
199.701334
199.733911705
200.996297789
200.145205235
199.717622852
200.572787619
201.012586641
201.016658854
200.568715405
199.717622852
200.128916383
199.717622852
200.161494088
200.145205235
200.177782941
199.717622852
200.161494088
200.161494088
199.701334
199.273751616
199.717622852
200.161494088
200.161494088
200.161494088
200.177782941
199.733911705
200.605365324
199.733911705
199.737983918
199.717622852
200.161494088
199.737983918
199.257462764
200.605365324
199.717622852
199.733911705
199.737983918
200.572787619
200.161494088
200.145205235
200.161494088
200.161494088
200.161494088
199.717622852
201.032947707
199.701334
200.62572639
200.181855154
199.754272771
199.701334
199.750200558

Block: 10
======================================
200.165566301
199.733911705
199.701334
199.717622852
200.161494088
199.701334
200.589076471
199.701334
199.733911705
199.701334
199.754272771
200.605365324
199.717622852
199.290040469
199.290040469
200.141133022
201.016658854
200.161494088
199.717622852
199.733911705
199.273751616
199.717622852
199.717622852
200.589076471
200.605365324
199.733911705
199.257462764
200.161494088
199.697261786
200.177782941
200.177782941
199.733911705
199.717622852
199.717622852
199.717622852
199.733911705
200.145205235
199.737983918
200.145205235
199.733911705
199.733911705
199.290040469
199.717622852
200.621654177
199.717622852
199.273751616
199.750200558
199.717622852
199.717622852
199.717622852
199.294112682
200.128916383
200.161494088
199.733911705
200.161494088
199.733911705
199.717622852
200.177782941
200.605365324
199.733911705
199.253390551
199.717622852
200.161494088
199.737983918
199.257462764
200.161494088
199.717622852
200.621654177
199.717622852
200.177782941
199.733911705
200.161494088
200.605365324
201.028875494
199.701334
200.161494088
200.165566301
199.306329322
200.161494088
200.145205235
199.717622852
200.161494088
200.161494088
199.717622852
199.717622852
199.733911705
199.273751616
199.290040469
199.697261786
200.177782941
199.701334
200.161494088
199.717622852
199.648395228
199.717622852
199.733911705
199.701334
200.621654177
199.701334
199.733911705
