
Block: 1
======================================
400.704828906
400.247934103
400.704828906
400.72504549
400.26410737
400.247934103
400.688655639
401.177896976
401.198113561
400.688655639
401.194070244
400.704828906
400.247934103
400.26410737
400.26410737
400.26410737
400.773565292
400.26410737
400.26410737
400.757392025
400.26410737
401.145550442
401.198113561
400.688655639
400.704828906
400.349017024
401.129377174
400.231760836
400.704828906
401.198113561
400.668439054
400.773565292
400.280280638
400.708872223
401.145550442
400.688655639
400.704828906
400.247934103
400.243890786
400.26410737
400.247934103
400.26410737
401.145550442
401.145550442
400.773565292
401.145550442
400.684612322
401.198113561
400.688655639
400.704828906
400.704828906
400.704828906
401.194070244
400.684612322
401.129377174
400.26410737
400.704828906
400.280280638
400.26410737
400.688655639
400.668439054
400.26410737
400.688655639
400.26410737
400.688655639
401.210243511
400.688655639
400.688655639
401.553925443
400.332843757
400.26410737
400.332843757
400.26410737
400.688655639
400.704828906

Block: 2
======================================
401.165767026
400.672482371
400.227717519
401.145550442
400.668439054
400.247934103
401.537752175
401.113203907
400.296453905
400.247934103
400.688655639
400.672482371
400.247934103
400.231760836
400.26410737
400.757392025
400.753348708
400.688655639
400.215587568
400.231760836
400.247934103
400.243890786
401.129377174
401.10916059
400.296453905
400.773565292
400.231760836
400.300497222
401.129377174
401.113203907
400.247934103
400.231760836
400.231760836
400.247934103
400.247934103
400.227717519
400.704828906
400.243890786
400.247934103
401.10916059
400.672482371
400.688655639
401.113203907
400.704828906
400.672482371
400.688655639
400.231760836
400.247934103
400.688655639
400.688655639
400.704828906
401.194070244
400.688655639
400.704828906
400.704828906
400.688655639
400.704828906
400.688655639
400.26410737
401.145550442
400.704828906
400.704828906
400.688655639
401.129377174
400.704828906
400.688655639
401.57009871
400.688655639
400.684612322
400.704828906
400.688655639
401.145550442
401.145550442
401.57009871
400.704828906

Block: 3
======================================
400.26410737
400.78973856
400.349017024
400.26410737
400.280280638
400.280280638
400.757392025
400.349017024
401.145550442
400.296453905
400.243890786
400.26410737
400.349017024
400.704828906
400.332843757
400.247934103
400.280280638
400.280280638
400.72504549
400.721002173
401.145550442
400.280280638
400.280280638
400.704828906
400.704828906
400.721002173
400.280280638
400.721002173
400.280280638
400.280280638
400.26410737
400.26410737
401.161723709
401.125333858
401.177896976
400.280280638
401.129377174
400.316670489
401.145550442
400.26410737
401.125333858
400.26410737
400.26410737
400.704828906
400.32880044
400.26410737
400.280280638
400.721002173
400.684612322
400.247934103
400.26410737
400.32880044
400.26410737
400.704828906
400.26410737
401.230460095
400.284323955
401.145550442
400.704828906
400.704828906
401.210243511
400.26410737
400.312627172
400.26410737
400.704828906
400.704828906
400.688655639
400.280280638
400.332843757
400.688655639
401.198113561
400.741218758
400.247934103
400.316670489
400.704828906

Block: 4
======================================
400.652265787
400.243890786
400.211544251
400.672482371
400.227717519
400.688655639
400.296453905
400.688655639
400.737175441
400.668439054
400.721002173
400.231760836
401.978473711
400.243890786
400.227717519
400.231760836
400.231760836
400.227717519
400.211544251
400.652265787
400.63609252
400.753348708
400.231760836
400.215587568
400.652265787
401.113203907
400.231760836
400.227717519
400.668439054
400.656309104
400.211544251
400.211544251
400.211544251
401.092987323
401.076814055
401.09703064
401.145550442
401.113203907
402.382805395
401.517535591
401.129377174
401.161723709
401.125333858
400.215587568
401.092987323
400.668439054
400.652265787
400.231760836
400.652265787
400.656309104
400.652265787
400.63609252
400.757392025
401.161723709
400.215587568
401.533708858
400.721002173
400.656309104
400.652265787
400.63609252
400.652265787
400.656309104
400.63609252
400.63609252
401.076814055
400.63609252
401.060640788
401.501362324
400.619919252
400.603745985
400.688655639
401.586271977
401.080857372
401.145550442
400.652265787

Block: 5
======================================
401.060640788
401.076814055
401.925910592
401.060640788
401.044467521
401.044467521
401.501362324
401.064684105
401.517535591
401.080857372
402.382805395
401.485189056
401.501362324
401.040424204
401.044467521
401.517535591
401.501362324
401.517535591
401.57009871
401.060640788
401.060640788
401.485189056
401.501362324
401.501362324
400.63609252
401.517535591
401.958257127
401.501362324
401.076814055
401.064684105
402.382805395
401.060640788
401.09703064
401.129377174
401.076814055
401.517535591
401.521578908
401.129377174
401.040424204
402.382805395
401.060640788
401.485189056
401.485189056
401.501362324
401.501362324
401.485189056
401.485189056
401.060640788
401.505405641
401.469015789
401.501362324
401.553925443
401.925910592
401.978473711
401.469015789
401.452842522
401.909737325
401.909737325
401.893564057
402.398978662
402.35045886
403.652406883
402.346415544
402.35045886
401.893564057
402.334285593
401.889520741
401.873347473
402.386848712
402.334285593
402.314069009
402.791180396
403.19551208
401.909737325
402.366632128

Block: 6
======================================
401.521578908
401.533708858
401.521578908
401.517535591
401.533708858
401.994646978
401.113203907
401.994646978
401.113203907
401.57009871
401.57009871
401.214286828
401.145550442
401.129377174
401.214286828
401.145550442
401.165767026
401.129377174
401.145550442
400.704828906
400.721002173
400.72504549
400.704828906
400.688655639
400.280280638
400.704828906
401.177896976
400.721002173
400.721002173
401.618618512
400.296453905
400.260064054
400.280280638
400.721002173
400.300497222
400.704828906
400.72504549
401.230460095
400.704828906
400.721002173
400.737175441
400.737175441
400.26410737
400.280280638
400.316670489
400.721002173
400.284323955
400.296453905
400.300497222
400.280280638
400.78973856
400.284323955
400.721002173
400.809955144
400.721002173
400.906994748
400.26410737
400.704828906
400.26410737
400.26410737
400.26410737
400.769521976
400.26410737
401.230460095
400.300497222
400.296453905
400.26410737
400.284323955
400.280280638
400.757392025
400.721002173
400.704828906
400.688655639
400.26410737
400.26410737

Block: 7
======================================
400.773565292
400.26410737
400.280280638
400.26410737
400.312627172
400.26410737
400.312627172
401.145550442
401.145550442
400.721002173
400.26410737
400.247934103
401.129377174
400.704828906
400.757392025
400.280280638
400.721002173
400.280280638
400.78973856
400.721002173
401.145550442
400.247934103
400.247934103
400.26410737
400.26410737
400.247934103
401.214286828
400.32880044
401.57009871
400.704828906
400.247934103
400.721002173
400.26410737
400.332843757
400.280280638
401.129377174
400.247934103
400.26410737
400.688655639
400.672482371
400.672482371
401.145550442
400.26410737
401.113203907
400.672482371
401.145550442
400.247934103
400.247934103
400.672482371
400.757392025
400.26410737
401.177896976
401.537752175
401.129377174
400.231760836
401.145550442
401.129377174
400.247934103
401.145550442
401.10916059
401.129377174
400.247934103
400.26410737
400.688655639
401.113203907
401.129377174
400.26410737
400.688655639
401.974430394
401.129377174
400.684612322
400.672482371
401.113203907
400.773565292
400.668439054

Block: 8
======================================
401.129377174
401.602445245
401.129377174
401.113203907
400.737175441
401.113203907
401.63479178
400.688655639
400.773565292
401.129377174
400.757392025
401.145550442
400.672482371
400.668439054
400.688655639
400.668439054
401.09703064
400.656309104
401.129377174
400.688655639
400.672482371
400.704828906
401.177896976
400.672482371
402.403021979
400.668439054
400.704828906
400.684612322
401.10916059
401.57009871
400.72504549
402.010820246
401.125333858
401.10916059
400.688655639
400.672482371
400.688655639
401.129377174
401.10916059
401.113203907
401.10916059
401.553925443
401.521578908
401.09703064
400.652265787
401.177896976
402.398978662
400.656309104
401.177896976
400.652265787
401.113203907
400.672482371
401.10916059
401.076814055
401.092987323
401.113203907
400.688655639
401.586271977
400.656309104
401.978473711
401.080857372
401.09703064
401.198113561
401.076814055
401.076814055
401.962300444
400.63609252
401.09703064
401.076814055
401.145550442
400.656309104
401.161723709
401.092987323
401.145550442
400.63609252

Block: 9
======================================
401.145550442
401.080857372
401.076814055
401.145550442
402.010820246
400.652265787
400.619919252
401.092987323
401.092987323
401.060640788
400.652265787
401.145550442
401.076814055
400.652265787
401.09703064
400.63609252
401.092987323
401.962300444
401.517535591
400.652265787
401.09703064
400.656309104
400.652265787
400.63609252
401.080857372
401.533708858
400.63609252
400.63609252
401.092987323
400.640135837
400.652265787
400.672482371
400.672482371
400.63609252
401.09703064
400.721002173
401.517535591
400.211544251
400.211544251
400.652265787
401.113203907
401.533708858
400.195370984
400.215587568
400.227717519
400.737175441
401.113203907
400.672482371
400.227717519
400.215587568
400.672482371
400.211544251
400.231760836
400.300497222
400.243890786
400.227717519
400.652265787
401.214286828
400.300497222
400.280280638
400.300497222
400.296453905
400.247934103
400.688655639
400.672482371
400.211544251
400.211544251
400.231760836
400.211544251
400.227717519
400.72504549
400.227717519
400.672482371
400.652265787
400.652265787

Block: 10
======================================
400.737175441
400.195370984
400.688655639
400.63609252
401.10916059
400.231760836
400.211544251
400.656309104
400.211544251
401.092987323
400.741218758
400.63609252
400.231760836
400.280280638
400.737175441
400.231760836
400.704828906
400.227717519
400.215587568
400.757392025
400.227717519
400.231760836
401.113203907
401.09703064
400.211544251
400.63609252
400.215587568
400.652265787
401.092987323
400.672482371
400.211544251
400.652265787
400.656309104
400.737175441
400.215587568
400.652265787
400.211544251
401.113203907
400.211544251
400.231760836
400.231760836
401.10916059
400.199414301
400.195370984
400.215587568
401.076814055
400.280280638
400.231760836
400.737175441
400.704828906
400.211544251
400.656309104
400.195370984
400.72504549
400.195370984
400.215587568
401.537752175
400.652265787
400.211544251
400.652265787
400.652265787
400.215587568
401.537752175
400.63609252
400.672482371
400.211544251
400.672482371
401.978473711
400.296453905
400.215587568
400.280280638
400.227717519
400.215587568
400.247934103
400.215587568
