
Block: 1
======================================
401.549882126
400.704828906
401.177896976
400.753348708
400.247934103
401.129377174
400.247934103
400.704828906
401.978473711
400.247934103

Average distance is : 400.874 cm
Average deviation is : 0.585 cm
Block: 2
======================================
400.243890786
400.704828906
400.704828906
400.231760836
400.247934103
400.26410737
400.721002173
400.688655639
400.26410737
400.247934103

Average distance is : 400.432 cm
Average deviation is : 0.235 cm
Block: 3
======================================
401.553925443
401.177896976
400.704828906
400.688655639
400.688655639
400.737175441
400.688655639
400.652265787
401.113203907
400.247934103

Average distance is : 400.825 cm
Average deviation is : 0.362 cm
Block: 4
======================================
400.672482371
400.688655639
400.773565292
400.668439054
401.145550442
400.688655639
400.688655639
400.672482371
401.194070244
400.656309104

Average distance is : 400.785 cm
Average deviation is : 0.206 cm
Block: 5
======================================
400.652265787
400.672482371
400.231760836
401.092987323
400.656309104
400.704828906
400.753348708
400.247934103
400.672482371
401.177896976

Average distance is : 400.686 cm
Average deviation is : 0.301 cm
Block: 6
======================================
400.672482371
401.113203907
400.668439054
400.668439054
400.688655639
400.688655639
400.668439054
400.688655639
400.688655639
400.652265787

Average distance is : 400.720 cm
Average deviation is : 0.139 cm
Block: 7
======================================
400.688655639
400.247934103
400.26410737
400.72504549
401.09703064
400.72504549
400.668439054
401.145550442
401.129377174
401.214286828

Average distance is : 400.791 cm
Average deviation is : 0.353 cm
Block: 8
======================================
400.704828906
400.704828906
401.177896976
400.757392025
400.704828906
400.721002173
401.10916059
400.769521976
401.129377174
400.26410737

Average distance is : 400.804 cm
Average deviation is : 0.273 cm
Block: 9
======================================
400.773565292
401.145550442
400.688655639
400.753348708
400.773565292
400.684612322
400.243890786
400.757392025
400.704828906
401.145550442

Average distance is : 400.767 cm
Average deviation is : 0.253 cm
Block: 10
======================================
400.280280638
400.78973856
400.26410737
401.214286828
400.32880044
400.26410737
401.113203907
401.145550442
400.26410737
400.280280638

Average distance is : 400.594 cm
Average deviation is : 0.420 cm