
Block: 1
======================================
101.164492965
100.330231786
100.313711762
100.317841768
99.9337512255

Block: 2
======================================
100.313711762
100.27654171
100.350881815
100.747362375
101.181012988

Block: 3
======================================
100.350881815
100.330231786
101.214053035
100.346751809
100.330231786

Block: 4
======================================
100.297191739
100.747362375
100.330231786
100.330231786
99.8800611496

Block: 5
======================================
101.160362959
99.9172312021
100.297191739
100.313711762
99.9172312021

Block: 6
======================================
101.147972941
100.747362375
100.297191739
100.297191739
100.297191739

Block: 7
======================================
100.317841768
100.763882399
100.27654171
100.768012404
101.181012988

Block: 8
======================================
99.9172312021
101.110802889
100.313711762
99.9007111788
100.280671716

Block: 9
======================================
100.317841768
100.334361792
100.27654171
99.8635411263
100.330231786

Block: 10
======================================
99.8800611496
100.350881815
100.313711762
99.9296212196
100.313711762
