
Block: 1
======================================
100.350881815
100.297191739
100.334361792
101.181012988
101.197533011
100.363271832
100.367401838
100.780402422
100.330231786
100.350881815
100.363271832
99.9502712488
100.768012404
100.763882399
100.367401838
99.9502712488
100.747362375
100.346751809
99.9502712488
99.9502712488
100.367401838
99.9337512255
100.801052451
101.181012988
101.044722795
100.383921862
100.763882399
99.9544012547
99.9502712488
99.9337512255
99.9502712488
99.9337512255
99.9131011963
99.9337512255
99.9172312021
100.367401838
99.9667912722
100.747362375
101.181012988
100.747362375
101.181012988
101.181012988
100.714322329
100.780402422
99.9502712488
100.763882399
100.334361792
99.9131011963
99.9667912722
99.9337512255
99.9131011963
99.9337512255
99.9337512255
99.9337512255
100.334361792
100.747362375
100.330231786
101.197533011
101.197533011
100.317841768
100.313711762
100.317841768
101.214053035
100.297191739
101.197533011
100.330231786
100.747362375
100.350881815
100.330231786
100.297191739
100.350881815
100.763882399
99.9337512255
99.9131011963
100.367401838

Average distance is : 100.413 cm
Average deviation is : 0.430 cm
Block: 2
======================================
100.313711762
100.346751809
99.9874413013
100.313711762
100.747362375
100.297191739
101.181012988
100.383921862
100.330231786
100.747362375
101.230573058
101.160362959
101.218183041
101.230573058
101.181012988
100.763882399
100.330231786
100.317841768
100.313711762
100.330231786
100.784532428
99.9502712488
100.784532428
100.768012404
100.346751809
99.9337512255
100.334361792
100.330231786
99.9502712488
100.796922445
100.747362375
100.313711762
100.730842352
100.334361792
100.301321745
100.297191739
100.751492381
100.297191739
100.330231786
100.350881815
99.9172312021
100.726712346
100.297191739
101.181012988
99.9502712488
99.9544012547
100.297191739
100.297191739
100.730842352
100.346751809
100.297191739
100.330231786
100.334361792
100.747362375
100.330231786
100.297191739
100.334361792
100.317841768
100.763882399
100.280671716
100.313711762
100.730842352
101.181012988
101.181012988
101.201663017
100.313711762
100.297191739
100.350881815
100.297191739
100.313711762
100.313711762
100.297191739
100.313711762
100.350881815
100.334361792

Average distance is : 100.489 cm
Average deviation is : 0.355 cm
Block: 3
======================================
100.317841768
100.334361792
100.350881815
100.730842352
100.330231786
100.350881815
100.763882399
99.9337512255
100.768012404
100.751492381
100.313711762
100.297191739
100.297191739
100.330231786
100.330231786
100.747362375
99.9296212196
99.9337512255
101.197533011
100.747362375
100.710192323
100.768012404
99.9667912722
99.9337512255
100.730842352
100.317841768
100.334361792
100.313711762
100.313711762
100.313711762
100.714322329
100.317841768
99.9337512255
101.181012988
100.297191739
100.297191739
100.313711762
100.330231786
100.313711762
100.346751809
100.726712346
100.714322329
99.9337512255
100.763882399
99.9502712488
99.9337512255
101.181012988
101.181012988
100.297191739
100.330231786
100.297191739
100.313711762
100.297191739
100.297191739
99.9502712488
101.201663017
101.201663017
101.160362959
101.181012988
101.181012988
100.747362375
100.350881815
100.763882399
100.730842352
99.9502712488
100.784532428
101.214053035
100.297191739
100.313711762
100.313711762
100.330231786
100.297191739
100.730842352
100.297191739
99.9502712488

Average distance is : 100.476 cm
Average deviation is : 0.380 cm
Block: 4
======================================
100.350881815
100.330231786
100.334361792
100.313711762
100.334361792
100.330231786
100.350881815
101.197533011
100.297191739
100.313711762
100.297191739
100.730842352
100.317841768
100.710192323
100.313711762
100.297191739
100.313711762
100.313711762
100.313711762
100.330231786
100.313711762
100.334361792
100.317841768
100.334361792
101.181012988
100.313711762
100.280671716
101.164492965
101.197533011
101.181012988
101.201663017
100.313711762
100.747362375
100.313711762
100.313711762
100.313711762
100.350881815
100.297191739
100.334361792
100.313711762
100.297191739
100.313711762
100.350881815
100.747362375
99.9337512255
100.726712346
100.730842352
99.9667912722
99.9296212196
99.9544012547
101.164492965
100.313711762
100.313711762
100.313711762
100.313711762
100.297191739
100.334361792
100.297191739
100.313711762
100.334361792
100.297191739
100.27654171
101.181012988
100.697802305
100.747362375
101.197533011
100.697802305
100.297191739
100.334361792
100.714322329
101.181012988
100.297191739
100.313711762
100.330231786
100.297191739

Average distance is : 100.467 cm
Average deviation is : 0.330 cm
Block: 5
======================================
100.313711762
100.037001371
100.330231786
100.367401838
100.330231786
100.297191739
100.313711762
100.297191739
100.297191739
100.317841768
100.313711762
100.350881815
100.297191739
100.297191739
100.313711762
101.181012988
101.181012988
100.730842352
100.710192323
100.297191739
100.313711762
100.334361792
100.313711762
100.297191739
100.334361792
100.730842352
100.730842352
100.710192323
101.164492965
100.747362375
100.714322329
99.9337512255
100.280671716
100.730842352
100.313711762
100.297191739
100.317841768
100.317841768
100.297191739
101.160362959
100.313711762
100.297191739
101.197533011
100.730842352
100.644112229
100.297191739
100.334361792
100.313711762
100.367401838
101.181012988
100.297191739
100.334361792
100.297191739
100.747362375
100.297191739
100.346751809
100.334361792
100.27654171
100.334361792
100.350881815
101.197533011
99.9337512255
100.714322329
100.780402422
100.317841768
100.280671716
100.317841768
100.297191739
100.27654171
100.350881815
100.313711762
100.313711762
100.330231786
100.313711762
100.297191739

Average distance is : 100.453 cm
Average deviation is : 0.294 cm
Block: 6
======================================
100.350881815
100.334361792
100.260021687
100.313711762
100.297191739
100.330231786
100.297191739
100.730842352
100.714322329
100.330231786
100.330231786
100.313711762
100.317841768
99.9007111788
101.181012988
100.313711762
100.346751809
99.9337512255
99.9337512255
101.164492965
100.313711762
100.313711762
100.350881815
100.317841768
100.313711762
100.313711762
100.297191739
100.710192323
100.313711762
100.313711762
100.334361792
100.313711762
100.334361792
100.346751809
100.350881815
100.330231786
100.334361792
100.313711762
100.751492381
100.714322329
101.181012988
100.297191739
100.317841768
100.330231786
100.350881815
100.330231786
100.334361792
100.313711762
100.313711762
100.313711762
100.330231786
100.313711762
100.317841768
100.317841768
100.313711762
99.9131011963
100.330231786
100.297191739
100.313711762
100.313711762
100.334361792
100.313711762
100.747362375
100.350881815
100.330231786
100.367401838
100.350881815
100.367401838
100.313711762
100.301321745
100.330231786
100.297191739
100.297191739
100.297191739
100.334361792

Average distance is : 100.367 cm
Average deviation is : 0.223 cm
Block: 7
======================================
100.297191739
100.350881815
100.280671716
100.297191739
100.346751809
100.330231786
100.334361792
101.181012988
100.313711762
100.313711762
100.334361792
100.330231786
100.330231786
100.350881815
100.350881815
101.197533011
100.297191739
100.313711762
100.297191739
100.317841768
100.330231786
100.313711762
100.334361792
100.297191739
100.297191739
100.714322329
100.313711762
100.297191739
101.181012988
100.280671716
100.714322329
100.297191739
100.317841768
100.330231786
100.334361792
100.334361792
100.330231786
100.330231786
100.313711762
100.313711762
100.313711762
100.313711762
100.330231786
100.317841768
100.297191739
100.313711762
100.297191739
100.780402422
100.313711762
100.768012404
100.330231786
100.334361792
100.313711762
100.297191739
100.313711762
100.714322329
100.317841768
100.330231786
100.297191739
99.9296212196
100.367401838
99.8965811729
100.313711762
99.9172312021
100.334361792
100.317841768
99.9007111788
99.9172312021
100.334361792
100.334361792
100.313711762
100.313711762
100.297191739
99.9337512255
100.350881815

Average distance is : 100.349 cm
Average deviation is : 0.234 cm
Block: 8
======================================
99.9131011963
99.8635411263
100.350881815
99.9007111788
99.9172312021
100.330231786
100.297191739
100.313711762
100.334361792
100.297191739
100.334361792
100.350881815
100.313711762
100.313711762
100.334361792
100.334361792
100.313711762
100.297191739
100.313711762
100.297191739
100.313711762
100.363271832
100.350881815
100.297191739
100.297191739
101.197533011
100.313711762
100.714322329
100.317841768
101.214053035
100.313711762
100.317841768
100.313711762
100.330231786
100.313711762
100.330231786
100.330231786
100.313711762
100.330231786
100.334361792
100.330231786
100.317841768
100.330231786
100.747362375
100.297191739
100.334361792
100.330231786
100.297191739
100.297191739
101.197533011
100.334361792
100.297191739
101.181012988
100.317841768
100.313711762
100.297191739
100.313711762
100.710192323
100.346751809
100.313711762
99.9337512255
100.313711762
100.330231786
100.297191739
100.334361792
100.313711762
100.297191739
100.313711762
100.346751809
100.367401838
100.334361792
100.297191739
99.9007111788
100.297191739
100.280671716

Average distance is : 100.349 cm
Average deviation is : 0.248 cm
Block: 9
======================================
100.297191739
100.330231786
100.313711762
100.317841768
100.297191739
100.297191739
100.297191739
100.313711762
100.313711762
100.330231786
100.313711762
100.330231786
100.367401838
100.313711762
99.9337512255
100.334361792
100.313711762
100.317841768
100.313711762
100.313711762
100.330231786
100.334361792
100.350881815
99.9337512255
100.313711762
100.330231786
100.297191739
100.297191739
100.297191739
100.334361792
100.334361792
100.313711762
100.346751809
100.297191739
100.330231786
99.9172312021
100.330231786
100.297191739
99.9172312021
100.313711762
100.330231786
100.334361792
100.313711762
100.297191739
100.313711762
100.330231786
100.350881815
100.346751809
100.317841768
100.313711762
100.334361792
100.330231786
100.313711762
100.313711762
100.730842352
100.297191739
100.313711762
100.730842352
100.334361792
100.313711762
100.313711762
99.9172312021
100.313711762
100.313711762
100.297191739
100.313711762
100.313711762
100.714322329
100.334361792
100.346751809
100.297191739
100.297191739
100.317841768
100.697802305
100.730842352

Average distance is : 100.319 cm
Average deviation is : 0.147 cm
Block: 10
======================================
100.334361792
100.350881815
99.9337512255
100.334361792
100.330231786
100.297191739
100.330231786
101.164492965
99.9337512255
99.9502712488
101.181012988
101.164492965
100.317841768
100.334361792
100.313711762
100.747362375
100.710192323
101.181012988
100.693672299
100.317841768
100.334361792
100.330231786
100.313711762
100.350881815
100.313711762
100.730842352
100.297191739
100.313711762
100.297191739
100.313711762
100.297191739
100.313711762
100.330231786
100.313711762
100.313711762
100.334361792
100.350881815
100.334361792
100.346751809
100.313711762
100.714322329
99.9172312021
100.710192323
100.697802305
100.313711762
100.330231786
100.334361792
100.313711762
100.313711762
99.9544012547
101.181012988
100.330231786
101.197533011
99.9337512255
101.181012988
99.9502712488
100.730842352
101.201663017
100.297191739
100.346751809
100.330231786
100.313711762
100.280671716
100.313711762
100.346751809
100.297191739
100.297191739
100.297191739
101.181012988
101.197533011
100.784532428
101.197533011
100.768012404
100.768012404
101.197533011

Average distance is : 100.484 cm
Average deviation is : 0.366 cm
Average distance for 10x75 is : 100.417 cm
Average deviation for 10x75 is : 0.301 cm
 Percentage of values that failed: 0.000