
Block: 1
======================================
99.9337512255
100.350881815
100.697802305
99.9337512255
100.330231786
100.297191739
99.9007111788
100.317841768
100.297191739
100.297191739
100.297191739
100.747362375
101.181012988
101.147972941
99.9172312021
100.297191739
99.9131011963
99.8841911554
100.313711762
100.317841768
101.164492965
99.8800611496
100.730842352
99.9007111788
100.747362375

Average distance is : 100.352 cm
Average deviation is : 0.416 cm
Block: 2
======================================
100.313711762
100.730842352
100.330231786
99.9296212196
100.297191739
100.280671716
100.297191739
100.297191739
100.260021687
100.280671716
100.280671716
99.8800611496
100.297191739
100.280671716
99.8965811729
100.297191739
100.297191739
100.313711762
100.313711762
100.297191739
100.334361792
100.330231786
100.313711762
100.317841768
100.297191739

Average distance is : 100.271 cm
Average deviation is : 0.164 cm
Block: 3
======================================
101.131452918
100.714322329
100.297191739
101.164492965
100.260021687
100.280671716
100.297191739
99.8800611496
100.313711762
99.8965811729
100.313711762
99.9007111788
100.747362375
100.747362375
99.8841911554
100.297191739
99.8800611496
99.9007111788
100.27654171
100.297191739
100.317841768
100.330231786
100.313711762
100.280671716
100.313711762

Average distance is : 100.321 cm
Average deviation is : 0.354 cm
Block: 4
======================================
100.280671716
100.730842352
100.280671716
99.8800611496
100.730842352
100.747362375
99.9131011963
99.8800611496
100.313711762
99.8965811729
100.280671716
100.330231786
100.330231786
100.784532428
100.730842352
101.143842936
99.9172312021
100.334361792
100.313711762
100.297191739
100.313711762
100.280671716
99.8841911554
100.313711762
99.9131011963

Average distance is : 100.313 cm
Average deviation is : 0.344 cm
Block: 5
======================================
100.280671716
101.143842936
100.317841768
100.693672299
99.8965811729
100.27654171
100.297191739
100.297191739
100.297191739
99.9131011963
100.313711762
100.334361792
100.297191739
100.313711762
100.313711762
100.313711762
100.350881815
99.8965811729
100.313711762
99.9172312021
99.9337512255
99.8965811729
99.9007111788
100.334361792
99.8635411263

Average distance is : 100.228 cm
Average deviation is : 0.290 cm
Block: 6
======================================
100.768012404
100.313711762
83.5995781422
99.9172312021
100.697802305
100.313711762
100.280671716
100.317841768
100.297191739
100.280671716
100.313711762
100.334361792
100.313711762
99.9172312021
100.301321745
100.313711762
100.297191739
100.280671716
100.330231786
100.313711762
100.313711762
100.313711762
100.313711762
100.313711762
100.313711762

Average distance is : 99.643 cm
Average deviation is : 3.347 cm
Block: 7
======================================
99.9502712488
100.730842352
100.297191739
101.164492965
100.313711762
100.313711762
99.8841911554
100.297191739
99.9172312021
100.317841768
99.9131011963
100.280671716
100.317841768
100.334361792
100.730842352
99.9007111788
99.9131011963
99.9172312021
99.8800611496
99.9007111788
100.330231786
99.9131011963
100.27654171
100.330231786
100.313711762

Average distance is : 100.218 cm
Average deviation is : 0.322 cm
Block: 8
======================================
99.9502712488
100.334361792
100.297191739
100.768012404
99.9131011963
100.280671716
100.313711762
100.313711762
99.8635411263
100.710192323
99.8800611496
99.9007111788
99.9172312021
99.8800611496
100.334361792
100.280671716
100.313711762
100.280671716
100.297191739
100.297191739
100.280671716
100.280671716
100.317841768
100.330231786
99.9007111788

Average distance is : 100.209 cm
Average deviation is : 0.247 cm
Block: 9
======================================
100.313711762
100.280671716
100.264151692
99.8965811729
100.330231786
100.317841768
100.313711762
100.297191739
100.313711762
100.730842352
100.330231786
100.330231786
99.9172312021
100.714322329
100.313711762
100.297191739
100.330231786
100.313711762
100.27654171
99.9007111788
100.330231786
100.297191739
100.297191739
100.350881815
100.173291564

Average distance is : 100.289 cm
Average deviation is : 0.188 cm
Block: 10
======================================
100.730842352
100.730842352
100.280671716
100.297191739
100.297191739
100.280671716
100.313711762
100.297191739
100.264151692
100.330231786
99.8965811729
100.297191739
100.297191739
100.297191739
100.280671716
100.297191739
100.330231786
99.9172312021
100.334361792
99.9172312021
99.8800611496
100.280671716
100.313711762
100.313711762
100.297191739

Average distance is : 100.271 cm
Average deviation is : 0.203 cm
Average distance for 10x25 is : 100.212 cm
Average deviation for 10x25 is : 0.558 cm
 Percentage of values that failed: 0.000