
Block: 1
======================================
99.9131011963
99.8965811729
99.8965811729
100.313711762
99.8841911554
100.313711762
100.297191739
99.8635411263
99.8841911554
100.313711762
99.8470211029
99.8635411263
99.8800611496
99.8841911554
99.8800611496
100.317841768
99.8800611496
99.8635411263
100.297191739
100.297191739
99.9172312021
100.297191739
100.313711762
100.297191739
99.8800611496
100.313711762
100.280671716
100.297191739
100.297191739
100.330231786
100.330231786
99.8965811729
99.8800611496
100.317841768
99.9007111788
100.334361792
100.317841768
100.297191739
100.297191739
99.8470211029
99.8841911554
100.317841768
100.313711762
99.8965811729
100.297191739
99.9007111788
100.334361792
99.8965811729
100.313711762
99.8800611496
100.313711762
100.313711762
100.297191739
100.301321745
99.8676711321
100.297191739
100.313711762
100.297191739
100.313711762
100.330231786
100.334361792
100.297191739
99.8635411263
99.9007111788
100.297191739
100.313711762
100.334361792
100.297191739
100.317841768
100.317841768
100.330231786
100.313711762
100.313711762
100.297191739
99.8841911554
100.297191739
99.8635411263
99.8841911554
100.313711762
99.8965811729
100.297191739
100.313711762
100.280671716
99.8676711321
99.8635411263
99.8676711321
100.330231786
99.8635411263
100.313711762
100.260021687
100.297191739
99.8841911554
99.8635411263
99.8800611496
99.8800611496
99.8635411263
99.8676711321
99.8635411263
100.297191739
99.8470211029

Average distance is : 100.124 cm
Average deviation is : 0.214 cm
Block: 2
======================================
99.8965811729
99.8635411263
99.8841911554
99.8965811729
100.334361792
100.330231786
100.313711762
100.313711762
100.313711762
99.8800611496
100.280671716
99.8635411263
99.8965811729
99.9172312021
99.8841911554
99.9007111788
99.8800611496
99.9131011963
99.8800611496
99.8635411263
99.8635411263
100.313711762
100.334361792
99.8635411263
100.313711762
100.330231786
99.8841911554
99.8965811729
99.8676711321
100.57390213
99.8800611496
99.8676711321
99.9007111788
100.334361792
100.313711762
100.297191739
100.297191739
99.8635411263
100.317841768
100.313711762
100.330231786
100.313711762
100.330231786
100.313711762
100.280671716
100.334361792
100.313711762
100.297191739
100.313711762
100.313711762
100.297191739
99.8965811729
100.313711762
100.313711762
100.280671716
99.9131011963
100.330231786
100.280671716
100.260021687
99.8800611496
100.313711762
99.8800611496
99.9007111788
100.297191739
99.8965811729
100.313711762
100.297191739
99.8635411263
99.8800611496
99.8470211029
99.9007111788
99.9007111788
100.313711762
100.313711762
99.8841911554
99.8800611496
100.297191739
100.317841768
99.8635411263
99.8800611496
100.297191739
100.313711762
100.317841768
100.313711762
100.280671716
100.260021687
100.313711762
100.313711762
100.297191739
100.297191739
100.313711762
100.313711762
100.280671716
99.8676711321
99.8965811729
99.8841911554
100.313711762
99.8470211029
100.297191739
100.313711762

Average distance is : 100.132 cm
Average deviation is : 0.216 cm
Block: 3
======================================
99.8800611496
99.9007111788
99.8676711321
99.8965811729
99.9007111788
99.8965811729
100.297191739
99.8635411263
100.297191739
100.280671716
99.8635411263
100.297191739
100.330231786
100.313711762
99.9172312021
99.8635411263
99.8800611496
99.8635411263
99.8676711321
99.8635411263
99.8841911554
99.8800611496
99.8841911554
99.8965811729
99.8965811729
99.8800611496
99.9007111788
99.8635411263
100.313711762
99.8800611496
100.297191739
99.8635411263
99.9172312021
100.313711762
100.313711762
99.8841911554
100.313711762
100.280671716
100.317841768
99.8841911554
100.297191739
100.313711762
100.313711762
100.297191739
99.8635411263
99.8841911554
100.297191739
99.8676711321
100.297191739
99.8800611496
99.8841911554
99.8635411263
100.313711762
100.330231786
100.297191739
99.8676711321
99.8635411263
99.8635411263
100.313711762
100.297191739
100.297191739
100.297191739
99.8635411263
100.297191739
100.313711762
99.8841911554
100.297191739
100.297191739
99.8800611496
100.330231786
100.330231786
99.8841911554
100.313711762
100.330231786
99.8800611496
99.8800611496
99.8635411263
99.8428910971
99.8635411263
100.313711762
99.8635411263
99.8470211029
99.8800611496
99.8965811729
100.297191739
100.313711762
99.8635411263
99.8800611496
100.297191739
100.280671716
99.8800611496
99.8800611496
100.297191739
99.8965811729
99.8800611496
100.297191739
100.297191739
99.8635411263
100.313711762
100.297191739

Average distance is : 100.066 cm
Average deviation is : 0.214 cm
Block: 4
======================================
99.8841911554
100.27654171
99.8635411263
99.8635411263
99.8800611496
99.8635411263
99.8965811729
100.297191739
99.8841911554
100.297191739
100.297191739
99.8800611496
99.8635411263
99.9337512255
100.317841768
100.27654171
100.330231786
100.313711762
99.9007111788
99.8635411263
100.297191739
99.8470211029
99.8470211029
99.8470211029
99.8800611496
99.8635411263
100.280671716
99.9007111788
99.8841911554
99.8800611496
99.9007111788
99.8635411263
99.8800611496
100.297191739
100.297191739
100.313711762
100.297191739
99.8841911554
99.8635411263
99.8800611496
100.313711762
100.297191739
99.8800611496
100.297191739
99.8841911554
99.8841911554
99.9007111788
100.334361792
99.9007111788
100.27654171
100.297191739
99.8470211029
99.8676711321
99.8800611496
99.8800611496
99.8470211029
99.8635411263
99.8965811729
100.297191739
100.313711762
100.297191739
100.280671716
99.8470211029
99.8635411263
100.297191739
99.8841911554
99.8470211029
99.8635411263
99.8635411263
99.8800611496
100.313711762
100.317841768
99.8841911554
99.8965811729
99.8800611496
99.8635411263
100.297191739
100.313711762
99.8635411263
100.317841768
99.8470211029
99.8635411263
99.8841911554
100.297191739
100.313711762
100.260021687
99.8635411263
99.8635411263
100.297191739
100.297191739
100.317841768
100.313711762
100.297191739
99.9007111788
99.8676711321
100.297191739
100.297191739
99.8635411263
99.8635411263
99.8635411263

Average distance is : 100.045 cm
Average deviation is : 0.211 cm
Block: 5
======================================
99.8635411263
99.8800611496
99.8800611496
99.8470211029
99.8841911554
99.8470211029
99.8635411263
99.8635411263
99.8635411263
100.317841768
100.297191739
100.280671716
99.8676711321
100.280671716
99.8800611496
100.317841768
100.334361792
99.8635411263
100.297191739
99.8800611496
100.313711762
99.8635411263
99.8676711321
99.8841911554
99.8800611496
99.9007111788
100.313711762
99.8635411263
99.8965811729
99.8635411263
99.8965811729
99.8800611496
99.8965811729
99.8428910971
99.8965811729
99.8965811729
100.313711762
100.297191739
100.297191739
99.8965811729
99.9007111788
99.8800611496
99.9172312021
100.297191739
99.8841911554
100.297191739
100.280671716
99.8841911554
100.313711762
100.313711762
100.330231786
100.297191739
100.297191739
100.297191739
99.8800611496
100.297191739
100.297191739
100.313711762
100.317841768
100.297191739
99.8965811729
100.313711762
99.8635411263
100.313711762
100.280671716
99.8470211029
99.8800611496
100.330231786
99.9007111788
100.313711762
100.330231786
100.313711762
100.297191739
100.330231786
99.9172312021
100.297191739
100.280671716
100.313711762
100.313711762
100.330231786
100.313711762
100.297191739
100.297191739
100.297191739
100.313711762
100.313711762
100.313711762
100.297191739
100.317841768
100.313711762
99.8965811729
100.313711762
100.280671716
100.317841768
100.317841768
99.8800611496
100.313711762
100.330231786
100.330231786
100.313711762

Average distance is : 100.128 cm
Average deviation is : 0.213 cm
Block: 6
======================================
99.8965811729
99.8841911554
100.297191739
99.8841911554
99.8635411263
100.317841768
100.334361792
99.8841911554
99.8800611496
100.317841768
99.9007111788
100.280671716
99.8800611496
100.297191739
100.27654171
99.8965811729
100.297191739
99.8841911554
100.280671716
99.8470211029
100.297191739
99.9007111788
99.8800611496
99.8800611496
99.8841911554
99.8841911554
99.8841911554
100.313711762
99.8635411263
99.8470211029
100.330231786
100.301321745
99.8676711321
99.8635411263
100.313711762
99.9337512255
99.8800611496
99.8635411263
99.8470211029
99.9172312021
99.8635411263
99.9131011963
99.8635411263
100.334361792
100.297191739
100.313711762
100.280671716
100.27654171
99.8841911554
99.8800611496
100.297191739
100.260021687
99.8841911554
99.8800611496
99.8800611496
100.264151692
100.27654171
99.8470211029
99.8635411263
100.297191739
100.313711762
100.280671716
99.8470211029
99.8470211029
99.8635411263
100.297191739
99.9172312021
100.280671716
99.8635411263
100.297191739
99.8635411263
100.317841768
99.9007111788
99.8470211029
99.8635411263
99.8635411263
100.313711762
99.8635411263
100.301321745
99.9131011963
99.8676711321
100.313711762
100.297191739
100.297191739
99.8635411263
99.8800611496
99.8965811729
99.8676711321
99.8800611496
100.297191739
99.8800611496
99.9007111788
99.8841911554
100.313711762
99.8635411263
100.313711762
99.9007111788
100.297191739
99.8841911554
99.9007111788

Average distance is : 100.043 cm
Average deviation is : 0.207 cm
Block: 7
======================================
99.9131011963
99.8635411263
100.313711762
99.8470211029
100.297191739
100.297191739
100.280671716
99.8841911554
99.8841911554
99.8841911554
99.8965811729
99.8635411263
99.8470211029
99.8635411263
100.350881815
99.8800611496
99.8965811729
100.280671716
100.313711762
99.8635411263
99.8841911554
100.317841768
99.8635411263
100.297191739
100.313711762
100.330231786
100.297191739
100.297191739
100.297191739
99.8965811729
100.313711762
100.297191739
99.8635411263
99.8676711321
100.317841768
99.8800611496
100.334361792
100.313711762
99.8800611496
99.8635411263
99.9007111788
99.8965811729
99.8800611496
99.8635411263
99.9007111788
99.793331027
99.9131011963
100.313711762
99.9007111788
100.330231786
100.313711762
100.334361792
100.317841768
99.8841911554
100.313711762
100.313711762
100.313711762
100.27654171
99.9007111788
100.297191739
100.330231786
99.8965811729
100.313711762
100.313711762
100.297191739
99.8841911554
99.8841911554
100.297191739
100.297191739
99.8841911554
100.297191739
99.9007111788
99.8841911554
100.317841768
100.313711762
100.297191739
100.313711762
100.334361792
99.9007111788
100.334361792
99.8965811729
99.8635411263
100.317841768
99.8800611496
99.8841911554
100.317841768
100.317841768
100.297191739
100.297191739
100.313711762
100.313711762
99.8470211029
100.297191739
99.8635411263
99.8800611496
100.367401838
99.8800611496
99.8635411263
99.8965811729
99.8635411263

Average distance is : 100.100 cm
Average deviation is : 0.218 cm
Block: 8
======================================
99.8841911554
99.9007111788
100.313711762
99.8800611496
100.330231786
100.317841768
99.8800611496
99.8635411263
99.8800611496
99.8800611496
99.8635411263
100.334361792
99.8800611496
99.8800611496
100.313711762
100.297191739
100.297191739
100.317841768
100.297191739
100.313711762
100.280671716
99.8676711321
100.313711762
100.330231786
99.8800611496
99.8965811729
99.9502712488
99.8965811729
99.8635411263
99.8676711321
99.8800611496
99.8800611496
100.317841768
100.313711762
100.317841768
100.330231786
99.8800611496
99.8635411263
99.8965811729
99.9007111788
99.9007111788
100.313711762
100.297191739
100.313711762
100.313711762
99.8841911554
99.8676711321
100.330231786
99.8470211029
99.8676711321
100.330231786
99.8841911554
99.8841911554
99.8965811729
100.297191739
100.297191739
100.313711762
100.280671716
99.8676711321
100.297191739
99.8800611496
100.27654171
99.8800611496
100.297191739
99.8841911554
100.297191739
100.334361792
100.317841768
99.8635411263
100.313711762
100.297191739
100.334361792
100.297191739
99.8800611496
99.8800611496
99.8635411263
100.297191739
99.8635411263
100.297191739
99.8635411263
99.8965811729
100.313711762
99.9007111788
100.330231786
100.313711762
99.8800611496
100.330231786
100.330231786
99.8470211029
99.9007111788
99.8800611496
100.280671716
100.297191739
99.8635411263
99.8965811729
100.313711762
100.280671716
99.8841911554
100.297191739
100.297191739

Average distance is : 100.095 cm
Average deviation is : 0.216 cm
Block: 9
======================================
99.8841911554
99.8800611496
99.9007111788
99.8635411263
99.8635411263
99.9007111788
100.297191739
100.297191739
100.313711762
100.317841768
99.9172312021
99.8800611496
100.313711762
100.330231786
100.313711762
100.313711762
99.8470211029
100.297191739
100.330231786
100.334361792
100.350881815
100.280671716
100.313711762
100.313711762
100.280671716
100.313711762
100.317841768
99.8800611496
99.8635411263
99.9131011963
100.297191739
99.8800611496
99.8841911554
99.8800611496
100.330231786
100.297191739
99.8676711321
100.334361792
100.313711762
99.8635411263
100.313711762
99.8800611496
100.297191739
99.8800611496
100.313711762
100.297191739
100.330231786
100.313711762
100.313711762
100.334361792
100.330231786
100.297191739
99.8635411263
99.8800611496
100.334361792
100.297191739
99.8800611496
100.297191739
100.330231786
99.8635411263
100.313711762
100.317841768
100.297191739
100.317841768
99.8635411263
100.297191739
100.334361792
100.317841768
100.334361792
100.297191739
100.334361792
100.334361792
100.264151692
100.350881815
99.8965811729
99.8800611496
99.9172312021
100.330231786
100.297191739
100.313711762
100.350881815
100.297191739
99.8800611496
99.8676711321
100.334361792
99.8800611496
100.297191739
99.8800611496
100.313711762
100.107211471
99.8800611496
99.8965811729
99.8965811729
100.297191739
99.8965811729
99.9131011963
99.8800611496
99.8305010796
99.8635411263
99.8635411263

Average distance is : 100.139 cm
Average deviation is : 0.214 cm
Block: 10
======================================
99.8635411263
99.8800611496
99.8800611496
99.8965811729
99.8841911554
100.297191739
99.8841911554
99.8965811729
100.330231786
100.297191739
100.313711762
100.313711762
100.313711762
99.8470211029
99.8676711321
99.8635411263
100.330231786
100.313711762
99.8676711321
99.8800611496
100.297191739
99.8800611496
99.8841911554
100.280671716
99.8841911554
99.8635411263
99.9007111788
100.297191739
100.317841768
99.8635411263
99.8635411263
99.8635411263
99.8800611496
99.8676711321
99.8676711321
99.8800611496
99.8470211029
99.9007111788
99.8635411263
99.8635411263
99.8470211029
100.313711762
99.9007111788
99.8800611496
99.8965811729
100.280671716
100.313711762
100.27654171
99.8635411263
100.313711762
100.280671716
100.313711762
100.317841768
100.297191739
99.8800611496
99.8635411263
99.8635411263
100.334361792
100.297191739
99.8635411263
99.8841911554
99.8841911554
100.297191739
100.313711762
100.313711762
100.313711762
99.8800611496
100.280671716
99.8635411263
100.313711762
100.313711762
99.8841911554
100.313711762
100.330231786
100.313711762
100.346751809
100.330231786
100.330231786
99.8800611496
100.313711762
99.8841911554
99.8841911554
99.8841911554
99.9007111788
100.313711762
99.8635411263
99.8800611496
100.313711762
100.297191739
99.8635411263
100.313711762
100.313711762
100.330231786
99.8800611496
99.8800611496
100.280671716
99.8800611496
100.313711762
99.8800611496
100.317841768

Average distance is : 100.076 cm
Average deviation is : 0.218 cm
Average distance for 10x100 is : 100.095 cm
Average deviation for 10x100 is : 0.214 cm
 Percentage of values that failed: 0.000