
Block: 1
======================================
299.650670767
299.68319068
299.223846912
299.666930723
299.187262011
299.276691771
299.666930723
299.244171858
299.207586956
299.63441081

Average distance is : 299.444 cm
Average deviation is : 0.229 cm
Block: 2
======================================
299.223846912
299.650670767
299.650670767
299.223846912
299.256366825
299.191327
299.63441081
299.68319068
299.68319068
299.223846912

Average distance is : 299.442 cm
Average deviation is : 0.231 cm
Block: 3
======================================
299.256366825
299.223846912
299.223846912
299.646605778
299.240106869
299.207586956
299.68319068
299.207586956
299.292951727
299.240106869

Average distance is : 299.322 cm
Average deviation is : 0.183 cm
Block: 4
======================================
299.597825909
299.240106869
299.240106869
299.699450636
299.650670767
299.68319068
299.207586956
299.68319068
299.256366825
299.650670767

Average distance is : 299.491 cm
Average deviation is : 0.221 cm
Block: 5
======================================
299.650670767
299.207586956
299.191327
299.687255669
299.666930723
299.223846912
299.240106869
299.666930723
299.223846912
299.223846912

Average distance is : 299.398 cm
Average deviation is : 0.233 cm
Block: 6
======================================
299.256366825
298.7441782
299.63441081
299.223846912
299.207586956
299.630345821
299.666930723
299.666930723
299.614085865
299.650670767

Average distance is : 299.430 cm
Average deviation is : 0.311 cm
Block: 7
======================================
299.63441081
299.670995712
299.240106869
299.207586956
299.630345821
299.63441081
299.256366825
299.63441081
299.670995712
299.223846912

Average distance is : 299.480 cm
Average deviation is : 0.215 cm
Block: 8
======================================
299.223846912
299.597825909
299.650670767
299.666930723
299.650670767
299.666930723
299.207586956
299.223846912
299.191327
299.666930723

Average distance is : 299.475 cm
Average deviation is : 0.227 cm
Block: 9
======================================
299.187262011
299.646605778
299.650670767
299.650670767
299.260431814
299.630345821
299.650670767
299.666930723
299.240106869
299.191327

Average distance is : 299.478 cm
Average deviation is : 0.223 cm
Block: 10
======================================
299.618150854
299.650670767
299.63441081
299.650670767
299.63441081
299.154742098
299.63441081
299.187262011
299.618150854
299.630345821

Average distance is : 299.541 cm
Average deviation is : 0.196 cm