
Block: 1
======================================
299.630345821
299.666930723
299.666930723
299.630345821
299.207586956
299.223846912
299.207586956
299.666930723
299.68319068
299.223846912
299.870180178
299.447421312
299.207586956
299.666930723
299.687255669
299.650670767
299.687255669
299.68319068
299.699450636
299.687255669
299.256366825
299.68319068
299.703515625
299.699450636
299.650670767
299.223846912
299.687255669
299.68319068
299.650670767
299.666930723
299.68319068
299.68319068
299.581565952
299.666930723
299.666930723
299.240106869
299.687255669
299.240106869
299.719775581
299.272626781
299.699450636
299.719775581
299.687255669
299.260431814
299.666930723
299.68319068
299.68319068
299.276691771
299.463681269
299.736035538
299.479941225
299.666930723
299.68319068
299.260431814
299.699450636
299.715710592
299.719775581
299.260431814
299.260431814
299.699450636
299.256366825
299.699450636
299.309211683
299.272626781
299.699450636
299.703515625
299.687255669
299.715710592
299.699450636
299.666930723
299.666930723
299.292951727
299.256366825
299.699450636
299.240106869
299.240106869
299.240106869
299.256366825
299.666930723
299.68319068
299.699450636
299.715710592
299.276691771
299.256366825
299.752295494
299.256366825
299.703515625
299.276691771
299.687255669
299.736035538
299.292951727
299.703515625
299.68319068
299.699450636
299.276691771
299.666930723
299.699450636
299.240106869
299.272626781
299.260431814

Average distance is : 299.539 cm
Average deviation is : 0.207 cm
Block: 2
======================================
299.666930723
299.240106869
299.256366825
299.699450636
299.68319068
299.68319068
299.292951727
299.68319068
299.223846912
299.68319068
299.699450636
299.715710592
299.276691771
299.292951727
299.240106869
299.256366825
299.699450636
299.703515625
299.240106869
299.699450636
299.646605778
299.687255669
299.68319068
299.666930723
299.666930723
299.256366825
299.666930723
299.240106869
299.68319068
299.68319068
299.650670767
299.703515625
299.666930723
299.666930723
299.223846912
299.240106869
299.260431814
299.650670767
299.666930723
299.719775581
299.256366825
299.68319068
299.68319068
299.240106869
299.292951727
299.666930723
299.703515625
299.223846912
299.650670767
299.68319068
299.650670767
299.68319068
299.240106869
299.666930723
299.256366825
299.207586956
299.276691771
299.699450636
299.650670767
299.68319068
299.666930723
299.244171858
299.223846912
299.63441081
299.63441081
299.650670767
299.223846912
299.272626781
299.630345821
299.650670767
299.244171858
299.666930723
299.666930723
299.666930723
299.191327
299.207586956
299.203521967
299.443356323
299.240106869
299.666930723
299.666930723
299.203521967
299.666930723
299.650670767
299.223846912
299.666930723
299.223846912
299.260431814
299.68319068
298.817348003
299.63441081
299.650670767
299.687255669
299.203521967
299.650670767
299.650670767
299.699450636
299.256366825
299.240106869
299.68319068

Average distance is : 299.498 cm
Average deviation is : 0.221 cm
Block: 3
======================================
299.223846912
299.666930723
299.719775581
299.207586956
299.650670767
299.68319068
299.223846912
299.666930723
299.207586956
299.223846912
299.666930723
299.68319068
299.666930723
299.68319068
299.666930723
299.223846912
299.650670767
299.68319068
299.666930723
299.68319068
299.650670767
299.292951727
299.687255669
299.699450636
299.223846912
299.687255669
299.646605778
299.223846912
299.68319068
299.122222185
299.650670767
299.630345821
300.244159174
299.223846912
299.666930723
299.666930723
299.670995712
299.670995712
299.223846912
299.68319068
299.68319068
299.703515625
299.630345821
299.650670767
299.650670767
299.68319068
299.650670767
299.666930723
299.666930723
299.650670767
299.68319068
299.666930723
299.191327
299.650670767
299.687255669
299.223846912
299.687255669
299.68319068
299.666930723
299.227911901
299.650670767
299.650670767
299.703515625
299.223846912
299.68319068
299.666930723
299.715710592
299.666930723
299.666930723
299.703515625
299.260431814
299.68319068
299.687255669
299.687255669
299.240106869
299.666930723
299.703515625
299.650670767
299.687255669
299.260431814
299.207586956
299.207586956
299.256366825
299.666930723
299.666930723
299.223846912
299.650670767
299.68319068
299.68319068
299.670995712
299.650670767
299.666930723
299.244171858
299.223846912
299.687255669
299.630345821
299.223846912
299.63441081
299.68319068
299.650670767

Average distance is : 299.561 cm
Average deviation is : 0.210 cm
Block: 4
======================================
299.68319068
299.666930723
299.687255669
299.666930723
299.650670767
299.650670767
299.223846912
299.203521967
299.68319068
299.687255669
299.687255669
299.244171858
299.240106869
299.240106869
299.223846912
299.292951727
299.272626781
299.666930723
299.244171858
299.687255669
299.244171858
299.687255669
299.240106869
299.240106869
299.260431814
299.223846912
299.276691771
299.719775581
299.223846912
299.646605778
299.703515625
299.650670767
299.687255669
299.650670767
299.687255669
299.207586956
299.260431814
299.240106869
299.207586956
299.703515625
299.240106869
299.63441081
299.68319068
299.68319068
299.292951727
299.666930723
299.666930723
299.650670767
299.650670767
299.650670767
299.666930723
299.666930723
299.670995712
299.256366825
299.703515625
299.68319068
299.666930723
299.719775581
299.703515625
299.703515625
299.703515625
299.240106869
299.703515625
299.68319068
299.240106869
299.68319068
299.240106869
299.666930723
299.666930723
299.240106869
299.666930723
299.240106869
299.670995712
299.666930723
299.244171858
299.666930723
299.244171858
299.687255669
299.223846912
299.68319068
299.650670767
299.207586956
299.68319068
299.63441081
299.63441081
299.666930723
299.666930723
299.666930723
299.207586956
299.666930723
299.240106869
299.207586956
299.670995712
299.207586956
299.650670767
299.240106869
299.650670767
299.650670767
299.666930723
299.650670767

Average distance is : 299.512 cm
Average deviation is : 0.212 cm
Block: 5
======================================
299.715710592
299.719775581
299.68319068
299.223846912
299.650670767
299.244171858
299.68319068
299.223846912
299.223846912
299.650670767
299.666930723
299.666930723
299.666930723
299.68319068
299.670995712
299.63441081
299.63441081
299.256366825
298.780763102
299.699450636
299.666930723
299.719775581
299.63441081
299.68319068
299.650670767
299.666930723
299.666930723
299.650670767
299.240106869
299.666930723
299.63441081
299.240106869
299.256366825
299.68319068
299.650670767
299.68319068
299.703515625
299.666930723
299.666930723
299.650670767
299.223846912
299.666930723
299.630345821
299.699450636
299.191327
299.276691771
299.223846912
299.703515625
299.207586956
299.666930723
299.240106869
299.687255669
299.670995712
299.223846912
299.666930723
299.223846912
299.666930723
299.719775581
299.223846912
299.699450636
299.68319068
299.650670767
299.699450636
299.63441081
299.240106869
299.666930723
299.240106869
299.666930723
299.703515625
299.68319068
299.260431814
299.68319068
299.187262011
299.703515625
299.666930723
299.650670767
299.650670767
299.666930723
299.666930723
299.240106869
299.666930723
299.687255669
299.703515625
299.719775581
299.699450636
299.646605778
299.223846912
299.719775581
299.703515625
299.703515625
299.244171858
299.670995712
299.703515625
299.223846912
299.687255669
299.703515625
299.687255669
299.207586956
299.666930723
299.699450636

Average distance is : 299.552 cm
Average deviation is : 0.212 cm
Block: 6
======================================
299.260431814
299.240106869
299.650670767
299.719775581
299.223846912
299.703515625
299.203521967
299.687255669
299.699450636
299.666930723
299.699450636
299.719775581
299.666930723
299.699450636
299.699450636
299.223846912
299.666930723
299.719775581
299.240106869
299.256366825
299.666930723
299.687255669
299.666930723
299.703515625
299.68319068
299.687255669
299.666930723
299.687255669
299.68319068
299.240106869
299.666930723
299.666930723
299.240106869
299.650670767
299.687255669
299.666930723
299.666930723
299.650670767
299.666930723
299.703515625
299.699450636
299.687255669
299.703515625
299.719775581
299.687255669
299.719775581
299.687255669
299.703515625
299.68319068
299.703515625
299.666930723
299.666930723
299.736035538
299.666930723
299.699450636
299.68319068
299.687255669
299.715710592
299.650670767
299.650670767
299.207586956
299.260431814
299.646605778
299.240106869
299.666930723
299.68319068
299.650670767
299.240106869
299.68319068
299.646605778
299.715710592
299.68319068
299.703515625
299.272626781
299.699450636
299.244171858
299.715710592
299.666930723
299.699450636
299.68319068
299.256366825
299.666930723
299.703515625
299.223846912
299.68319068
299.68319068
299.292951727
299.207586956
299.244171858
299.699450636
299.256366825
299.276691771
299.699450636
299.292951727
299.666930723
299.256366825
299.68319068
299.207586956
299.260431814
299.687255669

Average distance is : 299.571 cm
Average deviation is : 0.195 cm
Block: 7
======================================
299.666930723
299.256366825
299.272626781
299.244171858
299.207586956
299.292951727
299.256366825
299.240106869
299.719775581
299.68319068
299.699450636
299.630345821
299.666930723
299.719775581
299.240106869
299.699450636
299.646605778
299.650670767
299.703515625
299.63441081
299.670995712
299.256366825
299.666930723
299.256366825
299.699450636
299.687255669
299.68319068
299.68319068
299.719775581
299.240106869
299.703515625
299.223846912
299.68319068
299.68319068
299.703515625
299.240106869
299.260431814
299.666930723
299.256366825
299.687255669
299.650670767
299.719775581
299.256366825
299.703515625
299.256366825
299.240106869
299.68319068
299.699450636
299.276691771
299.68319068
299.687255669
299.260431814
299.699450636
299.288886738
299.272626781
299.699450636
299.256366825
299.699450636
299.223846912
299.666930723
299.666930723
299.68319068
299.68319068
299.68319068
299.240106869
299.223846912
299.240106869
299.666930723
299.68319068
299.715710592
299.687255669
299.223846912
299.272626781
299.227911901
299.256366825
299.666930723
299.68319068
299.260431814
299.68319068
299.699450636
299.703515625
299.719775581
299.256366825
299.68319068
299.687255669
299.703515625
299.666930723
299.244171858
299.240106869
299.68319068
299.699450636
299.272626781
299.68319068
299.699450636
299.309211683
299.260431814
299.719775581
299.666930723
299.670995712
299.260431814

Average distance is : 299.517 cm
Average deviation is : 0.213 cm
Block: 8
======================================
299.68319068
299.223846912
299.666930723
299.276691771
299.68319068
299.699450636
299.227911901
299.687255669
299.666930723
299.666930723
299.666930723
299.687255669
299.719775581
299.719775581
299.703515625
299.736035538
299.272626781
299.244171858
299.719775581
299.687255669
299.703515625
299.292951727
299.670995712
299.719775581
299.666930723
299.256366825
299.699450636
299.719775581
299.687255669
299.687255669
299.703515625
299.260431814
299.292951727
299.703515625
299.719775581
299.736035538
299.240106869
299.719775581
299.699450636
299.666930723
299.650670767
299.68319068
299.223846912
299.68319068
299.650670767
299.699450636
299.719775581
299.699450636
299.699450636
299.256366825
299.650670767
299.699450636
299.240106869
299.703515625
299.646605778
299.276691771
299.68319068
299.68319068
299.719775581
299.207586956
299.240106869
299.68319068
299.240106869
299.719775581
299.666930723
299.256366825
299.703515625
299.68319068
299.223846912
299.650670767
299.240106869
299.68319068
299.703515625
299.699450636
299.666930723
299.687255669
299.719775581
299.670995712
299.687255669
299.240106869
299.68319068
299.650670767
299.223846912
299.703515625
299.68319068
299.670995712
299.240106869
299.703515625
299.699450636
299.666930723
299.666930723
299.703515625
299.666930723
299.703515625
299.703515625
299.207586956
299.703515625
299.699450636
299.68319068
299.68319068

Average distance is : 299.584 cm
Average deviation is : 0.192 cm
Block: 9
======================================
299.699450636
300.057169676
299.68319068
299.666930723
299.68319068
299.715710592
299.666930723
299.68319068
299.256366825
299.703515625
299.666930723
299.699450636
299.68319068
299.68319068
299.223846912
299.703515625
299.666930723
299.223846912
299.699450636
299.207586956
299.666930723
299.666930723
299.650670767
299.666930723
299.719775581
299.715710592
299.687255669
299.719775581
299.240106869
299.68319068
299.223846912
299.666930723
299.68319068
299.68319068
299.699450636
299.666930723
299.666930723
299.223846912
299.699450636
299.666930723
299.666930723
299.256366825
299.923025036
299.463681269
299.63441081
299.650670767
299.68319068
299.240106869
299.699450636
299.240106869
299.666930723
299.223846912
299.687255669
299.666930723
299.240106869
299.223846912
299.650670767
299.890505123
299.45961628
299.68319068
299.666930723
299.699450636
299.240106869
299.666930723
299.666930723
299.240106869
299.650670767
299.240106869
299.68319068
299.256366825
299.650670767
299.666930723
299.240106869
299.240106869
299.276691771
299.68319068
299.666930723
299.260431814
299.203521967
299.703515625
299.203521967
299.666930723
299.68319068
299.630345821
299.240106869
299.260431814
299.687255669
299.240106869
299.703515625
299.68319068
299.650670767
299.68319068
299.666930723
299.276691771
299.68319068
299.223846912
299.68319068
299.256366825
299.650670767
299.68319068

Average distance is : 299.555 cm
Average deviation is : 0.212 cm
Block: 10
======================================
299.244171858
299.650670767
299.244171858
299.223846912
299.650670767
299.666930723
299.207586956
299.240106869
299.260431814
299.256366825
299.703515625
299.719775581
299.68319068
299.719775581
299.699450636
299.68319068
299.223846912
299.244171858
299.260431814
299.687255669
299.650670767
299.223846912
299.276691771
299.260431814
299.699450636
299.203521967
299.666930723
299.240106869
299.687255669
299.260431814
299.272626781
299.276691771
299.240106869
299.276691771
299.292951727
299.256366825
299.68319068
299.256366825
299.292951727
299.703515625
299.240106869
299.256366825
299.68319068
299.719775581
299.719775581
299.719775581
299.699450636
299.240106869
299.699450636
299.276691771
299.276691771
299.223846912
299.288886738
299.309211683
299.699450636
299.68319068
299.240106869
299.244171858
299.68319068
299.276691771
299.276691771
299.719775581
299.703515625
299.309211683
299.276691771
299.687255669
299.687255669
299.68319068
299.223846912
299.703515625
299.260431814
299.256366825
299.703515625
299.68319068
299.223846912
299.223846912
299.256366825
299.719775581
299.719775581
299.227911901
299.687255669
299.703515625
299.666930723
299.666930723
299.666930723
299.699450636
299.223846912
299.699450636
299.719775581
299.256366825
299.223846912
299.240106869
299.670995712
299.240106869
299.650670767
299.244171858
299.223846912
299.670995712
299.703515625
299.666930723

Average distance is : 299.462 cm
Average deviation is : 0.221 cm