
Block: 1
======================================
99.9502712488
99.8470211029
99.4835805893
99.9172312021
99.4835805893
99.9337512255
99.9502712488
99.4629305601
99.9007111788
99.5001006126
99.9502712488
99.9172312021
99.9172312021
99.9544012547
99.9502712488
99.4670605659
99.5331406593
99.5331406593
99.4629305601
99.9007111788
99.9502712488
99.9502712488
99.9007111788
99.9502712488
99.9172312021
99.9172312021
99.9172312021
99.9502712488
99.5537906885
99.5001006126
99.970921278
99.9667912722
99.8965811729
99.9172312021
99.9502712488
99.8800611496
99.9337512255
99.970921278
99.9131011963
99.9502712488
99.8965811729
99.9502712488
99.9007111788
99.9172312021
99.9502712488
99.9874413013
99.5207506418
99.516620636
99.5537906885
99.9007111788
99.9502712488
99.9172312021
99.9667912722
99.4670605659
99.9667912722
99.9131011963
99.9172312021
99.8965811729
99.9296212196
99.516620636
99.8635411263
99.9337512255
99.8965811729
99.9502712488
99.9007111788
99.5001006126
99.970921278
99.8965811729
99.516620636
99.5001006126
99.9337512255
99.5001006126
99.9502712488
99.970921278
99.9502712488
99.5001006126
99.9007111788
99.9337512255
99.9337512255
99.9172312021
99.516620636
99.9007111788
99.5496606827
99.5001006126
99.9172312021
99.9172312021
99.9667912722
99.9544012547
99.9337512255
99.9667912722
99.4670605659
99.9502712488
99.9172312021
99.5372706652
99.9172312021
99.4835805893
99.9337512255
100.140251517
99.9502712488
99.8965811729
99.9007111788
99.9337512255
99.4835805893
99.9337512255
99.4670605659
99.4794505835
99.5001006126
99.9337512255
99.5001006126
99.9131011963
99.5001006126
99.970921278
99.516620636
99.9502712488
99.5372706652
99.9667912722
99.9502712488
99.9296212196
99.9502712488
99.9502712488
99.970921278
99.9337512255
99.9337512255
99.9007111788
99.9667912722
99.5001006126
99.9667912722
99.5372706652
99.516620636
99.516620636
99.9874413013
99.9172312021
99.9172312021
99.9007111788
99.9131011963
99.9337512255
99.5001006126
99.9337512255
99.8635411263
99.9502712488
99.4835805893
99.9502712488
99.9172312021
99.9667912722
99.5207506418
99.516620636
99.8965811729
99.9337512255
99.5001006126
99.9502712488
99.4835805893
99.9172312021
99.9667912722
99.516620636
99.9667912722
99.9007111788
99.4835805893
99.5001006126
99.5001006126
99.5001006126
99.9502712488
99.4835805893
99.5001006126
99.8965811729
99.9337512255
99.9172312021
99.516620636
99.9337512255
99.4670605659
99.5001006126
99.970921278
99.4670605659
99.9007111788
99.9502712488
99.9667912722
99.9337512255
99.5001006126
99.9007111788
99.9131011963
99.9502712488
99.4670605659
99.5001006126
99.8965811729
99.4835805893
99.5331406593
99.9337512255
99.9667912722
99.9337512255
99.4835805893
99.4835805893
99.9172312021
99.5331406593
99.9337512255
99.5001006126
99.9131011963
99.5001006126
99.9502712488
99.9337512255
99.9007111788
99.516620636
99.8800611496
99.9172312021
99.4670605659
99.9172312021
99.4464105368
99.970921278
99.5001006126
99.9337512255
99.9296212196
99.9874413013
99.5001006126
99.9502712488
99.5372706652
99.9172312021
99.9337512255
99.5001006126
99.4670605659
99.9007111788
99.4670605659
99.516620636
99.970921278
99.9337512255
99.9172312021
99.5001006126
99.9502712488
99.9172312021
99.9172312021
99.9007111788
99.9874413013
99.9502712488
99.970921278
99.5537906885
99.9502712488
99.9172312021
99.9502712488
99.9502712488
99.9337512255
99.9007111788
99.9337512255
99.9337512255
99.9007111788
98.5832393169
99.9667912722
99.9172312021
99.9502712488
99.9172312021
99.9667912722
99.516620636
99.9337512255
99.970921278

Block: 2
======================================
99.9502712488
99.516620636
99.9337512255
99.970921278
99.9337512255
99.4835805893
99.9502712488
99.9502712488
99.9131011963
99.9337512255
99.9502712488
99.9502712488
99.9007111788
99.9502712488
99.8965811729
99.9502712488
99.9337512255
99.9502712488
99.9502712488
99.9502712488
99.8965811729
99.5001006126
99.970921278
99.516620636
99.9337512255
99.9833112955
99.9007111788
99.4670605659
99.9172312021
99.4835805893
99.516620636
99.9337512255
99.9337512255
99.9337512255
99.9667912722
99.9502712488
99.9833112955
99.5042306185
99.8470211029
99.9007111788
99.9874413013
99.4835805893
99.8965811729
99.9337512255
99.9131011963
99.9172312021
99.4794505835
99.9667912722
99.9131011963
99.4835805893
99.9172312021
99.5001006126
99.9667912722
99.9172312021
99.9337512255
99.9131011963
99.9502712488
99.8965811729
99.970921278
99.5331406593
99.516620636
99.9337512255
99.9172312021
99.8800611496
99.8635411263
99.9172312021
99.8676711321
99.8635411263
99.4835805893
99.8635411263
99.9502712488
99.9337512255
99.9172312021
99.8635411263
99.4835805893
99.9172312021
99.9502712488
99.9172312021
99.9502712488
99.516620636
99.9502712488
99.9337512255
99.9667912722
99.9131011963
99.9172312021
99.8965811729
99.9172312021
99.9172312021
99.9544012547
99.516620636
99.8635411263
99.9007111788
99.9172312021
99.970921278
99.9502712488
99.8470211029
99.8965811729
99.4835805893
99.9337512255
99.5331406593
99.9172312021
99.9337512255
99.9337512255
99.9172312021
99.5331406593
99.9007111788
99.9544012547
99.4835805893
99.9502712488
99.9833112955
99.9502712488
99.9337512255
99.8965811729
99.9337512255
99.8965811729
99.9172312021
99.9337512255
99.9007111788
99.4670605659
99.8800611496
99.8800611496
99.9337512255
99.8841911554
99.9337512255
99.970921278
99.4629305601
99.9172312021
99.9007111788
99.9172312021
99.9296212196
99.5372706652
99.9172312021
99.8841911554
99.8965811729
99.9131011963
99.9337512255
99.9337512255
99.9667912722
99.5001006126
99.5001006126
99.9337512255
99.970921278
99.9131011963
99.9502712488
99.9337512255
99.8635411263
99.9337512255
99.9337512255
99.9502712488
99.9544012547
99.9502712488
99.5001006126
99.4629305601
99.9007111788
99.8965811729
99.9172312021
99.9007111788
99.4835805893
99.9131011963
99.4670605659
99.9131011963
99.5001006126
99.9667912722
99.970921278
99.9502712488
99.9544012547
99.9337512255
99.9337512255
99.9337512255
99.9502712488
99.8965811729
99.9172312021
99.9502712488
99.5042306185
99.9172312021
99.9172312021
99.9337512255
99.9007111788
99.9337512255
99.8635411263
99.8800611496
99.9007111788
99.9502712488
99.9502712488
99.9667912722
99.8635411263
99.8965811729
99.8965811729
99.9502712488
99.9172312021
99.9007111788
99.5001006126
99.9007111788
99.9131011963
99.4835805893
99.9502712488
99.5372706652
99.516620636
99.5001006126
99.9502712488
99.9502712488
99.9502712488
99.9337512255
99.9172312021
99.9131011963
99.5001006126
99.9337512255
99.9337512255
99.8800611496
99.8800611496
99.4794505835
99.9007111788
99.8800611496
99.5372706652
99.9172312021
99.970921278
99.9337512255
99.5331406593
99.9337512255
99.9007111788
99.9131011963
99.9874413013
99.9172312021
99.9007111788
99.9172312021
99.9502712488
99.4670605659
99.9296212196
99.9544012547
99.9337512255
99.5001006126
99.9172312021
99.9337512255
99.9337512255
99.8800611496
99.5001006126
99.9172312021
99.516620636
99.9337512255
99.9172312021
99.8841911554
99.9337512255
99.4835805893
99.8676711321
99.8635411263
99.9172312021
99.9172312021
99.9337512255
99.8676711321
99.9544012547

Block: 3
======================================
99.4629305601
99.8841911554
99.9007111788
99.9131011963
99.8676711321
99.8965811729
99.5001006126
99.8470211029
99.8635411263
99.8635411263
99.4835805893
99.8635411263
99.4670605659
99.8470211029
99.8841911554
99.9007111788
99.8800611496
99.8800611496
99.8800611496
99.9337512255
99.8635411263
99.8470211029
99.8800611496
99.9172312021
99.8635411263
99.9502712488
99.9172312021
99.9337512255
99.9172312021
99.8635411263
99.8965811729
99.9502712488
99.5001006126
99.8635411263
99.4835805893
99.8965811729
99.8470211029
99.9172312021
99.9874413013
99.9337512255
99.9337512255
99.4835805893
99.970921278
99.9667912722
99.8965811729
99.9131011963
99.8965811729
99.8965811729
99.8635411263
99.9172312021
99.8470211029
99.8800611496
99.8470211029
99.9502712488
99.8965811729
99.8841911554
99.9502712488
99.9337512255
99.9131011963
99.8800611496
99.8470211029
99.4835805893
99.9337512255
99.9502712488
99.9337512255
99.9502712488
99.8635411263
99.9502712488
99.9172312021
99.8800611496
99.8841911554
99.8800611496
99.9337512255
99.9172312021
99.9667912722
99.9172312021
99.516620636
99.9172312021
99.5001006126
99.8841911554
99.9172312021
99.9007111788
99.4340205193
99.8470211029
99.4464105368
99.4835805893
99.4505405426
99.8635411263
99.9172312021
99.8635411263
99.9172312021
99.8800611496
99.4298905134
99.9131011963
99.9337512255
99.9007111788
99.9131011963
99.8965811729
99.9337512255
99.9172312021
99.8965811729
99.9007111788
99.4835805893
99.9007111788
99.9172312021
99.4505405426
99.9172312021
99.9296212196
99.9337512255
99.9172312021
99.9667912722
99.8841911554
99.9337512255
99.8800611496
99.9337512255
99.9337512255
99.4670605659
99.970921278
99.9337512255
99.8841911554
99.9172312021
99.9172312021
99.9337512255
99.4670605659
99.9007111788
99.8965811729
99.9172312021
99.9131011963
99.5001006126
99.8965811729
99.9131011963
99.9172312021
99.9131011963
99.4835805893
99.8470211029
99.8965811729
99.8470211029
99.4835805893
99.4835805893
99.9172312021
99.9337512255
99.9502712488
99.4835805893
99.4835805893
99.4670605659
99.9502712488
99.9502712488
99.8800611496
100.317841768
99.9667912722
99.9502712488
99.8841911554
99.9131011963
99.9172312021
99.5001006126
99.8470211029
99.4835805893
99.8841911554
99.8965811729
99.4835805893
99.8800611496
99.8635411263
99.4298905134
99.8800611496
99.8800611496
99.8635411263
99.8800611496
99.4505405426
99.9172312021
99.8305010796
99.8841911554
99.8470211029
99.8098510504
99.8098510504
99.8263710737
99.8470211029
99.4298905134
99.8305010796
99.4835805893
99.8800611496
99.8470211029
99.8635411263
99.8098510504
99.4670605659
99.4340205193
99.8676711321
99.8635411263
99.8470211029
99.8635411263
99.4670605659
99.8965811729
99.4505405426
99.8800611496
99.9007111788
99.4133704901
99.4835805893
99.9172312021
99.4464105368
99.8800611496
99.5372706652
99.8470211029
99.9007111788
99.8800611496
99.9337512255
99.9131011963
99.4835805893
99.970921278
99.5001006126
99.9131011963
99.5001006126
99.4835805893
99.9544012547
99.8800611496
99.9131011963
100.644112229
99.9337512255
99.9172312021
99.9007111788
99.9131011963
99.8635411263
99.8470211029
99.8800611496
99.9007111788
99.8965811729
99.9502712488
99.9172312021
99.8428910971
99.8965811729
99.5001006126
99.8841911554
99.9667912722
99.970921278
99.9007111788
99.9502712488
99.8635411263
99.9007111788
99.9007111788
99.4340205193
99.8800611496
99.8305010796
99.8305010796
99.8841911554
99.8139810562
99.4298905134
99.8470211029
99.8470211029
99.8800611496
99.4670605659
99.4835805893
99.4670605659

Block: 4
======================================
99.9337512255
99.8800611496
99.8800611496
99.9337512255
99.4464105368
99.9131011963
99.8800611496
99.8305010796
99.4670605659
99.8800611496
99.4670605659
99.9172312021
99.8965811729
99.9007111788
99.9667912722
99.4629305601
99.9502712488
99.8965811729
99.8676711321
99.4835805893
99.1738301516
99.8470211029
99.8635411263
99.8635411263
99.8098510504
99.9172312021
99.8139810562
99.8098510504
99.8305010796
99.8470211029
99.8305010796
99.8800611496
99.8470211029
99.8800611496
99.4298905134
99.5001006126
99.4670605659
99.9007111788
99.4670605659
99.9131011963
99.8800611496
99.8800611496
99.9172312021
99.9667912722
99.9337512255
99.9172312021
100.037001371
99.9131011963
99.8841911554
99.9502712488
99.9131011963
99.9337512255
99.8841911554
99.8800611496
99.8676711321
99.9337512255
99.8305010796
99.4464105368
99.8635411263
99.8635411263
99.8965811729
99.4505405426
99.9007111788
99.8965811729
99.8305010796
99.9337512255
99.8965811729
99.9502712488
99.9172312021
99.9502712488
99.516620636
99.8965811729
99.5207506418
99.9502712488
99.9131011963
99.2564302683
99.4670605659
99.9172312021
99.8800611496
99.9502712488
99.9337512255
99.8676711321
99.8635411263
99.8635411263
99.8263710737
99.8305010796
99.8305010796
99.8139810562
99.8470211029
99.9502712488
99.8635411263
99.9544012547
99.9172312021
99.9007111788
99.5001006126
99.9337512255
99.9172312021
99.9337512255
99.9502712488
99.9007111788
99.9131011963
99.5001006126
99.8470211029
99.8635411263
99.9172312021
99.9337512255
99.9172312021
99.5001006126
99.4464105368
99.9337512255
99.9337512255
99.9337512255
99.9131011963
99.9172312021
99.4835805893
99.5001006126
99.9502712488
99.9172312021
99.9172312021
99.9502712488
99.8676711321
99.8139810562
99.9172312021
99.8470211029
99.8965811729
99.9502712488
99.8841911554
99.9007111788
99.9502712488
99.9172312021
99.9172312021
99.9502712488
99.9172312021
99.9337512255
99.8965811729
99.5001006126
99.9337512255
99.9131011963
99.4298905134
99.9131011963
99.8841911554
99.9007111788
99.9007111788
99.8841911554
99.9007111788
99.9502712488
99.9337512255
99.4505405426
99.9502712488
99.9131011963
99.9502712488
99.9502712488
99.9337512255
99.9337512255
99.8800611496
99.9502712488
99.4670605659
99.5207506418
99.9172312021
99.9007111788
99.8800611496
99.8800611496
99.9172312021
99.9667912722
99.8800611496
99.8800611496
99.8965811729
99.8635411263
99.9172312021
99.9833112955
99.4629305601
99.9172312021
100.487172008
99.9337512255
99.8965811729
99.5331406593
99.8965811729
99.9502712488
99.9131011963
99.9337512255
99.9007111788
99.9172312021
99.9502712488
99.9502712488
99.9337512255
99.9007111788
99.9337512255
99.9007111788
99.9337512255
99.9337512255
99.4835805893
99.9337512255
99.9172312021
99.9007111788
99.9337512255
99.4464105368
99.4670605659
99.9172312021
99.9502712488
99.9337512255
99.9172312021
99.8965811729
99.9172312021
99.4464105368
99.5001006126
99.8800611496
99.9172312021
99.9502712488
99.9502712488
99.9172312021
99.9502712488
99.9007111788
99.8965811729
99.9502712488
99.9007111788
99.9172312021
99.516620636
99.8965811729
99.8841911554
99.9172312021
99.8965811729
99.8800611496
99.8635411263
99.9172312021
99.8305010796
99.9502712488
99.6570408344
99.8965811729
99.970921278
99.8800611496
99.4670605659
99.9296212196
99.9337512255
99.9544012547
99.5001006126
99.4629305601
99.5001006126
99.4835805893
99.4835805893
99.4794505835
99.9337512255
99.9502712488
99.9131011963
99.8305010796
99.9337512255
99.4835805893
99.9172312021
99.9172312021
99.9172312021
99.9337512255

Block: 5
======================================
99.9337512255
99.8635411263
99.8841911554
99.8470211029
99.9502712488
99.8470211029
99.4835805893
99.9502712488
99.8841911554
99.9502712488
99.8470211029
99.9337512255
100.611072183
99.9337512255
99.9502712488
99.9337512255
99.9337512255
99.9337512255
99.9667912722
99.4670605659
99.970921278
99.4835805893
99.9131011963
99.8635411263
99.9337512255
99.8635411263
99.9502712488
99.9131011963
99.9337512255
99.9337512255
99.9667912722
99.8841911554
99.8965811729
99.9833112955
99.9337512255
99.9172312021
99.9172312021
99.9172312021
99.970921278
99.8635411263
99.9172312021
99.5001006126
99.4670605659
99.9544012547
99.5001006126
99.9172312021
99.8841911554
99.9007111788
99.8800611496
99.9502712488
99.9502712488
99.9502712488
99.9502712488
99.8635411263
99.9544012547
99.5207506418
99.9667912722
99.4670605659
99.8841911554
99.9337512255
99.8470211029
99.9544012547
99.9337512255
99.9874413013
99.9172312021
99.9172312021
99.9502712488
99.9007111788
99.9502712488
99.9172312021
99.9007111788
99.9172312021
99.9172312021
99.9502712488
99.970921278
99.9172312021
99.9172312021
99.9337512255
99.9544012547
99.9667912722
99.5001006126
99.9131011963
99.9502712488
99.9131011963
99.5001006126
99.9172312021
99.8676711321
99.9502712488
99.9172312021
99.9007111788
99.9131011963
99.9337512255
99.8965811729
99.8470211029
99.9007111788
99.9007111788
99.9337512255
99.9502712488
99.9667912722
99.9502712488
99.9502712488
99.9337512255
99.9172312021
99.9172312021
99.9337512255
99.9172312021
99.9172312021
99.9296212196
99.4670605659
99.9131011963
99.9502712488
99.8305010796
99.4298905134
99.5372706652
99.9172312021
99.9172312021
99.9337512255
99.516620636
99.9502712488
99.9337512255
99.9296212196
99.9502712488
99.9337512255
99.9337512255
99.9337512255
99.4835805893
99.8676711321
99.8635411263
99.9172312021
99.8470211029
99.8841911554
99.8800611496
99.8635411263
99.4670605659
99.8965811729
99.9007111788
99.8470211029
99.8635411263
99.9337512255
99.9007111788
99.8841911554
99.9172312021
99.9337512255
99.9502712488
99.9544012547
99.4464105368
99.9337512255
99.8470211029
99.8841911554
99.4298905134
99.8965811729
99.8635411263
99.9131011963
99.9337512255
99.9007111788
99.9172312021
99.9337512255
99.9337512255
99.9337512255
99.8841911554
99.970921278
99.4794505835
99.8841911554
99.8841911554
99.5372706652
99.9874413013
99.9172312021
99.4505405426
99.8965811729
99.9337512255
99.9337512255
99.8800611496
99.9007111788
99.4835805893
99.6900808811
99.9337512255
99.9172312021
99.8800611496
99.8635411263
99.9337512255
99.9833112955
99.4464105368
99.9337512255
99.9172312021
99.8470211029
99.9172312021
99.8635411263
99.9172312021
99.8800611496
99.8305010796
99.4340205193
99.9172312021
99.8800611496
99.8800611496
99.8800611496
99.8635411263
99.8676711321
99.4670605659
99.8635411263
99.8470211029
99.8965811729
99.9007111788
99.9337512255
99.8470211029
99.9131011963
99.9337512255
99.9296212196
99.8841911554
99.9007111788
99.8965811729
99.9296212196
99.8841911554
99.8470211029
99.8841911554
99.8635411263
99.8635411263
99.8470211029
99.8635411263
99.8305010796
99.9337512255
99.8676711321
99.8635411263
99.8470211029
99.9337512255
99.9172312021
99.9007111788
99.9502712488
99.9172312021
99.9007111788
99.9337512255
99.8965811729
99.8470211029
99.8139810562
99.8965811729
99.9172312021
99.4133704901
99.8965811729
99.8305010796
99.8800611496
99.9131011963
99.8965811729
99.9172312021
99.8470211029
99.9131011963
99.8800611496
99.9172312021
99.9007111788
99.9337512255
99.9337512255
99.9007111788

Block: 6
======================================
99.8800611496
99.8263710737
99.9172312021
99.9502712488
99.9131011963
99.4670605659
99.9131011963
99.9172312021
99.8635411263
99.4670605659
99.8470211029
99.8470211029
99.4835805893
99.8470211029
99.8965811729
99.8965811729
99.4133704901
99.8470211029
99.4670605659
99.5001006126
99.9172312021
99.8965811729
99.9502712488
99.5372706652
99.9502712488
99.4629305601
99.8635411263
99.4670605659
99.8305010796
99.8676711321
99.4298905134
99.8800611496
99.4340205193
99.4670605659
99.4794505835
99.9007111788
99.4670605659
99.8635411263
99.8800611496
99.8800611496
99.4298905134
99.8635411263
99.8841911554
99.9998313189
99.8800611496
99.9337512255
99.8470211029
99.9172312021
99.8470211029
99.9502712488
99.4670605659
99.9337512255
99.9172312021
99.9502712488
99.9007111788
99.9337512255
99.9172312021
99.9172312021
99.8676711321
99.4464105368
99.9007111788
99.4505405426
99.8635411263
99.4670605659
99.8635411263
99.8470211029
99.8635411263
99.8470211029
99.4340205193
99.8470211029
99.9007111788
99.8635411263
99.8965811729
99.8676711321
99.8841911554
99.8139810562
99.8800611496
99.8841911554
99.8470211029
99.793331027
99.9337512255
99.8841911554
99.9007111788
99.8305010796
99.4298905134
99.8470211029
99.8470211029
99.4133704901
99.8098510504
99.8470211029
99.8305010796
99.8841911554
99.4505405426
99.8470211029
99.8470211029
99.8139810562
99.9007111788
99.4298905134
99.8470211029
99.4464105368
99.8800611496
99.4670605659
99.8635411263
99.9337512255
99.4133704901
99.8098510504
99.4133704901
99.4670605659
99.8841911554
99.4670605659
99.8635411263
99.9007111788
99.8635411263
99.9172312021
99.8635411263
99.4133704901
99.4670605659
99.4298905134
99.9172312021
99.8800611496
99.4464105368
99.8470211029
99.4340205193
99.4175004959
99.8139810562
99.8635411263
99.8635411263
99.4670605659
99.9007111788
99.9131011963
99.4340205193
99.8800611496
99.8676711321
99.4835805893
99.8800611496
99.8800611496
99.4464105368
99.8800611496
99.8965811729
99.9544012547
99.8965811729
100.193941593
99.4298905134
99.4298905134
99.4298905134
99.8305010796
99.4298905134
99.8305010796
99.4340205193
99.8635411263
99.8800611496
99.4298905134
99.8635411263
99.8635411263
99.8470211029
99.4298905134
99.8470211029
99.8800611496
99.9172312021
99.9337512255
99.8635411263
99.4505405426
99.8841911554
99.4835805893
99.4464105368
99.8305010796
99.9172312021
99.8635411263
99.8635411263
99.8965811729
99.9007111788
99.8635411263
99.4340205193
99.4133704901
99.8800611496
99.8470211029
99.4629305601
99.8800611496
99.9296212196
99.3266403675
99.8470211029
99.8635411263
99.8470211029
99.8635411263
99.8800611496
99.8841911554
99.8841911554
99.8635411263
99.9007111788
99.4835805893
99.4298905134
99.8263710737
99.8841911554
99.8470211029
99.8428910971
99.8841911554
99.9007111788
99.9172312021
99.9337512255
99.8800611496
99.8635411263
99.8841911554
99.9007111788
99.9502712488
99.9172312021
99.8635411263
99.8635411263
99.8635411263
99.9172312021
99.8635411263
99.9502712488
99.9172312021
99.8470211029
99.8470211029
99.4340205193
99.8470211029
99.8800611496
99.5001006126
99.9172312021
99.4670605659
99.8965811729
99.8800611496
99.8470211029
99.8635411263
99.8800611496
99.9007111788
99.4298905134
99.4464105368
99.4464105368
99.8470211029
99.4464105368
99.8635411263
99.9007111788
99.8635411263
99.8841911554
99.5001006126
99.9337512255
99.9007111788
99.8635411263
99.8800611496
99.8800611496
99.9172312021
99.8800611496
99.8841911554
99.4505405426
99.8098510504
99.8635411263
99.8676711321
99.9502712488
99.8800611496

Block: 7
======================================
99.8800611496
99.8841911554
99.4505405426
99.8676711321
99.8470211029
99.4670605659
99.8305010796
99.4340205193
99.3968504667
99.8965811729
99.4629305601
99.8635411263
99.8470211029
99.4340205193
99.9172312021
99.9172312021
99.4464105368
99.8470211029
99.8470211029
99.8965811729
99.8841911554
99.8800611496
99.8470211029
99.5001006126
99.8800611496
99.9007111788
99.8470211029
99.8470211029
99.4464105368
99.8676711321
99.8841911554
99.8470211029
99.4298905134
99.8841911554
99.8841911554
99.8635411263
99.970921278
99.8635411263
99.9172312021
99.9172312021
99.8676711321
99.970921278
99.8800611496
99.9007111788
99.8635411263
99.4629305601
99.8470211029
99.4505405426
99.4464105368
99.8841911554
99.4340205193
99.8800611496
99.8800611496
99.9544012547
99.9172312021
99.9007111788
99.8800611496
99.8635411263
99.9172312021
99.9131011963
99.9337512255
99.9337512255
99.9007111788
99.8470211029
99.4835805893
99.8841911554
99.8305010796
99.8470211029
99.8800611496
99.8470211029
99.8635411263
99.8470211029
99.8800611496
99.8305010796
99.8470211029
99.9007111788
99.4670605659
99.8098510504
99.8305010796
99.8841911554
99.4340205193
99.8470211029
99.8965811729
99.8841911554
99.4505405426
99.8635411263
99.8470211029
99.8676711321
99.8800611496
99.9007111788
99.8965811729
99.9131011963
99.8841911554
99.9172312021
99.8635411263
99.8800611496
99.9172312021
99.8139810562
99.8470211029
99.4670605659
99.9007111788
99.4505405426
99.4835805893
99.4835805893
99.8841911554
99.8800611496
99.9337512255
99.8965811729
99.8800611496
99.9544012547
99.8305010796
99.4298905134
99.9337512255
99.9172312021
99.8965811729
99.9007111788
99.4670605659
99.8470211029
99.4835805893
99.8965811729
99.4340205193
99.8841911554
99.8635411263
99.8470211029
99.4505405426
99.8676711321
99.8428910971
99.8965811729
99.4298905134
99.8470211029
99.8965811729
99.9337512255
99.4835805893
99.9007111788
99.9337512255
99.9172312021
99.8800611496
99.8841911554
99.9172312021
99.8470211029
99.9502712488
99.9833112955
99.4670605659
99.8470211029
99.8635411263
99.8800611496
99.5372706652
99.8841911554
99.9007111788
99.8470211029
99.9172312021
99.4670605659
99.9337512255
99.8635411263
99.8635411263
99.9296212196
99.9337512255
99.8800611496
99.8800611496
99.4670605659
99.9172312021
99.8635411263
99.9337512255
99.9172312021
99.9007111788
99.8841911554
99.8635411263
99.8676711321
99.5042306185
99.8676711321
99.8800611496
99.8800611496
99.8470211029
99.8635411263
99.9337512255
99.8305010796
99.8635411263
99.8470211029
99.9874413013
99.9337512255
99.9502712488
99.9502712488
99.8635411263
99.8470211029
99.8841911554
99.9337512255
99.8470211029
99.5001006126
99.5042306185
99.8800611496
99.8800611496
99.4670605659
99.4670605659
99.4670605659
99.4464105368
99.8635411263
99.4298905134
99.8676711321
99.4298905134
99.8800611496
99.9172312021
99.8800611496
99.9172312021
99.8965811729
99.8800611496
99.9544012547
99.9667912722
99.9172312021
99.8676711321
99.4670605659
99.9172312021
99.4835805893
99.8965811729
99.8470211029
99.9337512255
99.8470211029
99.8470211029
99.9337512255
99.8800611496
99.4670605659
99.8635411263
99.8965811729
99.8965811729
99.8800611496
99.8305010796
99.4670605659
99.9131011963
99.8965811729
99.9544012547
99.4670605659
99.9667912722
99.9337512255
99.8841911554
99.8635411263
99.4133704901
99.8470211029
99.8305010796
99.8470211029
99.4464105368
99.8841911554
99.8470211029
99.8635411263
99.4298905134
99.8800611496
99.4670605659
99.9007111788
99.9131011963
99.4670605659
99.8965811729
99.4670605659

Block: 8
======================================
99.9544012547
99.9172312021
99.9172312021
99.9172312021
99.4835805893
99.9337512255
99.9172312021
99.9502712488
100.590422153
99.9172312021
99.8800611496
99.8800611496
99.9007111788
99.8841911554
99.8841911554
99.9172312021
99.9544012547
99.9337512255
99.8305010796
99.9172312021
99.9172312021
99.9337512255
99.9172312021
99.8635411263
99.8965811729
99.5001006126
99.9337512255
99.8965811729
99.8470211029
99.8800611496
99.4464105368
99.4835805893
99.4505405426
99.8965811729
99.4835805893
99.4505405426
99.4340205193
99.9337512255
99.4835805893
99.8470211029
99.9007111788
99.9337512255
99.9172312021
99.8800611496
99.8965811729
99.9172312021
99.9172312021
99.9172312021
99.9007111788
99.5001006126
99.8800611496
99.4464105368
99.9502712488
99.8800611496
99.8841911554
99.8800611496
99.8676711321
99.8800611496
99.8841911554
99.8800611496
99.9172312021
99.9337512255
99.8841911554
99.9131011963
99.9172312021
99.9337512255
99.8676711321
99.9337512255
99.9337512255
99.9337512255
99.9131011963
99.5001006126
99.9131011963
99.9502712488
99.8800611496
99.4835805893
99.9172312021
99.9007111788
99.9667912722
99.9007111788
99.9131011963
99.9502712488
99.9131011963
99.9172312021
99.9337512255
99.8965811729
99.4835805893
99.9337512255
99.9131011963
99.9172312021
99.3968504667
99.9544012547
99.9172312021
99.8635411263
99.8800611496
99.9337512255
99.9337512255
99.5001006126
99.4629305601
99.5042306185
99.9172312021
99.9007111788
99.9296212196
99.8635411263
99.8965811729
99.9007111788
99.8635411263
99.8800611496
99.8470211029
99.9131011963
99.9172312021
99.9544012547
99.3101203442
99.5001006126
99.9172312021
99.4835805893
99.8965811729
99.9296212196
99.9172312021
99.4835805893
99.9172312021
99.9337512255
99.9007111788
99.5207506418
99.8263710737
99.8841911554
99.9007111788
99.9502712488
99.970921278
99.9172312021
99.9337512255
99.9337512255
99.4670605659
99.9337512255
99.9667912722
99.9172312021
99.9131011963
99.8800611496
99.9172312021
99.4835805893
99.4670605659
99.4794505835
99.9502712488
99.9337512255
99.5001006126
99.9337512255
99.9131011963
99.9172312021
99.4670605659
99.9337512255
99.8965811729
99.9502712488
99.5207506418
99.9337512255
99.9502712488
99.5001006126
99.8841911554
99.9337512255
99.8965811729
99.9172312021
99.9502712488
99.9296212196
99.9172312021
99.9296212196
99.9502712488
99.9667912722
99.5372706652
99.9007111788
99.9337512255
99.4629305601
99.9337512255
99.9337512255
99.9544012547
99.9007111788
99.9172312021
99.4835805893
99.9172312021
99.9007111788
99.9502712488
99.9172312021
99.8800611496
99.4835805893
99.9131011963
99.9007111788
99.9502712488
99.9007111788
99.8965811729
99.8470211029
99.8635411263
99.9007111788
99.8965811729
99.8965811729
99.8800611496
99.9337512255
99.9172312021
99.9337512255
99.8800611496
99.8965811729
99.8800611496
99.8800611496
99.9007111788
99.9172312021
99.9172312021
99.8965811729
99.9131011963
99.9337512255
99.9007111788
99.9172312021
99.9833112955
99.9874413013
99.9172312021
99.8965811729
99.8635411263
99.8470211029
99.8800611496
99.8635411263
99.4505405426
99.8635411263
99.8800611496
99.8305010796
99.4505405426
99.8635411263
99.4670605659
99.8263710737
99.9131011963
99.8800611496
99.8676711321
99.9007111788
99.8305010796
99.8965811729
99.9502712488
99.9131011963
99.9337512255
99.4670605659
99.9337512255
99.9502712488
99.4835805893
99.9337512255
99.9337512255
99.8635411263
99.8635411263
99.4670605659
99.8635411263
99.8965811729
99.9007111788
99.8800611496
99.8676711321
99.4133704901
99.8470211029
99.4505405426

Block: 9
======================================
99.8676711321
99.8635411263
99.4629305601
99.8635411263
99.8800611496
99.9007111788
99.9502712488
99.8800611496
99.9337512255
99.8965811729
99.8800611496
99.8965811729
99.4670605659
99.5331406593
99.8635411263
99.8470211029
99.9172312021
99.9172312021
99.9337512255
99.8841911554
99.8470211029
99.9172312021
99.8965811729
99.8965811729
99.4670605659
99.8635411263
99.8965811729
99.9337512255
99.4340205193
99.793331027
99.9337512255
99.4670605659
99.9131011963
99.9172312021
99.8965811729
99.9172312021
99.9337512255
99.9337512255
99.8965811729
99.8635411263
99.5001006126
99.9007111788
99.8635411263
99.9007111788
99.9337512255
99.9337512255
99.4505405426
99.8470211029
99.4175004959
99.9172312021
99.8965811729
99.9337512255
99.9131011963
99.8676711321
99.8800611496
99.9007111788
99.516620636
99.9172312021
99.4629305601
99.9172312021
99.4835805893
99.9502712488
99.4835805893
99.4670605659
99.4670605659
99.9502712488
100.57390213
99.9172312021
99.9337512255
99.8800611496
99.8635411263
99.9337512255
99.9337512255
99.9337512255
99.9337512255
99.9667912722
99.9337512255
99.8470211029
99.8676711321
99.9337512255
99.9502712488
99.4670605659
99.8841911554
99.9007111788
99.8800611496
99.8800611496
99.9172312021
99.9337512255
99.9007111788
99.9337512255
99.9172312021
99.9172312021
99.8635411263
99.4670605659
99.8841911554
99.8800611496
99.9502712488
99.4670605659
99.9337512255
99.8635411263
99.8965811729
99.9172312021
99.9131011963
99.9667912722
99.8635411263
99.9007111788
99.9131011963
99.5001006126
99.4670605659
99.4629305601
99.4835805893
99.9007111788
99.9337512255
99.5001006126
99.9337512255
99.9502712488
99.9172312021
99.9007111788
99.9337512255
99.516620636
99.4835805893
99.9131011963
99.9337512255
99.9007111788
99.9337512255
99.4835805893
99.4670605659
99.8965811729
99.9007111788
99.970921278
99.4629305601
99.9337512255
99.9337512255
99.8635411263
99.9131011963
99.8841911554
99.8800611496
99.9296212196
99.9337512255
99.9337512255
99.9502712488
99.9667912722
99.9667912722
99.8965811729
99.4835805893
99.9502712488
99.9337512255
99.970921278
99.4835805893
99.8470211029
99.9296212196
99.4835805893
99.9172312021
99.9337512255
99.970921278
99.9502712488
99.9502712488
99.9337512255
99.9172312021
99.9172312021
99.9337512255
99.9502712488
99.9502712488
99.5001006126
99.9502712488
99.9667912722
99.9502712488
99.9337512255
99.9337512255
99.4794505835
99.9337512255
99.9172312021
99.9172312021
99.9172312021
99.4670605659
99.8965811729
99.8800611496
99.9337512255
99.9502712488
99.8800611496
99.4835805893
99.9007111788
99.8841911554
99.9131011963
99.8635411263
99.9502712488
99.5001006126
99.8965811729
99.8263710737
99.9131011963
99.9502712488
99.9172312021
99.8800611496
99.5001006126
99.9337512255
99.8965811729
99.8965811729
99.9172312021
99.8470211029
99.8965811729
99.9337512255
99.4835805893
99.516620636
99.9172312021
99.9337512255
99.9007111788
99.8841911554
99.9131011963
99.9007111788
99.3307703733
99.4670605659
99.8676711321
99.9172312021
99.9172312021
99.4794505835
99.9502712488
99.8800611496
99.4670605659
99.4629305601
99.9337512255
99.5001006126
99.4835805893
99.9131011963
99.4670605659
99.4629305601
99.8965811729
99.4835805893
99.5001006126
99.5001006126
99.9172312021
99.9172312021
99.9337512255
99.8676711321
99.8635411263
99.516620636
99.9007111788
99.9131011963
99.516620636
99.9337512255
99.516620636
99.9007111788
99.4629305601
99.9172312021
99.9007111788
99.8965811729
99.9172312021
99.8841911554
99.4670605659
99.9337512255
99.5331406593

Block: 10
======================================
99.4835805893
99.8635411263
99.5001006126
99.8841911554
99.9172312021
99.4670605659
99.4670605659
99.9172312021
99.9172312021
99.4835805893
99.8635411263
99.9337512255
99.8800611496
99.4505405426
99.9337512255
99.5207506418
99.9131011963
99.8965811729
99.8965811729
99.8965811729
99.8635411263
99.9007111788
99.9007111788
99.9172312021
99.9296212196
99.8965811729
99.9502712488
99.4670605659
99.4464105368
99.9007111788
99.8965811729
99.9337512255
99.9007111788
99.9131011963
99.4298905134
99.9337512255
99.4670605659
99.9337512255
99.9337512255
99.4670605659
99.8635411263
99.9172312021
99.4670605659
99.9337512255
99.8635411263
99.4835805893
99.8676711321
99.4670605659
99.5001006126
99.4670605659
99.516620636
99.4794505835
99.8965811729
99.9007111788
99.9544012547
99.4835805893
99.5331406593
99.8800611496
99.8635411263
99.8800611496
99.9172312021
99.8635411263
99.516620636
99.5372706652
99.8635411263
99.8635411263
99.4670605659
99.5001006126
99.9172312021
99.8965811729
99.8635411263
99.8965811729
99.8635411263
99.4835805893
99.516620636
99.4464105368
99.8800611496
99.8841911554
99.9131011963
99.8965811729
99.4670605659
99.9502712488
99.9131011963
99.516620636
99.4670605659
99.8800611496
99.9172312021
99.9337512255
99.4794505835
99.9172312021
99.8800611496
99.4835805893
99.9502712488
99.8841911554
99.9172312021
99.9502712488
99.9172312021
99.9007111788
99.8635411263
99.4670605659
99.4340205193
99.4340205193
99.5001006126
99.8800611496
99.9131011963
99.5001006126
99.8800611496
99.8841911554
99.4835805893
99.4505405426
99.9502712488
99.4835805893
99.4835805893
99.9131011963
99.9337512255
99.8965811729
99.9337512255
99.4629305601
99.9007111788
99.8965811729
99.4835805893
99.8965811729
99.5207506418
99.4670605659
99.4835805893
99.4835805893
99.9007111788
99.4835805893
99.9172312021
99.4835805893
99.9337512255
99.4835805893
99.9502712488
99.5001006126
99.8965811729
99.9544012547
99.5207506418
99.9172312021
99.8965811729
99.8841911554
99.9172312021
99.5001006126
99.9131011963
99.8841911554
99.9172312021
99.9337512255
99.9172312021
99.9172312021
99.8965811729
99.9337512255
99.4670605659
99.9007111788
99.9172312021
99.9007111788
99.8800611496
99.9337512255
99.8470211029
99.4835805893
99.5207506418
99.9172312021
99.4835805893
99.4464105368
99.4835805893
99.9007111788
99.4794505835
99.9337512255
99.970921278
99.9172312021
99.9337512255
99.9007111788
99.8800611496
99.8635411263
99.8841911554
99.9172312021
99.4835805893
99.7396409512
99.8800611496
99.4835805893
99.9007111788
99.9337512255
99.5001006126
99.9007111788
99.9502712488
99.9172312021
99.8965811729
99.8800611496
99.9007111788
99.9172312021
99.9131011963
99.9131011963
99.9667912722
99.5042306185
99.4835805893
99.4835805893
99.9502712488
99.9172312021
99.9172312021
99.5001006126
99.4835805893
99.9007111788
99.9131011963
99.4670605659
99.970921278
99.5001006126
99.516620636
99.9172312021
99.5001006126
99.4629305601
99.9131011963
99.4670605659
99.9131011963
99.4629305601
99.4505405426
99.9172312021
99.8635411263
99.8470211029
99.9131011963
99.4835805893
99.9502712488
99.9337512255
99.5001006126
99.9667912722
99.9172312021
99.9544012547
99.4505405426
99.8965811729
99.4835805893
99.9337512255
99.9337512255
99.9172312021
99.9172312021
99.9172312021
99.9007111788
99.9007111788
99.8800611496
99.8800611496
99.5001006126
99.9337512255
99.8841911554
99.8800611496
99.9502712488
99.9007111788
99.9337512255
99.9502712488
99.8965811729
99.9337512255
99.8965811729
99.8800611496
99.4629305601
99.4670605659
