
Block: 1
======================================
99.9337512255
99.9667912722
99.8965811729
99.9502712488
99.8676711321
99.8965811729
99.4505405426
99.9502712488
99.9502712488
99.9502712488
99.8800611496
99.9172312021
99.8965811729
99.9007111788
99.9667912722
99.8800611496
99.4794505835
99.9502712488
99.9544012547
99.9667912722
99.4670605659
99.9502712488
99.9172312021
99.9502712488
99.9544012547
99.970921278
99.9337512255
99.9337512255
99.4835805893
99.5496606827
99.9502712488
99.4464105368
99.9337512255
99.9007111788
99.5001006126
99.9544012547
99.5001006126
99.9337512255
99.9337512255
99.9172312021
99.9502712488
99.9337512255
99.8635411263
99.9172312021
99.4464105368
99.9007111788
99.5042306185
99.9172312021
99.4835805893
99.9172312021

Block: 2
======================================
99.9337512255
99.4835805893
99.4794505835
99.9337512255
99.9172312021
99.5001006126
99.4835805893
99.9337512255
99.4835805893
99.9337512255
99.9337512255
99.9502712488
99.9172312021
99.9007111788
99.9007111788
99.8965811729
99.9172312021
99.9131011963
99.9502712488
99.9007111788
99.8965811729
99.9131011963
99.9502712488
99.9502712488
99.8470211029
99.4835805893
99.9337512255
99.970921278
99.4670605659
99.5001006126
99.9337512255
99.8635411263
99.4629305601
99.9007111788
99.9337512255
99.9131011963
99.8800611496
99.8841911554
99.9172312021
99.5207506418
99.5001006126
99.8965811729
99.5001006126
99.9172312021
99.970921278
99.5372706652
99.9544012547
99.9172312021
99.8965811729
99.9172312021

Block: 3
======================================
99.9833112955
99.9667912722
100.003961325
100.003961325
99.9874413013
99.5537906885
100.037001371
100.003961325
99.5372706652
100.003961325
100.003961325
100.003961325
99.9502712488
99.9337512255
99.970921278
99.9667912722
99.9833112955
99.5372706652
99.9667912722
99.9667912722
100.003961325
100.003961325
100.020481348
99.9667912722
99.9874413013
99.9874413013
99.9667912722
100.003961325
99.9337512255
99.9833112955
99.5001006126
99.9544012547
99.5331406593
99.9667912722
99.9337512255
100.020481348
99.970921278
99.9833112955
99.9874413013
100.003961325
99.5703107119
99.970921278
99.970921278
99.5703107119
99.9544012547
99.9502712488
99.9833112955
99.5703107119
99.9502712488
99.9337512255

Block: 4
======================================
99.5496606827
100.003961325
99.516620636
100.016351342
99.9667912722
99.9667912722
99.5703107119
99.970921278
99.9998313189
99.9172312021
99.5331406593
99.9172312021
99.5331406593
99.8965811729
99.516620636
99.9337512255
99.9337512255
99.9172312021
99.9502712488
99.5001006126
99.9502712488
99.9337512255
99.6074807644
99.9502712488
99.5372706652
100.003961325
99.9502712488
99.9131011963
99.9172312021
99.9172312021
99.5001006126
99.9172312021
99.4835805893
99.5001006126
99.9131011963
99.5537906885
99.8965811729
99.9337512255
99.9007111788
99.9337512255
100.003961325
100.003961325
99.5001006126
99.9667912722
99.516620636
99.9337512255
99.970921278
99.8635411263
99.4670605659
99.9296212196

Block: 5
======================================
99.9667912722
99.4835805893
99.9172312021
99.8800611496
99.4794505835
99.5331406593
99.9874413013
99.9502712488
99.516620636
99.9131011963
99.9502712488
99.9007111788
99.9502712488
99.9874413013
99.9131011963
99.9007111788
99.9172312021
99.516620636
99.9667912722
99.8841911554
99.9667912722
99.9502712488
99.9337512255
99.9502712488
99.9667912722
99.9667912722
99.5496606827
99.8841911554
99.9337512255
99.9337512255
99.5001006126
99.9337512255
99.5207506418
100.421091914
99.9833112955
99.8965811729
99.8470211029
99.9502712488
99.4670605659
99.9172312021
99.5001006126
99.8470211029
99.9337512255
99.9502712488
99.9502712488
99.4670605659
99.8965811729
99.9502712488
99.4835805893
99.9172312021

Block: 6
======================================
99.6735608578
99.9131011963
99.8965811729
99.5372706652
99.5001006126
99.516620636
99.5372706652
99.4835805893
99.9502712488
99.9131011963
99.9502712488
99.9131011963
99.4835805893
99.5703107119
99.9131011963
99.9502712488
99.9502712488
99.9544012547
99.9172312021
99.9131011963
99.5001006126
99.9337512255
99.9172312021
99.9502712488
99.9544012547
99.9502712488
99.8965811729
99.9502712488
99.9007111788
99.5703107119
99.4794505835
99.9172312021
99.4670605659
99.4298905134
99.8263710737
99.9007111788
99.5001006126
99.9337512255
99.5207506418
99.5703107119
99.9172312021
99.9833112955
99.970921278
99.9337512255
99.4464105368
99.8965811729
99.5001006126
99.9502712488
99.9007111788
99.4505405426

Block: 7
======================================
99.8841911554
99.4835805893
99.9502712488
99.5001006126
99.4670605659
99.9172312021
99.9502712488
99.8965811729
99.8470211029
99.9337512255
99.5001006126
99.5001006126
99.9007111788
99.5372706652
99.9874413013
99.9337512255
99.516620636
99.4670605659
99.5372706652
99.4794505835
99.5001006126
99.9502712488
99.5537906885
100.020481348
99.9007111788
99.9502712488
99.9667912722
99.9172312021
99.9337512255
99.9007111788
99.9007111788
99.9337512255
99.9172312021
99.9131011963
99.5001006126
99.970921278
99.9337512255
99.9667912722
99.5372706652
99.8800611496
99.4835805893
99.9172312021
99.9337512255
99.8635411263
99.9172312021
99.970921278
99.5001006126
99.4629305601
99.8635411263
99.9337512255

Block: 8
======================================
99.8841911554
99.4464105368
99.8635411263
99.9172312021
99.5042306185
99.8841911554
99.516620636
99.9172312021
99.9337512255
99.9172312021
99.4298905134
99.8800611496
99.8841911554
99.9502712488
99.4505405426
99.9131011963
99.8635411263
99.8635411263
99.8470211029
99.4505405426
99.8470211029
99.5001006126
99.4505405426
99.8635411263
99.8470211029
99.9296212196
99.8841911554
99.9131011963
99.5331406593
99.8470211029
99.8800611496
99.8800611496
99.9337512255
99.8841911554
99.970921278
99.8635411263
99.8841911554
99.8965811729
99.5001006126
99.5001006126
99.4835805893
99.9172312021
99.9131011963
99.9007111788
99.4670605659
99.4670605659
99.8965811729
99.4835805893
99.8470211029
99.4505405426

Block: 9
======================================
99.9172312021
99.9337512255
99.9337512255
99.4298905134
99.8470211029
99.8800611496
99.9544012547
99.4464105368
99.9337512255
99.8800611496
99.8305010796
99.5001006126
99.4629305601
99.8800611496
99.8841911554
99.4670605659
99.9131011963
99.8635411263
99.9007111788
99.4629305601
99.8676711321
99.8635411263
99.9502712488
99.8635411263
99.9337512255
99.8800611496
99.4340205193
99.4835805893
99.5001006126
99.9502712488
99.4464105368
99.516620636
99.9007111788
99.4670605659
99.4464105368
99.9337512255
99.8800611496
99.4629305601
99.9172312021
99.9172312021
99.4133704901
99.8965811729
99.9007111788
99.9007111788
99.9337512255
99.8841911554
99.9172312021
99.8635411263
99.4835805893
99.4298905134

Block: 10
======================================
99.5001006126
99.8800611496
99.9544012547
99.9337512255
99.5001006126
99.5207506418
99.9172312021
99.4505405426
99.4505405426
99.9007111788
99.4835805893
99.8800611496
99.9007111788
99.8841911554
99.516620636
99.4670605659
99.4835805893
99.9502712488
99.4835805893
99.8676711321
99.9337512255
99.8800611496
99.9007111788
99.4464105368
99.8470211029
99.8965811729
99.8841911554
99.9502712488
99.9131011963
99.8635411263
99.8965811729
99.4835805893
99.8635411263
99.4835805893
99.8800611496
99.4298905134
99.8965811729
99.8965811729
99.9667912722
99.9502712488
99.9007111788
99.8635411263
99.5496606827
99.4464105368
99.9007111788
99.4670605659
99.8470211029
99.8676711321
99.8965811729
99.8965811729
