
Block: 1
======================================
201.098103118
200.674592948
109.945683455
200.658304095
200.247010565

Block: 2
======================================
201.118464184
200.658304095
200.658304095
201.134753036
200.674592948

Block: 3
======================================
201.151041889
107.021834397
201.118464184
107.111423087
201.541974354

Block: 4
======================================
200.690881801
110.047488785
201.118464184
109.909033537
200.263299417

Block: 5
======================================
200.230721712
200.230721712
200.723459506
200.247010565
200.247010565

Block: 6
======================================
200.723459506
200.230721712
200.690881801
200.674592948
200.727531719

Block: 7
======================================
200.230721712
200.776398277
200.829337049
108.882835817
200.694954014

Block: 8
======================================
200.707170653
200.690881801
200.690881801
200.690881801
200.690881801

Block: 9
======================================
200.711242867
201.134753036
201.171402955
201.151041889
200.312165976

Block: 10
======================================
200.230721712
200.230721712
200.247010565
200.27958827
200.707170653
