
Block: 1
======================================
200.210360646
200.198144007
200.247010565
200.674592948
200.658304095
200.230721712
200.230721712
200.230721712
200.226649499
200.690881801

Block: 2
======================================
200.690881801
200.230721712
200.247010565
200.247010565
200.760109425
200.690881801
200.247010565
200.247010565
200.299949336
200.299949336

Block: 3
======================================
200.690881801
200.214432859
200.210360646
200.690881801
200.210360646
200.210360646
200.707170653
200.690881801
200.247010565
200.690881801

Block: 4
======================================
200.247010565
200.690881801
200.263299417
200.247010565
200.247010565
200.230721712
200.247010565
200.299949336
201.151041889
200.332527041

Block: 5
======================================
200.263299417
201.167330742
200.813048196
201.118464184
200.739748359
200.332527041
201.118464184
201.171402955
200.230721712
200.247010565

Block: 6
======================================
200.707170653
200.690881801
200.247010565
200.707170653
201.171402955
200.674592948
200.707170653
200.247010565
200.707170653
200.263299417

Block: 7
======================================
201.155114102
200.263299417
201.151041889
201.187691808
200.230721712
200.670520735
200.230721712
201.240630579
200.727531719
200.690881801

Block: 8
======================================
200.690881801
112.368650293
198.658847427
113.700264001
199.070140958
111.945140123
199.082357597
113.244176126
201.187691808
112.181328487

Block: 9
======================================
200.690881801
200.723459506
200.674592948
108.320870399
200.263299417
110.764198303
200.760109425
200.247010565
112.8654603
198.952046776

Block: 10
======================================
201.118464184
108.817680407
201.546046567
109.843878126
199.888655806
109.416295743
199.888655806
109.945683455
199.424423504
111.191780686
