
Block: 1
======================================
199.904944658
199.839789248
199.921233511
200.756037211
200.348815894

Average distance is : 200.154 cm
Average deviation is : 0.392 cm
Block: 2
======================================
200.316238189
200.312165976
199.852005887
199.872366953
200.316238189

Average distance is : 200.134 cm
Average deviation is : 0.248 cm
Block: 3
======================================
199.909016871
199.8560781
200.776398277
199.872366953
200.760109425

Average distance is : 200.235 cm
Average deviation is : 0.487 cm
Block: 4
======================================
200.295877123
199.888655806
199.904944658
199.872366953
200.299949336

Average distance is : 200.052 cm
Average deviation is : 0.224 cm
Block: 5
======================================
200.776398277
199.921233511
200.743820572
199.852005887
199.888655806

Average distance is : 200.236 cm
Average deviation is : 0.479 cm
Block: 6
======================================
200.299949336
199.852005887
199.685045147
199.835717034
200.760109425

Average distance is : 200.087 cm
Average deviation is : 0.441 cm
Block: 7
======================================
200.760109425
199.872366953
199.8560781
200.332527041
200.316238189

Average distance is : 200.227 cm
Average deviation is : 0.376 cm
Block: 8
======================================
199.888655806
200.756037211
200.760109425
200.295877123
200.299949336

Average distance is : 200.400 cm
Average deviation is : 0.367 cm
Block: 9
======================================
200.316238189
201.151041889
200.760109425
200.316238189
200.316238189

Average distance is : 200.572 cm
Average deviation is : 0.376 cm
Block: 10
======================================
199.872366953
200.332527041
200.295877123
200.295877123
201.20398066

Average distance is : 200.400 cm
Average deviation is : 0.488 cm