
Block: 1
======================================
200.756037211
199.909016871
200.760109425
199.921233511
200.776398277
200.760109425
200.776398277
199.872366953
199.904944658
199.461073422

Block: 2
======================================
200.760109425
200.332527041
200.348815894
199.888655806
200.760109425
199.904944658
199.909016871
199.888655806
199.888655806
199.904944658

Block: 3
======================================
199.872366953
199.86829474
200.365104747
200.332527041
199.872366953
199.888655806
199.888655806
199.888655806
199.884583592
199.904944658

Block: 4
======================================
200.332527041
199.925305724
199.904944658
199.888655806
200.79268713
200.776398277
199.921233511
199.86829474
199.884583592
200.348815894

Block: 5
======================================
199.86829474
201.236558366
200.316238189
200.316238189
201.171402955
199.86829474
200.316238189
200.316238189
200.348815894
200.348815894

Block: 6
======================================
200.760109425
199.904944658
200.760109425
200.348815894
199.904944658
199.888655806
199.872366953
199.86829474
199.872366953
199.86829474

Block: 7
======================================
199.872366953
199.904944658
199.904944658
200.348815894
201.20398066
199.888655806
199.8560781
199.904944658
199.888655806
199.888655806

Block: 8
======================================
200.760109425
200.727531719
200.79268713
199.904944658
200.760109425
199.904944658
199.909016871
200.299949336
199.888655806
200.332527041

Block: 9
======================================
200.776398277
199.904944658
200.299949336
199.888655806
200.316238189
200.316238189
200.316238189
199.884583592
200.348815894
199.904944658

Block: 10
======================================
200.316238189
199.86829474
200.316238189
200.332527041
199.888655806
200.332527041
200.760109425
200.743820572
200.743820572
200.316238189
