
Block: 1
======================================
400.316670489
399.892122221
399.924468756
399.908295488
399.871905637

Block: 2
======================================
400.332843757
399.859775686
399.908295488
399.892122221
399.431184101

Block: 3
======================================
400.280280638
400.26410737
399.871905637
400.300497222
399.875948954

Block: 4
======================================
400.26410737
399.859775686
400.72504549
400.300497222
400.332843757

Block: 5
======================================
399.888078904
400.332843757
399.463530636
399.908295488
399.940642023

Block: 6
======================================
399.940642023
400.365190291
399.960858607
399.908295488
399.924468756

Block: 7
======================================
399.536310339
399.516093755
399.924468756
399.940642023
399.499920487

Block: 8
======================================
399.940642023
399.467573953
399.892122221
399.924468756
399.520137072

Block: 9
======================================
399.924468756
399.924468756
400.126634598
399.888078904
399.875948954

Block: 10
======================================
399.875948954
399.892122221
399.888078904
399.855732369
195.077907634
