
Block: 1
======================================
399.520137072
399.516093755
399.503963804
399.532267022
399.516093755
399.552483606
399.48374722
399.111762071
399.091545486
399.532267022
399.552483606
399.601003408
399.516093755
399.536310339
399.94468534
399.111762071
399.977031875
399.520137072
399.584830141
399.536310339
399.584830141
399.977031875
399.977031875
399.536310339
399.552483606

Block: 2
======================================
399.552483606
399.499920487
399.536310339
399.520137072
399.520137072
399.536310339
399.532267022
399.532267022
399.552483606
399.091545486
399.516093755
399.532267022
399.091545486
399.516093755
399.091545486
399.552483606
399.536310339
399.552483606
399.516093755
399.568656874
399.552483606
399.552483606
399.568656874
399.568656874
399.568656874

Block: 3
======================================
399.127935338
398.618477416
399.091545486
399.536310339
399.536310339
399.091545486
399.111762071
399.091545486
399.532267022
399.536310339
398.654867268
398.687213802
398.70338707
399.127935338
399.144108605
399.127935338
399.111762071
399.552483606
399.520137072
399.079415536
399.588873458
399.532267022
399.568656874
399.16432519
399.520137072

Block: 4
======================================
399.079415536
399.552483606
399.079415536
399.091545486
399.520137072
399.095588803
399.568656874
399.568656874
399.127935338
399.584830141
399.532267022
399.552483606
399.548440289
399.601003408
399.516093755
399.568656874
399.552483606
399.520137072
399.548440289
399.091545486
399.536310339
399.552483606
399.588873458
399.568656874
399.584830141

Block: 5
======================================
399.568656874
399.568656874
399.568656874
399.568656874
399.584830141
399.075372219
399.536310339
399.127935338
399.111762071
399.516093755
399.111762071
399.536310339
399.552483606
399.107718754
399.536310339
399.548440289
399.536310339
399.532267022
399.127935338
399.499920487
399.111762071
399.499920487
399.516093755
399.536310339
399.503963804

Block: 6
======================================
399.568656874
399.908295488
399.536310339
399.520137072
399.499920487
399.924468756
399.499920487
399.059198952
399.940642023
399.960858607
399.095588803
399.552483606
399.48374722
399.552483606
399.940642023
399.48374722
399.908295488
399.960858607
399.94468534
399.960858607
399.904252172
399.48374722
399.499920487
399.48374722
399.063242269

Block: 7
======================================
399.924468756
399.892122221
399.871905637
399.908295488
399.908295488
399.924468756
399.0228091
399.908295488
400.280280638
399.431184101
400.32880044
400.296453905
400.312627172
400.332843757
400.32880044
400.316670489
400.332843757
400.704828906
400.349017024
400.688655639
400.688655639
400.688655639
400.243890786
400.737175441
400.688655639

Block: 8
======================================
400.63609252
399.774866033
400.672482371
400.688655639
400.63609252
400.227717519
400.26410737
400.231760836
400.195370984
400.211544251
400.211544251
400.247934103
400.247934103
400.243890786
400.26410737
400.215587568
400.231760836
399.839559102
399.839559102
399.770822716
400.280280638
400.247934103
399.80316925
399.823385835
399.839559102

Block: 9
======================================
399.823385835
399.839559102
400.316670489
399.807212567
399.888078904
399.871905637
400.284323955
399.839559102
399.855732369
399.871905637
400.316670489
399.892122221
399.839559102
399.892122221
399.892122221
399.855732369
399.398837566
399.435227418
399.875948954
399.908295488
399.855732369
399.908295488
399.908295488
399.855732369
399.908295488

Block: 10
======================================
399.908295488
399.875948954
399.892122221
399.940642023
399.871905637
400.332843757
399.924468756
399.415010834
399.908295488
400.332843757
399.940642023
399.908295488
400.349017024
399.447357368
399.940642023
399.451400685
399.95681529
399.94468534
399.924468756
399.94468534
399.960858607
399.940642023
399.940642023
399.503963804
399.924468756
