
Block: 1
======================================
399.993205142
400.009378409
399.516093755
400.009378409
399.95681529
399.552483606
400.009378409
399.972988558
399.989161825
400.009378409
399.993205142
399.972988558
400.009378409
399.977031875
399.977031875
400.397536826
399.552483606
400.041724944
400.025551677
399.993205142
400.009378409
399.536310339
399.972988558
399.552483606
399.993205142
400.025551677
399.993205142
400.401580143
399.993205142
399.989161825
399.552483606
399.552483606
399.977031875
400.41775341
400.413710093
399.989161825
400.470316529
399.989161825
400.433926678
400.41775341
400.009378409
399.960858607
400.397536826
399.977031875
399.993205142
399.568656874
400.025551677
400.433926678
400.045768261
400.413710093
400.029594994
399.989161825
400.025551677
400.450099945
400.041724944
400.381363559
400.450099945
400.009378409
399.536310339
400.029594994
400.013421726
400.009378409
399.568656874
399.993205142
400.013421726
399.977031875
400.025551677
399.989161825
399.95681529
399.993205142
399.993205142
400.41775341
399.568656874
400.397536826
399.993205142
400.41775341
400.413710093
400.450099945
400.041724944
400.41775341
400.401580143
399.989161825
400.009378409
400.061941528
400.009378409
399.568656874
399.568656874
399.993205142
399.584830141
399.552483606
399.548440289
400.041724944
400.045768261
399.972988558
400.009378409
400.009378409
399.63739326
400.025551677
399.993205142
400.009378409

Average distance is : 400.011 cm
Average deviation is : 0.263 cm
Block: 2
======================================
400.029594994
399.536310339
400.009378409
400.009378409
399.548440289
399.960858607
399.548440289
400.397536826
399.940642023
399.95681529
400.009378409
399.95681529
399.960858607
399.977031875
399.552483606
399.977031875
399.972988558
400.385406876
400.009378409
399.993205142
400.013421726
399.536310339
399.95681529
400.381363559
399.532267022
399.993205142
399.977031875
399.960858607
400.41775341
399.940642023
399.94468534
399.536310339
400.401580143
399.940642023
399.940642023
399.972988558
400.381363559
400.365190291
399.993205142
399.940642023
400.365190291
399.924468756
400.349017024
400.381363559
399.520137072
399.972988558
399.94468534
399.960858607
400.369233608
400.381363559
399.972988558
399.924468756
400.365190291
399.993205142
399.95681529
399.520137072
400.385406876
399.940642023
400.009378409
399.960858607
399.977031875
399.48374722
399.940642023
399.95681529
399.924468756
400.349017024
399.94468534
399.960858607
399.499920487
399.499920487
399.977031875
399.924468756
399.940642023
399.924468756
399.960858607
399.908295488
399.94468534
399.977031875
399.940642023
399.977031875
399.924468756
399.924468756
399.928512073
399.908295488
399.940642023
399.924468756
399.48374722
399.908295488
399.94468534
399.908295488
399.940642023
399.960858607
399.94468534
399.924468756
399.924468756
399.908295488
399.940642023
400.332843757
399.48374722
399.908295488

Average distance is : 399.961 cm
Average deviation is : 0.237 cm
Block: 3
======================================
400.316670489
399.94468534
132.378193378
58.3208021164
130.651697087
59.2709815741
129.871336937
60.2696808338
128.363179755
61.6120620251
127.562603021
62.8493169785
126.3091748
63.649893713
125.411558461
64.4747303486
124.667588162
64.9033219337
123.389900041
66.5974716902
122.512500286
67.0220199585
122.120298553
67.9196362972
121.259072065
68.2916214466
120.798133945
68.7849061012
120.341239142
69.2094543695
119.936907458
69.6501759052
119.152503991
70.4305360556
118.27106092
70.8874308586
117.814166117
71.3443256617
117.389617848
72.1934221983
116.49200151
72.5856239319
116.148319578
73.0425187349
115.679294825
73.8916152716
114.846371555
74.6679321051
114.474386406
74.6517588377
114.061968088
75.5210719585
113.237131453
76.4146449804
112.776193333
76.7542835951
112.420381451
77.1828751802
111.522765112
78.0117551327
111.065870309
78.5009964705
110.657495308
78.9255447388
109.759878969
79.8272043943
109.383850503
80.2153628111
108.947172284
80.1991895437
108.502407432
81.0482860804
108.098075747
81.4202712297
107.7746104
81.7760831118
106.876994061
82.6898727179
106.452445793
83.1508108377
106.011724257
83.5551425219
105.639739108
83.9796907902
105.22732079
83.4378863335
105.704432178
83.8624346018
104.859378958
84.6913145542
104.451003957
85.1199061394
104.091148758
85.5201945066
103.618080688
85.9609160423
103.161185884
86.4218541622
103.177359152
86.4218541622

Average distance is : 100.907 cm
Average deviation is : 48.017 cm
Block: 4
======================================
399.940642023
400.025551677
400.045768261
400.429883361
399.977031875
399.94468534
400.025551677
400.025551677
399.993205142
399.568656874
399.568656874
399.568656874
399.568656874
400.009378409
399.568656874
399.548440289
399.568656874
399.588873458
399.111762071
400.009378409
399.552483606
399.993205142
399.993205142
399.584830141
399.568656874
399.552483606
399.588873458
399.960858607
399.993205142
399.568656874
400.009378409
399.584830141
399.548440289
399.972988558
399.568656874
399.552483606
399.993205142
399.552483606
399.568656874
399.552483606
400.025551677
399.993205142
400.009378409
400.009378409
400.009378409
399.977031875
399.993205142
399.95681529
399.532267022
399.127935338
399.552483606
399.993205142
399.532267022
399.111762071
399.552483606
399.552483606
399.568656874
399.536310339
399.993205142
399.95681529
399.520137072
399.516093755
398.70338707
399.95681529
400.009378409
399.993205142
399.127935338
399.552483606
399.552483606
399.993205142
399.972988558
399.977031875
399.972988558
400.381363559
399.95681529
399.516093755
399.972988558
399.960858607
399.95681529
399.977031875
399.977031875
399.95681529
399.989161825
399.499920487
399.977031875
399.977031875
399.977031875
399.977031875
399.516093755
399.972988558
399.075372219
399.960858607
399.940642023
399.091545486
399.977031875
399.993205142
399.989161825
399.960858607
399.532267022
399.94468534

Average distance is : 399.772 cm
Average deviation is : 0.299 cm
Block: 5
======================================
399.94468534
399.960858607
399.977031875
399.95681529
400.413710093
194.875741792
400.41775341
400.349017024
400.433926678
399.940642023
399.960858607
399.972988558
399.977031875
399.536310339
400.41775341
400.025551677
400.401580143
399.95681529
399.960858607
399.95681529
399.95681529
399.977031875
399.977031875
399.993205142
399.95681529
399.95681529
399.536310339
399.516093755
399.95681529
399.940642023
399.536310339
400.349017024
399.972988558
399.940642023
399.95681529
399.503963804
399.516093755
399.499920487
399.993205142
399.940642023
399.536310339
399.977031875
399.993205142
400.41775341
400.401580143
399.972988558
400.349017024
399.977031875
400.397536826
400.365190291
399.960858607
399.95681529
400.381363559
399.924468756
400.381363559
399.940642023
399.516093755
400.433926678
399.977031875
399.532267022
399.960858607
399.977031875
399.95681529
399.520137072
399.993205142
399.977031875
399.972988558
399.993205142
399.977031875
400.401580143
399.95681529
399.977031875
399.960858607
399.993205142
399.972988558
399.993205142
399.95681529
399.960858607
399.993205142
399.536310339
399.516093755
399.95681529
399.095588803
399.95681529
399.568656874
399.960858607
399.924468756
399.516093755
399.993205142
399.960858607
399.972988558
399.977031875
399.520137072
399.552483606
399.972988558
399.993205142
399.94468534
399.079415536
399.095588803
399.536310339

Average distance is : 397.879 cm
Average deviation is : 20.508 cm
Block: 6
======================================
399.059198952
399.95681529
399.94468534
399.972988558
399.924468756
399.924468756
399.499920487
399.940642023
399.95681529
399.908295488
399.960858607
399.924468756
399.960858607
399.908295488
399.499920487
399.520137072
399.924468756
339.024030495
399.908295488
399.940642023
399.95681529
399.960858607
399.908295488
399.940642023
399.95681529
399.467573953
399.908295488
399.924468756
399.924468756
400.365190291
399.892122221
400.332843757
399.908295488
399.892122221
400.365190291
399.908295488
399.924468756
399.94468534
399.960858607
399.48374722
399.908295488
400.312627172
399.871905637
399.908295488
399.888078904
399.940642023
399.892122221
399.940642023
400.332843757
399.892122221
399.924468756
399.415010834
399.940642023
400.316670489
399.451400685
399.924468756
399.908295488
399.904252172
399.467573953
399.924468756
399.924468756
399.908295488
399.908295488
399.888078904
399.499920487
399.924468756
399.908295488
399.451400685
399.924468756
399.908295488
399.01067915
399.467573953
399.888078904
399.875948954
399.94468534
399.928512073
399.94468534
399.467573953
399.892122221
399.924468756
399.924468756
399.95681529
399.924468756
399.48374722
399.940642023
399.95681529
399.94468534
399.924468756
399.94468534
399.904252172
400.365190291
399.960858607
399.499920487
399.924468756
399.940642023
399.940642023
399.940642023
399.908295488
399.94468534
399.928512073

Average distance is : 399.265 cm
Average deviation is : 6.089 cm
Block: 7
======================================
399.993205142
400.397536826
399.960858607
400.381363559
399.960858607
399.940642023
400.365190291
399.977031875
399.972988558
399.972988558
400.381363559
399.536310339
399.977031875
400.413710093
399.993205142
399.972988558
399.516093755
399.977031875
399.940642023
400.413710093
400.385406876
399.95681529
400.025551677
400.397536826
399.977031875
399.993205142
399.993205142
399.993205142
400.41775341
400.450099945
400.029594994
400.029594994
399.989161825
400.009378409
399.95681529
400.466273212
399.552483606
399.548440289
399.972988558
400.009378409
400.009378409
399.972988558
399.993205142
399.977031875
399.940642023
399.993205142
400.41775341
400.433926678
400.433926678
400.41775341
400.450099945
399.993205142
400.385406876
400.433926678
399.977031875
400.381363559
400.381363559
400.365190291
400.365190291
400.401580143
400.413710093
400.401580143
399.95681529
399.924468756
400.433926678
399.520137072
399.499920487
399.940642023
399.940642023
400.381363559
400.41775341
400.413710093
400.385406876
399.940642023
399.940642023
399.940642023
400.365190291
400.41775341
400.381363559
399.499920487
400.381363559
400.365190291
400.41775341
399.993205142
400.401580143
399.95681529
400.381363559
400.365190291
400.41775341
400.401580143
399.499920487
400.381363559
400.385406876
400.41775341
400.385406876
400.381363559
399.95681529
400.385406876
400.401580143
399.499920487

Average distance is : 400.138 cm
Average deviation is : 0.283 cm
Block: 8
======================================
399.972988558
399.993205142
399.520137072
399.993205142
399.977031875
399.499920487
399.977031875
399.536310339
399.977031875
399.977031875
399.552483606
399.516093755
399.960858607
399.552483606
399.95681529
399.536310339
399.075372219
399.516093755
399.95681529
399.552483606
399.536310339
399.552483606
399.503963804
399.552483606
399.532267022
399.552483606
399.516093755
399.520137072
399.499920487
399.568656874
399.552483606
399.972988558
399.075372219
399.503963804
399.520137072
399.924468756
399.960858607
399.552483606
399.552483606
399.548440289
399.48374722
399.95681529
399.499920487
399.568656874
399.503963804
399.516093755
399.552483606
399.516093755
399.977031875
399.960858607
399.516093755
399.516093755
399.548440289
399.079415536
399.972988558
399.940642023
399.499920487
399.059198952
399.111762071
399.516093755
399.532267022
399.977031875
399.536310339
399.532267022
399.940642023
399.520137072
399.940642023
399.924468756
399.520137072
399.94468534
399.924468756
399.940642023
399.940642023
399.924468756
399.520137072
399.993205142
399.111762071
399.075372219
399.940642023
399.94468534
399.95681529
399.48374722
399.972988558
399.940642023
399.499920487
399.977031875
399.520137072
399.924468756
399.823385835
399.95681529
399.960858607
399.536310339
399.516093755
399.499920487
399.95681529
399.94468534
399.095588803
399.552483606
399.960858607
399.960858607

Average distance is : 399.671 cm
Average deviation is : 0.270 cm
Block: 9
======================================
399.584830141
399.993205142
399.532267022
399.520137072
399.993205142
399.079415536
399.091545486
399.940642023
399.568656874
399.977031875
399.584830141
399.977031875
399.091545486
399.552483606
399.568656874
399.532267022
399.536310339
399.552483606
399.536310339
399.552483606
399.091545486
399.536310339
399.532267022
399.111762071
399.520137072
399.584830141
399.536310339
399.111762071
399.548440289
399.107718754
399.552483606
399.043025684
399.552483606
399.107718754
399.568656874
399.94468534
399.095588803
399.95681529
399.111762071
399.584830141
399.532267022
399.532267022
399.568656874
399.536310339
399.552483606
399.972988558
399.516093755
399.516093755
399.568656874
399.568656874
399.075372219
399.568656874
399.532267022
399.95681529
399.993205142
399.536310339
399.111762071
399.568656874
399.95681529
399.091545486
399.940642023
399.536310339
399.977031875
399.977031875
399.111762071
399.516093755
399.95681529
399.516093755
399.95681529
399.095588803
399.924468756
399.536310339
399.111762071
399.924468756
399.520137072
399.536310339
399.095588803
399.532267022
399.95681529
399.940642023
399.972988558
399.94468534
399.977031875
399.536310339
399.940642023
399.48374722
399.499920487
399.499920487
399.520137072
399.839559102
399.075372219
399.520137072
399.516093755
399.924468756
399.977031875
399.516093755
399.960858607
399.940642023
399.977031875
399.972988558

Average distance is : 399.585 cm
Average deviation is : 0.301 cm
Block: 10
======================================
399.888078904
399.499920487
399.48374722
399.48374722
399.940642023
399.516093755
399.516093755
399.892122221
399.924468756
399.977031875
399.499920487
399.940642023
399.091545486
399.059198952
399.499920487
399.95681529
399.48374722
399.48374722
399.063242269
399.532267022
399.972988558
399.95681529
399.940642023
399.908295488
399.48374722
399.908295488
399.48374722
399.48374722
399.924468756
399.908295488
399.924468756
399.940642023
399.95681529
399.908295488
399.499920487
399.536310339
399.48374722
399.924468756
399.94468534
399.928512073
399.043025684
399.516093755
399.48374722
399.516093755
399.536310339
399.043025684
399.503963804
399.532267022
399.48374722
399.346274447
399.499920487
399.924468756
398.618477416
399.48374722
399.520137072
399.503963804
399.536310339
399.48374722
399.463530636
399.48374722
399.059198952
399.059198952
399.532267022
399.499920487
399.48374722
399.499920487
399.063242269
399.063242269
399.079415536
399.552483606
399.075372219
399.532267022
399.503963804
399.499920487
399.516093755
399.075372219
399.548440289
399.552483606
399.520137072
399.516093755
399.499920487
399.516093755
399.043025684
399.091545486
399.536310339
399.532267022
399.075372219
399.532267022
399.536310339
399.532267022
399.568656874
399.552483606
399.520137072
399.499920487
399.079415536
399.94468534
399.94468534
399.977031875
399.536310339
399.940642023

Average distance is : 399.540 cm
Average deviation is : 0.295 cm