
Block: 1
======================================
99.1160100698
60.1783150434
99.136660099
64.787401557
95.828525424
67.1084648371
95.6385451555
67.7651357651
95.1553344727
69.8590487242
94.0071928501
70.7304799557
93.177061677
71.5606111288
92.7103710175
72.0438218117
92.2602003813
72.0438218117
91.8100297451
72.944163084
90.9096884727
73.8610243797
90.0423872471
74.7283256054
89.5922166109
75.2156662941
88.6877453327
76.1160075665
87.770884037
76.582698226
87.7543640137
77.0328688622
87.2876733541
77.5202095509
86.3666820526
78.4205508232
85.8669513464
78.4866309166
85.8669513464
78.4701108932
85.4002606869
78.957451582
85.346570611
78.9739716053
85.3796106577
78.957451582
85.346570611
78.957451582
85.346570611
79.0235316753
85.2763605118
79.510872364
84.8303198814
79.510872364
84.8096698523
79.3869721889
84.917050004
79.8536628485
84.4999194145
79.7875827551
84.5494794846
80.72509408
83.5624080896
80.7911741734
83.0791974068
81.2785148621
83.0791974068
81.2785148621
83.0791974068
81.2785148621
83.0461573601
81.2785148621
83.0957174301
81.2083047628
82.6620668173

Average distance is : 82.167 cm
Average deviation is : 7.777 cm
Block: 2
======================================
99.1036200523
64.6965414286
97.9224383831
67.0052146912
95.5311650038
67.6288455725
96.208485961
68.9421874285
94.9281841516
69.4790881872
92.6236408949
70.3835594654
91.8058997393
71.3004207611
91.3433390856
71.7671114206
90.3893077374
71.1434805393
92.6236408949
72.0975118876
91.7563396692
73.0308932066
90.8559983969
73.4480237961
90.4429978132
73.8610243797
89.9556571245
74.7820156813
89.0553158522
75.2652263641
89.0553158522
75.7525670528
88.1054145098
76.6529083252
87.3248434067
77.4293494225
86.4245021343
78.2966506481
85.9371614456
78.350340724
85.9371614456
78.8500714302
85.5200308561
78.854201436
85.4333007336
79.3208920956
84.5494794846
79.7504127026
84.5494794846
80.2542734146
84.0662688017
80.72509408
84.0497487783
80.2873134613
84.0497487783
80.77465415
83.9960587025
80.3740435839
83.9299786091
80.8448642492
83.5128480196
81.2950348854
83.0255073309
81.7617255449
82.5918567181
81.7617255449
83.0461573601
81.2743848562
83.5458880663
80.7911741734
84.0125787258
80.7911741734
83.5293680429
80.8118242025
83.1163674593

Average distance is : 82.183 cm
Average deviation is : 7.608 cm
Block: 3
======================================
99.5331406593
64.2670208216
98.3395689726
66.5178740025
96.0887157917
67.488425374
96.3117361069
68.4259366989
95.4816049337
69.3221479654
94.9777442217
70.2266192436
93.6478823423
71.1228305101
93.1605416536
71.6266912222
92.2436803579
72.0273017883
91.9793599844
71.4367109537
91.029458642
72.060341835
90.5627679825
72.4609524012
90.2158474922
72.9111230373
89.6417766809
75.0752460957
88.7951254845
75.5088967085
88.8488155603
75.9425473213
88.4316849709
76.355547905
87.998034358
76.3018578291
88.0186843872
76.7726784945
87.5809037685
77.2063291073
87.1348631382
77.2063291073
87.1679031849
77.2063291073
87.1472531557
77.2228491306
87.1513831615
77.1361190081
87.2174632549
77.5532495975
86.7879426479
77.5697696209
86.7879426479
77.0535188913
87.2711533308
77.0700389147
87.2711533308
77.086558938
87.2711533308
77.0824289322
87.2711533308
77.4995595217
86.8540227413
77.4995595217
86.8746727705
77.4995595217
86.8746727705
77.9332101345
85.953681469
77.9166901112
86.3171219826
78.0529803038
86.3171219826
77.5904196501
86.8044626713

Average distance is : 82.221 cm
Average deviation is : 8.464 cm
Block: 4
======================================
99.0829700232
64.45700109
96.5017163754
67.868385911
93.453772068
69.2023777962
94.2549932003
69.6195083857
93.3505219221
70.8296000957
93.0572915077
71.2839007378
92.1569502354
72.2007620335
91.6530895233
73.0845832825
90.8064383268
73.4975838661
90.372787714
73.9477545023
90.372787714
74.4185751677
89.4517964125
75.31891644
88.1384545565
76.0127574205
87.8410941362
76.4629280567
87.3909235001
76.9130986929
87.3909235001
77.3797893524
86.9035828114
77.4334794283
86.9242328405
77.8630000353
86.4410221577
77.8795200586
86.003241539
78.3173006773
85.573720932
79.2011219263
85.1565903425
79.1309118271
85.1565903425
79.1804718971
85.1565903425
79.61412251
84.7229397297
79.6512925625
84.7435897589
80.0642931461
84.082788825
80.2542734146
84.0497487783
80.7209640741
84.0662688017
79.7545427084
84.5494794846
79.7504127026
84.1199588776
80.2542734146
84.1323488951
80.2542734146
84.0662688017
80.3079634905
84.0662688017
80.3038334846
84.0001887083
80.3575235605
84.0125787258
80.3575235605
83.9795386791
80.3616535664
83.5128480196

Average distance is : 82.189 cm
Average deviation is : 6.935 cm
Block: 5
======================================
99.087100029
65.064111948
97.5424778461
67.3314851522
95.374224782
68.7356871367
95.0644743443
69.2023777962
94.6514737606
69.7929686308
92.7805811167
70.2224892378
91.5498393774
71.5069210529
90.6288480759
71.4573609829
91.2194389105
70.7304799557
93.0531615019
71.6969013214
92.2065103054
72.1305519342
91.7563396692
73.0308932066
90.8394783735
73.9353644848
89.8854470253
74.4516152143
89.9060970545
74.435095191
89.9060970545
74.864615798
89.4724464417
74.864615798
88.9851057529
75.698876977
88.5184150934
76.2522977591
88.0847644806
76.6694283485
87.6511138678
76.6487783194
87.2215932608
77.0824289322
87.2381132841
77.0989489555
87.2174632549
77.1030789614
87.2339832783
77.086558938
87.2381132841
77.1030789614
87.2546333075
77.1195989847
87.2381132841
77.5202095509
86.8003326654
78.0034202337
85.8999913931
78.4164208174
85.9041213989
78.4370708466
85.9041213989
78.4370708466
85.4828608036
79.2878520489
84.6031695604
79.7215026617
84.640339613
79.66368258
84.689899683
80.0642931461
84.2562490702
80.0642931461
84.2727690935

Average distance is : 82.163 cm
Average deviation is : 8.163 cm
Block: 6
======================================
99.0829700232
65.0806319714
97.4185776711
66.9886946678
95.601375103
68.045976162
95.778965354
69.3758380413
94.4408434629
70.292699337
93.5776722431
71.176520586
93.1068515778
71.6638612747
92.569950819
71.7505913973
92.1569502354
72.3742222786
91.2359589338
71.7505913973
90.8766484261
72.2007620335
89.5756965876
73.0639332533
89.6087366343
73.501713872
89.0553158522
75.6823569536
88.1714946032
76.6157382727
87.29180336
77.4499994516
86.8581527472
77.9497301579
86.3708120584
78.4205508232
85.9578114748
78.4370708466
85.9371614456
78.4164208174
85.9206414223
78.4205508232
85.9330314398
78.4205508232
85.953681469
78.8335514069
85.5365508795
79.2176419497
85.1607203484
79.1474318504
84.7229397297
80.0642931461
83.8225984573
80.5309838057
83.8432484865
80.5516338348
83.806078434
80.0477731228
84.2892891169
79.9940830469
84.3429791927
79.9940830469
84.3801492453
79.61412251
84.5164394379
79.8041027784
84.4792693853
79.6306425333
84.6733796597
79.6512925625
84.7229397297
79.61412251
84.2562490702
80.0642931461
84.2892891169

Average distance is : 82.175 cm
Average deviation is : 7.500 cm
Block: 7
======================================
99.1201400757
64.5272111893
96.9684070349
67.0382547379
94.0980529785
69.028917551
93.9535027742
69.4997382164
94.0113228559
70.6561398506
93.1605416536
71.6101711988
92.2602003813
72.0644718409
91.8430697918
72.9111230373
90.9757685661
73.7577742338
90.5627679825
73.3282536268
90.9757685661
73.3282536268
90.6123280525
74.1749048233
90.145637393
74.587905407
89.2287760973
74.5218253136
89.3650662899
75.4386866093
88.427554965
76.3431578875
87.5850337744
76.7726784945
87.3041933775
76.7189884186
87.6015537977
76.7231184244
87.6345938444
77.1361190081
86.7177325487
78.0736303329
86.3212519884
78.0529803038
85.8504313231
78.4866309166
85.8834713697
78.9078915119
85.396130681
78.6642211676
85.5902409554
79.2011219263
85.1565903425
79.2135119438
84.6733796597
79.6843326092
84.6692496538
79.6678125858
84.7229397297
80.0642931461
84.3058091402
80.0312530994
84.3594992161
79.9982130527
84.3594992161
79.9940830469
84.3636292219
79.9982130527
84.3594992161
80.0106030703
84.3760192394
79.9982130527
84.3058091402
80.0477731228
84.309939146

Average distance is : 82.211 cm
Average deviation is : 7.403 cm
Block: 8
======================================
99.0994900465
65.3573423624
97.2327274084
68.2359564304
93.8874226809
69.7434085608
93.5405021906
71.1930406094
92.4006205797
70.4826796055
92.1239101887
70.5570197105
92.140430212
70.8832901716
91.7067795992
70.9700202942
90.6825381517
74.055134654
90.3025776148
74.484655261
89.8358869553
74.9719959497
88.9314156771
75.8227771521
88.4977650642
76.3225078583
87.6015537977
77.2269791365
87.1348631382
77.6358497143
86.7342525721
77.6069396734
86.684692502
77.6028096676
86.7177325487
77.5697696209
86.7342525721
78.0571103096
86.3006019592
77.6564997435
86.6970825195
77.6399797201
86.2510418892
78.0736303329
86.3006019592
78.4701108932
85.8669513464
78.4701108932
85.4374307394
78.9244115353
84.9831300974
79.4034922123
84.1364789009
80.2377533913
84.1364789009
80.2377533913
84.1199588776
80.2377533913
84.1158288717
80.6507539749
83.7028282881
80.6714040041
83.6863082647
80.6507539749
83.7028282881
80.6714040041
83.6986982822
81.0720145702
83.2856976986
81.1050546169
82.8190070391
81.5180552006
82.8561770916
81.4478451014
82.6827168465

Average distance is : 82.169 cm
Average deviation is : 6.881 cm
Block: 9
======================================
99.136660099
65.4275524616
97.1583873034
67.818825841
94.667993784
68.8926273584
94.9983942509
69.7434085608
94.564743638
70.1564091444
93.7304824591
71.0237103701
92.8673112392
71.8868815899
92.1899902821
72.5476825237
91.7232996225
71.6432112455
90.9964185953
71.5936511755
91.0459786654
72.060341835
90.6288480759
72.9276430607
89.765676856
74.9554759264
88.881855607
75.8558171988
88.4812450409
76.3059878349
87.5643837452
77.2063291073
87.114213109
77.2063291073
87.1472531557
77.6234596968
86.7342525721
77.6399797201
86.7342525721
77.5862896442
86.3171219826
77.2228491306
87.0811730623
77.2765392065
87.0976930857
77.2063291073
87.0976930857
77.2063291073
87.1513831615
77.6399797201
86.6970825195
77.6399797201
86.6805624962
77.7101898193
86.610352397
78.1768804789
86.1271417141
78.6105310917
85.7100111246
79.0772217512
84.8137998581
79.9982130527
84.309939146
79.9775630236
83.7689083815
80.497943759
83.806078434
80.1345032454
84.1158288717
79.6843326092
84.1364789009
80.6672739983
83.6697882414
80.6714040041
83.2361376286

Average distance is : 82.187 cm
Average deviation is : 7.627 cm
Block: 10
======================================
99.1036200523
64.5974212885
96.8486368656
67.1249848604
94.8084139824
68.095536232
95.374224782
68.5126668215
94.4945335388
99.5537906885
64.5974212885
99.9874413013
64.8410916328
98.3065289259
66.8276244402
97.0427471399
68.1616163254
96.1217558384
68.6489570141
95.2048945427
69.5492982864
94.7712439299
69.9829488993
93.9576327801
70.4000794888
93.9369827509
70.3629094362
93.9576327801
70.8461201191
93.1233716011
71.6473412514
92.2602003813
72.5435525179
91.8595898151
72.9648131132
91.4135491848
73.3943337202
90.52559793
74.2244648933
90.1125973463
74.6581155062
89.2452961206
75.0752460957
89.2287760973
75.5584567785
88.7951254845
75.7649570704
88.5018950701
75.8186471462
88.0475944281
76.2357777357
88.1178045273
76.2522977591
88.0682444572
76.2357777357
87.6139438152
76.7231184244
87.6345938444
76.7189884186
87.6180738211
76.7231184244
87.6345938444
77.1195989847
87.2174632549
77.5738996267
86.7879426479
78.0034202337
85.8999913931
78.4205508232
85.9165114164
78.4205508232
85.7141411304
79.1102617979
85.0368201733
79.2672020197

Average distance is : 82.411 cm
Average deviation is : 10.322 cm
Average distance for 10x75 is : 82.208 cm
Average deviation for 10x75 is : 7.869 cm
 Percentage of values that failed: 0.000