
Block: 1
======================================
99.5001006126
53.9915663004
99.5537906885
48.469748497
72.2007620335
84.413189292
77.5367295742
84.082788825
76.4629280567
87.721323967

Block: 2
======================================
99.1201400757
64.2835408449
98.0793786049
54.4086968899
89.034665823
74.5218253136
89.7119867802
74.5218253136
89.7821968794
74.8687458038

Block: 3
======================================
99.136660099
54.3219667673
99.1862201691
47.2390067577
72.2007620335
87.2876733541
74.7448456287
87.2215932608
77.4995595217
86.3006019592

Block: 4
======================================
99.1201400757
64.2835408449
98.4965091944
66.3609337807
95.5683350563
68.5457068682
95.7252752781
69.0123975277
94.8414540291
69.8094886541

Block: 5
======================================
99.1036200523
59.1912436485
99.0994900465
19.9231481552
88.5844951868
72.5972425938
88.5184150934
74.0716546774
87.4074435234
76.42988801

Block: 6
======================================
99.1160100698
53.975046277
99.1201400757
47.3918169737
72.8243929148
87.3744034767
74.6415954828
87.0274829865
73.9477545023
90.1993274689

Block: 7
======================================
99.1036200523
64.3207108974
98.1867587566
71.9777417183
89.1916060448
74.4516152143
89.3320262432
74.9719959497
89.3857163191
75.2982664108

Block: 8
======================================
99.136660099
55.5196684599
99.5001006126
61.4957869053
97.8893983364
63.0734491348
99.9998313189
64.6139413118
98.2156687975
66.0346633196

Block: 9
======================================
99.0829700232
63.3501595259
94.3417233229
66.0305333138
54.5491170883
99.1201400757
62.7967387438
97.9224383831
62.9660689831
99.0499299765

Block: 10
======================================
99.1036200523
65.4069024324
96.7453867197
67.6784056425
94.944704175
68.7687271833
95.0479543209
70.1027190685
93.8213425875
70.9039402008
