
Block: 1
======================================
301.561215639
300.658788061
300.723827887
301.508370781
300.670983028
300.654723072
300.654723072
301.508370781
301.101871872
300.658788061
301.114066839
300.658788061
301.101871872
300.638463116
301.097806883
300.638463116
301.118131828
301.081546926
300.654723072
301.097806883
300.658788061
300.654723072
300.658788061
300.658788061
301.544955683
301.55715065
301.561215639
301.988039494
300.638463116
300.654723072
300.675048018
300.670983028
300.723827887
301.097806883
300.654723072
300.675048018
301.101871872
300.723827887
300.670983028
301.524630737
301.101871872
300.723827887
300.658788061
301.561215639
301.085611916
301.081546926
301.081546926
300.622203159
300.740087843
300.723827887

Block: 2
======================================
300.638463116
300.723827887
301.081546926
301.524630737
301.081546926
301.097806883
301.101871872
301.118131828
301.114066839
300.70756793
300.723827887
301.101871872
300.723827887
300.723827887
300.654723072
300.691307974
300.70756793
300.70756793
300.691307974
300.675048018
300.638463116
300.654723072
300.658788061
301.561215639
300.723827887
300.638463116
301.55715065
301.101871872
300.670983028
300.670983028
301.540890694
301.097806883
301.081546926
301.081546926
301.097806883
300.670983028
300.622203159
300.675048018
300.658788061
301.101871872
300.658788061
301.101871872
301.081546926
300.622203159
300.622203159
300.740087843
301.085611916
301.544955683
301.540890694
300.638463116

Block: 3
======================================
300.658788061
300.658788061
301.097806883
300.638463116
301.544955683
302.821362257
301.081546926
301.101871872
300.622203159
301.561215639
301.561215639
301.544955683
301.166911697
300.638463116
300.654723072
300.670983028
301.101871872
300.654723072
301.166911697
300.691307974
300.638463116
301.544955683
300.658788061
301.544955683
301.988039494
300.654723072
301.544955683
301.097806883
300.622203159
301.081546926
301.540890694
301.081546926
300.638463116
301.085611916
301.118131828
300.658788061
301.118131828
301.540890694
300.638463116
300.61813817
301.06528697
300.654723072
300.638463116
301.540890694
300.642528105
301.085611916
301.097806883
301.524630737
301.524630737
301.508370781

Block: 4
======================================
301.508370781
300.654723072
300.654723072
300.622203159
301.081546926
300.687242985
301.101871872
300.622203159
300.622203159
300.638463116
300.605943203
300.638463116
300.638463116
300.642528105
301.081546926
300.675048018
300.605943203
300.642528105
301.971779537
300.61813817
301.085611916
301.06528697
301.524630737
301.166911697
301.032767057
301.561215639
300.675048018
300.622203159
301.06528697
300.675048018
301.069351959
300.622203159
300.670983028
301.06528697
300.658788061
301.081546926
301.06528697
300.622203159
300.605943203
300.723827887
300.654723072
300.675048018
300.622203159
300.687242985
301.097806883
300.691307974
300.723827887
301.492110825
301.081546926
301.085611916

Block: 5
======================================
301.06528697
301.049027014
301.06528697
300.622203159
300.622203159
300.654723072
300.638463116
301.134391785
301.085611916
301.971779537
300.622203159
301.508370781
301.06528697
301.081546926
300.622203159
301.06528697
300.605943203
301.101871872
301.528695726
301.508370781
301.049027014
301.528695726
300.642528105
301.081546926
301.081546926
301.528695726
301.049027014
301.06528697
301.081546926
300.622203159
300.687242985
300.638463116
300.605943203
301.150651741
301.101871872
301.508370781
300.622203159
300.622203159
300.687242985
300.622203159
301.097806883
301.097806883
301.081546926
300.723827887
300.691307974
301.524630737
301.544955683
300.70756793
300.638463116
301.097806883

Block: 6
======================================
300.70756793
301.101871872
301.06528697
301.150651741
300.638463116
301.097806883
301.097806883
300.605943203
300.658788061
301.097806883
301.524630737
300.723827887
300.675048018
300.658788061
301.528695726
301.044962025
300.658788061
300.691307974
301.528695726
300.70756793
300.723827887
300.670983028
300.654723072
300.622203159
300.605943203
301.081546926
300.703502941
301.101871872
300.638463116
300.622203159
301.081546926
300.687242985
301.540890694
301.06528697
301.097806883
301.097806883
301.097806883
300.622203159
301.081546926
300.687242985
301.081546926
301.085611916
300.658788061
300.622203159
301.081546926
300.638463116
301.081546926
300.622203159
300.70756793
300.638463116

Block: 7
======================================
300.638463116
300.703502941
301.524630737
300.70756793
300.642528105
301.081546926
301.183171654
301.524630737
301.081546926
300.654723072
301.06528697
300.723827887
300.654723072
301.540890694
300.638463116
300.638463116
300.622203159
301.544955683
300.727892876
301.097806883
300.638463116
300.654723072
301.085611916
301.114066839
300.675048018
300.622203159
301.081546926
301.540890694
300.727892876
301.524630737
301.614060497
301.544955683
301.081546926
301.524630737
300.70756793
301.544955683
301.540890694
300.638463116
300.654723072
300.670983028
301.166911697
300.70756793
300.654723072
300.638463116
301.540890694
301.081546926
300.654723072
301.081546926
300.642528105
300.654723072

Block: 8
======================================
300.723827887
301.118131828
300.654723072
300.670983028
300.723827887
300.642528105
300.670983028
300.654723072
300.654723072
300.638463116
300.638463116
301.081546926
300.70756793
300.675048018
300.658788061
302.000234461
300.723827887
300.638463116
301.540890694
300.654723072
300.658788061
300.658788061
300.70756793
300.658788061
300.70756793
300.756347799
300.740087843
300.670983028
300.658788061
301.097806883
300.642528105
300.654723072
300.670983028
300.654723072
300.638463116
300.675048018
300.70756793
301.170976686
301.528695726
300.70756793
300.654723072
300.675048018
300.723827887
300.70756793
300.654723072
300.740087843
301.118131828
300.691307974
301.166911697
300.658788061

Block: 9
======================================
300.723827887
301.101871872
301.097806883
300.642528105
300.638463116
300.658788061
300.687242985
300.675048018
300.654723072
300.675048018
300.658788061
300.675048018
300.658788061
301.114066839
300.675048018
300.654723072
300.670983028
300.638463116
300.638463116
300.70756793
301.544955683
301.561215639
300.654723072
300.658788061
301.561215639
300.723827887
300.638463116
300.658788061
300.654723072
301.544955683
301.134391785
300.744152832
301.081546926
300.670983028
300.654723072
300.638463116
300.638463116
301.166911697
300.638463116
300.61813817
300.638463116
300.638463116
301.544955683
300.691307974
300.654723072
300.723827887
301.540890694
301.118131828
300.638463116
301.06528697

Block: 10
======================================
300.654723072
301.081546926
301.544955683
301.183171654
301.544955683
301.118131828
300.675048018
300.622203159
301.134391785
300.723827887
300.654723072
300.658788061
301.524630737
301.544955683
300.675048018
300.70756793
300.723827887
301.528695726
300.723827887
301.540890694
301.524630737
300.70756793
300.70756793
301.06528697
300.670983028
301.711620235
300.638463116
301.081546926
300.654723072
301.081546926
301.561215639
301.081546926
300.70756793
300.723827887
301.06528697
300.622203159
301.118131828
301.081546926
300.622203159
300.605943203
301.101871872
301.081546926
301.06528697
301.097806883
301.097806883
301.06528697
301.085611916
301.085611916
300.703502941
300.638463116
