
Block: 1
======================================
301.049027014
301.049027014
302.378278446
301.06528697
301.492110825
301.049027014
300.622203159
301.049027014
300.601878214
301.049027014
301.049027014
301.049027014
300.675048018
301.06528697
301.06528697
301.081546926
301.032767057
300.589683247
300.589683247
301.06528697
301.118131828
300.585618258
300.589683247
301.049027014
301.049027014
300.622203159
301.508370781
301.492110825
301.508370781
301.049027014
300.57342329
301.049027014
300.605943203
300.605943203
301.118131828
301.049027014
301.06528697
301.508370781
301.049027014
301.028702068
301.044962025
300.585618258
300.601878214
301.06528697
301.524630737
301.06528697
300.589683247
301.049027014
300.638463116
301.955519581
300.638463116
300.638463116
300.622203159
300.589683247
301.049027014
301.049027014
301.06528697
300.585618258
300.585618258
300.605943203
301.049027014
301.049027014
300.57342329
301.508370781
300.622203159
301.508370781
300.57342329
301.06528697
300.589683247
300.638463116
301.049027014
300.622203159
300.605943203
301.06528697
300.670983028

Block: 2
======================================
300.638463116
301.06528697
300.687242985
301.028702068
300.670983028
300.569358301
301.049027014
301.06528697
300.601878214
300.675048018
300.670983028
301.492110825
301.492110825
300.675048018
301.032767057
301.492110825
301.032767057
301.028702068
300.670983028
301.049027014
300.675048018
300.691307974
301.492110825
301.492110825
301.471785879
300.585618258
301.032767057
300.57342329
300.654723072
301.475850868
300.691307974
301.032767057
300.687242985
301.032767057
301.492110825
301.049027014
300.589683247
301.06528697
301.028702068
300.589683247
301.049027014
300.622203159
301.471785879
301.028702068
301.097806883
301.475850868
301.032767057
300.605943203
301.028702068
301.471785879
301.475850868
300.638463116
301.508370781
301.032767057
301.028702068
300.585618258
300.654723072
300.675048018
300.569358301
300.675048018
300.654723072
301.492110825
301.032767057
300.675048018
301.508370781
301.044962025
300.622203159
300.605943203
300.605943203
301.508370781
301.524630737
300.589683247
301.06528697
301.508370781
300.605943203

Block: 3
======================================
301.492110825
300.638463116
300.622203159
300.57342329
300.638463116
301.508370781
301.508370781
301.508370781
300.57342329
300.585618258
300.605943203
301.049027014
301.06528697
301.06528697
301.06528697
301.049027014
300.605943203
301.049027014
301.049027014
301.049027014
300.585618258
301.544955683
300.605943203
301.032767057
301.032767057
300.569358301
301.028702068
301.488045835
300.589683247
301.049027014
301.032767057
300.670983028
301.028702068
301.508370781
301.06528697
301.06528697
300.601878214
301.118131828
301.049027014
301.06528697
301.508370781
301.049027014
301.06528697
300.585618258
301.049027014
300.589683247
301.06528697
300.589683247
300.670983028
301.044962025
300.589683247
300.605943203
300.569358301
301.049027014
301.114066839
300.585618258
300.585618258
300.589683247
301.049027014
300.654723072
300.605943203
301.508370781
301.06528697
301.032767057
300.675048018
301.044962025
301.044962025
301.06528697
301.049027014
301.044962025
300.585618258
300.57342329
301.032767057
301.06528697
300.585618258

Block: 4
======================================
300.57342329
300.601878214
300.605943203
300.654723072
300.601878214
301.032767057
301.016507101
301.049027014
300.601878214
300.622203159
300.605943203
301.049027014
300.605943203
301.049027014
300.585618258
301.049027014
301.492110825
300.654723072
301.049027014
301.049027014
301.044962025
301.049027014
300.654723072
300.589683247
301.06528697
301.475850868
301.06528697
300.589683247
301.544955683
301.049027014
301.06528697
301.492110825
301.06528697
301.032767057
301.049027014
301.508370781
301.492110825
301.049027014
301.492110825
301.049027014
301.492110825
301.488045835
300.585618258
301.028702068
301.475850868
301.012442112
301.028702068
301.032767057
301.475850868
300.585618258
300.553098345
301.049027014
301.06528697
300.654723072
301.032767057
301.032767057
301.049027014
301.032767057
300.589683247
300.569358301
300.57342329
301.097806883
300.589683247
301.032767057
301.049027014
300.585618258
301.049027014
301.044962025
301.049027014
300.57342329
300.569358301
300.622203159
300.605943203
301.044962025
301.06528697

Block: 5
======================================
301.049027014
300.601878214
301.049027014
301.081546926
300.589683247
301.044962025
301.049027014
301.032767057
301.508370781
301.508370781
300.601878214
300.585618258
301.492110825
301.049027014
301.06528697
300.691307974
301.012442112
300.589683247
301.028702068
300.569358301
301.032767057
301.032767057
301.06528697
301.044962025
301.049027014
301.028702068
302.772582388
301.049027014
301.028702068
300.638463116
300.605943203
301.471785879
301.049027014
300.605943203
300.589683247
300.589683247
301.492110825
301.044962025
301.471785879
301.492110825
300.605943203
301.492110825
300.654723072
301.032767057
300.601878214
301.06528697
301.049027014
301.032767057
300.585618258
300.589683247
301.475850868
300.654723072
300.585618258
300.589683247
300.589683247
300.654723072
300.585618258
300.557163334
301.049027014
301.028702068
301.044962025
300.638463116
300.605943203
300.605943203
300.605943203
301.508370781
300.654723072
300.585618258
300.57342329
300.654723072
300.622203159
300.654723072
300.585618258
301.471785879
300.589683247

Block: 6
======================================
301.012442112
301.044962025
300.569358301
301.032767057
300.557163334
301.508370781
300.605943203
300.585618258
301.097806883
300.589683247
300.654723072
300.589683247
300.585618258
301.032767057
300.585618258
301.032767057
301.032767057
301.028702068
301.016507101
301.049027014
300.569358301
301.101871872
301.097806883
300.557163334
300.601878214
301.032767057
301.012442112
301.012442112
301.028702068
300.589683247
300.553098345
300.589683247
300.605943203
300.585618258
300.638463116
300.642528105
301.028702068
300.553098345
301.032767057
300.569358301
300.57342329
301.032767057
301.049027014
301.028702068
301.935194635
300.723827887
301.455525923
300.585618258
300.642528105
300.589683247
300.638463116
301.016507101
301.032767057
300.569358301
301.081546926
300.557163334
300.638463116
301.012442112
301.097806883
300.553098345
301.081546926
301.455525923
301.455525923
301.081546926
301.492110825
300.996182156
301.081546926
301.439265966
301.097806883
301.475850868
301.028702068
300.569358301
300.638463116
301.455525923
300.569358301

Block: 7
======================================
300.585618258
300.569358301
301.085611916
301.032767057
301.06528697
301.032767057
300.569358301
301.101871872
300.569358301
301.028702068
301.032767057
300.585618258
301.032767057
301.032767057
300.569358301
301.081546926
301.101871872
301.016507101
301.028702068
300.589683247
300.654723072
301.085611916
301.028702068
300.589683247
300.585618258
300.589683247
301.032767057
300.57342329
300.589683247
300.605943203
300.569358301
300.569358301
300.57342329
301.101871872
301.097806883
300.585618258
300.589683247
300.569358301
300.569358301
300.605943203
300.57342329
301.097806883
301.101871872
300.569358301
301.032767057
301.032767057
301.06528697
300.569358301
300.585618258
300.658788061
300.569358301
301.032767057
301.032767057
301.471785879
301.016507101
301.032767057
301.032767057
300.553098345
301.049027014
301.016507101
301.028702068
301.032767057
301.471785879
300.658788061
301.488045835
301.032767057
300.622203159
300.605943203
301.049027014
301.028702068
301.544955683
301.028702068
300.57342329
300.553098345
301.032767057

Block: 8
======================================
301.032767057
301.028702068
301.508370781
300.589683247
301.544955683
300.57342329
301.028702068
300.605943203
301.508370781
301.508370781
300.585618258
300.57342329
301.475850868
301.049027014
301.028702068
301.032767057
301.049027014
301.028702068
301.097806883
301.032767057
301.032767057
301.032767057
300.585618258
300.585618258
301.032767057
301.028702068
301.544955683
301.471785879
300.57342329
301.471785879
301.032767057
301.032767057
301.028702068
300.57342329
300.553098345
301.032767057
301.028702068
301.032767057
300.585618258
301.032767057
300.553098345
301.016507101
301.032767057
301.016507101
301.032767057
301.032767057
301.032767057
301.032767057
301.028702068
301.032767057
301.028702068
300.57342329
301.012442112
300.57342329
301.028702068
301.016507101
301.012442112
301.524630737
301.012442112
301.032767057
301.012442112
300.553098345
301.028702068
300.996182156
301.016507101
300.569358301
300.553098345
302.341693544
300.553098345
301.097806883
301.032767057
301.012442112
301.475850868
301.028702068
300.589683247

Block: 9
======================================
300.553098345
300.589683247
301.028702068
300.57342329
300.569358301
301.032767057
301.032767057
301.524630737
301.475850868
300.658788061
301.475850868
301.028702068
301.032767057
301.471785879
301.012442112
301.049027014
301.012442112
300.638463116
301.012442112
301.012442112
301.459590912
301.028702068
301.032767057
300.622203159
301.049027014
301.471785879
301.492110825
302.341693544
301.475850868
301.032767057
301.028702068
300.996182156
301.016507101
301.016507101
301.028702068
300.569358301
301.049027014
301.012442112
301.016507101
300.569358301
301.044962025
301.032767057
300.569358301
301.049027014
300.589683247
301.118131828
301.049027014
301.524630737
301.032767057
300.638463116
300.553098345
301.097806883
300.569358301
301.935194635
300.585618258
300.585618258
301.049027014
301.032767057
300.585618258
301.081546926
301.032767057
300.589683247
300.585618258
300.557163334
300.553098345
301.032767057
301.012442112
301.016507101
301.492110825
300.589683247
301.016507101
301.492110825
301.012442112
301.475850868
301.016507101

Block: 10
======================================
301.032767057
301.032767057
300.622203159
301.049027014
301.049027014
301.032767057
301.475850868
301.032767057
300.569358301
300.605943203
301.049027014
300.553098345
300.57342329
301.049027014
301.492110825
300.589683247
301.049027014
300.57342329
300.585618258
300.605943203
301.032767057
300.654723072
301.049027014
302.788842344
300.601878214
300.585618258
301.044962025
301.492110825
301.508370781
301.049027014
301.049027014
300.675048018
301.049027014
301.508370781
301.044962025
300.605943203
301.044962025
301.049027014
300.585618258
301.51243577
301.049027014
301.049027014
301.508370781
301.032767057
301.492110825
301.524630737
301.049027014
300.589683247
301.492110825
301.049027014
301.492110825
301.508370781
300.638463116
300.776672745
300.622203159
300.638463116
300.691307974
301.06528697
300.622203159
301.488045835
301.508370781
301.06528697
301.044962025
301.049027014
301.032767057
300.622203159
300.622203159
301.508370781
301.134391785
301.524630737
300.605943203
300.691307974
300.638463116
301.508370781
301.118131828
