
Block: 1
======================================
301.492110825
301.049027014
301.032767057
301.049027014
300.605943203
301.06528697
300.553098345
300.569358301
300.605943203
301.492110825

Block: 2
======================================
300.654723072
301.044962025
300.658788061
300.589683247
300.638463116
300.642528105
300.638463116
301.028702068
301.475850868
301.012442112

Block: 3
======================================
300.605943203
301.012442112
301.471785879
300.589683247
300.605943203
300.601878214
301.044962025
301.049027014
300.589683247
301.097806883

Block: 4
======================================
300.589683247
300.585618258
300.585618258
301.492110825
300.601878214
301.101871872
300.589683247
300.57342329
300.589683247
300.605943203

Block: 5
======================================
301.028702068
300.585618258
301.044962025
301.118131828
300.622203159
300.605943203
300.585618258
301.032767057
301.049027014
300.605943203

Block: 6
======================================
300.57342329
301.044962025
300.605943203
300.589683247
300.569358301
300.589683247
300.585618258
301.028702068
301.032767057
301.081546926

Block: 7
======================================
301.032767057
301.492110825
301.016507101
301.06528697
301.06528697
301.028702068
301.044962025
301.044962025
300.57342329
300.57342329

Block: 8
======================================
301.032767057
300.605943203
301.032767057
301.06528697
301.032767057
301.508370781
300.622203159
300.670983028
301.508370781
301.049027014

Block: 9
======================================
300.605943203
300.622203159
301.492110825
301.06528697
300.687242985
300.585618258
301.06528697
300.605943203
301.081546926
300.670983028

Block: 10
======================================
301.049027014
300.638463116
300.642528105
300.658788061
300.638463116
300.675048018
300.638463116
300.622203159
300.638463116
300.638463116
