
Block: 1
======================================
199.204523993
199.701334
199.717622852
200.605365324
199.717622852
200.572787619
199.717622852
200.092266464
199.701334
200.128916383
200.108555317
199.668756294
199.257462764
199.680972934
200.145205235
199.680972934
200.161494088
199.685045147
199.685045147
199.664684081
199.701334
199.701334
200.108555317
200.145205235
200.145205235
199.701334
199.664684081
199.664684081
199.685045147
199.680972934
199.685045147
200.128916383
199.904944658
199.701334
199.652467442
200.568715405
199.685045147
199.701334
200.12484417
200.963720083
199.685045147
199.680972934
200.141133022
199.680972934
199.685045147
200.161494088
199.685045147
199.685045147
199.717622852
199.685045147

Block: 2
======================================
200.128916383
200.092266464
199.697261786
199.685045147
200.605365324
200.108555317
200.145205235
200.11262753
200.145205235
199.664684081
200.145205235
199.697261786
199.680972934
199.701334
199.680972934
199.717622852
199.685045147
199.697261786
200.996297789
199.664684081
199.697261786
199.664684081
199.701334
199.701334
199.685045147
200.161494088
199.583239818
200.145205235
201.411663532
200.128916383
199.717622852
200.128916383
200.145205235
199.717622852
199.685045147
199.685045147
199.701334
199.680972934
199.701334
199.220812845
199.273751616
199.701334
199.680972934
199.701334
200.128916383
199.685045147
200.108555317
200.145205235
200.128916383
199.717622852

Block: 3
======================================
200.177782941
199.241173911
199.685045147
200.092266464
199.701334
199.717622852
199.273751616
199.701334
199.680972934
200.161494088
200.572787619
200.145205235
199.685045147
199.257462764
199.237101698
199.664684081
199.257462764
199.685045147
199.701334
199.273751616
200.128916383
199.697261786
199.701334
199.273751616
199.733911705
200.605365324
199.697261786
200.585004258
199.680972934
200.145205235
199.257462764
199.680972934
200.145205235
200.12484417
199.717622852
199.701334
200.128916383
199.685045147
200.145205235
199.664684081
199.701334
199.273751616
199.701334
199.680972934
199.680972934
200.177782941
200.161494088
199.685045147
199.701334
199.664684081

Block: 4
======================================
200.108555317
199.685045147
199.664684081
199.697261786
199.717622852
199.717622852
200.128916383
199.680972934
199.685045147
199.241173911
199.257462764
200.128916383
199.224885058
199.241173911
200.11262753
199.664684081
199.237101698
199.668756294
200.572787619
199.680972934
199.701334
199.701334
199.717622852
199.685045147
199.680972934
200.161494088
199.648395228
200.996297789
199.220812845
199.664684081
200.128916383
200.128916383
200.11262753
200.589076471
199.668756294
199.685045147
199.701334
199.241173911
200.589076471
199.237101698
200.128916383
199.680972934
199.220812845
199.290040469
199.733911705
200.12484417
200.128916383
199.237101698
199.664684081
199.701334

Block: 5
======================================
199.685045147
199.664684081
200.108555317
200.11262753
199.701334
200.996297789
199.701334
199.701334
199.664684081
137.718177295
199.685045147
199.241173911
199.257462764
199.685045147
199.701334
199.668756294
199.685045147
200.11262753
199.257462764
199.269679403
199.697261786
199.257462764
200.128916383
199.701334
199.237101698
200.141133022
199.685045147
199.664684081
199.701334
199.652467442
199.664684081
200.128916383
200.108555317
199.237101698
200.096338677
199.701334
200.568715405
199.668756294
200.12484417
199.668756294
199.204523993
200.552426553
200.128916383
199.273751616
200.141133022
200.092266464
200.556498766
199.668756294
199.717622852
200.128916383

Block: 6
======================================
199.664684081
200.096338677
199.685045147
199.652467442
200.540209913
199.685045147
200.108555317
199.685045147
199.257462764
199.685045147
199.685045147
199.685045147
199.220812845
199.685045147
200.572787619
199.648395228
199.648395228
199.224885058
200.092266464
199.257462764
199.697261786
200.108555317
199.697261786
200.556498766
200.556498766
199.664684081
199.685045147
200.12484417
199.685045147
200.12484417
199.224885058
200.108555317
199.685045147
200.5361377
199.668756294
199.220812845
199.220812845
199.697261786
200.092266464
200.556498766
199.680972934
199.668756294
199.701334
199.685045147
199.668756294
199.664684081
199.701334
200.552426553
199.685045147
201.032947707

Block: 7
======================================
199.648395228
200.092266464
200.108555317
199.668756294
201.000370002
199.680972934
200.145205235
200.128916383
199.668756294
199.668756294
199.701334
200.108555317
199.664684081
200.108555317
199.648395228
199.685045147
200.556498766
199.648395228
200.5361377
200.108555317
200.092266464
200.11262753
199.220812845
200.11262753
199.668756294
200.556498766
199.685045147
200.092266464
200.572787619
200.984081149
199.680972934
200.11262753
199.685045147
200.128916383
199.648395228
200.075977612
200.11262753
166.223669505
199.648395228
200.128916383
199.685045147
200.12484417
199.237101698
199.685045147
199.685045147
199.668756294
199.664684081
199.664684081
199.668756294
199.664684081

Block: 8
======================================
199.685045147
200.075977612
199.717622852
199.664684081
199.680972934
200.552426553
200.092266464
199.668756294
200.552426553
199.648395228
199.664684081
199.701334
200.096338677
199.680972934
199.652467442
199.680972934
200.552426553
200.128916383
200.552426553
199.680972934
199.664684081
199.680972934
199.664684081
199.664684081
199.697261786
199.648395228
200.552426553
200.096338677
201.391302466
200.12484417
199.648395228
200.572787619
200.092266464
199.632106376
200.096338677
200.589076471
200.108555317
199.664684081
200.092266464
199.680972934
200.141133022
199.253390551
199.685045147
200.092266464
200.145205235
199.685045147
199.648395228
200.589076471
200.108555317
200.11262753

Block: 9
======================================
200.11262753
201.423880172
200.589076471
199.241173911
199.680972934
200.108555317
199.680972934
199.668756294
200.128916383
200.108555317
199.664684081
199.701334
199.273751616
200.128916383
199.664684081
199.701334
200.145205235
200.11262753
199.685045147
199.717622852
200.589076471
200.11262753
199.685045147
199.701334
200.128916383
199.668756294
200.128916383
200.108555317
199.685045147
199.680972934
199.701334
200.108555317
199.273751616
199.273751616
200.108555317
199.717622852
200.108555317
200.092266464
199.701334
199.717622852
200.12484417
199.701334
199.664684081
199.273751616
199.664684081
199.668756294
200.11262753
200.128916383
199.701334
199.990461135

Block: 10
======================================
200.145205235
200.145205235
199.257462764
200.589076471
199.652467442
199.220812845
199.253390551
200.605365324
200.12484417
199.680972934
199.668756294
200.108555317
199.685045147
199.257462764
200.12484417
199.717622852
200.128916383
199.701334
199.273751616
199.241173911
200.108555317
199.717622852
200.128916383
199.685045147
200.556498766
199.241173911
199.224885058
199.680972934
199.257462764
199.668756294
199.668756294
201.016658854
199.685045147
199.664684081
199.680972934
200.128916383
200.12484417
199.664684081
200.141133022
201.012586641
199.685045147
199.668756294
200.12484417
199.701334
199.664684081
200.108555317
199.664684081
199.685045147
199.664684081
199.717622852
