
Block: 1
======================================
199.750200558
199.717622852
199.701334
199.717622852
199.680972934
201.032947707
200.145205235
199.701334
200.572787619
199.273751616

Average distance is : 199.929 cm
Average deviation is : 0.516 cm
Block: 2
======================================
200.605365324
200.128916383
200.145205235
200.161494088
200.568715405
200.128916383
199.253390551
199.733911705
199.717622852
200.605365324

Average distance is : 200.105 cm
Average deviation is : 0.439 cm
Block: 3
======================================
199.664684081
199.680972934
200.128916383
199.241173911
199.680972934
200.589076471
200.145205235
200.161494088
200.605365324
200.145205235

Average distance is : 200.004 cm
Average deviation is : 0.433 cm
Block: 4
======================================
199.668756294
199.680972934
200.128916383
200.161494088
200.145205235
200.145205235
199.717622852
199.717622852
199.717622852
199.685045147

Average distance is : 199.877 cm
Average deviation is : 0.232 cm
Block: 5
======================================
199.750200558
200.177782941
199.717622852
200.161494088
200.161494088
201.032947707
199.701334
199.220812845
199.680972934
199.680972934

Average distance is : 199.929 cm
Average deviation is : 0.488 cm
Block: 6
======================================
199.680972934
200.177782941
199.701334
199.697261786
199.717622852
200.621654177
199.717622852
199.701334
200.165566301
200.145205235

Average distance is : 199.933 cm
Average deviation is : 0.325 cm
Block: 7
======================================
199.786850476
199.717622852
200.589076471
200.568715405
199.717622852
200.145205235
199.685045147
199.701334
200.12484417
200.145205235

Average distance is : 200.018 cm
Average deviation is : 0.352 cm
Block: 8
======================================
201.04923656
200.605365324
199.733911705
199.717622852
200.12484417
201.427952385
199.668756294
201.016658854
201.016658854
199.701334

Average distance is : 200.406 cm
Average deviation is : 0.690 cm
Block: 9
======================================
199.685045147
199.733911705
200.572787619
200.161494088
199.680972934
199.685045147
200.145205235
199.733911705
199.680972934
200.128916383

Average distance is : 199.921 cm
Average deviation is : 0.311 cm
Block: 10
======================================
200.605365324
199.680972934
199.237101698
199.701334
199.701334
199.717622852
200.161494088
199.701334
200.161494088
200.161494088

Average distance is : 199.883 cm
Average deviation is : 0.386 cm