
Block: 1
======================================
299.240106869
299.63441081
299.191327
299.630345821
299.614085865
299.63441081
299.138482141
299.650670767
299.175067043
299.191327
299.650670767
299.618150854
299.597825909
299.630345821
299.223846912
299.597825909
299.630345821
299.614085865
299.597825909
299.581565952
299.63441081
299.565305996
299.175067043
299.650670767
299.154742098
299.601890898
299.581565952
299.171002054
299.63441081
299.581565952
299.207586956
299.614085865
299.63441081
299.191327
299.175067043
299.601890898
299.63441081
299.601890898
299.597825909
299.154742098
299.154742098
299.63441081
299.565305996
299.597825909
299.154742098
299.154742098
299.565305996
299.154742098
299.207586956
299.138482141

Average distance is : 299.447 cm
Average deviation is : 0.215 cm
Block: 2
======================================
299.581565952
299.597825909
299.565305996
299.565305996
299.122222185
299.187262011
299.581565952
299.581565952
299.597825909
299.618150854
299.581565952
299.581565952
299.138482141
299.63441081
299.597825909
299.138482141
299.614085865
299.154742098
299.614085865
299.581565952
299.614085865
299.292951727
299.479941225
299.479941225
299.45961628
299.870180178
299.837660265
299.122222185
299.618150854
299.85798521
299.581565952
299.138482141
299.581565952
299.122222185
299.63441081
299.154742098
299.614085865
299.581565952
299.581565952
299.138482141
299.63441081
299.532786083
299.630345821
299.666930723
299.853920221
299.837660265
299.431161356
299.63441081
299.650670767
299.122222185

Average distance is : 299.508 cm
Average deviation is : 0.222 cm
Block: 3
======================================
299.630345821
299.171002054
299.650670767
299.187262011
299.618150854
299.63441081
299.650670767
299.614085865
299.63441081
299.171002054
299.63441081
299.154742098
299.138482141
299.154742098
299.630345821
299.171002054
299.187262011
299.154742098
299.581565952
299.171002054
299.630345821
299.618150854
299.630345821
299.175067043
299.650670767
299.191327
298.7441782
299.597825909
299.618150854
299.63441081
299.630345821
299.63441081
299.154742098
299.650670767
299.585630941
299.63441081
299.597825909
299.618150854
299.597825909
299.650670767
299.650670767
299.601890898
299.618150854
299.618150854
299.154742098
299.618150854
299.175067043
298.012480164
299.191327
299.223846912

Average distance is : 299.421 cm
Average deviation is : 0.313 cm
Block: 4
======================================
299.191327
299.63441081
299.650670767
299.154742098
299.63441081
299.581565952
299.154742098
299.171002054
299.650670767
299.63441081
299.650670767
299.581565952
299.646605778
299.63441081
299.614085865
299.63441081
299.630345821
299.650670767
299.618150854
299.63441081
299.630345821
299.597825909
299.650670767
299.618150854
299.630345821
299.666930723
299.207586956
299.614085865
299.618150854
299.630345821
299.650670767
299.618150854
299.630345821
299.618150854
299.63441081
299.614085865
299.618150854
299.650670767
299.650670767
299.63441081
299.618150854
299.618150854
299.650670767
299.63441081
299.630345821
299.171002054
299.171002054
299.601890898
299.63441081
299.650670767

Average distance is : 299.566 cm
Average deviation is : 0.161 cm
Block: 5
======================================
299.171002054
299.618150854
299.63441081
299.630345821
299.63441081
299.597825909
299.618150854
299.614085865
299.63441081
299.630345821
299.63441081
299.614085865
299.63441081
299.614085865
299.618150854
299.171002054
299.171002054
299.63441081
299.171002054
299.63441081
299.650670767
299.618150854
299.614085865
299.646605778
299.175067043
299.63441081
299.175067043
299.601890898
299.614085865
299.650670767
299.614085865
299.601890898
299.618150854
299.618150854
299.630345821
299.630345821
299.63441081
299.614085865
299.63441081
299.154742098
299.63441081
299.597825909
299.650670767
299.630345821
299.171002054
299.63441081
299.171002054
299.601890898
299.650670767
299.171002054

Average distance is : 299.534 cm
Average deviation is : 0.184 cm
Block: 6
======================================
299.191327
299.223846912
299.138482141
299.630345821
299.207586956
299.171002054
299.223846912
299.187262011
299.63441081
299.646605778
299.63441081
299.618150854
299.175067043
299.63441081
299.171002054
299.63441081
299.597825909
299.171002054
299.138482141
299.175067043
299.614085865
299.597825909
299.63441081
299.614085865
299.63441081
299.601890898
299.614085865
299.650670767
299.597825909
299.597825909
299.614085865
299.63441081
299.597825909
299.154742098
299.187262011
299.581565952
299.618150854
299.618150854
299.63441081
299.618150854
299.203521967
299.191327
299.207586956
299.597825909
299.171002054
299.597825909
299.666930723
299.601890898
299.650670767
299.618150854

Average distance is : 299.463 cm
Average deviation is : 0.213 cm
Block: 7
======================================
299.154742098
299.601890898
299.171002054
299.650670767
299.207586956
299.646605778
299.175067043
299.63441081
299.207586956
299.63441081
299.191327
299.207586956
299.581565952
299.650670767
299.650670767
299.614085865
299.597825909
299.601890898
299.207586956
299.618150854
299.191327
299.207586956
299.207586956
299.614085865
299.614085865
299.138482141
299.597825909
299.618150854
299.597825909
299.581565952
299.207586956
299.171002054
299.581565952
299.618150854
299.154742098
299.597825909
299.175067043
299.618150854
299.187262011
299.63441081
299.171002054
299.581565952
299.630345821
299.581565952
299.630345821
299.614085865
299.154742098
299.187262011
299.614085865
299.597825909

Average distance is : 299.442 cm
Average deviation is : 0.214 cm
Block: 8
======================================
299.630345821
299.142547131
299.581565952
299.154742098
299.63441081
299.138482141
299.650670767
299.650670767
299.618150854
299.597825909
299.614085865
299.63441081
299.207586956
299.565305996
299.614085865
299.614085865
299.154742098
299.175067043
299.597825909
299.597825909
299.175067043
299.618150854
299.154742098
299.175067043
299.207586956
299.207586956
299.630345821
299.601890898
299.618150854
299.630345821
299.207586956
299.618150854
299.63441081
299.138482141
299.187262011
299.63441081
299.614085865
298.727918243
299.223846912
299.171002054
299.207586956
299.223846912
299.650670767
299.63441081
299.63441081
299.191327
299.378316498
299.618150854
299.597825909
299.601890898

Average distance is : 299.430 cm
Average deviation is : 0.236 cm
Block: 9
======================================
299.191327
299.158807087
299.614085865
299.597825909
299.154742098
299.154742098
299.154742098
299.601890898
299.154742098
299.601890898
299.614085865
299.614085865
299.63441081
299.207586956
299.63441081
299.581565952
299.597825909
299.138482141
299.618150854
299.666930723
299.618150854
299.597825909
299.618150854
299.630345821
299.618150854
299.171002054
299.581565952
299.63441081
299.614085865
299.581565952
299.650670767
299.597825909
299.561241007
299.581565952
299.601890898
299.601890898
299.630345821
299.138482141
299.63441081
299.618150854
299.63441081
299.601890898
299.63441081
299.154742098
299.614085865
299.154742098
299.614085865
299.158807087
299.597825909
299.597825909

Average distance is : 299.495 cm
Average deviation is : 0.201 cm
Block: 10
======================================
299.154742098
299.597825909
299.122222185
299.597825909
299.63441081
299.581565952
299.138482141
299.581565952
299.171002054
299.581565952
299.171002054
299.138482141
299.614085865
299.154742098
299.597825909
299.154742098
299.63441081
299.63441081
299.154742098
299.565305996
299.618150854
299.581565952
299.618150854
299.614085865
299.614085865
299.581565952
299.601890898
299.63441081
299.614085865
299.138482141
299.154742098
299.597825909
299.650670767
299.138482141
299.614085865
299.187262011
299.597825909
299.154742098
299.597825909
299.171002054
299.191327
299.138482141
299.601890898
299.565305996
299.650670767
299.581565952
299.614085865
299.601890898
299.187262011
299.581565952

Average distance is : 299.444 cm
Average deviation is : 0.218 cm