
Block: 1
======================================
300.638463116
300.199444294
300.195379305
300.195379305
300.231964207
299.715710592
299.76855545
300.195379305
300.622203159
300.179119349
300.211639261
300.179119349
300.195379305
300.195379305
300.195379305
300.199444294
300.654723072
299.736035538
300.195379305
299.736035538
300.638463116
300.195379305
300.195379305
300.199444294
299.715710592
300.638463116
300.622203159
299.715710592
299.719775581
300.179119349
300.195379305
300.179119349
301.114066839
300.195379305
300.675048018
299.715710592
301.097806883
301.081546926
299.752295494
300.199444294
300.179119349
300.179119349
300.211639261
300.195379305
299.752295494
299.736035538
300.195379305
300.195379305
300.195379305
299.736035538
300.179119349
299.752295494
299.752295494
299.736035538
299.752295494
300.179119349
299.752295494
300.605943203
299.752295494
300.195379305
301.508370781
299.77262044
299.736035538
300.158794403
299.731970549
301.101871872
299.736035538
300.622203159
300.195379305
300.654723072
300.658788061
300.589683247
300.622203159
299.731970549
299.752295494

Average distance is : 300.190 cm
Average deviation is : 0.411 cm
Block: 2
======================================
301.081546926
301.081546926
299.719775581
300.622203159
300.622203159
300.658788061
301.085611916
300.195379305
300.605943203
301.081546926
301.081546926
299.752295494
300.179119349
300.622203159
301.508370781
300.605943203
301.06528697
300.605943203
300.622203159
300.195379305
300.585618258
300.179119349
301.06528697
301.06528697
301.081546926
301.049027014
301.492110825
300.158794403
300.179119349
300.162859392
299.752295494
300.179119349
301.06528697
300.601878214
300.158794403
300.622203159
300.179119349
300.622203159
300.622203159
300.605943203
301.049027014
300.622203159
300.605943203
299.719775581
301.06528697
300.605943203
300.622203159
299.736035538
300.162859392
299.719775581
299.715710592
300.605943203
302.36201849
300.146599436
300.622203159
300.162859392
300.146599436
300.162859392
300.158794403
300.146599436
301.049027014
300.162859392
300.589683247
299.715710592
300.162859392
300.605943203
300.179119349
299.715710592
301.06528697
300.175054359
300.158794403
300.179119349
300.195379305
300.162859392
300.622203159

Average distance is : 300.497 cm
Average deviation is : 0.503 cm
Block: 3
======================================
301.049027014
300.622203159
300.585618258
299.736035538
300.622203159
300.162859392
300.195379305
300.589683247
300.601878214
301.524630737
301.049027014
300.605943203
300.146599436
301.06528697
300.605943203
300.622203159
300.605943203
300.605943203
300.601878214
300.179119349
300.605943203
301.049027014
301.06528697
300.179119349
300.605943203
301.049027014
301.044962025
301.044962025
300.585618258
300.142534447
300.162859392
300.12627449
300.601878214
300.162859392
300.638463116
300.605943203
300.179119349
301.475850868
300.585618258
300.601878214
300.162859392
300.162859392
300.12627449
301.044962025
300.605943203
300.162859392
300.605943203
300.162859392
300.622203159
300.622203159
300.162859392
300.158794403
300.162859392
299.703515625
300.158794403
300.158794403
300.146599436
300.130339479
300.179119349
299.719775581
300.142534447
300.589683247
300.179119349
301.06528697
299.719775581
300.605943203
300.158794403
301.06528697
300.162859392
300.130339479
300.605943203
299.719775581
300.142534447
300.162859392
300.162859392

Average distance is : 300.452 cm
Average deviation is : 0.405 cm
Block: 4
======================================
299.699450636
300.179119349
300.158794403
300.142534447
301.06528697
300.162859392
299.699450636
300.162859392
300.146599436
300.142534447
300.158794403
300.158794403
300.622203159
300.589683247
300.605943203
300.585618258
300.146599436
299.68319068
300.142534447
300.162859392
300.146599436
299.699450636
300.162859392
300.146599436
300.585618258
300.605943203
300.622203159
300.179119349
301.044962025
300.158794403
300.589683247
300.622203159
300.585618258
300.142534447
300.585618258
300.142534447
300.589683247
300.162859392
300.605943203
300.146599436
300.605943203
299.736035538
300.622203159
300.622203159
301.049027014
299.715710592
300.622203159
300.601878214
300.622203159
300.605943203
299.752295494
301.06528697
301.097806883
300.622203159
299.719775581
300.605943203
300.622203159
301.06528697
300.622203159
300.605943203
300.622203159
301.06528697
299.736035538
300.622203159
300.162859392
301.06528697
300.622203159
300.179119349
301.06528697
300.195379305
300.179119349
301.085611916
300.195379305
300.467733574
301.097806883

Average distance is : 300.412 cm
Average deviation is : 0.401 cm
Block: 5
======================================
299.736035538
300.658788061
301.475850868
299.715710592
299.719775581
299.719775581
301.06528697
299.715710592
300.622203159
300.622203159
300.195379305
300.179119349
300.179119349
300.158794403
300.142534447
300.158794403
300.179119349
300.605943203
299.752295494
299.703515625
300.601878214
300.585618258
300.622203159
300.179119349
299.736035538
300.601878214
300.622203159
299.687255669
299.736035538
300.601878214
299.715710592
299.736035538
301.06528697
300.195379305
300.605943203
299.719775581
299.752295494
299.736035538
300.146599436
300.622203159
299.736035538
301.06528697
300.195379305
300.585618258
300.589683247
300.622203159
299.699450636
300.622203159
300.605943203
301.049027014
300.162859392
300.146599436
300.146599436
300.622203159
300.142534447
299.703515625
300.605943203
300.622203159
301.475850868
300.638463116
300.605943203
300.622203159
300.162859392
300.585618258
300.130339479
300.601878214
300.158794403
300.605943203
300.622203159
300.162859392
300.162859392
300.622203159
299.699450636
299.699450636
301.044962025

Average distance is : 300.308 cm
Average deviation is : 0.457 cm
Block: 6
======================================
299.666930723
299.703515625
300.130339479
300.142534447
300.142534447
299.68319068
300.605943203
300.162859392
300.142534447
300.146599436
300.601878214
300.622203159
301.097806883
300.162859392
300.605943203
300.142534447
300.142534447
299.699450636
300.146599436
300.622203159
300.601878214
300.195379305
300.162859392
300.601878214
300.142534447
300.179119349
300.605943203
300.162859392
300.142534447
300.158794403
300.162859392
300.605943203
301.06528697
300.605943203
300.601878214
299.719775581
301.06528697
300.622203159
300.605943203
301.049027014
300.162859392
299.719775581
299.736035538
300.622203159
300.601878214
301.081546926
300.162859392
301.049027014
299.666930723
300.179119349
300.195379305
300.158794403
300.158794403
300.622203159
300.642528105
300.179119349
299.699450636
300.12627449
300.638463116
300.605943203
300.142534447
300.622203159
300.146599436
299.703515625
300.158794403
300.158794403
300.162859392
300.130339479
300.622203159
300.158794403
300.622203159
300.162859392
300.12627449
300.142534447
300.605943203

Average distance is : 300.308 cm
Average deviation is : 0.371 cm
Block: 7
======================================
299.687255669
299.703515625
299.719775581
299.715710592
300.195379305
300.162859392
300.158794403
300.158794403
300.162859392
300.142534447
300.146599436
300.162859392
300.162859392
300.605943203
299.703515625
300.142534447
301.049027014
301.049027014
301.049027014
299.68319068
300.162859392
300.146599436
301.049027014
300.195379305
301.032767057
299.703515625
300.264484119
301.049027014
300.142534447
300.142534447
300.162859392
300.162859392
300.601878214
299.703515625
299.699450636
301.049027014
301.028702068
300.142534447
300.605943203
300.12627449
300.162859392
299.687255669
300.146599436
300.162859392
299.703515625
300.585618258
300.162859392
299.68319068
301.012442112
300.146599436
300.158794403
299.687255669
300.569358301
299.68319068
300.605943203
300.162859392
300.142534447
300.130339479
300.142534447
300.130339479
300.601878214
300.605943203
301.475850868
301.012442112
300.605943203
300.605943203
300.162859392
300.162859392
300.589683247
300.12627449
300.589683247
300.12627449
300.589683247
301.044962025
301.028702068

Average distance is : 300.306 cm
Average deviation is : 0.449 cm
Block: 8
======================================
301.081546926
300.605943203
300.146599436
300.622203159
300.162859392
300.589683247
301.028702068
301.028702068
300.585618258
300.12627449
300.605943203
300.142534447
300.605943203
300.601878214
300.585618258
300.605943203
300.12627449
300.589683247
300.146599436
300.146599436
300.585618258
300.589683247
300.601878214
300.146599436
300.142534447
300.585618258
300.162859392
300.162859392
300.179119349
300.130339479
300.142534447
300.605943203
300.146599436
300.179119349
301.06528697
300.162859392
300.146599436
300.605943203
300.146599436
300.622203159
300.146599436
300.585618258
300.142534447
300.12627449
300.589683247
300.605943203
300.162859392
300.162859392
301.028702068
300.622203159
300.142534447
300.146599436
300.569358301
301.475850868
300.12627449
300.142534447
301.492110825
300.162859392
300.57342329
301.032767057
300.605943203
300.146599436
300.605943203
300.605943203
300.146599436
300.146599436
300.601878214
300.142534447
300.142534447
300.605943203
300.162859392
300.605943203
300.162859392
300.601878214
300.12627449

Average distance is : 300.436 cm
Average deviation is : 0.335 cm
Block: 9
======================================
301.455525923
300.162859392
300.569358301
300.622203159
300.162859392
300.110014534
301.455525923
300.142534447
301.032767057
300.142534447
300.622203159
300.589683247
300.601878214
300.12627449
301.06528697
300.12627449
300.142534447
300.162859392
300.158794403
300.146599436
300.146599436
300.142534447
300.162859392
300.146599436
301.044962025
300.142534447
301.06528697
301.049027014
301.032767057
300.12627449
300.589683247
300.12627449
300.12627449
300.146599436
300.605943203
300.162859392
300.622203159
300.142534447
300.158794403
300.146599436
300.605943203
300.622203159
300.142534447
300.589683247
300.114079523
300.605943203
300.605943203
300.605943203
300.142534447
300.146599436
300.12627449
300.146599436
299.715710592
300.146599436
300.585618258
300.179119349
300.605943203
301.032767057
300.601878214
300.142534447
300.589683247
300.589683247
300.589683247
299.699450636
300.589683247
299.736035538
300.130339479
300.158794403
301.049027014
300.12627449
300.146599436
300.162859392
300.130339479
300.605943203
301.06528697

Average distance is : 300.404 cm
Average deviation is : 0.383 cm
Block: 10
======================================
300.130339479
301.028702068
300.142534447
301.012442112
300.585618258
300.569358301
300.146599436
300.142534447
300.146599436
300.162859392
300.158794403
301.044962025
300.146599436
301.049027014
301.049027014
301.028702068
301.032767057
301.049027014
301.032767057
300.585618258
301.049027014
300.142534447
300.146599436
300.158794403
300.589683247
301.028702068
301.028702068
301.032767057
301.028702068
301.044962025
301.016507101
300.158794403
300.146599436
301.012442112
300.569358301
299.699450636
299.666930723
300.57342329
300.110014534
300.12627449
301.032767057
300.12627449
300.12627449
301.016507101
300.146599436
301.049027014
300.569358301
301.032767057
300.110014534
300.605943203
301.032767057
301.000247145
300.146599436
301.028702068
300.557163334
301.012442112
300.569358301
300.553098345
300.536838388
300.996182156
301.016507101
300.110014534
300.12627449
301.012442112
299.666930723
299.666930723
300.585618258
301.016507101
300.536838388
300.12627449
300.557163334
301.028702068
300.553098345
301.016507101
300.996182156

Average distance is : 300.585 cm
Average deviation is : 0.438 cm