
Block: 1
======================================
300.910817385
300.914882374
300.963662243
300.451473618
301.357966185
301.337641239
300.435213661
301.796985006
300.467733574
300.959597254
300.878297472
300.488058519
300.435213661
300.963662243
300.878297472
300.894557428
301.321381283
301.337641239
300.878297472
301.402681065
300.894557428
301.321381283
301.337641239
300.451473618
300.451473618

Average distance is : 300.941 cm
Average deviation is : 0.385 cm
Block: 2
======================================
301.341706228
301.321381283
300.878297472
302.601852846
300.451473618
300.914882374
300.435213661
300.878297472
300.894557428
300.451473618
300.451473618
301.337641239
300.435213661
300.947402287
300.431148672
300.451473618
300.451473618
300.435213661
300.451473618
301.353901196
300.467733574
300.959597254
300.963662243
301.321381283
301.337641239

Average distance is : 300.879 cm
Average deviation is : 0.512 cm
Block: 3
======================================
300.435213661
300.983987188
300.451473618
301.374226141
300.910817385
300.947402287
300.435213661
301.337641239
300.467733574
300.910817385
300.467733574
300.435213661
300.467733574
300.914882374
300.910817385
300.979922199
301.370161152
300.435213661
300.963662243
301.357966185
300.979922199
300.467733574
300.467733574
300.48399353
300.93114233

Average distance is : 300.796 cm
Average deviation is : 0.340 cm
Block: 4
======================================
301.353901196
301.370161152
300.943337297
300.927077341
300.943337297
300.553098345
300.553098345
300.979922199
301.370161152
300.553098345
300.943337297
300.553098345
301.000247145
300.943337297
300.914882374
300.927077341
301.443330956
301.370161152
301.390486097
300.927077341
300.947402287
301.390486097
300.927077341
300.947402287
301.374226141

Average distance is : 301.022 cm
Average deviation is : 0.290 cm
Block: 5
======================================
301.386421108
300.536838388
301.42300601
301.370161152
301.390486097
300.504318476
300.520578432
300.48399353
300.48399353
300.504318476
301.390486097
300.553098345
300.516513443
300.520578432
300.520578432
300.520578432
301.849829865
301.028702068
301.049027014
300.488058519
300.520578432
300.943337297
300.569358301
300.947402287
300.959597254

Average distance is : 300.839 cm
Average deviation is : 0.415 cm
Block: 6
======================================
300.488058519
300.553098345
301.402681065
301.42300601
300.963662243
300.504318476
300.569358301
301.390486097
300.536838388
300.943337297
301.406746054
300.516513443
301.386421108
300.536838388
300.589683247
300.504318476
300.520578432
300.569358301
300.520578432
300.500253487
301.406746054
301.016507101
300.553098345
300.963662243
300.520578432

Average distance is : 300.811 cm
Average deviation is : 0.376 cm
Block: 7
======================================
300.963662243
301.028702068
300.963662243
301.42300601
300.927077341
301.406746054
301.475850868
300.500253487
300.979922199
301.475850868
300.963662243
300.947402287
300.943337297
301.402681065
300.943337297
300.963662243
300.520578432
300.979922199
300.963662243
300.536838388
301.049027014
300.520578432
301.406746054
300.504318476
300.979922199

Average distance is : 300.991 cm
Average deviation is : 0.311 cm
Block: 8
======================================
300.947402287
301.439265966
300.979922199
300.979922199
300.963662243
300.996182156
300.520578432
300.979922199
300.520578432
301.439265966
301.406746054
301.439265966
300.979922199
300.963662243
301.439265966
300.963662243
300.963662243
300.979922199
300.536838388
300.979922199
300.979922199
300.963662243
301.42300601
301.016507101
301.42300601

Average distance is : 301.049 cm
Average deviation is : 0.283 cm
Block: 9
======================================
300.963662243
301.42300601
300.943337297
301.406746054
300.963662243
300.963662243
300.943337297
301.439265966
300.963662243
300.963662243
300.979922199
301.42300601
300.979922199
300.947402287
300.943337297
300.536838388
301.406746054
300.959597254
300.963662243
300.963662243
301.459590912
300.520578432
301.42300601
300.947402287
300.963662243

Average distance is : 301.056 cm
Average deviation is : 0.264 cm
Block: 10
======================================
300.520578432
300.504318476
300.996182156
301.406746054
300.504318476
300.963662243
300.979922199
300.520578432
301.492110825
300.500253487
300.500253487
300.943337297
300.959597254
300.963662243
300.536838388
300.504318476
301.016507101
300.979922199
300.963662243
301.016507101
300.947402287
300.963662243
300.947402287
300.943337297
300.959597254

Average distance is : 300.861 cm
Average deviation is : 0.278 cm
Block: 1
======================================
300.776672745
301.236016512
300.792932701
300.792932701
300.366108847
300.345783901
301.252276468
300.788867712
300.792932701
301.28886137
301.268536425
301.219756556
300.792932701
300.345783901
301.219756556
300.345783901
300.776672745
300.776672745
300.792932701
300.34984889
300.792932701
301.215691566
301.252276468
301.219756556
301.256341457

Average distance is : 300.882 cm
Average deviation is : 0.342 cm
Block: 2
======================================
300.366108847
300.760412788
300.284809065
300.398628759
301.219756556
300.34984889
300.772607756
300.788867712
300.776672745
300.34984889
300.333588934
300.333588934
300.772607756
300.297004032
300.792932701
300.845777559
300.313263988
300.792932701
300.756347799
300.776672745
300.776672745
300.333588934
300.792932701
300.414888716
300.776672745

Average distance is : 300.607 cm
Average deviation is : 0.255 cm
Block: 3
======================================
300.825452614
301.236016512
300.317328978
300.317328978
300.809192657
300.329523945
300.857972527
300.34984889
300.772607756
300.333588934
300.776672745
300.776672745
300.333588934
300.772607756
300.772607756
300.329523945
300.333588934
300.792932701
300.313263988
300.788867712
300.772607756
300.333588934
300.776672745
300.792932701
300.792932701

Average distance is : 300.624 cm
Average deviation is : 0.262 cm
Block: 4
======================================
300.317328978
300.313263988
300.756347799
300.329523945
300.313263988
300.792932701
300.772607756
300.776672745
301.236016512
301.236016512
300.809192657
301.236016512
300.776672745
300.792932701
300.329523945
300.398628759
300.317328978
300.792932701
300.792932701
300.792932701
300.329523945
300.333588934
300.333588934
300.776672745
300.333588934

Average distance is : 300.640 cm
Average deviation is : 0.313 cm
Block: 5
======================================
300.34984889
300.333588934
300.366108847
300.382368803
300.776672745
300.34984889
300.760412788
300.776672745
301.236016512
300.756347799
300.402693748
300.809192657
300.772607756
300.788867712
300.313263988
300.776672745
300.317328978
300.792932701
300.792932701
300.760412788
300.776672745
300.792932701
300.792932701
300.776672745
300.776672745

Average distance is : 300.661 cm
Average deviation is : 0.236 cm
Block: 6
======================================
302.532748032
301.219756556
300.418953705
300.382368803
301.252276468
300.317328978
301.215691566
300.829517603
301.236016512
300.402693748
300.34984889
300.345783901
300.333588934
300.809192657
301.679100323
300.414888716
300.914882374
300.333588934
301.215691566
300.857972527
300.418953705
300.398628759
300.756347799
300.792932701
300.776672745

Average distance is : 300.808 cm
Average deviation is : 0.529 cm
Block: 7
======================================
300.366108847
300.382368803
300.366108847
300.313263988
300.297004032
300.788867712
300.313263988
300.317328978
301.236016512
301.236016512
300.776672745
300.313263988
300.776672745
300.301069021
301.219756556
301.236016512
300.398628759
300.414888716
301.236016512
300.792932701
300.760412788
300.297004032
300.329523945
300.34984889
300.418953705

Average distance is : 300.610 cm
Average deviation is : 0.363 cm
Block: 8
======================================
300.313263988
300.740087843
300.776672745
300.333588934
300.366108847
301.236016512
300.414888716
301.219756556
301.219756556
301.203496599
300.382368803
300.317328978
300.772607756
301.215691566
300.776672745
300.792932701
300.862037516
300.414888716
300.776672745
300.317328978
302.516488075
300.772607756
300.792932701
300.418953705
300.756347799

Average distance is : 300.788 cm
Average deviation is : 0.481 cm
Block: 9
======================================
300.333588934
300.776672745
300.333588934
301.236016512
300.329523945
300.776672745
300.329523945
300.756347799
300.301069021
300.333588934
300.313263988
300.418953705
300.776672745
300.776672745
300.825452614
300.772607756
300.772607756
300.760412788
300.825452614
300.772607756
300.792932701
301.272601414
300.756347799
300.329523945
300.333588934

Average distance is : 300.640 cm
Average deviation is : 0.285 cm
Block: 10
======================================
300.34984889
300.301069021
300.792932701
300.34984889
300.317328978
300.333588934
300.333588934
300.792932701
300.329523945
300.333588934
300.845777559
300.792932701
300.301069021
300.313263988
300.776672745
300.776672745
300.317328978
300.792932701
301.219756556
300.34984889
300.329523945
301.658775377
300.313263988
300.333588934
300.776672745

Average distance is : 300.565 cm
Average deviation is : 0.348 cm