
Block: 1
======================================
302.207548904
302.240068817
302.207548904
303.093716526
302.191288948
302.13844409
302.687217617
303.044936657
302.240068817
303.057131624

Average distance is : 302.511 cm
Average deviation is : 0.412 cm
Block: 2
======================================
303.040871668
302.601852846
302.142509079
302.601852846
302.58559289
302.601852846
302.58559289
303.488020468
302.58559289
302.597787857

Average distance is : 302.683 cm
Average deviation is : 0.353 cm
Block: 1
======================================
300.435213661
300.398628759
300.435213661
300.467733574
300.878297472
300.84171257
301.321381283
301.305121326
301.390486097
300.862037516

Average distance is : 300.834 cm
Average deviation is : 0.396 cm
Block: 2
======================================
300.874232483
300.862037516
300.435213661
300.874232483
300.845777559
300.862037516
300.451473618
301.301056337
300.878297472
300.857972527

Average distance is : 300.824 cm
Average deviation is : 0.243 cm
Block: 3
======================================
300.862037516
300.878297472
300.845777559
300.857972527
300.418953705
300.878297472
300.435213661
300.862037516
300.84171257
300.947402287

Average distance is : 300.783 cm
Average deviation is : 0.190 cm
Block: 4
======================================
300.862037516
300.878297472
300.862037516
300.878297472
300.878297472
300.878297472
300.878297472
300.947402287
300.894557428
300.963662243

Average distance is : 300.892 cm
Average deviation is : 0.035 cm
Block: 5
======================================
301.28886137
301.357966185
301.305121326
301.764465094
300.878297472
300.874232483
300.862037516
300.927077341
300.93114233
300.874232483

Average distance is : 301.106 cm
Average deviation is : 0.308 cm
Block: 6
======================================
300.878297472
300.857972527
300.435213661
300.898622417
300.878297472
300.825452614
300.927077341
300.862037516
300.862037516
300.963662243

Average distance is : 300.839 cm
Average deviation is : 0.147 cm
Block: 7
======================================
300.898622417
300.878297472
300.431148672
300.874232483
300.914882374
300.894557428
301.284796381
300.894557428
300.894557428
300.894557428

Average distance is : 300.886 cm
Average deviation is : 0.202 cm
Block: 8
======================================
300.894557428
300.910817385
300.878297472
301.321381283
300.451473618
300.451473618
300.431148672
300.435213661
300.894557428
300.894557428

Average distance is : 300.756 cm
Average deviation is : 0.300 cm
Block: 9
======================================
300.927077341
300.894557428
300.488058519
300.414888716
300.451473618
300.914882374
300.471798563
301.357966185
301.337641239
300.894557428

Average distance is : 300.815 cm
Average deviation is : 0.353 cm
Block: 10
======================================
300.435213661
301.357966185
301.357966185
301.406746054
300.979922199
301.390486097
300.910817385
300.894557428
300.467733574
301.321381283

Average distance is : 301.052 cm
Average deviation is : 0.376 cm
Block: 1
======================================
300.809192657
300.809192657
300.809192657
300.382368803
300.792932701
300.418953705
300.809192657
300.809192657
300.809192657
300.366108847

Average distance is : 300.682 cm
Average deviation is : 0.202 cm
Block: 2
======================================
300.792932701
300.776672745
301.28886137
300.34984889
300.333588934
300.333588934
300.809192657
300.366108847
300.382368803
300.382368803

Average distance is : 300.582 cm
Average deviation is : 0.323 cm
Block: 3
======================================
301.252276468
300.809192657
300.894557428
300.809192657
300.809192657
300.34984889
300.829517603
300.813257647
300.894557428
300.829517603

Average distance is : 300.829 cm
Average deviation is : 0.216 cm
Block: 4
======================================
300.382368803
300.329523945
300.792932701
300.809192657
301.236016512
301.252276468
300.874232483
301.272601414
301.284796381
300.813257647

Average distance is : 300.905 cm
Average deviation is : 0.357 cm
Block: 5
======================================
301.252276468
300.792932701
300.825452614
300.34984889
300.792932701
300.402693748
300.435213661
301.268536425
301.272601414
301.252276468

Average distance is : 300.864 cm
Average deviation is : 0.381 cm
Block: 6
======================================
300.34984889
300.894557428
301.236016512
301.252276468
301.252276468
300.402693748
300.382368803
300.878297472
300.845777559
301.252276468

Average distance is : 300.875 cm
Average deviation is : 0.380 cm
Block: 7
======================================
301.236016512
300.878297472
300.418953705
300.398628759
300.366108847
300.370173836
300.825452614
301.252276468
301.252276468
301.252276468

Average distance is : 300.825 cm
Average deviation is : 0.406 cm
Block: 8
======================================
300.386433792
301.252276468
300.809192657
300.366108847
301.252276468
300.809192657
301.272601414
300.366108847
300.370173836
300.418953705

Average distance is : 300.730 cm
Average deviation is : 0.403 cm
Block: 9
======================================
300.84171257
300.878297472
300.34984889
300.329523945
300.34984889
300.366108847
301.236016512
300.366108847
300.345783901
301.256341457

Average distance is : 300.632 cm
Average deviation is : 0.385 cm
Block: 10
======================================
301.236016512
300.34984889
300.756347799
300.34984889
300.776672745
301.679100323
300.740087843
301.236016512
300.788867712
301.236016512

Average distance is : 300.915 cm
Average deviation is : 0.425 cm