
Block: 1
======================================
100.313711762
100.367401838
100.383921862
101.214053035
100.297191739

Block: 2
======================================
100.367401838
100.350881815
99.9131011963
101.214053035
99.9337512255

Block: 3
======================================
100.334361792
100.367401838
100.313711762
100.367401838
100.334361792

Block: 4
======================================
100.383921862
100.297191739
100.243501663
101.230573058
100.350881815

Block: 5
======================================
100.383921862
100.363271832
100.330231786
99.9337512255
100.383921862

Block: 6
======================================
100.383921862
100.350881815
100.280671716
101.181012988
100.317841768

Block: 7
======================================
100.350881815
100.334361792
101.143842936
99.9172312021
100.313711762

Block: 8
======================================
100.334361792
100.780402422
100.346751809
99.9337512255
100.346751809

Block: 9
======================================
100.334361792
99.9502712488
100.330231786
99.9007111788
100.243501663

Block: 10
======================================
100.367401838
100.796922445
100.280671716
100.330231786
101.197533011
