
Block: 1
======================================
99.3968504667
99.4340205193
99.4464105368
99.4340205193
99.4835805893
98.3932590485
99.4505405426
99.0334099531
99.4298905134
99.5001006126
99.0292799473
99.4670605659
99.0334099531
99.4835805893
99.4133704901
99.4340205193
99.0499299765
98.9797198772
99.516620636
99.0664499998
99.4298905134
99.4835805893
98.9838498831
99.4133704901
99.4505405426
99.4670605659
99.4835805893
99.4670605659
99.4835805893
99.4835805893
99.0168899298
99.4670605659
99.4629305601
99.4133704901
99.4464105368
99.4133704901
99.4629305601
99.4133704901
99.4133704901
99.0334099531
99.0168899298
99.4670605659
99.4298905134
99.4340205193
99.4670605659
99.4464105368
99.0003699064
99.4340205193
99.4298905134
99.4505405426
99.4835805893
99.4133704901
99.4505405426
99.5001006126
99.0664499998
99.0334099531
99.4835805893
99.4670605659
99.4133704901
99.4505405426
99.4835805893
99.4464105368
99.0499299765
99.4505405426
99.0334099531
99.0499299765
99.4505405426
99.4835805893
99.4133704901
99.4464105368
99.4298905134
99.4670605659
99.4505405426
99.4298905134
99.5001006126
99.0334099531
99.0334099531
99.4835805893
99.4670605659
99.4835805893
99.0499299765
98.9962399006
99.4298905134
99.5001006126
99.0003699064
99.0003699064
99.0499299765
99.0499299765
99.0168899298
99.4670605659
99.4298905134
99.4298905134
99.4670605659
99.4298905134
99.4629305601
99.0003699064
99.0168899298
99.4340205193
99.4670605659
99.4464105368

Block: 2
======================================
99.4505405426
99.0168899298
99.0334099531
99.4298905134
99.4340205193
99.4670605659
99.4505405426
99.4670605659
99.4464105368
99.4133704901
99.3968504667
99.4835805893
99.4464105368
99.4670605659
99.0292799473
98.9797198772
98.9962399006
99.4670605659
99.4298905134
99.0168899298
99.4629305601
99.0499299765
99.4670605659
99.0334099531
99.4505405426
99.0168899298
99.4505405426
99.0168899298
99.4505405426
98.9962399006
99.3968504667
99.4133704901
99.3968504667
99.4629305601
99.4340205193
99.4505405426
99.4629305601
99.4505405426
99.4629305601
99.4298905134
99.4464105368
99.0003699064
99.4464105368
99.0292799473
99.4629305601
99.4670605659
99.5001006126
99.0499299765
99.4464105368
99.516620636
99.4670605659
99.4464105368
99.0334099531
99.0003699064
99.4670605659
99.4464105368
99.4505405426
99.0334099531
99.4629305601
99.0003699064
99.0168899298
99.0334099531
99.4670605659
99.0499299765
99.4835805893
99.4835805893
99.3968504667
99.4670605659
99.4340205193
99.0127599239
99.0168899298
99.4670605659
99.3968504667
99.4464105368
99.4835805893
99.4835805893
99.4835805893
99.0664499998
99.4670605659
99.4505405426
99.4340205193
99.5001006126
99.8098510504
99.4298905134
99.5001006126
99.4340205193
99.4835805893
99.4505405426
99.4133704901
99.0664499998
99.4629305601
99.4670605659
99.4298905134
99.0292799473
99.0127599239
99.5001006126
99.5001006126
99.4629305601
99.4298905134
99.4298905134

Block: 3
======================================
98.8929897547
99.4835805893
99.0334099531
99.0292799473
99.4629305601
98.9797198772
99.0334099531
99.4670605659
99.0664499998
99.4670605659
99.4340205193
99.4298905134
99.0499299765
99.4298905134
99.4464105368
99.0334099531
99.4340205193
99.0168899298
99.0499299765
99.0334099531
99.3762004375
99.4670605659
99.0499299765
99.0334099531
99.4175004959
99.0334099531
99.0292799473
99.4835805893
99.0168899298
99.4505405426
99.0664499998
99.4505405426
99.0334099531
99.0334099531
99.4298905134
99.3803304434
99.4464105368
99.5042306185
99.4464105368
99.4505405426
98.9962399006
99.0168899298
99.4298905134
99.4298905134
99.4340205193
99.4670605659
99.4298905134
99.4670605659
99.4629305601
99.4670605659
99.4670605659
98.9962399006
99.5001006126
99.4298905134
99.4464105368
99.4629305601
99.0334099531
99.4505405426
98.9797198772
99.4298905134
99.0334099531
99.4670605659
99.4505405426
99.4670605659
99.4298905134
99.4133704901
99.0127599239
99.4505405426
99.4670605659
99.4670605659
99.4629305601
99.4835805893
99.4505405426
99.4835805893
99.0292799473
99.4298905134
99.4340205193
98.9962399006
99.0168899298
99.4298905134
99.4505405426
98.3891290426
99.0334099531
99.4629305601
99.4835805893
99.0003699064
99.4464105368
99.0334099531
99.9667912722
99.4298905134
99.4175004959
99.0499299765
99.4670605659
99.0334099531
99.4464105368
99.4835805893
99.4340205193
99.0334099531
99.0003699064
99.4670605659

Block: 4
======================================
99.4298905134
99.4133704901
99.4464105368
99.4835805893
99.4670605659
99.0499299765
99.0499299765
99.4298905134
99.4835805893
99.0334099531
99.4133704901
99.4175004959
99.4464105368
99.4298905134
99.4298905134
99.4670605659
99.4298905134
99.4835805893
99.4670605659
99.4464105368
99.0168899298
99.4340205193
99.5001006126
98.9797198772
99.4835805893
99.4835805893
99.4505405426
99.0334099531
99.4464105368
99.0334099531
99.0168899298
99.4464105368
99.0168899298
99.4835805893
99.4629305601
99.4298905134
99.4505405426
99.4670605659
99.0127599239
99.0664499998
99.3968504667
99.087100029
99.0127599239
99.4133704901
99.0499299765
99.4133704901
99.4464105368
99.4835805893
99.0664499998
99.5042306185
99.5331406593
99.4133704901
99.0334099531
99.4133704901
99.4298905134
99.4340205193
99.4464105368
99.4505405426
98.9797198772
99.4340205193
99.4133704901
98.9838498831
99.3968504667
99.3968504667
99.4133704901
99.4670605659
99.4464105368
99.4835805893
99.4464105368
99.4505405426
99.0334099531
99.4670605659
99.0127599239
99.4505405426
99.4464105368
99.4298905134
99.4670605659
99.0168899298
99.4505405426
99.4340205193
99.5001006126
99.3968504667
99.5001006126
99.4835805893
99.0168899298
99.4298905134
99.4835805893
99.4629305601
99.087100029
99.4464105368
99.4629305601
99.4464105368
99.4835805893
99.516620636
99.4464105368
99.4794505835
99.0003699064
99.0499299765
99.0292799473
98.9962399006

Block: 5
======================================
99.4505405426
99.0168899298
99.0292799473
99.4835805893
99.0664499998
99.5001006126
99.4835805893
99.4133704901
99.4505405426
99.7272509336
99.0499299765
99.4670605659
99.0334099531
99.3968504667
99.4505405426
99.4340205193
99.0127599239
99.0334099531
99.4505405426
99.4298905134
99.0499299765
99.4505405426
99.4835805893
99.3968504667
99.0499299765
99.4835805893
99.0499299765
99.4835805893
99.4505405426
99.4340205193
99.4505405426
99.0334099531
99.4505405426
99.0168899298
99.4670605659
99.4464105368
99.4629305601
99.4133704901
99.0334099531
99.4835805893
99.4629305601
99.0334099531
99.4298905134
98.9962399006
99.4794505835
99.0168899298
99.0499299765
99.4464105368
99.4464105368
99.0705800056
99.0499299765
99.0168899298
99.0127599239
99.5537906885
99.4505405426
99.4464105368
99.4835805893
99.4670605659
99.516620636
99.4298905134
99.5001006126
99.0664499998
99.0664499998
99.087100029
99.0664499998
99.4835805893
99.4133704901
99.4505405426
99.5001006126
99.5042306185
99.0003699064
99.4464105368
99.4670605659
99.4505405426
99.4670605659
99.4835805893
99.0168899298
99.0499299765
99.0334099531
99.4835805893
99.4835805893
99.4629305601
99.4670605659
99.0499299765
99.0499299765
98.9962399006
99.4298905134
99.4505405426
99.5001006126
99.4835805893
99.5001006126
99.0292799473
99.4670605659
99.4298905134
99.4133704901
99.4835805893
99.0499299765
98.9962399006
99.0127599239
99.5001006126

Block: 6
======================================
99.4835805893
99.0499299765
99.4133704901
99.5331406593
99.0499299765
99.0499299765
99.0499299765
99.0499299765
99.4464105368
99.5001006126
99.4835805893
99.4835805893
99.4835805893
99.4340205193
99.4629305601
99.4835805893
99.4670605659
99.0334099531
99.4505405426
99.516620636
99.0127599239
99.4464105368
99.0334099531
99.4133704901
99.4670605659
99.4629305601
99.0334099531
99.0168899298
99.4670605659
99.0334099531
99.0168899298
99.4505405426
99.4505405426
99.4835805893
99.4670605659
99.4835805893
99.4629305601
99.4670605659
99.4505405426
99.4835805893
99.5001006126
99.4298905134
99.4835805893
99.5001006126
99.4340205193
99.4464105368
99.0334099531
99.4464105368
99.5001006126
99.5001006126
99.4464105368
99.0168899298
99.4340205193
99.0499299765
99.4835805893
99.4505405426
99.0664499998
99.0499299765
99.0664499998
99.0499299765
99.4835805893
99.4298905134
99.3968504667
99.4670605659
99.4670605659
99.0334099531
99.0499299765
99.0334099531
99.0168899298
99.0334099531
99.0168899298
99.4340205193
99.0334099531
99.0499299765
98.9962399006
99.5001006126
99.0499299765
99.4298905134
99.0168899298
99.0168899298
99.4464105368
99.4670605659
99.5331406593
99.5001006126
99.0334099531
99.4464105368
99.0334099531
99.0003699064
99.4464105368
99.0334099531
98.9962399006
99.4133704901
99.4464105368
98.9797198772
98.9797198772
99.4133704901
99.4175004959
99.36381042
98.9962399006
99.0003699064

Block: 7
======================================
99.0003699064
99.4670605659
99.4670605659
99.4340205193
99.4835805893
99.4670605659
99.4464105368
99.087100029
99.4794505835
99.0664499998
99.0499299765
99.4175004959
99.0334099531
99.4629305601
99.0334099531
99.4340205193
99.5001006126
99.0499299765
99.4835805893
98.9962399006
99.0664499998
99.4133704901
99.4835805893
99.4505405426
99.4629305601
99.0334099531
99.4298905134
99.3968504667
99.4298905134
99.0168899298
99.0127599239
99.4298905134
99.0334099531
99.4133704901
99.4505405426
99.0334099531
99.4835805893
99.4670605659
99.0127599239
99.0499299765
99.0334099531
99.4464105368
99.4670605659
99.4464105368
99.516620636
99.4670605659
99.4670605659
99.4629305601
99.4670605659
99.0334099531
99.0292799473
99.4133704901
99.4340205193
99.4505405426
99.4505405426
98.9962399006
99.0499299765
99.5001006126
99.4464105368
99.0168899298
99.0334099531
99.0499299765
99.0334099531
99.4670605659
99.0168899298
99.4835805893
99.0334099531
99.4298905134
99.4794505835
99.0168899298
99.0168899298
99.4835805893
99.4835805893
99.0168899298
99.0499299765
99.0292799473
99.5001006126
99.5331406593
99.5001006126
99.0334099531
99.4670605659
99.0499299765
99.4835805893
99.1036200523
99.0168899298
98.7401795387
99.4133704901
99.0499299765
99.4298905134
99.5331406593
99.4505405426
99.4835805893
99.4505405426
99.5331406593
99.4464105368
99.4505405426
99.4298905134
99.4835805893
99.0334099531
99.0705800056

Block: 8
======================================
99.4298905134
99.5042306185
99.5331406593
99.4298905134
99.4670605659
99.4835805893
99.0829700232
99.4505405426
99.5001006126
99.4835805893
99.4835805893
99.5001006126
99.0127599239
99.4464105368
99.0829700232
99.4175004959
99.4670605659
99.4835805893
98.9962399006
99.4464105368
99.4835805893
99.0499299765
99.516620636
99.4298905134
99.4629305601
99.4505405426
99.4835805893
99.4670605659
99.0334099531
99.4298905134
99.5001006126
99.516620636
99.4505405426
99.4133704901
99.0499299765
99.0168899298
99.4298905134
99.4835805893
99.4298905134
99.4670605659
99.4464105368
99.5001006126
99.4464105368
99.0168899298
99.087100029
99.4670605659
99.4670605659
99.4670605659
99.4670605659
99.4835805893
99.4835805893
99.5001006126
99.4464105368
99.4670605659
99.4464105368
99.4835805893
99.4629305601
99.0499299765
99.0003699064
99.0334099531
99.4670605659
99.4670605659
99.4670605659
99.0334099531
99.0499299765
99.0168899298
99.0334099531
99.4835805893
99.0664499998
99.4835805893
99.4175004959
99.4464105368
99.0664499998
99.4464105368
99.0499299765
99.5001006126
99.4464105368
99.0168899298
99.4670605659
99.0334099531
99.5001006126
99.0127599239
99.0705800056
99.4505405426
99.4835805893
99.4670605659
99.0334099531
99.0499299765
99.0292799473
99.5042306185
99.4670605659
99.4298905134
99.4670605659
99.0499299765
99.0334099531
99.5001006126
99.4464105368
99.4298905134
99.0499299765
99.5001006126

Block: 9
======================================
99.0499299765
99.4670605659
99.4670605659
99.4835805893
99.4505405426
99.4670605659
99.4340205193
99.4464105368
99.4794505835
98.9962399006
99.0499299765
99.4629305601
99.0292799473
99.5001006126
99.0168899298
99.4505405426
99.4835805893
99.0664499998
99.4670605659
99.4670605659
99.0664499998
99.0664499998
99.4835805893
99.0499299765
99.4794505835
99.4629305601
99.0499299765
99.4670605659
99.0664499998
99.4629305601
99.4629305601
99.0292799473
99.4298905134
99.4133704901
99.0664499998
99.0334099531
99.4298905134
99.4505405426
99.4629305601
99.4298905134
99.5331406593
99.4794505835
99.4794505835
99.4175004959
99.4464105368
99.4629305601
99.4464105368
99.4835805893
99.0499299765
98.9962399006
99.0705800056
99.0499299765
99.0168899298
99.0499299765
99.4670605659
99.5331406593
99.4505405426
99.516620636
99.4835805893
99.5001006126
99.4298905134
99.4794505835
99.4340205193
99.5372706652
99.5001006126
99.4794505835
99.4835805893
99.4505405426
99.4340205193
99.5001006126
99.5001006126
99.4298905134
99.0168899298
99.0168899298
99.4505405426
99.4464105368
99.4340205193
99.5207506418
99.0499299765
99.4670605659
99.5001006126
99.0994900465
99.0127599239
99.4298905134
99.4835805893
99.4670605659
99.4133704901
99.4505405426
99.5001006126
99.5372706652
99.0664499998
99.0499299765
99.0334099531
99.0334099531
99.516620636
99.516620636
99.4670605659
99.4464105368
99.516620636
99.4835805893

Block: 10
======================================
99.4629305601
99.4298905134
99.4298905134
99.4629305601
99.4505405426
99.5001006126
99.516620636
99.4835805893
99.4133704901
99.0168899298
99.4298905134
99.4505405426
99.5001006126
99.4629305601
99.0334099531
99.5001006126
99.0499299765
99.4505405426
99.4629305601
99.0499299765
99.4670605659
99.0168899298
99.4133704901
99.4835805893
99.5001006126
99.0705800056
99.4835805893
99.5496606827
99.1201400757
99.0334099531
99.4464105368
99.516620636
99.4629305601
99.4835805893
99.5001006126
99.5207506418
99.4505405426
99.5331406593
99.5001006126
99.4835805893
99.516620636
99.5001006126
99.516620636
99.4505405426
99.5496606827
99.4464105368
99.5001006126
99.087100029
99.0292799473
99.5001006126
99.0664499998
99.4835805893
99.516620636
99.4133704901
99.5331406593
99.0334099531
99.4175004959
99.4670605659
99.516620636
99.5331406593
99.4670605659
99.5001006126
99.0664499998
99.4629305601
99.4505405426
99.4670605659
99.0499299765
99.5001006126
99.0127599239
99.4133704901
99.4835805893
99.4670605659
99.5207506418
99.4670605659
99.4835805893
99.4835805893
99.4505405426
99.1160100698
99.4629305601
99.5001006126
99.516620636
99.5001006126
99.4670605659
99.5001006126
99.4464105368
99.0829700232
99.4835805893
99.4298905134
99.4505405426
99.5372706652
99.516620636
99.4835805893
99.5001006126
99.5001006126
99.5372706652
99.4835805893
99.087100029
99.0334099531
99.4670605659
99.4670605659
