
Block: 1
======================================
99.4835805893
99.4835805893
99.3968504667
99.4298905134
99.4298905134
99.4464105368
99.4340205193
99.4175004959
99.4340205193
99.4298905134
99.4464105368
99.3596804142
99.3968504667
99.4133704901
99.4464105368
99.4133704901
99.3762004375
99.3762004375
98.9466798306
99.3968504667
99.3596804142
99.4133704901
98.9838498831
99.4464105368
99.4835805893
98.9838498831
99.4133704901
99.3762004375
99.3927204609
99.3968504667
99.3968504667
99.36381042
98.9466798306
99.36381042
99.4133704901
99.3803304434
98.9797198772
99.4298905134
99.3968504667
99.3803304434
99.0168899298
99.4505405426
99.3803304434
99.4133704901
98.9962399006
98.9631998539
99.3803304434
99.3968504667
98.9631998539
99.3431603909
99.3431603909
99.3431603909
98.9301598072
99.3101203442
99.289470315
98.8929897547
99.3968504667
98.9797198772
98.9962399006
98.9797198772
99.3968504667
98.9797198772
99.4464105368
99.4505405426
99.4464105368
99.3968504667
99.4629305601
99.4340205193
99.4629305601
99.4298905134
99.4175004959
98.9797198772
98.9466798306
98.9797198772
99.3803304434

Block: 2
======================================
99.3968504667
98.9301598072
99.3431603909
99.3596804142
99.4340205193
99.36381042
98.9838498831
98.9631998539
99.3968504667
99.4835805893
98.8971197605
98.9962399006
99.0168899298
99.4298905134
98.9466798306
99.4670605659
99.0168899298
99.4464105368
99.0003699064
99.5001006126
99.0499299765
99.4670605659
99.4464105368
99.4298905134
99.3968504667
99.3968504667
99.4298905134
99.4133704901
99.36381042
99.4133704901
99.4340205193
99.4298905134
99.4133704901
99.4340205193
99.4464105368
99.4133704901
99.4670605659
99.4464105368
99.3968504667
99.4133704901
99.4670605659
99.3968504667
99.4133704901
99.4340205193
98.9631998539
99.4340205193
98.9631998539
98.9797198772
99.4298905134
99.4133704901
99.4505405426
99.4340205193
99.4835805893
99.0127599239
99.4133704901
99.4505405426
99.4298905134
99.4133704901
99.0003699064
99.4340205193
99.4133704901
99.3596804142
99.4505405426
99.4505405426
99.3431603909
99.4670605659
98.9797198772
99.4505405426
99.3968504667
99.4505405426
99.4133704901
99.4464105368
99.4298905134
99.3762004375
99.4340205193

Block: 3
======================================
99.4133704901
99.4670605659
98.9838498831
99.4133704901
99.4298905134
99.4133704901
99.0168899298
99.0334099531
99.4340205193
98.9673298597
99.3968504667
99.4340205193
99.3968504667
99.4298905134
99.4298905134
99.3803304434
99.4340205193
99.4133704901
99.3762004375
99.4133704901
99.3803304434
99.4175004959
99.4670605659
99.4670605659
99.4298905134
99.4340205193
98.9962399006
99.4464105368
99.0292799473
98.9838498831
99.4629305601
99.4505405426
99.3762004375
98.9466798306
99.4298905134
99.3803304434
99.4464105368
98.9631998539
98.9260298014
99.3266403675
99.3927204609
98.9466798306
99.3968504667
99.36381042
98.9136397839
98.9466798306
99.3803304434
99.3596804142
99.4133704901
99.3803304434
99.4133704901
99.3266403675
99.3803304434
99.7602909803
99.3968504667
99.3762004375
99.4133704901
99.3803304434
99.3968504667
98.9466798306
98.9301598072
99.3968504667
99.3803304434
99.3762004375
98.9466798306
99.3266403675
99.3596804142
98.9466798306
99.3803304434
99.3762004375
99.3803304434
99.3803304434
99.3968504667
99.3762004375
99.3762004375

Block: 4
======================================
99.3803304434
99.4175004959
99.3803304434
99.4298905134
99.36381042
99.0334099531
99.3803304434
98.9962399006
99.4629305601
99.4298905134
99.0334099531
99.0003699064
99.4298905134
99.4464105368
99.4464105368
99.4464105368
99.3596804142
99.4670605659
99.3803304434
99.4340205193
99.4505405426
98.9631998539
99.36381042
99.3968504667
99.4505405426
99.4340205193
99.0540599823
99.4133704901
99.4505405426
99.4464105368
99.0168899298
99.0127599239
99.4298905134
99.0334099531
99.4464105368
99.4133704901
99.3968504667
99.3968504667
99.4505405426
99.4505405426
99.0168899298
99.4670605659
99.0168899298
98.9797198772
99.4298905134
99.4835805893
99.0168899298
99.0003699064
98.9797198772
98.9962399006
99.4464105368
99.0003699064
99.4464105368
98.9797198772
99.4298905134
99.3968504667
99.4670605659
99.4133704901
98.9797198772
99.3762004375
98.9962399006
99.4670605659
99.0127599239
99.4133704901
99.0168899298
99.0168899298
99.4670605659
99.3968504667
98.9797198772
99.0168899298
99.3968504667
99.0168899298
99.1160100698
99.4298905134
99.0664499998

Block: 5
======================================
99.0127599239
99.4340205193
99.4175004959
98.9962399006
99.5001006126
99.4505405426
99.4298905134
99.4464105368
99.4133704901
99.793331027
99.4298905134
99.4835805893
99.4464105368
99.4133704901
99.4629305601
99.0499299765
99.4629305601
99.4298905134
98.9631998539
99.4133704901
99.3968504667
99.4670605659
99.4340205193
99.4670605659
99.4133704901
99.0003699064
98.9797198772
99.4835805893
99.4670605659
99.0127599239
99.4794505835
99.4133704901
99.5001006126
98.9962399006
99.4629305601
99.4133704901
99.4298905134
99.0127599239
98.9797198772
99.4298905134
99.4464105368
99.0127599239
99.0168899298
99.5001006126
99.4133704901
99.4464105368
99.0334099531
99.4835805893
99.4505405426
99.4298905134
99.4505405426
99.0334099531
99.4340205193
99.4835805893
99.0499299765
99.4133704901
99.0168899298
99.4340205193
99.3803304434
99.0003699064
98.9962399006
99.0168899298
98.9797198772
99.4298905134
99.4464105368
99.4340205193
99.4340205193
99.0168899298
98.9962399006
99.3762004375
99.4835805893
99.0499299765
99.3927204609
99.4629305601
99.0168899298

Block: 6
======================================
99.4298905134
98.9962399006
99.4670605659
99.0334099531
99.3968504667
99.4670605659
99.3968504667
99.4298905134
98.9797198772
99.0168899298
99.3968504667
99.3968504667
99.4464105368
99.4835805893
99.4133704901
99.4298905134
99.4835805893
99.3803304434
99.4464105368
99.3968504667
99.4464105368
99.4670605659
99.0003699064
99.5001006126
99.4835805893
99.4835805893
99.4298905134
99.4298905134
99.4629305601
99.0499299765
99.4835805893
98.9797198772
99.4835805893
99.0334099531
99.0168899298
99.4298905134
99.0168899298
99.4505405426
99.0168899298
99.3968504667
99.5001006126
99.4835805893
99.4298905134
99.516620636
99.4340205193
99.0334099531
99.4298905134
99.3803304434
99.4629305601
99.516620636
99.0003699064
99.4835805893
99.516620636
99.4298905134
99.0003699064
99.3968504667
98.9962399006
99.4505405426
99.4464105368
99.3968504667
99.0334099531
99.4133704901
98.9962399006
99.4505405426
99.4133704901
98.9631998539
99.0334099531
99.4670605659
99.4464105368
98.9797198772
99.4835805893
99.3803304434
99.4835805893
99.5001006126
99.4835805893

Block: 7
======================================
99.4505405426
99.4505405426
99.4298905134
99.4794505835
99.4670605659
99.4505405426
99.4505405426
99.0334099531
98.9962399006
99.4835805893
99.5207506418
99.0334099531
99.4298905134
99.0168899298
99.0292799473
99.4670605659
99.0003699064
99.4340205193
99.0499299765
99.4464105368
99.4505405426
99.3927204609
99.5001006126
99.0334099531
99.0168899298
99.3927204609
99.5001006126
99.0334099531
98.9962399006
99.4298905134
99.4670605659
99.0168899298
99.4629305601
99.4794505835
99.516620636
99.516620636
99.5001006126
99.4629305601
99.4670605659
99.0168899298
98.9962399006
99.5001006126
99.4629305601
99.0127599239
99.5331406593
99.0705800056
99.4340205193
99.516620636
99.4670605659
99.4835805893
99.5042306185
99.087100029
99.4505405426
99.4505405426
99.0499299765
99.4629305601
99.4505405426
99.3968504667
99.0499299765
99.0499299765
99.5372706652
99.0664499998
99.516620636
99.0705800056
99.0499299765
98.9962399006
99.0499299765
99.0127599239
99.4835805893
99.4464105368
99.087100029
99.0168899298
99.0334099531
99.4629305601
99.4133704901

Block: 8
======================================
99.4670605659
99.4835805893
99.4835805893
99.4670605659
99.4505405426
99.4505405426
99.4670605659
99.4133704901
99.0499299765
99.4298905134
99.4464105368
99.4133704901
99.4670605659
99.4464105368
99.0168899298
99.4835805893
99.0334099531
99.4298905134
99.4133704901
99.4670605659
99.4298905134
99.0003699064
99.0292799473
99.4505405426
99.5001006126
99.0168899298
99.4670605659
99.4835805893
99.0499299765
99.4505405426
99.4629305601
99.4835805893
99.4298905134
99.4298905134
99.0003699064
99.0499299765
99.4835805893
99.0168899298
99.4464105368
99.4629305601
99.4835805893
99.0168899298
99.4835805893
99.0168899298
99.4835805893
99.0499299765
99.0664499998
99.4670605659
99.4133704901
99.4298905134
99.4464105368
99.4298905134
99.0499299765
99.4340205193
99.0168899298
99.0168899298
99.4464105368
99.0334099531
99.4835805893
99.3762004375
99.4298905134
99.4298905134
99.4464105368
99.4133704901
99.4464105368
99.4464105368
99.4133704901
99.0127599239
99.4133704901
99.4835805893
99.4464105368
99.0705800056
99.4505405426
99.4670605659
99.4133704901

Block: 9
======================================
99.4298905134
99.4340205193
99.4794505835
99.4298905134
99.4298905134
99.4670605659
99.4133704901
99.4670605659
99.0334099531
99.4835805893
99.4133704901
99.4298905134
99.0334099531
99.4340205193
99.4464105368
99.5042306185
99.4298905134
99.4298905134
99.3927204609
99.0540599823
99.4835805893
98.9962399006
99.0003699064
99.4505405426
98.9962399006
99.4670605659
99.4670605659
99.4629305601
99.4670605659
99.4835805893
99.0499299765
99.4298905134
99.4298905134
99.4835805893
99.4298905134
99.5001006126
99.4464105368
99.0334099531
99.4505405426
98.9962399006
98.9962399006
99.0334099531
99.0168899298
99.4670605659
99.4464105368
99.0003699064
99.4835805893
99.0168899298
99.4670605659
99.4505405426
99.4835805893
99.3968504667
99.4835805893
99.4835805893
99.4835805893
99.3968504667
99.4670605659
99.4505405426
99.0829700232
99.4464105368
99.4340205193
99.4835805893
99.4670605659
99.0499299765
99.0664499998
99.4298905134
99.4464105368
99.4505405426
99.0499299765
99.0499299765
99.4835805893
99.4464105368
99.3968504667
99.4835805893
99.0334099531

Block: 10
======================================
99.0499299765
99.0664499998
99.0168899298
99.4670605659
99.0499299765
99.4298905134
99.0127599239
99.4629305601
99.4835805893
99.3968504667
99.4835805893
99.0334099531
99.0334099531
99.4298905134
99.4505405426
99.0334099531
99.4670605659
99.4464105368
99.0829700232
99.4629305601
99.5001006126
99.0499299765
99.0499299765
99.5207506418
99.4340205193
99.5001006126
99.4835805893
99.4340205193
99.4464105368
99.4670605659
99.4298905134
99.4629305601
99.0334099531
99.0499299765
99.4505405426
99.0664499998
99.4505405426
99.4835805893
99.4340205193
99.4670605659
99.5001006126
99.5001006126
99.4794505835
99.4835805893
99.4794505835
99.4133704901
99.3968504667
99.4670605659
99.0334099531
99.4298905134
99.4464105368
99.4298905134
99.4464105368
99.4505405426
99.4133704901
99.4298905134
99.4629305601
99.4670605659
99.4464105368
99.5001006126
99.4133704901
99.0334099531
99.4505405426
99.4298905134
98.9838498831
99.4629305601
99.4670605659
99.5001006126
99.4670605659
99.4670605659
99.0334099531
99.0003699064
99.4133704901
99.4670605659
99.4835805893
