
Block: 1
======================================
100.801052451
94.1641330719
101.697263718
101.701393723
26.6757076979
82.1788561344
100.796922445
102.601734996
100.850612521
21.0671597719
94.2343431711
101.317303181
17.5277447701
91.5167993307
101.300783157
6.04219853878
96.7453867197
100.801052451
7.51661062241
87.1472531557
100.817572474
33.7627977133
102.634775043
101.755083799
6.21978878975
85.8669513464
100.850612521
4.31172609329
89.1213959455
101.28839314
44.8312133551
87.114213109
101.284263134
101.73443377
101.300783157
58.4808826447
89.6087366343
101.284263134
50.2704310417
91.4300692081
101.73443377
45.81828475
92.5038707256
101.284263134
47.6189672947
90.4925578833
100.867132545
8.50368201733
87.2009432316
101.230573058
1.4372420311
88.0310744047
101.251223087
35.6336903572
88.2086646557
101.701393723
31.2847942114
85.3837406635
100.780402422
32.1644854546
81.608915329
102.114394307
19.2293071747
100.834092498
101.284263134
102.188734412
101.321433187
100.904302597
100.834092498
20.5261290073
101.370993257
101.300783157
101.284263134
101.304913163
101.73443377
101.300783157
36.7405319214
101.247093081
101.218183041
3.4981149435
84.0993088484
101.717913747
36.6703218222
86.9572728872
101.701393723
35.4602301121
101.267743111
100.834092498
101.73443377
101.73443377
28.9802509546
100.834092498
101.317303181
102.097874284
101.664223671
85.573720932
100.850612521
2.4449634552
102.184604406
101.284263134
102.097874284
101.284263134
43.6541616917
83.9588886499
101.717913747
19.8488080502
81.154614687
100.693672299
24.7882950306
101.717913747
100.850612521
88.1012845039
100.834092498
28.0427396297
101.284263134
101.251223087
6.6327893734
82.5257766247
101.267743111
26.2090170383
85.0863802433
100.850612521
30.0912225246
87.4074435234
100.817572474
31.4582544565
84.0290987492
100.87126255
25.1889055967
101.668353677
100.834092498
101.73443377
101.333823204
97.09230721
101.300783157
101.717913747
100.883652568
90.52559793
101.697263718
2.70102381706
101.304913163
101.284263134
84.0993088484
101.251223087
8.2971817255
101.73443377
100.454131961
91.2731289864
101.284263134
3.86568546295
101.284263134
92.569950819
102.15156436
100.834092498
101.247093081
102.585214972
24.272044301
100.834092498
102.184604406
88.6588352919
101.321433187
5.50529778004
90.5958080292
100.867132545
46.7723160982
92.6938509941
101.300783157
47.205966711
87.8080540895
100.834092498
37.5211030245
101.300783157
100.437611938
98.6534494162
90.4264777899
101.717913747
101.73443377
101.284263134
101.284263134
9.09427285194
100.850612521
97.319457531
101.284263134
102.54804492
88.4316849709
101.717913747
4.98904705048
102.114394307
92.7103710175
101.717913747
100.854742527
102.114394307
101.284263134
29.5543217659
101.304913163
100.92082262
5.87286829948
85.0368201733
102.564564943
51.2575024366
86.457542181
101.750953794
26.4155173302
86.2510418892
100.867132545
32.6518261433
83.578928113
100.887782574
39.8421663046
86.7838126421
100.834092498
44.9881535769
87.9815143347
101.300783157
39.7760862112
86.3708120584
101.284263134
34.3162184954
85.4333007336
100.834092498
35.9764808416
84.3429791927
101.304913163
32.8294163942
87.8947842121
101.267743111
31.1815440655
87.8576141596
102.168084383
38.4916543961
88.2582247257
100.87126255
42.1260595322
92.9168713093
101.701393723
43.4807014465
91.4465892315
101.697263718
43.621121645
87.8410941362
100.887782574
43.0800908804
93.0944615602
100.854742527
54.9084275961
94.2839032412
101.6848737
62.1194177866
98.1330686808
101.717913747

Average distance is : 79.685 cm
Average deviation is : 31.675 cm
Block: 2
======================================
22.0170611143
95.9482955933
101.717913747
2.3541033268
88.7414354086
100.850612521
12.3487174511
90.8353483677
102.135044336
101.755083799
100.887782574
28.0633896589
96.2786960602
101.284263134
49.506379962
97.596167922
101.267743111
52.8516846895
90.6329780817
100.867132545
17.5979548693
89.6087366343
102.531524897
42.1838796139
93.7139624357
101.317303181
22.6778620481
92.1569502354
100.887782574
22.1409612894
97.9430884123
101.284263134
52.8310346603
94.9612241983
100.834092498
52.4345541
94.3210732937
101.284263134
53.421625495
90.3025776148
100.796922445
54.7390973568
93.3670419455
100.937342644
49.7872203588
95.448564887
101.284263134
49.1801095009
100.350881815
101.755083799
11.6259664297
89.9391371012
100.801052451
38.4007942677
90.1621574163
101.73443377
41.5726387501
88.0847644806
100.834092498
101.230573058
101.300783157
101.267743111
30.9874337912
82.8520470858
101.251223087
19.3325573206
101.755083799
101.317303181
101.73443377
101.263613105
38.9253050089
82.5051265955
100.883652568
29.9838423729
101.701393723
100.900172591
3.16771447659
84.5164394379
100.834092498
102.168084383
101.717913747
30.1242625713
80.5681538582
101.284263134
23.8714337349
83.1287574768
100.850612521
19.625787735
101.300783157
100.887782574
101.717913747
101.304913163
42.8529405594
83.426117897
101.284263134
42.0930194855
90.7899183035
101.304913163
54.4252169132
101.738563776
101.300783157
16.7843437195
91.029458642
101.317303181
44.327352643
86.7507725954
101.750953794
24.3009543419
83.2154875994
100.834092498
19.4027674198
100.887782574
101.33795321
101.771603823
101.321433187
27.1795684099
101.267743111
101.230573058
101.218183041
101.284263134
99.2605602741
101.284263134
15.8179223537
84.1364789009
101.33795321
101.247093081
101.284263134
29.3271714449
101.214053035
101.300783157
101.73443377
101.284263134
102.114394307
100.867132545
102.118524313
100.850612521
18.4115660191
100.94147265
100.904302597
102.585214972
101.317303181
11.8159466982
101.284263134
100.383921862
101.717913747
101.300783157
92.7268910408
100.850612521
81.001804471
100.437611938
102.568694949
101.354473233
96.055675745
101.33795321
100.834092498
100.834092498
16.31765306
100.883652568
100.850612521
100.904302597
101.750953794
101.370993257
101.317303181
19.9231481552
80.7581341267
100.817572474
101.321433187
101.267743111
27.3365086317
83.4591579437
100.87126255
61.7394572496
84.082788825
101.300783157
28.2864099741
84.2934191227
101.73443377
26.1594569683
87.0811730623
102.13091433
39.7926062346
92.6773309708
101.304913163
49.5394200087
96.4149862528
100.801052451
59.4142639637
94.3582433462
101.230573058
60.9423661232
96.7784267664
77.2765392065
79.8536628485
90.9427285194
101.317303181
50.3034710884
88.6753553152
102.552174926
39.0615952015
91.8967598677
101.300783157
31.8877750635
86.5607923269
100.834092498
36.0466909409
83.5954481363
101.738563776
21.013469696
101.317303181
101.73443377
3.68809521198
86.9572728872
101.697263718
36.6538017988
84.9335700274
101.284263134
33.5521674156
81.5882652998
101.300783157
22.9174023867
101.267743111
101.755083799
101.717913747
101.28839314
18.8121765852
100.953862667
101.755083799
92.0000100136
101.251223087
7.3803204298
101.234703064
101.680743694
101.321433187
101.284263134
26.1057668924
101.350343227
101.73443377
