
Block: 1
======================================
100.801052451
100.367401838
100.383921862
100.801052451
100.421091914

Average distance is : 100.555 cm
Average deviation is : 0.226 cm
Block: 2
======================================
100.768012404
100.763882399
100.817572474
101.701393723
100.421091914

Average distance is : 100.894 cm
Average deviation is : 0.478 cm
Block: 3
======================================
100.747362375
100.784532428
100.834092498
100.801052451
100.801052451

Average distance is : 100.794 cm
Average deviation is : 0.032 cm
Block: 4
======================================
100.400441885
100.817572474
100.763882399
101.664223671
100.400441885

Average distance is : 100.809 cm
Average deviation is : 0.517 cm
Block: 5
======================================
100.421091914
100.817572474
100.400441885
100.817572474
100.817572474

Average distance is : 100.655 cm
Average deviation is : 0.223 cm
Block: 6
======================================
100.400441885
100.834092498
100.383921862
101.598143578
100.801052451

Average distance is : 100.804 cm
Average deviation is : 0.493 cm
Block: 7
======================================
100.834092498
100.784532428
100.801052451
101.247093081
100.383921862

Average distance is : 100.810 cm
Average deviation is : 0.306 cm
Block: 8
======================================
100.400441885
100.780402422
100.834092498
101.197533011
100.796922445

Average distance is : 100.802 cm
Average deviation is : 0.282 cm
Block: 9
======================================
100.367401838
100.784532428
100.801052451
100.784532428
100.383921862

Average distance is : 100.624 cm
Average deviation is : 0.227 cm
Block: 10
======================================
100.400441885
100.763882399
100.834092498
100.784532428
100.437611938

Average distance is : 100.644 cm
Average deviation is : 0.207 cm
Average distance for 10x5 is : 100.739 cm
Average deviation for 10x5 is : 0.299 cm
 Percentage of values that failed: 0.000