
Block: 1
======================================
300.511437583
302.237933874
300.952159119
302.278367043
300.511437583
301.83360219
300.935985851
301.396923971
300.495264316
300.952159119
300.495264316
300.952159119
300.972375703
300.495264316
300.511437583
300.956202435
300.931942534
300.952159119
300.935985851
301.376707387
300.968332386
300.968332386
300.935985851
301.797212338
300.984505653
300.495264316
300.543784118
300.952159119
300.935985851
300.972375703
300.931942534
301.376707387
302.666525459
301.409053922
301.392880654
301.392880654
301.392880654
302.666525459
301.392880654
300.511437583
300.495264316
301.376707387
300.935985851
301.396923971
300.495264316
300.511437583
300.935985851
300.968332386
300.956202435
301.801255655
300.919812584
300.935985851
301.376707387
300.935985851
301.785082388
300.935985851
300.919812584
300.479091048
300.899596
300.952159119
300.935985851
301.801255655
300.935985851
300.495264316
301.376707387
300.952159119
300.935985851
302.666525459
301.376707387
301.356490803
301.392880654
300.935985851
300.475047731
300.915769267
300.511437583

Average distance is : 301.099 cm
Average deviation is : 0.524 cm
Block: 2
======================================
300.915769267
301.376707387
301.785082388
300.511437583
300.479091048
300.475047731
302.205587339
300.935985851
300.495264316
300.479091048
301.376707387
301.376707387
301.801255655
300.511437583
300.935985851
301.396923971
301.392880654
300.935985851
300.511437583
301.37266407
300.511437583
301.376707387
301.392880654
300.495264316
300.984505653
300.972375703
300.931942534
301.392880654
300.952159119
301.376707387
301.36053412
301.376707387
301.376707387
300.495264316
301.413097239
301.817428923
300.511437583
300.511437583
300.475047731
300.511437583
301.376707387
300.52761085
300.511437583
301.36053412
302.666525459
302.682698727
300.931942534
300.956202435
300.52761085
300.952159119
300.952159119
300.511437583
300.52761085
301.36053412
301.376707387
301.376707387
301.376707387
300.511437583
300.511437583
301.376707387
301.376707387
300.511437583
300.511437583
300.511437583
301.392880654
300.935985851
300.899596
302.682698727
300.495264316
301.376707387
300.919812584
300.952159119
300.952159119
300.935985851
300.511437583

Average distance is : 301.051 cm
Average deviation is : 0.539 cm
Block: 3
======================================
302.241977191
302.205587339
301.392880654
300.919812584
300.52761085
301.392880654
300.915769267
300.956202435
300.935985851
300.935985851
300.495264316
302.205587339
300.495264316
301.105805159
301.344360852
300.919812584
300.935985851
300.935985851
300.495264316
300.495264316
300.935985851
300.952159119
301.801255655
300.935985851
301.801255655
300.479091048
300.511437583
300.495264316
300.931942534
300.479091048
300.495264316
301.356490803
300.52761085
301.376707387
300.511437583
300.935985851
300.511437583
301.781039071
300.919812584
301.376707387
302.650352192
300.491220999
300.915769267
302.666525459
300.935985851
300.919812584
300.458874464
300.915769267
301.392880654
300.495264316
301.376707387
300.511437583
300.479091048
302.646308875
301.376707387
300.5154809
300.919812584
301.36053412
301.376707387
300.511437583
300.479091048
300.972375703
301.396923971
301.36053412
300.52761085
302.241977191
301.356490803
300.495264316
300.935985851
300.935985851
300.935985851
301.356490803
300.442701197
300.479091048
300.479091048

Average distance is : 301.044 cm
Average deviation is : 0.579 cm
Block: 4
======================================
300.462917781
300.475047731
300.919812584
300.935985851
300.935985851
301.376707387
301.392880654
301.356490803
300.511437583
300.511437583
300.495264316
300.479091048
300.952159119
302.221760607
301.392880654
300.479091048
300.952159119
301.376707387
301.376707387
300.479091048
300.919812584
300.491220999
300.458874464
300.952159119
301.376707387
300.479091048
300.531654167
300.903639317
301.376707387
300.919812584
300.479091048
300.919812584
302.646308875
300.919812584
300.903639317
300.952159119
300.919812584
300.479091048
301.376707387
301.376707387
301.36053412
301.356490803
301.392880654
300.935985851
300.935985851
300.495264316
300.475047731
301.344360852
300.511437583
303.091073728
301.376707387
300.511437583
300.511437583
300.915769267
301.376707387
300.935985851
301.785082388
300.935985851
300.495264316
301.36053412
300.495264316
300.919812584
300.919812584
300.919812584
300.919812584
300.919812584
301.376707387
301.817428923
300.952159119
300.495264316
300.899596
300.479091048
301.817428923
300.511437583
300.952159119

Average distance is : 301.000 cm
Average deviation is : 0.512 cm
Block: 5
======================================
301.376707387
300.479091048
300.52761085
300.968332386
302.237933874
300.52761085
300.968332386
301.392880654
300.495264316
300.952159119
300.511437583
301.396923971
301.392880654
301.376707387
300.511437583
301.356490803
301.376707387
302.241977191
300.935985851
300.919812584
300.935985851
300.511437583
300.935985851
300.931942534
300.495264316
300.495264316
301.376707387
300.952159119
300.935985851
301.376707387
300.935985851
300.495264316
301.344360852
300.479091048
300.935985851
301.817428923
302.630135608
301.801255655
300.475047731
301.801255655
301.785082388
300.915769267
300.919812584
300.935985851
301.801255655
300.511437583
300.919812584
300.479091048
300.462917781
300.915769267
300.915769267
300.931942534
300.935985851
301.801255655
300.915769267
300.479091048
301.356490803
301.376707387
300.919812584
300.919812584
300.899596
301.356490803
301.817428923
300.919812584
301.801255655
300.511437583
300.903639317
301.36053412
300.899596
301.356490803
300.462917781
301.376707387
300.495264316
301.344360852
300.495264316

Average distance is : 301.064 cm
Average deviation is : 0.496 cm
Block: 6
======================================
300.903639317
301.392880654
300.883422732
300.903639317
300.495264316
301.376707387
301.36053412
301.36053412
301.36053412
301.768909121
300.899596
300.511437583
302.209630656
300.915769267
300.479091048
300.479091048
301.376707387
301.344360852
300.919812584
300.458874464
300.899596
301.340317535
300.935985851
301.396923971
300.915769267
300.935985851
301.356490803
303.091073728
300.479091048
302.225803924
300.511437583
301.392880654
301.801255655
301.376707387
302.241977191
300.919812584
301.36053412
300.491220999
300.511437583
301.801255655
300.511437583
301.817428923
300.935985851
301.376707387
300.919812584
300.935985851
300.919812584
300.935985851
301.376707387
301.36053412
300.935985851
301.36053412
301.36053412
300.495264316
300.952159119
302.225803924
300.952159119
300.458874464
300.915769267
300.935985851
302.189414072
301.36053412
300.952159119
300.915769267
300.491220999
300.479091048
302.205587339
301.344360852
300.919812584
300.899596
302.193457389
300.919812584
300.458874464
301.344360852
300.935985851

Average distance is : 301.156 cm
Average deviation is : 0.549 cm
Block: 7
======================================
300.935985851
300.915769267
300.952159119
300.919812584
301.356490803
300.935985851
300.475047731
300.919812584
301.376707387
300.52761085
300.915769267
300.919812584
300.935985851
300.479091048
300.479091048
301.36053412
300.915769267
301.392880654
300.903639317
300.915769267
300.935985851
301.36053412
300.935985851
301.340317535
300.511437583
302.221760607
300.511437583
300.915769267
300.919812584
300.919812584
300.952159119
300.495264316
300.935985851
300.952159119
300.952159119
300.511437583
300.475047731
300.931942534
300.935985851
300.935985851
300.919812584
300.935985851
300.511437583
301.817428923
300.935985851
300.956202435
301.392880654
301.376707387
300.52761085
300.935985851
300.511437583
300.935985851
300.479091048
300.495264316
300.495264316
300.495264316
300.495264316
300.531654167
301.396923971
300.495264316
300.952159119
300.931942534
300.52761085
300.952159119
300.972375703
301.392880654
300.511437583
300.968332386
300.511437583
300.968332386
300.935985851
301.409053922
300.968332386
300.984505653
300.952159119

Average distance is : 300.904 cm
Average deviation is : 0.342 cm
Block: 8
======================================
300.564000702
300.559957385
300.935985851
300.495264316
300.952159119
301.409053922
301.409053922
300.98854897
301.392880654
300.495264316
301.425227189
301.376707387
301.409053922
301.413097239
300.52761085
300.52761085
301.392880654
301.409053922
301.409053922
300.98854897
301.409053922
300.511437583
300.984505653
301.392880654
301.376707387
301.392880654
301.413097239
301.817428923
300.984505653
300.968332386
301.849775457
300.98854897
300.543784118
302.682698727
300.52761085
300.511437583
300.511437583
302.262193775
300.968332386
300.952159119
300.52761085
300.972375703
300.52761085
300.52761085
300.984505653
300.547827435
301.392880654
300.543784118
300.968332386
300.98854897
300.984505653
300.952159119
300.511437583
300.511437583
300.98854897
300.511437583
300.511437583
300.972375703
300.968332386
300.968332386
300.52761085
300.52761085
300.968332386
300.98854897
301.83360219
300.952159119
301.425227189
301.413097239
301.409053922
301.429270506
300.616563821
300.52761085
300.984505653
301.392880654
300.511437583

Average distance is : 301.020 cm
Average deviation is : 0.458 cm
Block: 9
======================================
301.392880654
300.968332386
301.392880654
301.409053922
300.956202435
300.968332386
301.396923971
300.511437583
301.413097239
300.511437583
300.475047731
300.935985851
300.952159119
300.952159119
301.801255655
300.495264316
301.413097239
300.547827435
301.392880654
300.956202435
300.952159119
301.849775457
300.952159119
300.511437583
301.376707387
300.972375703
301.817428923
300.968332386
300.952159119
301.392880654
300.511437583
300.491220999
300.952159119
301.83360219
300.952159119
300.495264316
300.968332386
300.952159119
300.968332386
300.968332386
300.972375703
301.376707387
300.952159119
300.511437583
301.376707387
300.952159119
300.495264316
300.968332386
301.392880654
300.511437583
301.849775457
301.376707387
300.952159119
300.52761085
300.935985851
300.52761085
301.392880654
301.409053922
301.409053922
301.392880654
301.409053922
300.531654167
300.968332386
300.547827435
300.511437583
300.935985851
301.396923971
300.972375703
301.83360219
300.564000702
300.52761085
300.956202435
300.952159119
301.392880654
301.413097239

Average distance is : 301.038 cm
Average deviation is : 0.400 cm
Block: 10
======================================
301.409053922
301.392880654
301.376707387
300.531654167
300.968332386
300.968332386
300.968332386
300.984505653
300.984505653
300.952159119
300.952159119
301.425227189
300.547827435
301.429270506
301.83360219
300.531654167
301.849775457
300.984505653
300.98854897
300.972375703
301.817428923
300.984505653
301.004722238
301.429270506
301.817428923
301.425227189
301.837645507
301.853818774
300.968332386
300.98854897
301.817428923
300.5154809
300.972375703
300.972375703
300.547827435
300.935985851
300.968332386
301.392880654
300.956202435
301.392880654
300.511437583
300.547827435
300.547827435
300.972375703
300.564000702
300.511437583
301.392880654
301.413097239
301.849775457
301.392880654
301.392880654
301.392880654
300.547827435
301.409053922
301.396923971
300.52761085
300.52761085
301.409053922
300.511437583
300.52761085
302.241977191
302.682698727
300.972375703
300.952159119
300.547827435
300.952159119
300.952159119
301.801255655
300.972375703
300.952159119
301.817428923
300.491220999
300.952159119
300.952159119
300.972375703

Average distance is : 301.123 cm
Average deviation is : 0.475 cm