
Block: 1
======================================
100.416961908
100.400441885
100.813442469
100.834092498
100.817572474

Block: 2
======================================
100.400441885
100.433481932
100.834092498
100.437611938
100.784532428

Block: 3
======================================
100.367401838
100.421091914
100.796922445
100.801052451
100.850612521

Block: 4
======================================
100.400441885
100.693672299
100.817572474
100.834092498
100.796922445

Block: 5
======================================
100.383921862
100.416961908
100.850612521
100.801052451
100.801052451

Block: 6
======================================
100.817572474
100.813442469
100.416961908
100.677152276
100.383921862

Block: 7
======================================
100.421091914
100.801052451
100.768012404
100.801052451
100.801052451

Block: 8
======================================
100.454131961
100.367401838
100.817572474
100.796922445
100.834092498

Block: 9
======================================
100.454131961
100.383921862
101.664223671
100.817572474
101.234703064

Block: 10
======================================
100.383921862
100.834092498
100.817572474
100.834092498
100.813442469
