
Block: 1
======================================
401.10916059
400.652265787
401.10916059
401.09703064
401.09703064
400.688655639
402.403021979
401.10916059
402.398978662
400.656309104
400.652265787
400.63609252
402.398978662
401.092987323
400.668439054
401.09703064
400.672482371
401.09703064
401.10916059
401.10916059
401.533708858
401.537752175
401.09703064
402.382805395
400.63609252
400.63609252
402.382805395
400.63609252
400.63609252
401.09703064
402.419195247
401.978473711
400.668439054
401.533708858
400.656309104
400.640135837
401.080857372
401.076814055
401.113203907
402.398978662
401.076814055
401.076814055
401.09703064
401.113203907
401.113203907
401.092987323
401.09703064
401.533708858
401.09703064
402.382805395
401.962300444
401.076814055
401.129377174
401.962300444
402.859916782
401.10916059
401.553925443
401.129377174
401.553925443
402.010820246
401.57009871
401.149593759
401.549882126
400.688655639
400.704828906
401.566055393
400.704828906
400.668439054
402.451541781
400.704828906
400.688655639
401.553925443
400.704828906
400.688655639
400.688655639

Average distance is : 401.255 cm
Average deviation is : 0.592 cm
Block: 2
======================================
400.688655639
400.688655639
401.129377174
401.113203907
401.09703064
400.656309104
401.09703064
401.549882126
400.668439054
401.537752175
401.553925443
401.537752175
400.668439054
401.57009871
401.553925443
400.672482371
401.113203907
401.553925443
401.549882126
401.145550442
401.129377174
401.10916059
401.537752175
401.113203907
401.549882126
401.553925443
400.672482371
400.688655639
400.688655639
401.994646978
400.652265787
400.668439054
402.419195247
401.537752175
401.553925443
401.566055393
400.652265787
401.553925443
401.10916059
401.129377174
400.656309104
402.435368514
401.57009871
401.586271977
401.553925443
400.668439054
400.668439054
400.672482371
401.09703064
401.113203907
401.09703064
400.688655639
401.57009871
400.688655639
400.684612322
401.586271977
401.129377174
401.57009871
401.10916059
400.704828906
401.149593759
400.721002173
400.672482371
401.602445245
400.688655639
400.704828906
400.684612322
400.247934103
401.129377174
400.741218758
400.26410737
400.721002173
400.704828906
400.688655639
401.161723709

Average distance is : 401.103 cm
Average deviation is : 0.457 cm
Block: 3
======================================
401.165767026
400.737175441
400.688655639
400.300497222
400.300497222
400.741218758
401.181940293
401.586271977
400.296453905
400.721002173
400.312627172
401.165767026
400.721002173
400.757392025
400.737175441
400.72504549
401.181940293
401.606488562
400.312627172
402.04316678
401.194070244
400.300497222
402.451541781
400.757392025
400.296453905
400.296453905
401.161723709
400.316670489
400.300497222
401.145550442
400.26410737
400.280280638
402.010820246
401.161723709
401.161723709
401.57009871
400.721002173
400.26410737
401.990603662
401.994646978
400.741218758
402.451541781
401.149593759
400.737175441
400.26410737
400.280280638
401.145550442
401.161723709
400.296453905
400.300497222
400.296453905
400.721002173
400.280280638
400.721002173
401.161723709
402.026993513
401.145550442
401.145550442
401.177896976
400.737175441
401.145550442
400.737175441
400.280280638
400.721002173
400.737175441
401.161723709
402.41515193
400.280280638
400.688655639
401.994646978
400.737175441
401.586271977
400.721002173
401.129377174
400.704828906

Average distance is : 400.932 cm
Average deviation is : 0.593 cm
Block: 4
======================================
400.247934103
400.243890786
401.586271977
400.247934103
401.10916059
400.284323955
401.145550442
400.280280638
401.57009871
400.280280638
401.57009871
400.704828906
400.284323955
401.145550442
400.280280638
400.704828906
401.10916059
401.161723709
402.010820246
400.247934103
400.243890786
400.300497222
400.26410737
400.672482371
400.688655639
400.688655639
401.129377174
401.553925443
401.10916059
401.10916059
400.688655639
400.688655639
400.688655639
400.26410737
400.672482371
400.668439054
401.125333858
401.537752175
401.129377174
400.684612322
401.113203907
400.247934103
400.672482371
400.672482371
400.26410737
400.688655639
400.672482371
400.26410737
400.26410737
401.549882126
400.247934103
400.247934103
400.704828906
402.419195247
400.26410737
400.247934103
400.231760836
400.688655639
400.231760836
400.231760836
400.247934103
400.704828906
401.113203907
400.688655639
400.688655639
400.688655639
400.247934103
400.688655639
400.672482371
400.688655639
400.211544251
400.231760836
401.113203907
401.533708858
401.09703064

Average distance is : 400.729 cm
Average deviation is : 0.491 cm
Block: 5
======================================
400.63609252
400.652265787
401.553925443
401.517535591
401.076814055
401.09703064
401.080857372
401.076814055
401.09703064
400.652265787
400.619919252
401.092987323
400.63609252
400.63609252
401.092987323
401.517535591
401.521578908
401.553925443
401.501362324
401.517535591
401.517535591
400.640135837
401.076814055
400.640135837
401.060640788
401.09703064
401.076814055
401.060640788
401.044467521
401.040424204
401.076814055
401.044467521
400.57139945
401.517535591
401.076814055
401.501362324
401.485189056
401.044467521
400.63609252
401.076814055
401.09703064
401.060640788
401.501362324
401.501362324
401.978473711
401.060640788
401.080857372
401.521578908
401.517535591
401.537752175
401.958257127
401.080857372
401.962300444
401.978473711
401.09703064
401.113203907
401.09703064
401.553925443
401.113203907
402.435368514
401.553925443
400.652265787
401.129377174
402.010820246
401.994646978
401.553925443
401.553925443
401.974430394
401.57009871
401.590315294
401.113203907
400.704828906
401.145550442
401.129377174
400.247934103

Average distance is : 401.235 cm
Average deviation is : 0.423 cm
Block: 6
======================================
401.161723709
400.704828906
400.721002173
401.145550442
401.129377174
400.737175441
400.741218758
401.586271977
400.243890786
400.72504549
400.26410737
400.721002173
401.602445245
400.72504549
400.72504549
401.161723709
400.280280638
400.280280638
400.280280638
400.721002173
400.26410737
400.741218758
400.704828906
401.165767026
402.467715049
400.280280638
400.312627172
400.708872223
400.721002173
401.177896976
400.300497222
400.721002173
400.296453905
400.26410737
401.181940293
401.181940293
400.72504549
400.72504549
400.721002173
401.586271977
400.26410737
401.606488562
400.704828906
400.26410737
401.145550442
400.300497222
401.606488562
400.704828906
401.602445245
400.280280638
400.721002173
400.296453905
400.26410737
400.284323955
400.280280638
400.296453905
400.704828906
400.280280638
400.704828906
402.047210097
401.165767026
400.300497222
400.721002173
400.704828906
400.247934103
400.280280638
400.26410737
400.247934103
401.145550442
400.26410737
400.688655639
401.161723709
400.704828906
400.704828906
400.721002173

Average distance is : 400.741 cm
Average deviation is : 0.480 cm
Block: 7
======================================
400.688655639
400.26410737
400.688655639
400.704828906
400.280280638
401.145550442
400.247934103
400.26410737
400.227717519
400.280280638
400.26410737
400.704828906
400.243890786
400.688655639
400.684612322
401.161723709
401.533708858
401.586271977
401.145550442
400.688655639
401.129377174
400.672482371
400.652265787
401.553925443
400.688655639
400.688655639
401.549882126
401.57009871
401.553925443
400.668439054
401.113203907
400.688655639
400.652265787
400.672482371
401.958257127
401.10916059
401.092987323
401.092987323
401.533708858
401.076814055
401.092987323
401.080857372
400.619919252
401.505405641
401.501362324
401.076814055
401.501362324
401.978473711
401.501362324
401.060640788
401.517535591
401.060640788
401.925910592
401.060640788
401.040424204
402.366632128
401.464972472
401.469015789
401.909737325
401.485189056
401.028294253
401.028294253
401.485189056
401.040424204
401.044467521
401.942083859
401.044467521
401.448799205
401.060640788
401.469015789
401.485189056
401.942083859
401.060640788
401.044467521
401.044467521

Average distance is : 401.101 cm
Average deviation is : 0.489 cm
Block: 8
======================================
401.909737325
401.044467521
401.946127176
401.905694008
401.044467521
401.028294253
401.925910592
401.501362324
401.505405641
401.469015789
401.464972472
401.925910592
402.807353663
401.485189056
401.925910592
401.905694008
401.501362324
401.485189056
401.028294253
401.469015789
401.044467521
401.044467521
401.469015789
401.925910592
402.775007129
401.485189056
402.334285593
401.925910592
401.485189056
401.060640788
401.060640788
401.925910592
401.044467521
401.925910592
402.366632128
401.044467521
401.028294253
401.501362324
401.501362324
401.925910592
400.63609252
400.619919252
401.080857372
401.517535591
401.517535591
401.517535591
401.517535591
401.044467521
401.076814055
401.942083859
401.958257127
401.517535591
401.517535591
401.076814055
401.076814055
402.366632128
401.533708858
401.09703064
401.533708858
401.060640788
401.076814055
401.044467521
401.080857372
401.517535591
401.076814055
401.517535591
401.958257127
401.501362324
401.521578908
401.501362324
401.501362324
401.076814055
401.533708858
401.958257127
401.080857372

Average distance is : 401.497 cm
Average deviation is : 0.446 cm
Block: 9
======================================
401.501362324
401.517535591
401.537752175
401.962300444
402.382805395
401.962300444
401.113203907
401.537752175
401.553925443
400.672482371
401.57009871
400.668439054
401.129377174
402.010820246
401.10916059
401.092987323
400.672482371
400.656309104
401.10916059
401.537752175
401.537752175
400.652265787
401.113203907
401.549882126
401.113203907
401.586271977
401.57009871
401.113203907
401.57009871
400.668439054
400.672482371
401.129377174
401.113203907
401.129377174
400.652265787
401.129377174
401.161723709
402.026993513
401.57009871
401.125333858
401.129377174
402.010820246
401.145550442
401.145550442
400.656309104
400.652265787
401.10916059
401.10916059
401.553925443
401.990603662
401.129377174
401.129377174
401.125333858
401.10916059
401.994646978
401.129377174
401.092987323
401.113203907
401.57009871
401.129377174
401.57009871
401.129377174
401.586271977
402.010820246
402.026993513
402.467715049
401.586271977
401.145550442
401.57009871
401.145550442
400.704828906
401.602445245
400.704828906
401.161723709
401.145550442

Average distance is : 401.308 cm
Average deviation is : 0.436 cm
Block: 10
======================================
401.181940293
401.161723709
400.737175441
401.602445245
402.467715049
401.586271977
401.198113561
402.839700198
401.602445245
402.892263317
401.590315294
402.451541781
401.145550442
401.606488562
401.586271977
401.602445245
400.737175441
401.181940293
400.721002173
402.892263317
401.161723709
401.161723709
400.72504549
401.606488562
400.721002173
401.586271977
401.586271977
401.145550442
401.129377174
401.161723709
401.145550442
401.161723709
401.602445245
401.145550442
401.145550442
401.149593759
401.165767026
401.145550442
401.586271977
401.586271977
402.010820246
401.145550442
401.586271977
401.129377174
401.586271977
401.165767026
401.586271977
402.026993513
401.602445245
401.161723709
401.602445245
400.72504549
401.602445245
402.047210097
401.586271977
401.602445245
402.026993513
401.161723709
400.737175441
400.721002173
401.161723709
402.467715049
401.161723709
401.145550442
401.181940293
401.181940293
400.721002173
400.721002173
400.704828906
401.161723709
402.010820246
400.753348708
402.026993513
400.316670489
401.181940293

Average distance is : 401.391 cm
Average deviation is : 0.537 cm