
Block: 1
======================================
301.032767057
300.536838388
300.996182156
300.553098345
300.536838388
301.886414766
301.012442112
300.979922199
301.000247145
301.439265966

Average distance is : 300.997 cm
Average deviation is : 0.423 cm
Block: 2
======================================
300.557163334
300.553098345
300.979922199
300.569358301
300.57342329
301.459590912
300.536838388
300.536838388
300.996182156
300.996182156

Average distance is : 300.776 cm
Average deviation is : 0.317 cm
Block: 3
======================================
300.979922199
301.849829865
301.406746054
301.866089821
300.585618258
300.467733574
300.553098345
300.536838388
300.979922199
300.553098345

Average distance is : 300.978 cm
Average deviation is : 0.548 cm
Block: 4
======================================
300.569358301
301.455525923
300.589683247
300.569358301
301.032767057
300.553098345
300.553098345
301.016507101
300.553098345
301.866089821

Average distance is : 300.876 cm
Average deviation is : 0.465 cm
Block: 5
======================================
300.569358301
300.536838388
300.569358301
301.016507101
300.569358301
301.000247145
301.443330956
301.459590912
300.569358301
300.557163334

Average distance is : 300.829 cm
Average deviation is : 0.375 cm
Block: 6
======================================
300.536838388
301.439265966
301.032767057
300.585618258
300.57342329
300.585618258
301.455525923
300.589683247
300.553098345
300.553098345

Average distance is : 300.790 cm
Average deviation is : 0.376 cm
Block: 7
======================================
300.536838388
300.585618258
300.557163334
301.439265966
300.589683247
300.553098345
301.439265966
300.553098345
301.032767057
301.866089821

Average distance is : 300.915 cm
Average deviation is : 0.496 cm
Block: 8
======================================
300.589683247
301.439265966
300.996182156
300.142534447
301.028702068
300.553098345
300.996182156
301.044962025
301.475850868
300.585618258

Average distance is : 300.885 cm
Average deviation is : 0.417 cm
Block: 9
======================================
300.553098345
300.589683247
301.016507101
300.585618258
301.455525923
301.016507101
300.57342329
300.585618258
300.12627449
301.032767057

Average distance is : 300.754 cm
Average deviation is : 0.374 cm
Block: 10
======================================
301.012442112
301.866089821
300.57342329
300.569358301
301.012442112
301.028702068
300.589683247
300.557163334
300.589683247
300.57342329

Average distance is : 300.837 cm
Average deviation is : 0.417 cm