
Block: 1
======================================
300.605943203
300.979922199
300.57342329
300.622203159
300.569358301
300.553098345
300.569358301
301.012442112
300.996182156
300.57342329
300.569358301
300.996182156
301.028702068
300.569358301
301.455525923
300.589683247
300.553098345
301.012442112
301.012442112
300.569358301
300.569358301
301.471785879
300.557163334
301.866089821
300.536838388

Block: 2
======================================
300.57342329
300.553098345
301.028702068
300.57342329
300.996182156
300.536838388
301.882349777
300.979922199
300.585618258
300.996182156
301.016507101
301.012442112
301.455525923
300.536838388
300.996182156
301.443330956
300.569358301
301.012442112
300.585618258
300.569358301
301.427070999
301.012442112
301.012442112
300.996182156
301.866089821

Block: 3
======================================
302.276653719
301.012442112
300.553098345
300.996182156
300.996182156
301.012442112
301.016507101
301.455525923
301.87015481
300.57342329
301.459590912
300.57342329
301.012442112
301.439265966
300.569358301
301.000247145
300.536838388
300.553098345
300.553098345
300.569358301
300.553098345
300.557163334
300.601878214
300.996182156
302.735997486

Block: 4
======================================
300.589683247
300.57342329
301.000247145
301.455525923
301.459590912
301.016507101
300.553098345
300.569358301
300.569358301
300.585618258
300.57342329
302.329498577
300.585618258
301.475850868
301.455525923
300.569358301
300.589683247
301.475850868
301.455525923
301.012442112
301.049027014
300.979922199
301.032767057
301.032767057
301.032767057

Block: 5
======================================
300.569358301
300.585618258
301.459590912
300.638463116
300.585618258
300.589683247
300.585618258
301.898609734
301.049027014
300.605943203
301.475850868
301.492110825
301.028702068
300.589683247
301.492110825
300.605943203
300.585618258
300.569358301
301.028702068
301.898609734
300.605943203
300.585618258
300.585618258
300.569358301
301.06528697

Block: 6
======================================
300.557163334
301.032767057
301.049027014
300.589683247
301.492110825
301.049027014
300.601878214
300.589683247
301.492110825
300.589683247
301.492110825
300.605943203
301.028702068
301.032767057
301.028702068
300.589683247
300.605943203
300.605943203
301.471785879
301.898609734
300.605943203
300.585618258
300.605943203
300.605943203
300.589683247

Block: 7
======================================
301.049027014
300.585618258
301.012442112
300.605943203
300.622203159
300.605943203
301.492110825
301.475850868
301.882349777
301.012442112
301.012442112
301.016507101
300.605943203
300.589683247
301.028702068
301.032767057
300.585618258
300.585618258
301.475850868
300.57342329
300.589683247
301.028702068
301.028702068
300.601878214
301.049027014

Block: 8
======================================
301.443330956
300.57342329
300.622203159
301.016507101
300.589683247
300.601878214
301.866089821
300.57342329
300.553098345
301.012442112
300.589683247
300.601878214
301.459590912
301.032767057
300.585618258
300.57342329
300.57342329
301.016507101
301.012442112
300.569358301
300.585618258
300.569358301
301.886414766
301.016507101
301.012442112

Block: 9
======================================
301.459590912
300.589683247
300.553098345
301.898609734
301.455525923
301.475850868
300.605943203
300.605943203
301.012442112
300.536838388
300.569358301
300.57342329
300.569358301
300.589683247
301.016507101
300.142534447
301.882349777
300.979922199
300.553098345
300.110014534
301.455525923
301.012442112
301.028702068
300.569358301
300.110014534

Block: 10
======================================
301.016507101
300.536838388
300.536838388
301.012442112
300.569358301
300.553098345
300.553098345
300.557163334
301.000247145
300.557163334
300.589683247
300.57342329
301.012442112
301.012442112
300.996182156
300.553098345
301.012442112
300.146599436
300.553098345
302.341693544
300.589683247
300.569358301
301.016507101
300.569358301
301.016507101
