
Block: 1
======================================
100.22698164
100.210461617
100.123731494
100.210461617
99.793331027
100.22698164
100.243501663
100.210461617
100.22698164
100.193941593
100.243501663
100.156771541
100.210461617
100.243501663
100.189811587
100.193941593
100.210461617
100.210461617
100.264151692
100.193941593
99.7768110037
100.193941593
100.193941593
100.22698164
100.22698164
100.247631669
99.7602909803
100.22698164
100.22698164
100.156771541
100.22698164
100.247631669
100.193941593
100.22698164
100.231111646
100.22698164
99.8139810562
100.22698164
100.193941593
100.22698164
100.17742157
100.247631669
100.231111646
100.210461617
100.210461617
100.17742157
100.22698164
100.210461617
100.210461617
100.193941593

Block: 2
======================================
100.264151692
100.210461617
100.22698164
100.243501663
100.247631669
100.173291564
99.793331027
100.22698164
100.22698164
100.17742157
100.193941593
100.264151692
99.7768110037
100.22698164
100.22698164
100.17742157
100.210461617
100.210461617
100.210461617
100.243501663
100.22698164
100.22698164
100.214591622
100.264151692
100.210461617
100.210461617
100.22698164
100.243501663
100.730842352
100.193941593
100.210461617
100.22698164
100.247631669
100.210461617
100.17742157
100.193941593
100.17742157
99.7768110037
100.243501663
100.247631669
100.17742157
100.243501663
100.210461617
100.173291564
100.193941593
100.22698164
100.210461617
100.264151692
100.17742157
100.22698164

Block: 3
======================================
100.22698164
100.193941593
100.210461617
100.210461617
99.7602909803
99.7602909803
100.247631669
100.210461617
100.243501663
100.22698164
99.7768110037
100.210461617
100.22698164
100.22698164
100.173291564
100.193941593
100.210461617
100.22698164
99.7809410095
100.189811587
100.22698164
100.243501663
100.260021687
100.22698164
100.210461617
100.193941593
100.210461617
100.22698164
100.260021687
100.264151692
100.210461617
100.231111646
100.22698164
100.210461617
100.210461617
100.210461617
100.243501663
100.210461617
100.210461617
100.193941593
100.193941593
100.140251517
100.22698164
100.214591622
100.173291564
100.193941593
100.210461617
100.247631669
99.7768110037
100.247631669

Block: 4
======================================
101.788123846
100.193941593
100.22698164
100.17742157
100.210461617
100.22698164
100.210461617
100.22698164
100.193941593
100.22698164
100.173291564
100.22698164
100.189811587
100.193941593
99.793331027
100.22698164
100.193941593
100.193941593
100.140251517
100.173291564
100.243501663
100.243501663
100.22698164
100.193941593
100.193941593
100.52434206
99.7602909803
100.193941593
100.22698164
100.193941593
100.214591622
100.210461617
100.231111646
100.210461617
100.210461617
100.231111646
100.193941593
100.156771541
100.22698164
100.22698164
100.210461617
100.22698164
100.243501663
100.210461617
100.193941593
100.243501663
100.247631669
100.231111646
100.22698164
100.173291564

Block: 5
======================================
99.8098510504
100.243501663
100.210461617
100.243501663
100.247631669
100.243501663
100.22698164
100.210461617
100.243501663
99.7974610329
100.243501663
100.22698164
100.193941593
100.22698164
100.210461617
100.193941593
100.193941593
100.247631669
100.210461617
100.22698164
100.247631669
100.231111646
100.210461617
100.210461617
100.231111646
100.22698164
100.22698164
99.8098510504
100.173291564
100.17742157
100.210461617
99.7974610329
100.231111646
100.17742157
99.793331027
100.243501663
100.243501663
100.210461617
99.8305010796
100.189811587
100.22698164
100.173291564
100.247631669
100.243501663
100.243501663
100.264151692
100.210461617
100.156771541
100.247631669
100.247631669

Block: 6
======================================
100.22698164
100.210461617
100.22698164
100.22698164
100.210461617
100.210461617
99.8263710737
100.193941593
100.193941593
100.193941593
100.210461617
100.193941593
100.231111646
100.22698164
100.210461617
100.260021687
100.193941593
99.8305010796
100.17742157
100.210461617
100.17742157
100.247631669
100.231111646
100.193941593
100.22698164
100.22698164
100.243501663
100.243501663
100.243501663
100.156771541
100.210461617
100.173291564
100.210461617
100.210461617
100.173291564
100.22698164
100.193941593
100.210461617
99.8263710737
100.231111646
100.193941593
100.17742157
100.210461617
100.264151692
100.193941593
100.189811587
101.697263718
100.210461617
100.193941593
100.210461617

Block: 7
======================================
100.247631669
99.7768110037
100.231111646
100.260021687
100.210461617
100.264151692
99.7768110037
99.9874413013
100.214591622
100.193941593
100.189811587
100.22698164
100.210461617
100.260021687
100.193941593
100.210461617
99.7974610329
100.243501663
99.5207506418
100.22698164
100.264151692
100.189811587
100.260021687
99.793331027
100.260021687
100.22698164
100.193941593
100.210461617
100.243501663
100.22698164
100.264151692
100.210461617
100.247631669
100.173291564
100.231111646
100.280671716
100.264151692
100.264151692
100.189811587
100.189811587
99.793331027
100.193941593
100.243501663
99.9007111788
100.22698164
100.260021687
100.210461617
100.210461617
100.189811587
100.243501663

Block: 8
======================================
100.280671716
100.231111646
100.210461617
100.210461617
100.260021687
100.193941593
100.210461617
100.189811587
100.231111646
100.22698164
99.8139810562
100.231111646
100.22698164
100.243501663
100.22698164
100.243501663
100.22698164
99.793331027
100.210461617
100.210461617
100.264151692
100.210461617
100.260021687
100.231111646
100.210461617
100.156771541
100.243501663
100.22698164
100.210461617
100.210461617
99.7602909803
100.210461617
100.210461617
99.7768110037
100.210461617
100.210461617
100.210461617
100.156771541
100.17742157
100.231111646
100.210461617
100.210461617
100.264151692
100.210461617
100.231111646
100.193941593
100.210461617
100.210461617
100.22698164
100.156771541

Block: 9
======================================
100.210461617
100.160901546
100.189811587
100.243501663
100.247631669
100.210461617
100.210461617
100.193941593
100.22698164
100.264151692
100.231111646
100.22698164
100.247631669
100.156771541
100.243501663
100.160901546
100.416961908
100.140251517
100.210461617
100.243501663
100.243501663
100.22698164
100.210461617
100.193941593
100.260021687
100.264151692
100.17742157
100.210461617
100.210461617
100.22698164
100.210461617
100.189811587
100.193941593
100.193941593
100.22698164
100.210461617
99.7107309103
100.156771541
100.264151692
100.173291564
99.7974610329
100.193941593
100.22698164
100.231111646
100.193941593
100.210461617
100.231111646
100.22698164
100.210461617
100.22698164

Block: 10
======================================
100.22698164
100.22698164
100.22698164
100.156771541
99.793331027
100.210461617
100.210461617
100.214591622
100.193941593
100.22698164
100.210461617
100.247631669
100.231111646
100.22698164
100.210461617
100.193941593
100.189811587
99.793331027
100.210461617
100.243501663
100.243501663
100.260021687
100.264151692
100.160901546
100.210461617
100.189811587
100.247631669
100.247631669
100.210461617
100.210461617
100.160901546
100.22698164
100.22698164
100.210461617
100.22698164
100.247631669
100.210461617
100.264151692
100.193941593
100.214591622
100.22698164
100.210461617
100.17742157
100.247631669
100.17742157
100.22698164
101.474243402
99.7602909803
100.231111646
100.193941593
