
Block: 1
======================================
100.193941593
99.7809410095
100.189811587
100.22698164
100.22698164
100.17742157
100.193941593
100.22698164
99.7974610329
100.193941593
100.22698164
99.4835805893
100.17742157
100.189811587
100.210461617
100.231111646
100.231111646
100.22698164
100.210461617
100.231111646
100.231111646
100.22698164
100.22698164
100.247631669
100.210461617

Block: 2
======================================
100.243501663
100.210461617
100.173291564
100.17742157
99.8139810562
100.247631669
100.210461617
100.193941593
100.173291564
100.22698164
100.210461617
100.22698164
100.210461617
100.22698164
100.210461617
100.17742157
100.260021687
100.210461617
100.210461617
100.193941593
100.247631669
100.210461617
100.140251517
100.156771541
99.7768110037

Block: 3
======================================
100.210461617
100.173291564
100.280671716
100.210461617
100.193941593
100.210461617
100.22698164
100.210461617
100.210461617
100.264151692
100.231111646
100.17742157
100.22698164
100.193941593
100.210461617
100.264151692
100.280671716
99.743770957
100.210461617
100.22698164
100.210461617
100.193941593
100.210461617
100.193941593
100.243501663

Block: 4
======================================
100.231111646
100.22698164
100.247631669
99.7602909803
99.8098510504
100.210461617
100.231111646
100.193941593
100.22698164
100.22698164
100.214591622
100.210461617
100.17742157
100.210461617
100.243501663
100.193941593
100.243501663
100.247631669
100.210461617
100.210461617
100.210461617
100.280671716
100.280671716
100.247631669
100.156771541

Block: 5
======================================
99.7768110037
100.210461617
100.22698164
100.22698164
100.210461617
100.243501663
99.793331027
99.7974610329
100.193941593
100.260021687
100.247631669
99.7768110037
100.210461617
100.210461617
100.247631669
100.264151692
100.231111646
100.247631669
100.160901546
100.22698164
100.193941593
100.193941593
100.210461617
100.22698164
99.7602909803

Block: 6
======================================
100.193941593
100.247631669
100.22698164
100.210461617
99.7768110037
100.247631669
100.243501663
100.210461617
100.231111646
100.22698164
99.8139810562
100.243501663
100.22698164
100.247631669
100.214591622
100.22698164
99.7974610329
100.193941593
100.22698164
100.210461617
100.231111646
100.210461617
100.247631669
100.264151692
100.243501663

Block: 7
======================================
100.247631669
100.189811587
99.8305010796
100.260021687
100.264151692
100.173291564
100.210461617
100.210461617
100.193941593
100.214591622
100.22698164
100.243501663
99.793331027
100.22698164
100.247631669
100.193941593
100.173291564
100.193941593
100.193941593
100.264151692
100.193941593
100.280671716
100.210461617
100.210461617
100.173291564

Block: 8
======================================
100.210461617
100.17742157
100.210461617
100.189811587
100.231111646
100.17742157
100.156771541
100.17742157
100.123731494
100.140251517
100.160901546
100.17742157
100.144381523
100.156771541
100.17742157
100.156771541
100.189811587
100.156771541
100.156771541
100.140251517
100.193941593
99.8965811729
100.156771541
100.123731494
100.156771541

Block: 9
======================================
100.17742157
100.140251517
100.173291564
100.140251517
100.189811587
100.189811587
100.156771541
100.189811587
100.17742157
100.173291564
100.160901546
100.1278615
100.210461617
100.231111646
100.193941593
100.22698164
100.210461617
100.264151692
100.193941593
100.140251517
100.22698164
100.247631669
100.210461617
100.247631669
100.17742157

Block: 10
======================================
100.22698164
100.231111646
100.264151692
100.243501663
100.173291564
100.22698164
100.210461617
100.173291564
100.140251517
100.189811587
100.193941593
100.140251517
100.210461617
100.193941593
100.210461617
100.140251517
100.193941593
99.7974610329
100.231111646
100.210461617
100.243501663
100.22698164
100.140251517
100.173291564
100.243501663
