
Block: 1
======================================
301.049027014
300.857972527
300.996182156
302.71973753
301.049027014
300.57342329
301.91486969
300.605943203
300.589683247
300.605943203
300.589683247
301.016507101
301.882349777
301.049027014
300.585618258
300.605943203
300.589683247
300.589683247
301.882349777
300.589683247
300.601878214
300.179119349
301.028702068
301.492110825
301.475850868

Block: 2
======================================
301.882349777
300.589683247
301.459590912
301.918934679
300.605943203
300.605943203
300.622203159
301.012442112
300.57342329
301.012442112
300.589683247
301.032767057
301.471785879
300.57342329
300.622203159
300.585618258
300.622203159
301.028702068
301.459590912
300.57342329
300.601878214
300.569358301
301.032767057
300.569358301
300.601878214

Block: 3
======================================
301.492110825
301.012442112
301.012442112
301.475850868
301.000247145
300.589683247
301.028702068
301.471785879
301.028702068
300.585618258
300.605943203
301.032767057
301.016507101
300.589683247
301.044962025
301.475850868
301.012442112
300.585618258
301.475850868
301.028702068
301.016507101
300.605943203
301.475850868
301.032767057
300.569358301

Block: 4
======================================
301.42300601
300.605943203
301.044962025
300.589683247
301.012442112
301.886414766
300.996182156
300.589683247
301.028702068
300.569358301
300.605943203
301.012442112
301.016507101
300.589683247
301.882349777
301.044962025
301.016507101
301.91486969
301.459590912
301.475850868
301.028702068
300.557163334
300.146599436
300.585618258
300.605943203

Block: 5
======================================
300.585618258
301.016507101
300.569358301
301.085611916
300.589683247
301.028702068
300.605943203
300.605943203
300.589683247
301.012442112
301.032767057
301.459590912
301.471785879
300.589683247
300.589683247
301.028702068
301.032767057
300.605943203
301.032767057
301.028702068
301.475850868
301.492110825
300.142534447
301.032767057
301.016507101

Block: 6
======================================
301.044962025
300.996182156
301.455525923
301.471785879
300.142534447
301.012442112
301.016507101
301.455525923
300.589683247
300.996182156
301.032767057
301.882349777
300.605943203
300.589683247
300.605943203
300.605943203
301.032767057
302.345758533
301.069351959
301.475850868
300.585618258
301.016507101
301.471785879
300.585618258
301.475850868

Block: 7
======================================
300.589683247
300.585618258
301.049027014
300.585618258
300.605943203
301.898609734
300.605943203
300.585618258
301.886414766
300.585618258
301.455525923
301.032767057
300.585618258
301.455525923
301.012442112
300.622203159
301.882349777
300.589683247
301.016507101
301.049027014
301.032767057
300.569358301
300.585618258
301.049027014
300.585618258

Block: 8
======================================
300.601878214
300.605943203
300.589683247
301.898609734
300.601878214
300.589683247
301.032767057
300.585618258
301.475850868
300.605943203
301.471785879
300.589683247
301.471785879
301.492110825
301.032767057
301.028702068
300.585618258
301.028702068
300.57342329
301.049027014
300.605943203
301.028702068
301.016507101
301.492110825
301.918934679

Block: 9
======================================
301.016507101
300.601878214
301.475850868
301.012442112
300.585618258
301.012442112
301.475850868
301.886414766
301.028702068
300.146599436
301.492110825
300.569358301
301.032767057
300.605943203
300.605943203
300.589683247
301.032767057
300.57342329
301.475850868
301.471785879
301.049027014
300.57342329
301.866089821
301.032767057
300.605943203

Block: 10
======================================
300.589683247
300.589683247
300.605943203
301.032767057
301.475850868
300.605943203
301.886414766
300.569358301
301.032767057
301.028702068
300.605943203
300.589683247
301.882349777
301.032767057
301.049027014
301.028702068
301.508370781
300.589683247
300.605943203
301.032767057
300.569358301
301.016507101
300.569358301
301.032767057
301.475850868
