
Block: 1
======================================
300.589683247
301.012442112
301.508370781
300.605943203
301.898609734
301.028702068
300.589683247
301.06528697
300.589683247
301.044962025

Average distance is : 300.993 cm
Average deviation is : 0.439 cm
Block: 2
======================================
300.57342329
301.032767057
301.049027014
300.605943203
300.585618258
301.049027014
301.049027014
300.605943203
300.569358301
301.049027014

Average distance is : 300.817 cm
Average deviation is : 0.242 cm
Block: 3
======================================
300.622203159
300.195379305
301.475850868
300.589683247
301.049027014
301.492110825
301.475850868
300.605943203
300.654723072
301.044962025

Average distance is : 300.921 cm
Average deviation is : 0.456 cm
Block: 4
======================================
300.601878214
301.032767057
300.658788061
300.638463116
300.601878214
300.605943203
301.06528697
300.622203159
300.622203159
300.179119349

Average distance is : 300.663 cm
Average deviation is : 0.247 cm
Block: 5
======================================
300.638463116
300.605943203
300.605943203
301.492110825
301.032767057
301.032767057
300.601878214
301.492110825
300.601878214
300.175054359

Average distance is : 300.828 cm
Average deviation is : 0.425 cm
Block: 6
======================================
300.638463116
300.605943203
300.622203159
301.492110825
300.605943203
301.492110825
301.06528697
300.622203159
300.605943203
301.049027014

Average distance is : 300.880 cm
Average deviation is : 0.370 cm
Block: 7
======================================
300.605943203
301.044962025
301.081546926
301.049027014
300.605943203
300.179119349
301.049027014
301.475850868
300.605943203
300.601878214

Average distance is : 300.830 cm
Average deviation is : 0.373 cm
Block: 8
======================================
300.605943203
301.049027014
301.049027014
301.049027014
301.902674723
301.028702068
301.492110825
300.585618258
300.605943203
300.622203159

Average distance is : 300.999 cm
Average deviation is : 0.433 cm
Block: 9
======================================
301.032767057
300.589683247
301.049027014
300.585618258
300.605943203
300.605943203
300.589683247
300.569358301
300.585618258
301.475850868

Average distance is : 300.769 cm
Average deviation is : 0.311 cm
Block: 10
======================================
300.605943203
301.028702068
300.179119349
300.622203159
301.032767057
300.605943203
300.601878214
300.589683247
300.605943203
301.081546926

Average distance is : 300.695 cm
Average deviation is : 0.277 cm