
Block: 1
======================================
300.585618258
300.622203159
300.605943203
301.06528697
300.585618258
301.06528697
301.471785879
300.687242985
300.585618258
300.585618258
301.524630737
300.622203159
300.605943203
300.605943203
300.585618258
300.605943203
300.601878214
301.150651741
301.951454592
301.130326796
301.508370781
300.670983028
301.150651741
300.605943203
301.524630737

Average distance is : 300.908 cm
Average deviation is : 0.412 cm
Block: 2
======================================
301.06528697
301.150651741
300.622203159
300.605943203
301.508370781
301.492110825
300.622203159
300.622203159
300.601878214
300.585618258
300.589683247
300.589683247
300.670983028
300.605943203
301.049027014
300.622203159
301.06528697
300.622203159
300.622203159
300.622203159
300.622203159
300.622203159
300.585618258
301.081546926
300.601878214

Average distance is : 300.778 cm
Average deviation is : 0.289 cm
Block: 3
======================================
300.622203159
300.605943203
300.589683247
300.601878214
301.081546926
301.081546926
301.081546926
301.508370781
300.638463116
301.492110825
301.06528697
301.06528697
301.524630737
300.622203159
301.081546926
301.085611916
301.524630737
301.06528697
301.069351959
301.069351959
301.528695726
301.06528697
301.06528697
301.06528697
301.524630737

Average distance is : 301.069 cm
Average deviation is : 0.320 cm
Block: 4
======================================
300.622203159
301.049027014
301.06528697
301.540890694
300.605943203
301.06528697
301.06528697
301.085611916
301.06528697
300.605943203
301.049027014
301.06528697
301.06528697
301.081546926
301.06528697
300.622203159
301.085611916
301.06528697
301.06528697
301.51243577
300.601878214
301.081546926
301.150651741
301.049027014
301.06528697

Average distance is : 301.016 cm
Average deviation is : 0.242 cm
Block: 5
======================================
301.049027014
301.524630737
300.605943203
301.06528697
301.524630737
301.06528697
300.654723072
301.081546926
301.134391785
301.06528697
300.622203159
301.081546926
301.081546926
301.06528697
301.044962025
300.585618258
301.049027014
301.524630737
301.049027014
300.654723072
301.06528697
301.524630737
301.150651741
300.638463116
301.528695726

Average distance is : 301.057 cm
Average deviation is : 0.305 cm
Block: 6
======================================
301.524630737
301.101871872
301.06528697
301.540890694
301.150651741
300.658788061
300.654723072
300.70756793
301.081546926
301.528695726
300.638463116
300.654723072
300.658788061
301.540890694
300.658788061
300.638463116
300.723827887
300.658788061
300.638463116
300.654723072
300.638463116
300.638463116
301.118131828
300.654723072
300.61813817

Average distance is : 300.886 cm
Average deviation is : 0.340 cm
Block: 7
======================================
300.675048018
300.605943203
300.622203159
300.723827887
301.150651741
300.654723072
300.658788061
300.658788061
300.638463116
300.622203159
301.166911697
300.70756793
300.658788061
300.727892876
300.638463116
300.654723072
301.097806883
300.658788061
300.70756793
300.654723072
300.654723072
300.654723072
300.638463116
300.638463116
300.638463116

Average distance is : 300.716 cm
Average deviation is : 0.162 cm
Block: 8
======================================
301.101871872
301.561215639
301.114066839
301.508370781
301.081546926
301.085611916
301.118131828
300.723827887
301.544955683
300.638463116
300.70756793
301.528695726
301.593735552
300.70756793
300.658788061
301.06528697
300.658788061
300.70756793
301.540890694
301.540890694
300.691307974
301.081546926
301.081546926
300.70756793
300.658788061

Average distance is : 301.056 cm
Average deviation is : 0.358 cm
Block: 9
======================================
301.150651741
301.150651741
301.097806883
300.642528105
301.081546926
300.70756793
300.70756793
300.638463116
300.70756793
300.638463116
300.638463116
300.675048018
300.605943203
301.06528697
301.524630737
301.544955683
300.70756793
301.544955683
301.524630737
300.70756793
301.528695726
301.166911697
301.593735552
301.101871872
301.508370781

Average distance is : 301.038 cm
Average deviation is : 0.371 cm
Block: 10
======================================
301.06528697
300.658788061
300.605943203
300.675048018
300.638463116
300.723827887
301.540890694
300.727892876
300.654723072
301.55715065
300.70756793
300.654723072
300.658788061
300.675048018
300.670983028
301.540890694
301.097806883
301.101871872
300.638463116
301.118131828
300.723827887
300.658788061
300.638463116
300.658788061
300.638463116

Average distance is : 300.841 cm
Average deviation is : 0.311 cm