
Block: 1
======================================
301.801255655
300.968332386
300.495264316
300.462917781
300.915769267
301.36053412
301.36053412
301.356490803
301.797212338
300.919812584
301.376707387
300.903639317
300.479091048
302.630135608
300.915769267
300.919812584
301.36053412
300.903639317
300.915769267
301.356490803
300.475047731
300.511437583
300.495264316
300.495264316
301.340317535
301.376707387
300.475047731
300.903639317
300.919812584
300.899596
301.340317535
301.356490803
300.919812584
300.903639317
300.899596
300.919812584
300.903639317
300.899596
300.899596
301.340317535
301.344360852
300.491220999
300.899596
300.903639317
302.173240805
300.903639317
300.903639317
302.61396234
302.61396234
300.899596
300.887466049
301.356490803
300.883422732
300.887466049
300.442701197
300.899596
300.903639317
301.328187585
300.903639317
301.36053412
301.376707387
300.903639317
301.328187585
302.634178925
300.935985851
301.340317535
300.458874464
300.458874464
300.919812584
300.479091048
300.462917781
301.344360852
300.883422732
302.61396234
301.344360852
301.344360852
301.36053412
300.495264316
301.356490803
300.919812584
301.344360852
300.915769267
301.781039071
300.495264316
302.189414072
300.462917781
300.935985851
301.801255655
300.479091048
300.919812584
300.479091048
301.36053412
301.328187585
300.479091048
300.903639317
300.919812584
300.495264316
302.630135608
300.935985851
300.935985851

Average distance is : 301.098 cm
Average deviation is : 0.545 cm
Block: 2
======================================
301.376707387
300.495264316
300.883422732
300.495264316
300.475047731
300.458874464
302.205587339
300.495264316
300.479091048
300.475047731
302.646308875
300.479091048
300.479091048
300.935985851
300.495264316
300.491220999
300.495264316
301.340317535
301.36053412
300.475047731
301.785082388
300.458874464
300.899596
301.36053412
300.952159119
300.952159119
300.475047731
300.495264316
302.205587339
300.511437583
300.479091048
300.952159119
302.666525459
300.495264316
300.458874464
301.801255655
301.785082388
300.919812584
300.479091048
300.458874464
300.475047731
302.221760607
300.935985851
300.479091048
300.491220999
300.479091048
300.491220999
300.479091048
300.935985851
301.817428923
300.462917781
301.36053412
300.511437583
300.511437583
300.935985851
300.952159119
300.495264316
301.376707387
300.935985851
300.495264316
300.972375703
300.495264316
300.952159119
300.479091048
300.952159119
300.931942534
300.952159119
300.956202435
301.36053412
300.491220999
301.376707387
300.495264316
300.479091048
300.5154809
300.952159119
300.495264316
302.241977191
300.952159119
300.511437583
300.495264316
301.36053412
300.915769267
300.935985851
301.83360219
301.36053412
301.36053412
301.781039071
300.952159119
300.495264316
300.495264316
300.475047731
300.511437583
301.797212338
302.225803924
301.356490803
300.479091048
300.511437583
300.935985851
300.935985851
300.919812584

Average distance is : 300.932 cm
Average deviation is : 0.562 cm
Block: 3
======================================
300.495264316
300.495264316
300.479091048
300.446744514
300.903639317
300.479091048
300.458874464
301.36053412
300.475047731
300.915769267
300.903639317
301.376707387
300.495264316
300.511437583
300.495264316
301.356490803
300.511437583
301.340317535
301.36053412
301.328187585
301.36053412
300.919812584
302.209630656
300.475047731
300.479091048
302.221760607
300.475047731
301.36053412
300.952159119
301.817428923
300.479091048
301.801255655
300.952159119
300.952159119
301.344360852
300.475047731
300.495264316
301.344360852
300.495264316
300.491220999
301.36053412
301.36053412
301.356490803
301.05324204
300.883422732
301.36053412
300.462917781
300.919812584
300.495264316
301.356490803
300.952159119
300.458874464
300.935985851
302.221760607
300.935985851
302.205587339
300.479091048
301.396923971
300.511437583
301.376707387
300.475047731
300.495264316
300.903639317
300.479091048
301.376707387
301.36053412
300.952159119
300.479091048
302.225803924
300.919812584
301.376707387
301.36053412
300.479091048
301.324144268
300.952159119
300.475047731
300.495264316
300.495264316
300.475047731
300.479091048
301.356490803
300.952159119
301.36053412
301.376707387
300.495264316
301.376707387
301.36053412
300.495264316
300.479091048
300.495264316
300.479091048
301.36053412
301.356490803
301.36053412
300.479091048
300.462917781
300.479091048
300.935985851
300.479091048
301.413097239

Average distance is : 300.955 cm
Average deviation is : 0.494 cm
Block: 4
======================================
301.409053922
301.376707387
300.935985851
301.817428923
301.817428923
300.952159119
301.392880654
301.396923971
300.511437583
301.392880654
300.952159119
300.511437583
301.392880654
301.797212338
300.935985851
301.392880654
301.392880654
300.52761085
300.511437583
300.952159119
300.511437583
300.931942534
300.952159119
300.495264316
300.935985851
300.952159119
300.952159119
300.479091048
300.52761085
300.956202435
300.531654167
300.956202435
300.511437583
300.968332386
300.495264316
300.52761085
300.952159119
300.956202435
300.952159119
300.952159119
300.952159119
300.479091048
300.543784118
300.935985851
300.511437583
301.817428923
301.396923971
300.070716047
300.968332386
301.785082388
300.935985851
300.511437583
300.935985851
300.952159119
300.511437583
300.511437583
300.935985851
300.543784118
300.52761085
300.968332386
300.511437583
300.495264316
300.972375703
300.495264316
300.511437583
300.495264316
300.968332386
300.98854897
300.495264316
300.98854897
300.495264316
300.531654167
300.52761085
300.495264316
300.511437583
300.495264316
301.376707387
300.495264316
300.495264316
300.511437583
300.935985851
300.495264316
300.511437583
301.376707387
300.495264316
300.968332386
300.495264316
300.511437583
301.817428923
300.511437583
300.495264316
300.479091048
300.952159119
301.83360219
300.495264316
300.935985851
300.511437583
300.511437583
301.837645507
300.952159119

Average distance is : 300.856 cm
Average deviation is : 0.415 cm
Block: 5
======================================
300.935985851
302.258150458
301.376707387
301.392880654
300.495264316
300.511437583
300.511437583
301.376707387
300.511437583
301.37266407
300.495264316
301.392880654
300.984505653
300.956202435
300.511437583
300.547827435
300.495264316
300.952159119
301.817428923
300.952159119
301.376707387
301.849775457
300.511437583
300.511437583
300.952159119
300.935985851
301.392880654
300.531654167
300.511437583
300.952159119
300.972375703
300.968332386
300.52761085
300.543784118
300.952159119
300.952159119
300.968332386
300.972375703
300.564000702
300.547827435
301.409053922
300.547827435
301.425227189
301.413097239
301.409053922
300.52761085
300.547827435
300.531654167
301.413097239
301.429270506
300.511437583
300.952159119
300.968332386
300.547827435
300.972375703
301.409053922
300.511437583
301.413097239
302.682698727
302.682698727
300.968332386
300.491220999
300.952159119
300.935985851
300.968332386
300.495264316
300.52761085
300.952159119
300.935985851
300.952159119
300.511437583
300.495264316
300.495264316
301.392880654
300.531654167
300.52761085
300.511437583
300.5154809
300.511437583
300.511437583
300.511437583
300.511437583
300.935985851
301.392880654
300.511437583
300.952159119
300.495264316
300.952159119
300.972375703
300.479091048
300.511437583
300.956202435
300.952159119
300.968332386
300.952159119
300.952159119
300.952159119
300.935985851
300.931942534
300.935985851

Average distance is : 300.916 cm
Average deviation is : 0.453 cm
Block: 6
======================================
302.209630656
301.396923971
300.547827435
300.543784118
300.511437583
300.52761085
300.495264316
300.972375703
300.968332386
300.952159119
300.98854897
300.968332386
300.511437583
300.479091048
300.511437583
300.968332386
300.511437583
300.952159119
300.952159119
300.495264316
300.972375703
300.968332386
300.475047731
300.935985851
300.935985851
300.935985851
301.409053922
300.952159119
300.952159119
300.952159119
300.511437583
300.968332386
301.817428923
300.952159119
300.952159119
300.495264316
300.495264316
300.952159119
300.972375703
300.935985851
300.952159119
300.511437583
300.511437583
300.495264316
301.392880654
301.817428923
300.495264316
300.952159119
300.511437583
301.413097239
300.968332386
300.952159119
300.511437583
300.952159119
300.952159119
300.956202435
301.801255655
300.972375703
300.952159119
300.952159119
300.952159119
300.968332386
300.511437583
300.952159119
300.5154809
300.935985851
301.801255655
300.968332386
300.956202435
300.952159119
301.392880654
301.801255655
300.495264316
300.786383128
300.511437583
300.952159119
300.952159119
300.511437583
300.511437583
300.952159119
300.935985851
300.495264316
300.325445008
300.511437583
300.511437583
300.511437583
300.935985851
300.495264316
301.817428923
302.241977191
300.52761085
300.952159119
300.952159119
300.935985851
300.952159119
302.225803924
300.479091048
300.458874464
302.666525459
302.666525459

Average distance is : 300.940 cm
Average deviation is : 0.486 cm
Block: 7
======================================
300.952159119
300.968332386
300.919812584
301.344360852
300.495264316
300.491220999
300.511437583
300.52761085
300.952159119
301.817428923
300.935985851
300.495264316
301.376707387
300.952159119
300.491220999
300.511437583
300.511437583
300.511437583
300.935985851
300.968332386
300.475047731
301.797212338
300.968332386
300.479091048
300.495264316
300.935985851
300.956202435
300.495264316
300.491220999
302.225803924
301.36053412
300.495264316
300.903639317
300.919812584
301.376707387
300.495264316
300.458874464
301.376707387
301.376707387
300.495264316
300.511437583
300.495264316
300.968332386
301.817428923
301.36053412
300.495264316
300.52761085
300.952159119
300.531654167
301.376707387
300.511437583
302.225803924
301.392880654
301.376707387
301.392880654
301.36053412
300.52761085
300.511437583
301.376707387
300.511437583
300.972375703
301.376707387
300.511437583
300.52761085
301.36053412
301.376707387
301.376707387
301.376707387
300.511437583
300.511437583
300.495264316
300.495264316
300.511437583
300.935985851
301.376707387
301.396923971
300.935985851
301.376707387
300.52761085
302.209630656
300.495264316
301.392880654
301.376707387
300.511437583
300.479091048
300.479091048
301.36053412
300.511437583
300.495264316
300.511437583
300.52761085
301.376707387
300.952159119
300.491220999
300.511437583
300.495264316
301.376707387
301.817428923
300.511437583
300.52761085

Average distance is : 300.918 cm
Average deviation is : 0.471 cm
Block: 8
======================================
300.475047731
300.495264316
300.968332386
301.340317535
300.935985851
300.491220999
300.475047731
300.952159119
300.511437583
301.817428923
300.935985851
300.956202435
300.952159119
300.952159119
300.511437583
300.511437583
300.491220999
300.956202435
300.956202435
301.392880654
301.409053922
300.935985851
300.931942534
300.935985851
300.952159119
301.356490803
300.495264316
300.935985851
300.495264316
300.968332386
300.495264316
300.511437583
301.83360219
301.83360219
300.511437583
300.952159119
300.935985851
300.952159119
301.392880654
301.392880654
301.413097239
301.376707387
300.52761085
301.413097239
302.225803924
301.817428923
301.801255655
300.972375703
300.511437583
300.935985851
301.83360219
300.952159119
300.952159119
300.968332386
300.52761085
300.511437583
300.495264316
300.495264316
300.968332386
302.666525459
300.547827435
300.952159119
300.952159119
300.968332386
300.952159119
300.952159119
302.241977191
300.495264316
300.952159119
301.817428923
300.52761085
300.495264316
300.5154809
300.511437583
302.241977191
301.409053922
300.511437583
300.952159119
300.972375703
300.952159119
300.935985851
301.396923971
300.935985851
300.952159119
300.495264316
300.495264316
300.952159119
301.83360219
300.952159119
300.952159119
301.396923971
301.837645507
300.491220999
300.952159119
300.952159119
300.968332386
300.972375703
300.935985851
300.495264316
301.409053922

Average distance is : 301.009 cm
Average deviation is : 0.482 cm
Block: 9
======================================
300.952159119
300.935985851
300.495264316
300.495264316
300.531654167
300.511437583
300.495264316
300.495264316
301.376707387
300.479091048
302.241977191
300.956202435
301.356490803
300.952159119
301.376707387
301.392880654
300.968332386
301.376707387
300.511437583
301.83360219
300.511437583
301.413097239
300.511437583
301.83360219
300.952159119
300.511437583
300.98854897
301.817428923
301.409053922
301.817428923
300.52761085
300.547827435
301.000678921
301.409053922
300.531654167
300.543784118
301.425227189
300.52761085
301.429270506
301.409053922
300.511437583
300.547827435
300.52761085
300.968332386
300.564000702
301.425227189
301.429270506
300.547827435
300.547827435
300.52761085
300.531654167
300.511437583
300.531654167
301.392880654
300.531654167
301.392880654
301.069415307
301.817428923
301.409053922
300.531654167
300.956202435
300.968332386
302.682698727
300.952159119
300.952159119
300.952159119
300.495264316
300.52761085
300.931942534
300.919812584
300.935985851
300.479091048
300.935985851
300.935985851
300.495264316
300.495264316
300.511437583
300.952159119
301.392880654
300.952159119
301.376707387
300.952159119
300.968332386
301.817428923
300.511437583
301.817428923
300.952159119
301.409053922
300.984505653
300.5154809
300.968332386
301.817428923
300.952159119
300.511437583
300.52761085
300.935985851
300.956202435
302.666525459
300.495264316
300.935985851

Average distance is : 300.987 cm
Average deviation is : 0.500 cm
Block: 10
======================================
301.392880654
301.36053412
300.511437583
301.392880654
300.972375703
300.935985851
301.36053412
301.392880654
300.952159119
300.52761085
300.495264316
300.495264316
301.376707387
301.392880654
300.52761085
300.935985851
301.376707387
301.376707387
300.935985851
301.36053412
301.376707387
300.935985851
301.801255655
300.952159119
300.935985851
300.935985851
300.495264316
301.376707387
300.935985851
300.972375703
300.972375703
300.952159119
301.356490803
300.479091048
300.52761085
300.511437583
300.479091048
300.495264316
300.495264316
300.495264316
300.935985851
300.935985851
300.919812584
300.935985851
300.952159119
301.36053412
302.646308875
300.52761085
300.511437583
301.376707387
301.376707387
300.458874464
301.376707387
300.52761085
300.5154809
300.935985851
300.511437583
300.919812584
301.392880654
300.935985851
301.392880654
300.531654167
301.376707387
300.935985851
300.52761085
301.36053412
301.376707387
300.511437583
300.952159119
300.491220999
300.935985851
300.968332386
301.817428923
301.376707387
300.511437583
301.376707387
300.935985851
301.376707387
300.952159119
301.817428923
300.511437583
300.495264316
300.952159119
300.479091048
302.662482142
300.479091048
301.781039071
301.36053412
300.511437583
300.495264316
300.511437583
300.475047731
300.952159119
300.952159119
300.511437583
300.935985851
300.458874464
301.764865804
300.495264316
300.952159119

Average distance is : 300.979 cm
Average deviation is : 0.461 cm