
Block: 1
======================================
199.921233511
200.808975983
199.904944658
199.925305724
199.8560781
200.332527041
200.348815894
199.909016871
199.904944658
199.888655806
200.352888107
200.776398277
199.477362275
200.332527041
200.348815894
199.888655806
199.909016871
200.348815894
200.352888107
199.888655806
199.904944658
199.888655806
200.365104747
199.888655806
200.332527041
199.872366953
200.332527041
200.295877123
199.904944658
200.79268713
199.921233511
199.86829474
199.872366953
199.888655806
199.888655806
200.316238189
199.888655806
199.921233511
200.348815894
199.909016871
199.872366953
199.888655806
199.888655806
199.888655806
199.904944658
199.921233511
199.888655806
199.8560781
199.872366953
199.86829474
199.872366953
201.611201978
199.872366953
200.348815894
199.888655806
200.365104747
199.904944658
200.776398277
199.888655806
199.872366953
199.888655806
200.332527041
199.888655806
199.888655806
201.220269513
199.872366953
199.884583592
199.86829474
199.86829474
201.631563044
200.776398277
200.332527041
200.79268713
199.872366953
200.365104747

Average distance is : 200.128 cm
Average deviation is : 0.406 cm
Block: 2
======================================
200.316238189
200.776398277
200.332527041
199.872366953
200.348815894
200.312165976
200.332527041
200.348815894
200.348815894
200.332527041
200.348815894
200.332527041
200.316238189
200.332527041
200.02303884
200.312165976
200.316238189
200.365104747
199.8560781
200.332527041
199.86829474
199.888655806
199.909016871
199.872366953
200.348815894
200.776398277
199.852005887
200.776398277
200.79268713
200.796759343
200.776398277
200.316238189
200.796759343
201.20398066
200.332527041
200.316238189
200.796759343
200.348815894
199.872366953
200.332527041
200.348815894
200.312165976
199.86829474
199.872366953
200.332527041
201.20398066
200.332527041
199.888655806
200.348815894
200.332527041
200.332527041
200.332527041
200.316238189
199.888655806
200.316238189
200.316238189
200.776398277
200.316238189
199.888655806
199.872366953
199.872366953
200.332527041
200.348815894
199.888655806
199.872366953
199.852005887
200.352888107
199.8560781
199.888655806
200.332527041
199.884583592
199.888655806
200.316238189
199.852005887
200.299949336

Average distance is : 200.265 cm
Average deviation is : 0.328 cm
Block: 3
======================================
199.86829474
200.316238189
199.872366953
200.776398277
199.872366953
199.852005887
199.852005887
199.872366953
200.332527041
199.86829474
199.8560781
199.888655806
199.823500395
199.852005887
200.332527041
200.312165976
200.295877123
199.8560781
199.888655806
199.888655806
199.839789248
199.839789248
199.8560781
199.884583592
199.86829474
199.8560781
199.888655806
200.295877123
199.86829474
199.888655806
199.86829474
200.332527041
199.835717034
201.594913125
200.316238189
199.835717034
199.872366953
199.872366953
199.872366953
199.904944658
199.852005887
199.835717034
199.888655806
199.872366953
200.316238189
200.743820572
199.86829474
199.872366953
199.8560781
199.872366953
199.872366953
199.888655806
200.332527041
200.316238189
201.594913125
201.167330742
199.888655806
199.872366953
199.852005887
200.316238189
199.872366953
200.283660483
200.295877123
199.8560781
199.8560781
199.872366953
199.852005887
200.316238189
200.332527041
200.316238189
199.86829474
200.27958827
199.8560781
200.316238189
200.316238189

Average distance is : 200.073 cm
Average deviation is : 0.369 cm
Block: 4
======================================
200.316238189
200.316238189
200.756037211
199.888655806
199.872366953
200.295877123
200.295877123
200.283660483
199.888655806
200.312165976
200.332527041
200.316238189
201.594913125
200.760109425
200.316238189
199.86829474
199.888655806
199.839789248
200.316238189
200.332527041
200.299949336
199.925305724
200.299949336
200.316238189
200.312165976
199.888655806
199.8560781
199.872366953
199.872366953
200.332527041
200.348815894
200.299949336
200.332527041
200.316238189
199.904944658
199.839789248
200.316238189
200.332527041
201.155114102
200.348815894
200.348815894
200.332527041
199.888655806
201.183619595
199.86829474
200.776398277
201.20398066
200.332527041
200.760109425
200.808975983
200.776398277
200.348815894
200.776398277
200.756037211
200.78047049
200.760109425
199.921233511
199.909016871
199.888655806
200.776398277
200.796759343
200.760109425
199.872366953
199.884583592
199.872366953
199.904944658
199.909016871
200.776398277
200.760109425
200.776398277
200.776398277
200.760109425
200.776398277
200.348815894
199.888655806

Average distance is : 200.347 cm
Average deviation is : 0.407 cm
Block: 5
======================================
199.909016871
199.937522364
199.904944658
200.776398277
200.813048196
199.888655806
200.813048196
199.904944658
199.852005887
199.921233511
200.776398277
199.921233511
199.925305724
200.776398277
200.776398277
200.312165976
200.316238189
200.332527041
200.332527041
200.348815894
200.348815894
200.79268713
200.316238189
200.776398277
199.904944658
199.888655806
200.332527041
200.348815894
200.332527041
199.888655806
200.796759343
200.352888107
200.332527041
200.332527041
200.332527041
199.872366953
200.332527041
200.332527041
200.312165976
199.888655806
200.332527041
200.332527041
200.332527041
200.776398277
199.872366953
200.776398277
200.760109425
199.888655806
200.776398277
199.925305724
199.904944658
200.776398277
199.888655806
199.888655806
199.925305724
199.904944658
200.36917696
199.937522364
200.348815894
200.79268713
199.904944658
200.776398277
199.888655806
199.925305724
200.776398277
199.921233511
199.904944658
199.888655806
200.776398277
200.776398277
199.86829474
199.925305724
199.904944658
200.312165976
200.808975983

Average distance is : 200.270 cm
Average deviation is : 0.362 cm
Block: 6
======================================
199.95788343
199.86829474
199.904944658
199.904944658
200.299949336
201.183619595
200.796759343
200.332527041
200.332527041
200.78047049
200.332527041
200.760109425
200.332527041
200.79268713
200.776398277
200.796759343
199.937522364
200.776398277
200.776398277
200.776398277
200.316238189
199.941594577
199.921233511
199.888655806
200.79268713
200.776398277
200.78047049
201.62749083
200.760109425
200.332527041
200.332527041
199.921233511
200.332527041
200.776398277
199.904944658
199.888655806
200.760109425
200.796759343
200.776398277
199.925305724
199.904944658
199.888655806
199.921233511
199.888655806
199.904944658
200.316238189
200.348815894
200.332527041
200.796759343
200.332527041
200.808975983
200.79268713
200.316238189
199.904944658
200.79268713
199.904944658
200.776398277
200.776398277
200.776398277
199.888655806
199.888655806
199.909016871
200.352888107
199.888655806
201.62749083
199.921233511
199.888655806
199.904944658
199.904944658
199.852005887
199.904944658
199.8560781
199.904944658
199.888655806
199.925305724

Average distance is : 200.333 cm
Average deviation is : 0.451 cm
Block: 7
======================================
199.273751616
199.904944658
199.8560781
199.872366953
199.86829474
200.776398277
199.904944658
199.888655806
200.36917696
199.888655806
200.776398277
200.760109425
200.776398277
200.776398277
200.79268713
200.760109425
200.776398277
200.776398277
200.316238189
200.760109425
199.925305724
200.776398277
199.909016871
199.888655806
200.316238189
199.921233511
199.904944658
199.8560781
199.904944658
199.925305724
199.904944658
200.776398277
200.756037211
199.909016871
199.888655806
199.888655806
200.352888107
200.760109425
200.299949336
199.921233511
199.904944658
199.921233511
199.888655806
200.776398277
199.921233511
199.904944658
200.78047049
200.776398277
199.937522364
200.808975983
200.760109425
200.365104747
199.904944658
199.888655806
200.776398277
200.776398277
200.776398277
199.888655806
200.621654177
200.760109425
200.79268713
200.316238189
199.904944658
200.776398277
200.776398277
199.904944658
200.299949336
199.909016871
200.760109425
200.79268713
200.756037211
199.937522364
200.776398277
200.332527041
200.776398277

Average distance is : 200.315 cm
Average deviation is : 0.425 cm
Block: 8
======================================
199.904944658
199.909016871
200.79268713
200.316238189
200.760109425
200.316238189
200.776398277
200.299949336
200.760109425
200.760109425
200.776398277
200.776398277
200.79268713
200.332527041
200.776398277
201.20398066
199.888655806
200.316238189
199.904944658
200.348815894
199.888655806
200.312165976
200.365104747
199.904944658
200.332527041
199.909016871
199.888655806
200.316238189
200.348815894
199.872366953
200.316238189
199.872366953
200.352888107
200.365104747
199.888655806
199.8560781
200.365104747
199.888655806
200.332527041
200.348815894
199.921233511
199.925305724
200.316238189
199.904944658
199.86829474
200.352888107
199.888655806
199.888655806
199.904944658
199.904944658
199.8560781
200.352888107
200.332527041
200.79268713
199.888655806
200.332527041
200.36917696
200.348815894
200.776398277
200.332527041
200.365104747
200.79268713
200.79268713
200.776398277
200.796759343
200.79268713
200.365104747
200.796759343
200.348815894
200.348815894
199.86829474
200.348815894
200.365104747
200.348815894
200.365104747

Average distance is : 200.309 cm
Average deviation is : 0.346 cm
Block: 9
======================================
200.348815894
201.20398066
200.813048196
200.348815894
200.36917696
200.332527041
200.348815894
200.332527041
200.79268713
200.79268713
200.79268713
200.808975983
200.352888107
200.397682452
200.813048196
200.829337049
199.937522364
200.36917696
200.332527041
200.352888107
200.776398277
200.401754665
200.813048196
200.79268713
200.808975983
199.925305724
200.825264835
199.941594577
199.95788343
200.813048196
200.829337049
199.95788343
199.937522364
200.796759343
199.937522364
200.365104747
201.236558366
201.220269513
200.813048196
200.825264835
200.813048196
200.808975983
200.825264835
200.79268713
200.776398277
200.36917696
201.20398066
200.348815894
200.352888107
200.348815894
201.220269513
199.921233511
200.79268713
200.829337049
199.941594577
200.348815894
200.79268713
201.220269513
200.332527041
200.352888107
200.841553688
200.36917696
200.352888107
201.252847219
199.925305724
199.888655806
200.348815894
199.95788343
200.3813936
200.829337049
200.365104747
200.813048196
199.953811216
200.385465813
199.925305724

Average distance is : 200.528 cm
Average deviation is : 0.390 cm
Block: 10
======================================
200.385465813
199.921233511
199.904944658
199.904944658
200.365104747
200.3813936
200.332527041
199.925305724
200.365104747
199.941594577
199.95788343
200.348815894
200.79268713
200.348815894
200.79268713
199.904944658
200.79268713
200.808975983
200.348815894
200.829337049
199.921233511
199.953811216
199.909016871
199.937522364
199.937522364
199.921233511
199.95788343
200.808975983
200.796759343
200.841553688
199.974172282
200.348815894
200.36917696
199.937522364
200.829337049
200.79268713
200.813048196
200.348815894
199.904944658
199.921233511
199.921233511
200.79268713
199.974172282
200.79268713
200.79268713
199.941594577
200.825264835
199.941594577
199.921233511
199.95788343
199.95788343
199.941594577
200.808975983
200.385465813
199.921233511
199.941594577
199.941594577
199.937522364
199.904944658
199.921233511
199.921233511
199.921233511
199.921233511
199.904944658
199.921233511
199.925305724
199.888655806
199.937522364
199.925305724
200.198144007
200.352888107
199.937522364
199.937522364
199.937522364
199.921233511

Average distance is : 200.195 cm
Average deviation is : 0.359 cm