
Block: 1
======================================
300.57342329
300.605943203
301.455525923
300.553098345
300.57342329
300.569358301
300.553098345
301.016507101
300.557163334
301.012442112
301.439265966
300.589683247
300.569358301
301.439265966
301.459590912
300.57342329
300.996182156
301.032767057
301.000247145
301.459590912
301.439265966
301.028702068
300.569358301
301.443330956
300.557163334

Block: 2
======================================
300.979922199
300.553098345
300.569358301
300.57342329
301.443330956
300.979922199
300.979922199
301.016507101
300.57342329
300.996182156
301.012442112
301.016507101
300.569358301
301.886414766
301.012442112
300.585618258
301.012442112
300.979922199
300.589683247
300.569358301
300.569358301
300.996182156
300.996182156
300.585618258
301.443330956

Block: 3
======================================
300.996182156
300.553098345
300.585618258
300.996182156
301.902674723
301.012442112
300.996182156
301.886414766
300.569358301
300.553098345
300.553098345
300.553098345
300.585618258
301.000247145
301.455525923
300.569358301
300.996182156
301.471785879
301.42300601
300.979922199
300.589683247
300.57342329
300.585618258
301.012442112
301.016507101

Block: 4
======================================
301.016507101
302.329498577
301.028702068
300.605943203
301.032767057
301.032767057
301.012442112
300.589683247
300.605943203
301.016507101
301.032767057
300.57342329
302.325433588
300.589683247
301.492110825
301.475850868
301.455525923
300.996182156
301.012442112
301.443330956
300.996182156
301.935194635
300.996182156
300.553098345
300.569358301

Block: 5
======================================
301.475850868
302.341693544
301.012442112
300.589683247
301.016507101
300.569358301
301.475850868
300.57342329
300.979922199
300.569358301
300.569358301
300.553098345
300.569358301
301.012442112
301.443330956
300.569358301
300.553098345
300.57342329
300.585618258
301.016507101
301.016507101
300.557163334
301.439265966
300.557163334
301.459590912

Block: 6
======================================
301.443330956
301.049027014
300.553098345
301.000247145
301.882349777
300.557163334
300.569358301
301.866089821
301.028702068
301.012442112
300.979922199
300.553098345
301.000247145
300.569358301
301.000247145
301.028702068
301.000247145
301.439265966
301.012442112
300.569358301
301.016507101
300.57342329
300.585618258
300.57342329
300.557163334

Block: 7
======================================
301.492110825
301.032767057
301.439265966
300.605943203
300.589683247
300.553098345
301.000247145
301.028702068
300.589683247
301.455525923
301.028702068
300.57342329
301.028702068
301.012442112
300.146599436
300.569358301
300.557163334
300.585618258
300.553098345
301.032767057
301.000247145
301.012442112
301.016507101
300.553098345
301.471785879

Block: 8
======================================
301.012442112
301.012442112
301.902674723
301.455525923
300.57342329
301.455525923
300.57342329
300.57342329
301.012442112
300.585618258
300.585618258
300.996182156
301.475850868
301.012442112
301.028702068
301.032767057
300.57342329
301.882349777
301.455525923
301.012442112
301.012442112
300.585618258
300.57342329
301.455525923
300.589683247

Block: 9
======================================
301.044962025
300.589683247
300.585618258
301.475850868
301.012442112
300.589683247
300.569358301
300.57342329
301.455525923
301.016507101
301.028702068
301.455525923
300.605943203
301.475850868
300.585618258
300.585618258
301.492110825
300.585618258
300.162859392
301.016507101
301.032767057
300.589683247
301.044962025
300.557163334
300.605943203

Block: 10
======================================
301.492110825
301.06528697
302.329498577
301.475850868
300.605943203
300.585618258
300.605943203
300.569358301
300.57342329
301.866089821
301.032767057
300.569358301
300.589683247
301.06528697
300.585618258
300.569358301
300.589683247
300.585618258
301.028702068
301.049027014
300.57342329
300.585618258
300.585618258
300.585618258
301.032767057
