
Block: 1
======================================
301.049027014
301.028702068
300.622203159
300.605943203
301.492110825
301.028702068
301.886414766
301.028702068
300.589683247
301.032767057
300.589683247
301.455525923
301.475850868
301.475850868
301.028702068
300.57342329
300.589683247
300.569358301
300.57342329
301.06528697
300.585618258
300.589683247
300.589683247
301.028702068
300.605943203
301.028702068
301.016507101
300.589683247
300.605943203
301.918934679
301.012442112
301.902674723
301.049027014
300.622203159
301.032767057
301.016507101
302.756322432
300.589683247
301.492110825
301.012442112
301.455525923
300.605943203
301.902674723
301.028702068
301.898609734
301.475850868
300.589683247
300.585618258
300.589683247
301.475850868
300.589683247
300.589683247
301.016507101
301.471785879
300.589683247
300.585618258
301.016507101
300.589683247
301.028702068
300.57342329
301.028702068
301.016507101
301.471785879
301.032767057
301.032767057
301.455525923
300.569358301
301.902674723
300.996182156
301.032767057
301.439265966
300.589683247
301.902674723
301.898609734
301.032767057

Block: 2
======================================
301.000247145
300.569358301
300.605943203
301.049027014
302.309173632
300.569358301
300.585618258
300.996182156
300.585618258
300.589683247
301.016507101
301.032767057
300.57342329
300.553098345
300.996182156
300.589683247
301.012442112
301.000247145
300.57342329
300.589683247
301.882349777
300.553098345
301.012442112
301.012442112
301.016507101
301.032767057
300.585618258
300.57342329
300.589683247
301.439265966
301.455525923
301.439265966
300.605943203
300.585618258
301.012442112
300.589683247
301.028702068
300.996182156
300.557163334
300.589683247
300.589683247
300.605943203
300.569358301
300.553098345
300.57342329
301.492110825
301.012442112
300.589683247
301.028702068
301.028702068
301.012442112
300.589683247
301.000247145
300.605943203
300.622203159
300.569358301
300.146599436
300.589683247
300.569358301
301.455525923
301.032767057
300.569358301
301.455525923
301.016507101
300.569358301
300.569358301
300.605943203
300.57342329
301.455525923
300.569358301
300.589683247
301.012442112
301.016507101
300.605943203
301.012442112

Block: 3
======================================
301.882349777
300.569358301
300.569358301
301.032767057
300.569358301
300.569358301
301.475850868
301.028702068
300.57342329
301.471785879
301.012442112
300.979922199
301.032767057
302.325433588
301.475850868
300.569358301
300.57342329
300.589683247
301.475850868
301.439265966
300.553098345
300.557163334
301.012442112
301.016507101
300.569358301
300.553098345
301.012442112
300.57342329
301.028702068
301.016507101
300.536838388
300.585618258
300.569358301
300.569358301
300.553098345
300.557163334
300.553098345
301.475850868
300.569358301
300.996182156
301.882349777
301.882349777
300.996182156
301.455525923
301.000247145
300.57342329
300.569358301
301.016507101
300.553098345
301.459590912
301.012442112
300.57342329
300.553098345
300.585618258
301.016507101
300.569358301
300.57342329
300.569358301
300.57342329
300.589683247
301.475850868
301.459590912
300.585618258
300.569358301
302.325433588
301.866089821
300.553098345
300.569358301
300.569358301
300.569358301
300.589683247
300.57342329
301.012442112
300.996182156
301.032767057

Block: 4
======================================
301.000247145
301.016507101
301.475850868
301.044962025
300.963662243
300.553098345
300.57342329
300.996182156
300.553098345
300.553098345
300.557163334
300.996182156
300.553098345
300.57342329
301.012442112
300.553098345
300.142534447
300.996182156
300.979922199
300.520578432
301.012442112
300.553098345
300.553098345
301.471785879
301.016507101
300.996182156
301.439265966
301.012442112
300.57342329
300.979922199
301.443330956
301.829504919
301.439265966
300.979922199
300.979922199
300.57342329
300.57342329
300.979922199
300.996182156
300.996182156
300.536838388
302.325433588
300.553098345
300.536838388
300.553098345
301.849829865
301.42300601
300.553098345
300.569358301
300.553098345
300.557163334
300.979922199
300.979922199
301.012442112
301.866089821
301.000247145
301.406746054
301.866089821
301.012442112
300.979922199
300.57342329
300.569358301
300.996182156
300.536838388
300.569358301
301.866089821
300.996182156
301.439265966
300.553098345
300.996182156
300.536838388
301.439265966
301.439265966
301.455525923
300.569358301

Block: 5
======================================
301.42300601
300.536838388
300.536838388
301.42300601
300.585618258
300.569358301
301.455525923
301.42300601
300.536838388
301.459590912
300.536838388
300.553098345
300.553098345
301.012442112
300.569358301
300.585618258
301.000247145
300.569358301
300.536838388
300.557163334
300.569358301
300.536838388
300.553098345
301.012442112
300.57342329
300.569358301
301.455525923
300.553098345
301.866089821
300.996182156
300.536838388
301.455525923
301.898609734
300.569358301
300.638463116
300.536838388
300.983987188
300.809192657
300.553098345
300.996182156
300.996182156
300.996182156
300.979922199
300.605943203
300.093754578
301.439265966
300.553098345
300.585618258
300.57342329
301.882349777
301.032767057
300.520578432
301.012442112
301.866089821
300.996182156
301.866089821
300.569358301
300.996182156
300.996182156
300.979922199
301.012442112
300.569358301
300.557163334
300.569358301
300.536838388
300.996182156
300.57342329
300.553098345
300.553098345
301.439265966
301.012442112
300.569358301
300.110014534
300.585618258
300.553098345

Block: 6
======================================
301.000247145
300.553098345
300.963662243
301.016507101
300.536838388
301.016507101
300.996182156
300.589683247
300.57342329
301.012442112
300.57342329
300.146599436
300.569358301
300.979922199
300.146599436
300.553098345
301.459590912
300.569358301
301.000247145
300.569358301
300.589683247
300.12627449
301.471785879
301.439265966
300.553098345
300.569358301
300.996182156
300.996182156
301.439265966
300.553098345
301.028702068
301.016507101
301.866089821
301.87015481
300.57342329
300.569358301
300.536838388
300.57342329
300.557163334
301.012442112
300.569358301
300.57342329
300.569358301
300.553098345
300.553098345
301.866089821
300.996182156
300.553098345
300.996182156
300.585618258
300.979922199
300.996182156
300.996182156
301.016507101
300.996182156
301.012442112
300.996182156
300.979922199
300.979922199
301.443330956
300.553098345
300.57342329
301.459590912
300.569358301
300.569358301
300.996182156
300.996182156
300.553098345
301.439265966
301.459590912
302.309173632
300.996182156
300.996182156
301.459590912
300.996182156

Block: 7
======================================
301.016507101
300.996182156
301.016507101
301.471785879
300.996182156
300.996182156
300.569358301
301.439265966
300.589683247
300.57342329
300.996182156
300.569358301
300.553098345
301.016507101
300.569358301
301.455525923
301.012442112
301.475850868
300.553098345
300.553098345
300.569358301
301.012442112
301.000247145
301.471785879
300.569358301
301.016507101
301.455525923
301.902674723
300.57342329
300.996182156
301.471785879
301.032767057
301.012442112
300.569358301
300.553098345
300.569358301
300.569358301
300.569358301
301.455525923
301.459590912
301.455525923
300.996182156
300.57342329
301.016507101
301.443330956
301.012442112
301.459590912
300.605943203
300.569358301
300.57342329
300.553098345
300.569358301
301.044962025
300.57342329
300.979922199
300.979922199
300.996182156
301.000247145
300.553098345
300.569358301
300.996182156
301.012442112
300.996182156
301.455525923
301.032767057
301.012442112
300.996182156
300.553098345
301.902674723
301.012442112
300.996182156
300.589683247
301.455525923
300.553098345
301.902674723

Block: 8
======================================
300.536838388
300.553098345
300.557163334
301.016507101
300.536838388
300.996182156
300.536838388
301.032767057
300.553098345
301.028702068
301.427070999
300.553098345
301.016507101
301.000247145
300.979922199
300.553098345
300.553098345
301.016507101
301.012442112
301.439265966
300.979922199
300.553098345
300.553098345
300.536838388
301.439265966
300.57342329
301.012442112
301.427070999
300.996182156
300.996182156
300.996182156
301.886414766
301.439265966
301.439265966
300.520578432
301.443330956
300.57342329
302.309173632
301.439265966
300.589683247
300.553098345
301.849829865
300.996182156
300.418953705
301.459590912
300.585618258
300.57342329
301.049027014
300.553098345
301.016507101
301.012442112
301.012442112
301.012442112
300.57342329
301.443330956
301.439265966
301.455525923
301.012442112
301.000247145
300.996182156
300.996182156
301.439265966
300.57342329
300.979922199
301.443330956
300.996182156
300.557163334
300.996182156
301.016507101
302.309173632
300.996182156
301.455525923
301.42300601
300.553098345
301.012442112

Block: 9
======================================
300.516513443
301.475850868
300.996182156
300.520578432
301.000247145
301.028702068
301.012442112
301.049027014
301.012442112
300.553098345
300.57342329
301.866089821
300.979922199
300.553098345
301.012442112
301.028702068
300.557163334
300.557163334
301.000247145
300.996182156
301.455525923
301.459590912
301.902674723
300.553098345
301.455525923
301.016507101
300.996182156
300.536838388
300.553098345
300.589683247
300.57342329
301.443330956
301.000247145
300.57342329
300.536838388
301.439265966
300.57342329
301.439265966
301.439265966
302.313238621
300.996182156
300.996182156
300.57342329
301.439265966
300.979922199
300.553098345
300.996182156
301.459590912
301.439265966
301.443330956
300.553098345
300.979922199
300.569358301
301.439265966
300.536838388
301.439265966
300.589683247
300.569358301
300.553098345
300.57342329
301.455525923
301.439265966
302.735997486
301.016507101
301.032767057
300.553098345
301.455525923
301.012442112
300.57342329
300.57342329
300.57342329
300.57342329
301.439265966
301.016507101
301.459590912

Block: 10
======================================
300.520578432
301.012442112
301.902674723
301.866089821
301.443330956
301.032767057
300.553098345
300.536838388
301.032767057
301.012442112
300.589683247
301.443330956
301.459590912
301.459590912
301.471785879
300.553098345
300.585618258
301.439265966
300.569358301
300.553098345
301.882349777
301.42300601
302.345758533
301.455525923
300.569358301
301.012442112
301.016507101
301.016507101
300.57342329
301.459590912
301.471785879
300.589683247
300.553098345
300.569358301
301.012442112
300.57342329
302.325433588
301.028702068
301.032767057
301.028702068
301.012442112
301.032767057
300.605943203
300.589683247
301.016507101
301.475850868
301.455525923
301.459590912
301.016507101
300.589683247
300.589683247
301.475850868
300.553098345
301.032767057
300.553098345
301.886414766
301.012442112
300.569358301
301.902674723
300.996182156
301.012442112
300.996182156
300.601878214
301.902674723
300.553098345
301.475850868
300.553098345
302.756322432
301.455525923
301.028702068
300.569358301
300.557163334
301.012442112
301.012442112
301.455525923
