
Block: 1
======================================
50.4010364532
50.8159781456
50.3681697845
50.8159781456
50.3681697845
50.3846031189
50.3681697845
50.3887114525
50.3681697845
50.4174697876
50.7831114769
50.3846031189
50.3517364502
50.3846031189
50.3887114525
50.3846031189
50.3846031189
50.3846031189
50.3681697845
50.4010364532
50.3517364502
50.3517364502
26.3837182999
50.3846031189
50.3846031189

Average distance is : 49.471 cm
Average deviation is : 4.812 cm
Block: 2
======================================
2.74025850296
50.3887114525
50.4010364532
50.3846031189
50.7954364777
50.4215781212
50.3681697845
50.4010364532
50.3846031189
50.3681697845
50.3681697845
49.9532280922
50.3887114525
50.3846031189
50.3681697845
49.9737697601
49.9696614265
49.9902030945
50.3681697845
50.4010364532
49.9573364258
50.3517364502
50.3681697845
50.3846031189
49.9532280922

Average distance is : 48.393 cm
Average deviation is : 9.513 cm
Block: 3
======================================
50.7995448112
50.3846031189
50.3846031189
50.3846031189
50.4051447868
50.3846031189
50.3681697845
50.3846031189
50.4010364532
50.4010364532
50.3681697845
50.4010364532
50.3517364502
50.4010364532
50.3846031189
50.3846031189
50.4010364532
50.4010364532
49.9367947578
50.3681697845
50.3681697845
49.9532280922
50.6598614693
50.3887114525
49.9737697601

Average distance is : 50.362 cm
Average deviation is : 0.182 cm
Block: 4
======================================
50.3846031189
50.3846031189
50.4010364532
50.364061451
50.3887114525
49.9860947609
50.3846031189
50.3681697845
50.3846031189
49.9573364258
50.3681697845
50.3681697845
49.9532280922
50.3681697845
50.3681697845
49.9696614265
50.3846031189
50.4051447868
49.9532280922
50.3846031189
50.3846031189
50.4010364532
50.3681697845
50.3846031189
50.3681697845

Average distance is : 50.297 cm
Average deviation is : 0.171 cm
Block: 5
======================================
50.3681697845
49.9902030945
50.3681697845
49.9532280922
50.3846031189
49.9696614265
49.9367947578
50.3681697845
49.9532280922
50.0025280952
49.9532280922
50.0230697632
49.9902030945
50.3681697845
49.9532280922
50.3846031189
49.9532280922
49.9532280922
50.3887114525
50.3681697845
50.3681697845
50.3887114525
50.0066364288
49.9696614265
50.4051447868

Average distance is : 50.151 cm
Average deviation is : 0.207 cm
Block: 6
======================================
50.3846031189
50.3681697845
50.3846031189
50.4174697876
50.4010364532
50.3681697845
50.3846031189
49.9532280922
50.3476281166
49.9902030945
49.9737697601
50.3846031189
50.3681697845
50.3846031189
50.3681697845
50.3476281166
50.3887114525
49.9737697601
50.3681697845
49.9573364258
50.3681697845
49.9860947609
50.4174697876
50.3681697845
50.4051447868

Average distance is : 50.282 cm
Average deviation is : 0.179 cm
Block: 7
======================================
49.9737697601
49.9902030945
50.3476281166
49.9532280922
49.9902030945
49.9532280922
49.9737697601
49.9737697601
50.0066364288
49.9573364258
49.9860947609
49.9573364258
49.9902030945
49.9367947578
49.9532280922
50.3846031189
49.9737697601
42.0980942726
50.3846031189
49.9737697601
50.3681697845
49.9737697601
50.3681697845
49.9737697601
49.9737697601

Average distance is : 49.737 cm
Average deviation is : 1.600 cm
Block: 8
======================================
50.364061451
50.3681697845
49.9860947609
49.9737697601
49.9696614265
49.9696614265
49.9696614265
49.9902030945
50.3846031189
50.3681697845
49.9573364258
50.3517364502
50.3517364502
50.3681697845
50.4010364532
50.3846031189
50.3681697845
49.9737697601
49.9532280922
50.3846031189
50.3517364502
50.3681697845
50.4010364532
50.3681697845
49.9573364258

Average distance is : 50.211 cm
Average deviation is : 0.202 cm
Block: 9
======================================
4.30964193344
49.9696614265
50.3846031189
50.3846031189
50.3681697845
50.4010364532
49.9532280922
50.4010364532
50.3846031189
49.9532280922
50.3846031189
50.4174697876
50.4174697876
50.3846031189
50.3681697845
49.9696614265
49.9902030945
49.9696614265
50.3846031189
50.3887114525
49.9532280922
50.4010364532
50.4010364532
50.4010364532
50.3846031189

Average distance is : 48.429 cm
Average deviation is : 9.194 cm
Block: 10
======================================
50.3846031189
49.9696614265
50.4010364532
49.9860947609
50.4215781212
50.0066364288
50.0230697632
49.9532280922
49.9532280922
50.3681697845
49.9902030945
50.4051447868
49.9737697601
49.9696614265
50.364061451
50.3681697845
50.4010364532
50.3846031189
49.9737697601
50.3846031189
50.3517364502
50.4174697876
49.9573364258
49.9532280922
49.9367947578

Average distance is : 50.172 cm
Average deviation is : 0.213 cm