
Block: 1
======================================
100.713
100.6437
100.7996
100.765
100.6437
100.6437
100.713
100.661
100.6957
100.817
100.7996
100.6957
100.713
100.713
100.6437
100.228
100.765
100.7996
100.661
100.713
100.713
100.6784
100.6264
100.3319
100.7477
100.5918
100.5744
100.5918
100.176
100.661
100.3319
100.3319
100.7477
100.6437
100.6437
100.6957
100.6437
100.6437
100.3146
100.765
100.2107
100.6437
100.6437
100.661
100.661
100.7996
100.3839
100.713
100.6957
100.6957
100.6437
100.661
100.7477
100.7477
100.6437
100.6437
100.6437
100.6264
100.6437
100.7477
100.7477
100.6437
100.6437
100.6437
100.6437
100.7477
100.765
100.6437
100.6437
100.6437
100.6957
100.6437
100.7477
100.7477
100.6437

Average distance is : 100.645 cm
Average deviation is : 0.137 cm
Block: 2
======================================
100.6784
100.228
100.2453
100.2453
100.3492
100.765
100.661
100.661
100.661
100.6957
100.661
100.7477
100.7477
100.6957
100.6437
100.6957
100.713
100.6957
100.7477
100.765
100.6957
100.661
100.6437
100.6957
100.3492
100.3492
100.7477
100.6437
100.6437
100.6437
100.6437
100.228
100.765
100.7477
100.6437
100.661
100.661
100.6957
100.661
100.765
100.765
100.661
100.6957
100.6264
100.2799
100.6957
100.7477
100.7477
100.661
100.228
100.661
100.6437
100.661
100.3492
100.7477
100.6957
100.6957
100.6437
100.6957
100.6437
100.765
100.7477
100.6957
100.6437
100.713
100.661
100.713
100.765
100.765
100.6957
100.6957
100.6437
100.6437
100.817
100.765

Average distance is : 100.642 cm
Average deviation is : 0.149 cm
Block: 3
======================================
100.6437
100.6957
100.6437
100.6437
100.7477
100.765
100.6437
100.6957
100.661
100.661
100.713
100.817
100.7996
100.713
100.6957
100.713
100.6957
100.2453
100.817
100.817
100.6437
100.6957
100.6957
100.661
100.661
100.7477
100.817
100.6957
100.6957
100.6957
100.6784
100.6957
100.817
100.7823
100.713
100.661
100.6784
100.6437
100.713
100.765
100.817
100.661
100.6957
100.661
100.6957
100.7996
100.817
100.661
100.6957
100.6957
100.6957
100.661
100.7996
100.7996
100.6957
100.713
100.661
100.661
100.6784
100.817
100.817
100.6957
100.2799
100.661
100.6957
100.6957
100.765
100.3492
100.6437
100.6957
100.6957
100.6437
100.6437
100.7477
100.7477

Average distance is : 100.695 cm
Average deviation is : 0.100 cm
Block: 4
======================================
100.228
100.228
100.6091
100.6437
100.661
100.765
100.3319
100.6264
100.6437
100.6957
100.661
100.661
100.7996
100.7823
100.661
100.661
100.661
100.661
100.2107
100.7477
100.7477
100.6437
100.661
100.713
100.713
100.713
100.3839
100.817
100.2799
100.6957
100.6957
100.2799
100.6437
100.817
100.7996
100.6957
100.6957
100.6957
100.6957
100.713
100.7996
100.817
100.713
100.661
100.6437
100.713
100.2626
100.7996
100.765
100.661
100.661
100.661
100.6437
100.6437
100.7477
100.7823
100.6957
100.6437
100.6437
100.2799
100.661
100.765
100.817
100.661
100.661
100.713
100.661
100.6437
100.765
100.817
100.661
100.6437
100.661
100.6957
100.7996

Average distance is : 100.652 cm
Average deviation is : 0.152 cm
Block: 5
======================================
100.661
100.661
100.6957
100.6437
100.713
100.817
100.3666
100.661
100.713
100.2626
100.6957
100.6957
100.765
100.817
100.3666
100.2453
100.713
100.6957
100.713
100.661
100.817
100.7303
100.713
100.661
100.2799
100.2626
100.661
100.817
100.7996
100.713
100.713
100.6957
100.6957
100.6957
100.817
100.661
100.6784
100.661
100.661
100.661
100.7996
100.817
100.661
100.2453
100.6957
100.6957
100.6437
100.765
100.7477
100.6437
100.6437
100.6784
100.6957
100.661
100.765
100.817
100.6957
100.6437
100.661
100.6437
100.661
100.7996
100.817
100.6957
100.6957
100.6437
100.661
100.2453
100.7477
100.765
100.6957
100.661
100.6437
100.6437
100.661

Average distance is : 100.662 cm
Average deviation is : 0.143 cm
Block: 6
======================================
100.817
100.6437
100.6437
100.6957
100.713
100.713
100.7996
100.765
100.713
100.661
100.713
100.713
100.6957
100.3492
100.765
100.661
100.6437
100.713
100.661
100.2799
100.765
100.7996
100.6957
100.713
100.2799
100.6437
100.713
100.765
100.817
100.661
100.6957
100.2453
100.6957
100.6957
100.817
100.817
100.713
100.713
100.6957
100.661
100.713
100.7996
100.765
100.6957
100.713
100.713
100.6957
100.817
100.817
100.713
100.713
100.713
100.661
100.713
100.817
100.817
100.661
100.661
100.6784
100.661
100.6957
100.765
100.765
100.661
100.661
100.661
100.6957
100.661
100.817
100.765
100.713
100.6957
100.661
100.713
100.713

Average distance is : 100.695 cm
Average deviation is : 0.111 cm
Block: 7
======================================
100.765
100.661
100.661
100.713
100.661
100.661
100.817
100.765
100.6437
100.661
100.713
100.661
100.661
100.7477
100.765
100.661
100.6437
100.661
100.713
100.661
100.817
100.7996
100.713
100.661
100.713
100.2453
100.713
100.817
100.765
100.713
100.6784
100.661
100.2626
100.6784
100.765
100.817
100.2453
100.2973
100.661
100.713
100.661
100.765
100.765
100.661
100.661
100.661
100.661
100.661
100.817
100.817
100.713
100.661
100.713
100.661
100.661
100.765
100.7996
100.713
100.6784
100.713
100.6957
100.6957
100.765
100.7823
100.661
100.6437
100.2453
100.6437
100.661
100.765
100.7996
100.713
100.661
100.6957
100.661

Average distance is : 100.679 cm
Average deviation is : 0.125 cm
Block: 8
======================================
100.817
100.3492
100.6784
100.661
100.661
100.661
100.713
100.3666
100.7996
100.2453
100.6437
100.2453
100.228
100.2453
100.765
100.765
100.713
100.661
100.661
100.661
100.661
100.765
100.765
100.6437
100.2453
100.661
100.713
100.661
100.765
100.7477
100.2453
100.2626
100.713
100.661
100.713
100.765
100.3492
100.6437
100.661
100.2453
100.661
100.2626
100.6784
100.7996
100.713
100.661
100.713
100.661
100.661
100.765
100.3492
100.817
100.661
100.6784
100.661
100.661
100.713
100.7477
100.6437
100.661
100.661
100.661
100.713
100.765
100.765
100.661
100.2799
100.661
100.661
100.661
100.661
100.3666
100.765
100.2453
100.661

Average distance is : 100.610 cm
Average deviation is : 0.179 cm
Block: 9
======================================
100.661
100.661
100.765
100.765
100.661
100.6784
100.713
100.2626
100.661
100.765
100.765
100.661
100.661
100.2626
100.6957
100.6784
100.765
100.765
100.2453
100.661
100.713
100.661
100.228
100.3666
100.7823
100.661
100.661
100.713
100.661
100.661
100.765
100.7477
100.661
100.6437
100.661
100.6437
100.661
100.7477
100.765
100.6437
100.661
100.713
100.713
100.6957
100.765
100.765
100.661
100.661
100.713
100.661
100.6784
100.765
100.765
100.661
100.661
100.661
100.661
100.661
100.765
100.765
100.6437
100.661
100.661
100.713
100.713
100.8343
100.817
100.713
100.713
100.713
100.6957
100.765
100.7823
100.713
100.6437

Average distance is : 100.675 cm
Average deviation is : 0.119 cm
Block: 10
======================================
100.2453
100.661
100.2453
100.7996
100.3492
100.661
100.661
100.6784
100.661
100.6957
100.765
100.7996
100.661
100.661
100.6957
100.713
100.713
100.817
100.713
100.6437
100.661
100.6957
100.713
100.817
100.817
100.6957
100.6957
100.661
100.6957
100.713
100.817
100.7996
100.6437
100.6957
100.713
100.713
100.713
100.817
100.817
100.6957
100.661
100.661
100.2799
100.661
100.7996
100.7996
100.661
100.713
100.6957
100.713
100.713
100.7996
100.3839
100.661
100.6957
100.6957
100.661
100.713
100.7996
100.3839
100.713
100.6957
100.2799
100.2626
100.6957
100.817
100.817
100.7303
100.713
100.713
100.6957
100.713
100.817
100.817
100.661

Average distance is : 100.676 cm
Average deviation is : 0.142 cm
Average distance for 10x75 is : 100.636 cm
Average deviation for 10x75 is : 0.153 cm
 Percentage of values that failed: 0.000