
Block: 1
======================================
83.9795386791
85.4374307394
100.107211471
71.0567504168
100.053521395
84.3264591694
98.8434296846
72.1470719576
86.2840819359
96.7288666964
74.3277150393
86.2138718367
95.374224782
74.0179646015
87.9815143347
94.8208039999
73.6710441113
87.1844232082
96.5388864279
73.5347539186
87.3083233833
86.2840819359
97.0757871866
73.4645438194
86.837502718

Block: 2
======================================
81.7782455683
84.4668793678
87.6717638969
84.7105497122
83.5995781422
99.2770802975
72.7004927397
85.8504313231
98.7732195854
71.7340713739
85.5200308561
88.0517244339
84.1529989243
84.3966692686
99.6405208111
84.2232090235
88.9355456829
83.2526576519
99.6900808811
72.6137626171
84.8798799515
98.1661087275
86.5773123503
97.7531081438
86.5442723036

Block: 3
======================================
93.3876919746
91.0129386187
74.4020551443
91.68612957
90.0589072704
77.2558891773
90.7857882977
83.2526576519
82.9387772083
88.0310744047
88.8983756304
80.345133543
88.6010152102
85.8504313231
96.6586565971
74.7654956579
85.9371614456
85.8834713697
86.3708120584
83.8597685099
85.8669513464
97.8893983364
86.3501620293
73.0639332533
96.1919659376

Block: 4
======================================
82.7157568932
75.6121468544
95.1388144493
89.8028469086
80.9150743484
84.7601097822
86.7879426479
85.4167807102
85.0863802433
85.1400703192
85.4498207569
97.9389584064
73.0639332533
86.3873320818
85.4333007336
97.5094377995
73.4810638428
85.9206414223
86.8209826946
83.6863082647
99.694210887
73.0680632591
84.0497487783
97.9389584064
73.6173540354

Block: 5
======================================
81.811285615
88.8281655312
83.1328874826
85.2639704943
86.5071022511
83.198967576
86.6970825195
97.5920379162
72.9978531599
85.800871253
96.865156889
87.8741341829
96.4149862528
72.944163084
88.0145543814
95.878085494
74.2781549692
86.23039186
95.9482955933
87.9113042355
95.9317755699
74.2781549692
86.7672926188
88.1012845039
81.9888758659

Block: 6
======================================
83.3022177219
86.8540227413
85.623281002
83.3724278212
86.3336420059
85.4167807102
85.5035108328
85.0161701441
85.9908515215
84.1034388542
98.3602190018
73.9147144556
85.5035108328
87.2009432316
84.1695189476
85.1235502958
85.4333007336
90.1621574163
80.7540041208
86.0238915682
86.6640424728
97.1625173092
73.0143731833
86.837502718
85.0203001499

Block: 7
======================================
84.9294400215
99.5703107119
85.6934911013
86.2345218658
97.9389584064
72.9937231541
85.9908515215
86.7136025429
96.1919659376
74.055134654
87.1513831615
98.8434296846
71.7175513506
85.9371614456
86.3542920351
84.1695189476
86.4740622044
84.082788825
98.859949708
72.5642025471
85.9908515215
85.8834713697
87.2174632549
82.922257185
87.3041933775

Block: 8
======================================
81.0720145702
84.5164394379
89.1750860214
94.9116641283
74.7820156813
86.1601817608
84.9707400799
98.3767390251
73.8651543856
84.6031695604
87.8782641888
83.198967576
84.9129199982
87.4280935526
83.7399983406
98.7897396088
74.7613656521
83.8391184807
87.5643837452
87.6180738211
81.2619948387
88.1219345331
85.4869908094
83.7193483114
86.7672926188

Block: 9
======================================
81.6749954224
85.346570611
92.4501806498
91.9628399611
79.1102617979
84.9500900507
86.9614028931
83.7193483114
86.7879426479
85.0533401966
84.9996501207
87.3744034767
83.6656582355
98.7897396088
76.8759286404
80.82421422
91.9339299202
85.0037801266
80.8779042959
89.2783361673
81.7121654749
85.4002606869
86.1477917433
84.5164394379
85.7141411304

Block: 10
======================================
80.7581341267
86.8540227413
85.953681469
84.2562490702
85.5365508795
85.7802212238
98.4428191185
72.1512019634
86.3171219826
88.0847644806
82.0219159126
86.7507725954
87.3578834534
81.9723558426
99.2399102449
75.2280563116
82.9552972317
90.1291173697
86.7507725954
80.9315943718
88.4151649475
89.6624267101
79.234161973
87.2009432316
85.9702014923

Block: 1
======================================
82.9387772083
86.7507725954
87.721323967
82.1953761578
86.5277522802
85.297010541
85.297010541
84.5494794846
98.3395689726
73.8981944323
85.8669513464
96.2745660543
74.711805582
85.3672206402
96.4025962353
76.3927179575
99.2605602741
82.3688364029
75.2280563116
96.6090965271
60.9754061699
99.2564302683
71.7175513506
98.9301598072
75.4923766851

Block: 2
======================================
80.2047133446
95.2544546127
89.6087366343
82.8190070391
99.2068701982
75.1619762182
85.524160862
88.8157755136
94.9653542042
75.7030069828
85.7843512297
95.3287947178
74.8191857338
87.2339832783
88.4482049942
83.3063477278
85.5902409554
85.9041213989
96.5925765038
87.2381132841
85.297010541
84.0290987492
86.4947122335
84.9500900507
100.17742157

Block: 3
======================================
79.841272831
91.5993994474
84.6733796597
81.8484556675
88.6918753386
83.9795386791
83.6160981655
87.5313436985
96.7288666964
72.4939924479
87.114213109
95.9152555466
74.2616349459
89.261816144
92.5369107723
75.042206049
89.5550465584
85.2763605118
81.5882652998
99.6363908052
77.7060598135
78.5072809458
94.337593317
82.265586257
84.0993088484

Block: 4
======================================
84.6568596363
97.5589978695
74.4516152143
87.2546333075
87.2546333075
82.3853564262
99.2564302683
75.1619762182
84.6568596363
87.5478637218
96.1919659376
73.4851938486
87.2381132841
87.6180738211
83.2856976986
86.887062788
84.537089467
98.3230489492
73.9518845081
85.4869908094
87.6180738211
85.0533401966
84.1364789009
87.770884037
83.6656582355

Block: 5
======================================
95.448564887
74.9885159731
88.2582247257
82.8850871325
86.2138718367
98.1661087275
85.6769710779
97.6126879454
73.4108537436

Block: 1
======================================
99.7107309103
99.2564302683
99.6363908052
99.6405208111
99.7272509336
99.6405208111
99.6198707819
99.6363908052
99.6570408344
99.1697001457
99.2399102449
100.090691447
99.2399102449
99.5868307352
99.6405208111
99.6363908052
99.6240007877
99.6735608578
99.6033507586
99.6074807644
99.6735608578
99.6405208111
99.6240007877
99.6735608578
99.6405208111

Block: 2
======================================
99.7066009045
99.7396409512
99.7272509336
99.6529108286
99.7066009045
99.6735608578
99.7231209278
99.6570408344
99.6900808811
99.6735608578
99.6240007877
99.6900808811
99.6735608578
99.6735608578
99.6570408344
99.7066009045
99.6033507586
99.6363908052
99.5868307352
99.6033507586
99.2233902216
99.2027401924
99.6405208111
99.6405208111
99.6405208111

Block: 3
======================================
99.2233902216
99.1531801224
99.2068701982
99.6363908052
99.6735608578
99.6900808811
99.6735608578
99.6900808811
99.2068701982
99.2399102449
99.743770957
99.6735608578
99.6900808811
99.6900808811
99.6363908052
99.6405208111
99.2233902216
99.6735608578
99.6363908052
99.6735608578
90.4925578833
99.6735608578
99.6735608578
99.6570408344
99.2770802975

Block: 4
======================================
99.7272509336
99.694210887
99.7231209278
99.2729502916
99.6529108286
99.7066009045
99.694210887
99.6570408344
99.7066009045
99.6900808811
99.7107309103
99.2233902216
99.7272509336
99.6735608578
99.7107309103
99.7066009045
99.694210887
99.7272509336
99.6900808811
99.2605602741
99.2399102449
99.2564302683
99.2399102449
99.6735608578
99.7107309103

Block: 5
======================================
99.2399102449
99.2564302683
99.2729502916
99.7107309103
99.1862201691
99.6900808811
99.2027401924
99.2233902216
99.6570408344
99.6405208111
99.2027401924
99.2399102449
99.6570408344
99.6240007877
99.7066009045
99.6529108286
99.6900808811
99.694210887
99.7066009045
99.7107309103
99.7107309103
99.6570408344
99.6570408344
99.6198707819
99.2233902216

Block: 6
======================================
99.6240007877
99.2233902216
99.6570408344
99.2399102449
99.6900808811
99.2770802975
99.6900808811
99.2605602741
99.7107309103
99.6735608578
99.2564302683
99.7107309103
99.7272509336
99.6529108286
99.6735608578
99.7272509336
99.2440402508
99.6735608578
99.6735608578
99.2770802975
99.694210887
99.7272509336
99.6900808811
99.2399102449
99.2936003208

Block: 7
======================================
99.7107309103
99.2605602741
99.694210887
99.7066009045
99.6735608578
99.6570408344
99.6735608578
99.2564302683
99.694210887
99.2936003208
99.2936003208
99.743770957
99.2936003208
99.6570408344
99.2729502916
99.7272509336
99.7066009045
99.7107309103
99.6570408344
99.2068701982
99.6900808811
99.6240007877
99.6570408344
99.6240007877
99.6240007877

Block: 8
======================================
99.6363908052
99.6735608578
99.7066009045
99.6900808811
99.6735608578
99.7107309103
99.7231209278
99.2440402508
99.6735608578
99.2068701982
99.6900808811
99.6900808811
99.2936003208
99.6735608578
99.6900808811
99.6570408344
99.6900808811
99.6570408344
99.2729502916
99.6735608578
99.6900808811
99.6900808811
99.6570408344
99.7066009045
99.6570408344

Block: 9
======================================
99.2399102449
99.2770802975
99.6529108286
99.2399102449
99.2399102449
99.6735608578
99.6900808811
99.2770802975
99.2564302683
99.7107309103
99.2770802975
99.7066009045
99.7107309103
99.3266403675
99.6900808811
99.2770802975
99.6900808811
99.2729502916
99.4298905134
99.6900808811
99.7231209278
99.7107309103
99.6405208111
99.6900808811
99.6240007877

Block: 10
======================================
99.6735608578
99.6198707819
99.7107309103
99.6900808811
99.7107309103
99.3101203442
99.2564302683
99.2399102449
99.2564302683
99.2233902216
99.6900808811
99.2399102449
99.3101203442
99.6735608578
99.7107309103
99.7272509336
99.6735608578
99.2233902216
99.6900808811
99.6900808811
99.6900808811
99.6900808811
99.6363908052
99.2564302683
99.7602909803
