
Block: 1
======================================
99.2399102449
99.6900808811
99.6735608578
99.6735608578
99.6900808811
99.6900808811
99.6735608578
99.6735608578
99.7272509336
99.6735608578
99.694210887
99.7231209278
99.2770802975
99.6570408344
99.6735608578
99.6900808811
99.6240007877
99.289470315
99.7066009045
99.7066009045
99.2399102449
99.6735608578
99.2770802975
99.6570408344
99.6363908052
99.6570408344
99.6570408344
99.289470315
99.694210887
99.2399102449
99.2399102449
99.2770802975
99.6900808811
99.2233902216
99.6735608578
99.7066009045
99.6363908052
99.6776908636
99.694210887
99.6735608578
99.2564302683
99.2605602741
99.6529108286
99.7602909803
99.7602909803
99.2605602741
99.2399102449
99.6570408344
99.7272509336
99.6735608578
99.2399102449
99.2399102449
99.7066009045
99.2233902216
99.2564302683
99.7107309103
99.6570408344
99.2936003208
99.6570408344
99.7272509336
99.7066009045
99.6900808811
99.6735608578
99.2440402508
99.289470315
99.2605602741
99.2770802975
99.7066009045
99.6900808811
99.6900808811
99.7107309103
99.7602909803
99.7768110037
99.3059903383
99.7602909803
99.3101203442
99.3101203442
99.3266403675
99.2936003208
99.7066009045
99.6735608578
99.7107309103
99.7231209278
99.743770957
99.3266403675
99.3266403675
99.3472903967
99.7768110037
99.7272509336
99.7602909803
99.793331027
99.743770957
99.7974610329
99.7602909803
99.793331027
99.3101203442
99.8263710737
99.793331027
99.793331027
99.793331027
99.7396409512
99.7602909803
99.7768110037
99.7396409512
99.3266403675
99.7768110037
99.743770957
99.3266403675
99.8098510504
99.743770957
99.743770957
99.7396409512
99.7107309103
99.6735608578
99.7768110037
99.3101203442
99.743770957
99.289470315
99.7107309103
99.2936003208
99.2399102449
99.6570408344
99.7272509336
99.6570408344
99.7066009045
99.7107309103
99.6570408344
99.694210887
99.6570408344
99.3101203442
99.2936003208
99.2605602741
99.7272509336
99.2770802975
99.6900808811
99.7272509336
99.2770802975
99.2936003208
99.7272509336
99.6900808811
99.7231209278
99.6405208111
99.6570408344
99.6900808811
99.7066009045
99.2729502916
99.6900808811
99.7272509336
99.2440402508
99.6900808811
99.2936003208
99.7107309103
99.743770957
99.7396409512
99.2564302683
99.7107309103
99.2399102449
99.2605602741
99.2399102449
99.2729502916
99.2233902216
99.2729502916
99.3266403675
99.7066009045
99.6900808811
99.3059903383
99.743770957
99.2192602158
99.6900808811
99.2605602741
99.6900808811
99.6735608578
99.6570408344
99.6405208111
99.6735608578
99.6735608578
99.7231209278
99.7272509336
99.2399102449
99.6735608578
99.2564302683
99.2936003208
99.6735608578
99.2399102449
99.6735608578
99.2729502916
99.6405208111
99.2399102449
99.6735608578
99.7231209278
99.6570408344
99.743770957
99.6735608578
99.2936003208
99.2770802975
99.6735608578
99.2605602741
99.6363908052
99.694210887
99.743770957
99.743770957
99.694210887
99.6900808811
99.6900808811
99.6735608578
99.7231209278
99.7066009045
99.6900808811
99.6570408344
99.3101203442
99.694210887
99.694210887
99.5868307352
99.2399102449
99.2770802975
99.5496606827
99.2399102449
99.2399102449
99.743770957
99.6735608578
99.743770957
99.3431603909
99.7602909803
99.7602909803
99.7602909803
99.6900808811
99.743770957
99.7066009045
99.7272509336
99.2936003208
99.7602909803
99.7231209278
99.743770957
99.7231209278
99.7768110037
99.3101203442
99.2729502916
99.7272509336
99.7768110037
99.7272509336
99.6570408344
99.2770802975
99.6570408344
99.6570408344
99.7396409512
99.743770957
99.7602909803
99.6900808811
99.2936003208
99.2729502916

Block: 2
======================================
99.7066009045
99.7396409512
99.6900808811
99.6900808811
99.7272509336
99.7107309103
99.6900808811
99.2440402508
99.7272509336
99.2729502916
99.2564302683
99.6570408344
99.6900808811
99.6735608578
99.2399102449
99.2068701982
99.7066009045
99.694210887
99.2564302683
99.6900808811
99.6735608578
99.6735608578
99.6735608578
99.694210887
99.7107309103
99.2605602741
99.6570408344
99.6900808811
99.7066009045
99.743770957
99.289470315
99.2936003208
99.7231209278
99.6735608578
99.7107309103
99.743770957
99.6735608578
99.7066009045
99.6570408344
99.6570408344
99.7107309103
99.6735608578
99.6735608578
99.694210887
99.7231209278
99.7272509336
99.7768110037
99.743770957
99.7602909803
99.743770957
99.7602909803
99.289470315
99.7602909803
99.743770957
99.7272509336
99.3431603909
99.743770957
99.743770957
99.7272509336
99.2936003208
99.3266403675
99.7272509336
99.7602909803
99.7602909803
99.7107309103
99.7602909803
99.7602909803
99.743770957
99.7768110037
99.6900808811
99.6735608578
99.2936003208
99.6735608578
99.2564302683
99.7396409512
99.6735608578
99.6735608578
99.6735608578
99.3101203442
99.2399102449
99.6735608578
99.3101203442
99.2770802975
99.2440402508
99.6900808811
99.743770957
99.7066009045
99.7272509336
99.6776908636
99.7272509336
99.743770957
99.7602909803
99.7602909803
99.7809410095
99.7768110037
100.160901546
99.7809410095
99.743770957
99.7107309103
99.6900808811
99.6198707819
99.2936003208
99.6735608578
99.6900808811
99.743770957
99.7602909803
99.7066009045
99.2564302683
99.7768110037
99.6735608578
99.6405208111
99.7066009045
99.6900808811
99.7602909803
99.2936003208
99.3266403675
99.3101203442
99.743770957
99.7768110037
99.7107309103
99.7396409512
99.3101203442
99.2936003208
99.743770957
99.7066009045
99.743770957
99.7231209278
99.7809410095
99.743770957
99.7602909803
99.2936003208
99.7066009045
99.7768110037
99.7602909803
99.1862201691
99.2936003208
99.7396409512
99.7768110037
99.7272509336
99.7602909803
99.3431603909
99.7396409512
99.289470315
99.7602909803
99.2770802975
99.7066009045
99.743770957
99.7809410095
99.743770957
99.7107309103
99.7809410095
99.743770957
99.743770957
99.743770957
99.6900808811
99.7602909803
99.3266403675
99.3266403675
99.7602909803
99.2936003208
99.7602909803
99.7768110037
99.743770957
99.7231209278
99.289470315
99.7768110037
99.7066009045
99.7602909803
99.2729502916
99.7602909803
99.743770957
99.6900808811
99.7768110037
99.7396409512
99.7602909803
99.7272509336
99.7231209278
99.3266403675
99.7107309103
99.7066009045
99.743770957
99.6900808811
99.7602909803
99.7107309103
99.7272509336
99.2233902216
99.2564302683
99.3101203442
99.7602909803
99.743770957
99.3266403675
99.743770957
99.7602909803
99.743770957
99.3431603909
99.7107309103
99.7231209278
94.7382038832
99.7231209278
99.7602909803
99.7272509336
99.7272509336
99.7231209278
99.3266403675
99.2564302683
99.5537906885
99.7396409512
99.7602909803
99.7107309103
99.3266403675
99.8263710737
99.7768110037
99.3101203442
99.743770957
99.7809410095
99.743770957
99.7602909803
99.0499299765
99.2564302683
99.7602909803
99.7231209278
99.3101203442
99.3266403675
99.3266403675
99.694210887
99.2770802975
99.7066009045
99.3101203442
99.6570408344
99.7107309103
99.7231209278
99.7396409512
99.7602909803
99.6900808811
99.7768110037
99.7272509336
99.743770957
99.2936003208
99.7809410095
99.6529108286
99.7602909803
99.743770957
99.7272509336
99.743770957
99.7272509336
99.7272509336
99.7768110037
99.7066009045
99.7272509336
99.743770957

Block: 3
======================================
99.3266403675
99.7272509336
99.2399102449
99.6405208111
99.7272509336
99.6529108286
99.6735608578
99.2399102449
99.6529108286
99.2605602741
99.6405208111
99.2399102449
99.2936003208
99.6735608578
99.743770957
99.7768110037
99.2936003208
99.743770957
99.6900808811
98.9838498831
99.6900808811
99.2233902216
99.0499299765
99.3101203442
99.2770802975
99.7809410095
99.7231209278
99.6735608578
99.7602909803
99.7272509336
99.7066009045
99.743770957
99.7272509336
99.6900808811
99.2564302683
99.7272509336
99.7272509336
99.743770957
99.7272509336
99.7107309103
99.7602909803
99.7231209278
99.3101203442
99.2729502916
99.3101203442
99.7602909803
99.7602909803
99.7066009045
99.6570408344
99.6570408344
99.2936003208
99.6570408344
99.7231209278
99.694210887
99.6735608578
99.743770957
99.6735608578
99.743770957
99.694210887
99.7231209278
99.3307703733
99.743770957
99.743770957
99.743770957
99.2936003208
99.7809410095
99.6570408344
99.7602909803
99.3101203442
99.7272509336
99.7602909803
99.7768110037
99.743770957
99.7602909803
99.743770957
99.7066009045
99.3266403675
99.743770957
99.793331027
99.7974610329
99.743770957
99.2936003208
99.3101203442
99.2936003208
99.743770957
99.7602909803
99.743770957
99.7272509336
99.743770957
99.7231209278
99.743770957
99.7272509336
99.7272509336
99.6735608578
99.6735608578
99.7809410095
99.6900808811
99.7231209278
99.7231209278
99.743770957
99.7272509336
99.6900808811
99.743770957
99.7272509336
99.2605602741
99.7602909803
99.7107309103
99.7107309103
99.7066009045
99.7602909803
99.7768110037
99.7231209278
99.793331027
99.6900808811
99.6735608578
99.743770957
99.6735608578
99.2233902216
99.2564302683
99.6735608578
99.743770957
99.6735608578
99.2936003208
99.7231209278
99.7066009045
99.743770957
99.694210887
99.7272509336
99.2564302683
99.6900808811
99.743770957
99.6570408344
99.6735608578
99.6900808811
99.7066009045
99.6570408344
99.7107309103
99.7066009045
99.7066009045
99.2564302683
99.7066009045
99.7231209278
99.7231209278
99.7272509336
99.7602909803
99.7272509336
99.2936003208
105.199508667
99.7602909803
99.7107309103
99.7602909803
99.3472903967
99.3431603909
99.7272509336
99.7602909803
99.7768110037
101.164492965
99.7768110037
99.3472903967
99.743770957
99.7768110037
99.743770957
99.7602909803
99.7768110037
99.2936003208
99.7602909803
99.743770957
99.7602909803
99.2770802975
99.743770957
99.6735608578
99.7768110037
99.3101203442
99.3472903967
99.743770957
99.743770957
99.743770957
99.7272509336
99.743770957
99.7602909803
99.7272509336
99.7107309103
99.7809410095
99.7809410095
99.7107309103
99.7272509336
99.7602909803
99.6735608578
99.743770957
99.743770957
99.7768110037
99.7107309103
99.7602909803
99.7272509336
99.6900808811
99.743770957
99.7809410095
99.7107309103
99.2936003208
99.7231209278
99.7809410095
99.2936003208
99.7396409512
99.7231209278
99.743770957
99.7602909803
99.7602909803
99.2936003208
99.7602909803
99.7809410095
99.743770957
99.6570408344
99.7602909803
99.6900808811
99.7768110037
99.7107309103
99.7602909803
99.743770957
99.7602909803
99.7602909803
99.7602909803
99.7272509336
99.7602909803
99.7107309103
99.3059903383
99.7602909803
99.793331027
99.743770957
99.743770957
99.6570408344
99.7602909803
99.7768110037
99.7272509336
99.3472903967
99.7602909803
99.743770957
99.7602909803
99.7602909803
99.3266403675
99.743770957
99.743770957
99.7602909803
99.7066009045
99.7602909803
99.6735608578
99.7602909803
99.3307703733
99.3266403675
99.7396409512
99.7602909803

Block: 4
======================================
99.743770957
99.743770957
99.3266403675
99.3101203442
99.3266403675
99.7602909803
99.7768110037
99.7602909803
99.7768110037
99.694210887
99.7272509336
99.694210887
99.7272509336
99.743770957
99.7602909803
99.7272509336
99.743770957
99.3266403675
99.7768110037
99.7107309103
99.6735608578
99.7272509336
99.743770957
99.7231209278
99.7602909803
99.7602909803
99.289470315
99.7272509336
99.7272509336
99.7602909803
99.743770957
99.3266403675
99.7231209278
99.7272509336
99.7396409512
99.7602909803
99.7768110037
99.7231209278
99.743770957
99.7602909803
99.7602909803
99.743770957
99.2936003208
99.743770957
99.743770957
99.7066009045
99.7272509336
99.3266403675
99.3266403675
99.743770957
99.3101203442
99.2564302683
99.743770957
99.3059903383
99.7231209278
99.3101203442
99.3266403675
99.7602909803
99.743770957
99.7768110037
99.3307703733
99.7602909803
99.3472903967
99.7272509336
99.743770957
99.7602909803
99.7809410095
99.7768110037
99.7107309103
99.7066009045
99.7602909803
99.743770957
99.743770957
99.7272509336
99.7272509336
99.7974610329
99.743770957
99.7602909803
99.7768110037
99.7602909803
99.289470315
99.3431603909
99.7231209278
99.3266403675
99.7768110037
99.743770957
99.7107309103
99.7768110037
99.7231209278
99.743770957
99.743770957
99.7066009045
99.743770957
99.7602909803
99.7107309103
99.7602909803
99.7768110037
99.7602909803
99.743770957
99.7107309103
99.6900808811
99.7231209278
99.7602909803
99.743770957
96.8858069181
99.6900808811
99.6735608578
99.743770957
99.2770802975
99.7107309103
99.6405208111
99.6735608578
99.7066009045
99.6900808811
99.6735608578
99.7602909803
99.7809410095
99.7602909803
99.7272509336
99.7602909803
99.7768110037
99.7768110037
99.7602909803
99.3266403675
99.7272509336
99.743770957
99.7396409512
99.7768110037
99.7602909803
99.7768110037
99.3101203442
99.7768110037
99.793331027
99.7602909803
99.743770957
99.7066009045
99.7809410095
99.743770957
99.743770957
99.7231209278
99.6735608578
99.7768110037
99.3266403675
99.7602909803
99.7231209278
99.7602909803
99.3472903967
99.3266403675
99.289470315
99.7231209278
99.3266403675
99.7396409512
99.36381042
99.743770957
99.7768110037
99.7768110037
99.7602909803
99.7602909803
99.7602909803
99.7602909803
99.7396409512
99.7272509336
99.3472903967
99.7602909803
99.7602909803
99.7602909803
99.743770957
99.3266403675
99.743770957
99.36381042
99.3101203442
99.3101203442
99.743770957
99.7272509336
99.3472903967
99.7809410095
99.289470315
99.7602909803
99.7272509336
99.7231209278
99.7602909803
99.743770957
99.6570408344
99.694210887
99.7602909803
99.7272509336
99.743770957
99.6735608578
99.743770957
99.6405208111
99.2068701982
99.6735608578
99.6405208111
99.2564302683
99.2564302683
99.2564302683
99.2729502916
99.7272509336
99.6570408344
99.7107309103
99.7602909803
99.7272509336
99.7602909803
99.7066009045
99.7107309103
99.6900808811
99.7066009045
99.2770802975
99.7231209278
99.7602909803
99.2936003208
99.7768110037
99.6900808811
99.6735608578
99.2770802975
99.743770957
99.743770957
99.7602909803
99.743770957
99.7809410095
99.7396409512
99.7768110037
99.36381042
99.8098510504
99.7768110037
99.3101203442
99.7768110037
99.694210887
99.743770957
99.7602909803
99.3431603909
99.743770957
99.743770957
99.3101203442
99.743770957
99.7272509336
99.7602909803
99.7272509336
99.8263710737
99.8305010796
99.8305010796
99.8098510504
99.8305010796
99.7602909803
99.793331027
99.7809410095
99.7066009045
99.3266403675
99.36381042
99.793331027

Block: 5
======================================
99.793331027
99.3101203442
99.7602909803
99.2936003208
99.7974610329
99.36381042
99.743770957
99.36381042
99.7768110037
99.7768110037
99.793331027
99.7272509336
99.7107309103
99.793331027
99.2770802975
99.7107309103
99.7602909803
99.6900808811
99.7066009045
99.7272509336
99.36381042
99.743770957
99.7602909803
99.793331027
99.7602909803
99.7768110037
99.7768110037
99.3266403675
99.6900808811
99.289470315
99.7272509336
99.7396409512
99.7107309103
99.7602909803
99.743770957
99.6900808811
99.7768110037
99.6900808811
28.1666398048
71.7175513506
99.7602909803
99.7602909803
99.743770957
99.8098510504
99.3101203442
99.7768110037
99.7272509336
99.3101203442
99.7602909803
99.8139810562
99.3431603909
99.7602909803
99.3101203442
99.7974610329
99.3266403675
99.743770957
99.793331027
99.7809410095
99.7396409512
99.3431603909
99.7602909803
99.3431603909
99.7602909803
99.36381042
99.7602909803
99.7272509336
99.7272509336
99.8263710737
99.743770957
99.7974610329
99.4133704901
99.793331027
99.7768110037
99.7602909803
99.7768110037
99.7602909803
99.7809410095
99.3431603909
99.7768110037
99.7602909803
99.694210887
99.7272509336
99.7602909803
99.793331027
99.743770957
99.743770957
99.7768110037
99.7107309103
99.7231209278
99.2564302683
99.7272509336
99.6735608578
99.6735608578
99.743770957
99.7066009045
99.7231209278
99.7272509336
99.3101203442
99.2936003208
99.7272509336
99.6735608578
99.2399102449
99.7272509336
99.2770802975
99.743770957
99.2729502916
99.7107309103
99.743770957
99.7809410095
99.8098510504
99.7231209278
99.7602909803
99.7272509336
99.6735608578
99.6900808811
99.2564302683
99.6900808811
99.6735608578
99.2770802975
99.2729502916
99.6735608578
99.2399102449
99.2770802975
99.694210887
99.7768110037
99.3431603909
99.7602909803
99.7602909803
99.743770957
99.6900808811
99.2936003208
99.2399102449
99.6570408344
99.743770957
99.2729502916
99.7272509336
99.3472903967
99.6735608578
99.7396409512
99.6900808811
99.694210887
99.7066009045
99.7396409512
99.7602909803
99.3101203442
99.3431603909
99.3596804142
99.7768110037
99.8098510504
99.743770957
99.743770957
99.7974610329
99.8305010796
99.7974610329
99.7396409512
99.7602909803
99.8139810562
99.8139810562
99.3431603909
99.793331027
99.3266403675
99.7602909803
99.3596804142
99.743770957
99.7602909803
99.7602909803
99.8139810562
99.3431603909
99.3431603909
99.36381042
99.8263710737
99.7602909803
99.8139810562
99.8470211029
99.8263710737
99.793331027
99.8098510504
99.8470211029
99.8098510504
99.8098510504
99.743770957
99.8305010796
99.8470211029
99.8139810562
99.3968504667
99.3596804142
99.7768110037
99.3266403675
99.2936003208
99.289470315
99.7231209278
99.6900808811
99.7602909803
99.6735608578
99.7107309103
99.7272509336
99.7768110037
99.3101203442
99.7974610329
99.7272509336
99.8263710737
99.7272509336
99.7602909803
99.3266403675
99.743770957
99.7272509336
99.7602909803
99.7602909803
99.7272509336
99.7602909803
99.7272509336
99.3307703733
99.7768110037
99.7768110037
99.7272509336
99.7602909803
99.7107309103
99.7602909803
99.7768110037
99.743770957
99.7231209278
99.7066009045
99.7272509336
99.694210887
99.7231209278
99.7231209278
99.743770957
99.4670605659
99.7602909803
99.7066009045
99.7602909803
98.3726090193
99.7272509336
99.2770802975
99.7768110037
99.793331027
99.2770802975
99.3431603909
99.7396409512
99.7768110037
99.7231209278
99.793331027
99.7602909803
99.3266403675
99.7602909803
99.793331027
99.743770957
99.3266403675
99.7272509336
99.7231209278
99.743770957

Block: 6
======================================
99.7272509336
99.289470315
99.7231209278
99.743770957
99.3101203442
99.743770957
99.6735608578
99.743770957
99.7231209278
99.694210887
99.3472903967
99.743770957
99.7768110037
99.2936003208
99.3266403675
99.7602909803
99.743770957
99.7768110037
99.3101203442
99.793331027
99.743770957
99.7768110037
99.7602909803
99.2729502916
99.2936003208
99.7768110037
99.793331027
99.2564302683
99.7231209278
99.743770957
99.7602909803
99.2770802975
99.7066009045
99.7768110037
99.7231209278
99.3101203442
99.7396409512
99.743770957
99.3101203442
99.7231209278
99.7231209278
99.3307703733
99.3101203442
99.793331027
99.2936003208
99.6570408344
99.7602909803
99.2729502916
99.6900808811
99.743770957
99.7602909803
99.7272509336
99.7396409512
99.7602909803
99.3266403675
99.2770802975
99.6900808811
97.2822874784
99.743770957
99.743770957
99.7974610329
99.743770957
99.2440402508
99.6735608578
99.3472903967
99.6735608578
99.7272509336
99.7396409512
99.7107309103
99.6900808811
99.7602909803
99.7272509336
99.7396409512
99.7107309103
99.4133704901
99.7768110037
99.7272509336
99.6900808811
99.743770957
99.7107309103
99.7272509336
99.8263710737
99.7396409512
99.2729502916
99.3101203442
99.694210887
99.7602909803
99.7974610329
99.7066009045
99.7231209278
99.7396409512
99.7272509336
99.743770957
99.7231209278
99.3101203442
99.7602909803
99.7602909803
99.3266403675
99.2936003208
99.3266403675
99.7602909803
99.7768110037
99.743770957
99.7396409512
99.743770957
99.7272509336
99.3307703733
99.7107309103
99.7272509336
99.2729502916
99.7768110037
99.7602909803
99.7602909803
99.743770957
99.3101203442
99.7602909803
99.2770802975
99.7768110037
99.3472903967
99.7272509336
99.7602909803
99.6405208111
99.3307703733
99.3101203442
99.694210887
99.7107309103
99.7107309103
99.2605602741
99.7231209278
99.6900808811
99.7272509336
99.6735608578
99.7066009045
99.694210887
99.7066009045
99.3101203442
99.743770957
99.289470315
99.7231209278
99.7272509336
99.7768110037
99.743770957
98.3395689726
99.7107309103
99.7231209278
99.7602909803
100.297191739
99.7272509336
99.3431603909
99.3101203442
99.7272509336
99.7768110037
99.7602909803
99.793331027
99.7768110037
99.7107309103
100.297191739
99.7602909803
99.7066009045
99.6570408344
99.2233902216
99.2564302683
99.2729502916
99.6900808811
99.7066009045
99.2233902216
99.6900808811
99.743770957
99.7768110037
99.7066009045
99.7066009045
99.743770957
99.7231209278
99.7396409512
99.6735608578
99.2440402508
99.7107309103
99.6735608578
99.2564302683
99.6570408344
99.6735608578
99.2399102449
99.6735608578
99.743770957
99.7602909803
99.743770957
99.7602909803
99.3307703733
99.7066009045
99.3101203442
99.7066009045
99.7231209278
99.7231209278
99.289470315
99.743770957
99.7107309103
99.7107309103
99.7396409512
99.2770802975
99.6735608578
99.6529108286
99.7066009045
99.2605602741
99.2399102449
99.6900808811
99.694210887
99.7231209278
99.2729502916
99.7272509336
99.6900808811
99.6900808811
99.7272509336
99.7066009045
99.7768110037
99.7066009045
99.7272509336
99.6900808811
99.743770957
99.2936003208
99.6900808811
99.6900808811
99.743770957
99.6570408344
99.2564302683
99.6900808811
99.7602909803
99.743770957
99.743770957
99.7231209278
99.7107309103
99.743770957
99.7768110037
99.3266403675
99.7066009045
99.7768110037
99.7066009045
99.7602909803
99.7602909803
99.7066009045
99.2729502916
99.7107309103
99.7396409512
99.2399102449
99.6900808811
99.3101203442
99.6735608578
99.2399102449
99.7272509336
99.6735608578
99.2399102449

Block: 7
======================================
99.743770957
99.7768110037
99.743770957
99.7602909803
99.3101203442
99.7602909803
99.7066009045
99.7231209278
99.7602909803
99.6735608578
99.6900808811
99.7107309103
99.743770957
99.743770957
99.7768110037
99.743770957
99.3101203442
99.7768110037
99.7231209278
99.7231209278
99.7272509336
99.7768110037
99.6363908052
99.7066009045
99.743770957
99.6570408344
99.2564302683
99.2729502916
99.6735608578
99.694210887
99.2936003208
99.2564302683
99.2936003208
99.2936003208
99.7231209278
99.7602909803
99.7066009045
99.7066009045
99.3101203442
99.3101203442
99.3101203442
99.2936003208
99.7602909803
99.743770957
99.7602909803
99.3101203442
99.3101203442
99.3101203442
99.7396409512
99.7231209278
99.7272509336
99.743770957
99.7107309103
99.7272509336
99.3266403675
99.7602909803
99.3101203442
99.7066009045
99.7396409512
99.7602909803
99.7272509336
99.743770957
99.6900808811
99.7602909803
99.7066009045
99.7066009045
99.7231209278
99.7231209278
99.6900808811
99.6735608578
99.7396409512
99.743770957
99.7066009045
99.7107309103
99.7272509336
99.743770957
99.7272509336
99.7107309103
99.7602909803
99.7602909803
99.7602909803
99.7396409512
99.743770957
99.7272509336
99.7602909803
99.6900808811
99.7066009045
99.7272509336
99.7768110037
99.7768110037
99.7272509336
99.7231209278
99.7066009045
99.2770802975
99.743770957
99.289470315
99.3266403675
99.3101203442
99.743770957
99.3101203442
99.3101203442
99.7272509336
99.7809410095
99.743770957
99.2770802975
99.3266403675
99.3431603909
99.7768110037
99.7272509336
99.3266403675
99.7768110037
99.7272509336
99.3266403675
99.7066009045
99.289470315
99.7231209278
99.7231209278
99.743770957
99.3101203442
99.3596804142
99.7602909803
99.743770957
99.3101203442
99.3307703733
99.3596804142
99.7602909803
99.743770957
99.743770957
99.7272509336
99.7396409512
99.7602909803
99.7602909803
99.7107309103
99.7768110037
99.3101203442
99.7809410095
99.7602909803
99.3101203442
99.793331027
99.743770957
99.7809410095
99.7231209278
99.7602909803
99.7272509336
99.3266403675
99.7066009045
99.3431603909
99.7974610329
99.7602909803
99.7272509336
99.3101203442
99.3266403675
99.3431603909
99.7272509336
99.7602909803
99.7768110037
99.3596804142
99.793331027
99.3472903967
99.793331027
99.7602909803
99.7396409512
99.3101203442
99.7272509336
99.7231209278
99.7231209278
99.743770957
99.743770957
99.7602909803
99.694210887
99.289470315
99.3266403675
99.743770957
99.7602909803
99.743770957
99.7809410095
99.793331027
99.3266403675
99.3803304434
99.3266403675
99.743770957
99.36381042
99.3101203442
99.3596804142
99.743770957
99.3472903967
99.289470315
99.3101203442
99.289470315
99.7066009045
99.2936003208
99.743770957
99.743770957
99.3266403675
99.7602909803
99.743770957
99.743770957
99.743770957
99.7768110037
99.7602909803
99.2936003208
99.7231209278
99.7602909803
99.743770957
99.3431603909
99.3101203442
99.7602909803
99.7396409512
99.7602909803
99.2936003208
99.743770957
99.3266403675
99.7231209278
99.743770957
99.7602909803
99.7974610329
99.3266403675
99.3266403675
99.7974610329
99.3101203442
99.2770802975
99.7396409512
99.743770957
99.7396409512
99.3307703733
99.7768110037
99.7602909803
99.7768110037
99.7272509336
99.7231209278
99.743770957
99.743770957
99.7602909803
99.7768110037
99.743770957
99.7272509336
99.7602909803
99.743770957
99.7066009045
99.7602909803
99.7768110037
99.3101203442
99.3101203442
99.7272509336
99.743770957
99.743770957
99.7602909803
99.7602909803
99.3101203442
99.743770957

Block: 8
======================================
99.743770957
99.3307703733
99.7066009045
100.346751809
99.7231209278
99.743770957
99.9502712488
99.743770957
99.7107309103
99.7272509336
99.743770957
99.743770957
99.7396409512
99.743770957
99.3101203442
99.6900808811
99.3101203442
99.7602909803
99.7066009045
99.3431603909
99.3472903967
99.743770957
99.3266403675
99.3101203442
99.2729502916
99.7809410095
99.7231209278
99.7272509336
99.7066009045
99.7602909803
99.36381042
99.6900808811
99.7768110037
99.7602909803
99.7231209278
99.7768110037
99.6900808811
99.7602909803
99.743770957
99.7974610329
99.3266403675
99.7602909803
99.7066009045
99.7107309103
99.8305010796
99.8263710737
99.7768110037
99.793331027
99.7974610329
99.793331027
99.3101203442
99.793331027
99.3968504667
99.3266403675
99.8470211029
99.8139810562
99.8139810562
99.8098510504
99.8098510504
99.8263710737
99.3596804142
99.8305010796
99.8139810562
99.3266403675
99.8098510504
99.8139810562
99.793331027
99.3101203442
99.36381042
99.7602909803
99.793331027
99.793331027
99.3266403675
99.8305010796
99.8470211029
99.8098510504
99.793331027
99.7974610329
99.7602909803
99.3762004375
99.8305010796
99.8098510504
99.793331027
99.7768110037
99.8098510504
99.8139810562
99.8305010796
99.8305010796
99.3803304434
99.36381042
99.8139810562
99.3803304434
99.8263710737
99.3968504667
99.793331027
99.3762004375
99.8139810562
99.8305010796
99.8139810562
99.7768110037
99.3431603909
99.793331027
99.8139810562
99.7974610329
99.7768110037
94.5110535622
99.793331027
99.7768110037
99.7602909803
99.7602909803
99.8263710737
99.8305010796
99.36381042
99.7768110037
99.8139810562
99.793331027
99.8098510504
99.7602909803
99.7974610329
99.7768110037
99.8305010796
99.3762004375
99.3927204609
99.8139810562
99.793331027
99.793331027
99.8098510504
99.8305010796
99.7768110037
99.3596804142
99.3803304434
99.8263710737
99.7768110037
99.8470211029
99.8305010796
99.8098510504
99.7768110037
99.8263710737
99.8305010796
99.3762004375
99.3596804142
99.3803304434
99.8305010796
99.7768110037
99.8470211029
99.7809410095
99.3803304434
99.8305010796
99.8139810562
99.3762004375
99.3307703733
99.8305010796
99.8098510504
99.7974610329
99.8635411263
99.3596804142
99.7974610329
99.8139810562
99.8305010796
99.8470211029
99.3968504667
99.8098510504
99.793331027
99.8635411263
99.793331027
99.8139810562
99.7974610329
99.793331027
99.8098510504
99.8139810562
99.7768110037
99.3968504667
99.8470211029
99.7974610329
99.7768110037
99.7768110037
99.8470211029
99.8635411263
99.4133704901
99.8098510504
99.7602909803
99.7974610329
99.3596804142
99.793331027
99.793331027
99.36381042
99.7974610329
99.8139810562
99.7974610329
99.8098510504
99.8305010796
99.8139810562
99.3968504667
99.3431603909
99.4133704901
99.3803304434
99.7602909803
99.8139810562
99.3431603909
99.793331027
99.793331027
99.793331027
99.793331027
99.8139810562
99.8139810562
99.7602909803
99.8305010796
99.8098510504
99.8139810562
99.3968504667
99.3762004375
99.8098510504
99.8098510504
99.8098510504
99.8305010796
99.7602909803
99.7602909803
99.2936003208
99.7602909803
99.3266403675
99.3307703733
99.7396409512
99.7602909803
99.3266403675
99.7066009045
99.3431603909
99.7272509336
99.7396409512
99.793331027
99.793331027
99.8098510504
99.793331027
99.7066009045
99.7231209278
99.3307703733
99.7602909803
99.7396409512
99.7602909803
99.793331027
99.7768110037
99.743770957
99.7768110037
99.743770957
99.8098510504
99.7974610329
99.8470211029
99.7974610329
99.8305010796
99.3803304434
99.8139810562

Block: 9
======================================
99.7602909803
99.8139810562
99.793331027
99.793331027
99.8305010796
99.8139810562
99.8305010796
99.8139810562
99.7974610329
99.8305010796
99.8305010796
99.7768110037
99.743770957
99.7768110037
99.3101203442
99.3472903967
99.743770957
99.743770957
99.3266403675
99.7602909803
99.6735608578
99.7066009045
99.7768110037
99.7768110037
99.3101203442
99.7768110037
99.2936003208
99.743770957
99.3266403675
99.36381042
99.7602909803
99.3266403675
99.3431603909
99.7768110037
99.7602909803
99.7602909803
99.3266403675
99.3059903383
99.7602909803
99.7396409512
99.3266403675
99.743770957
99.8305010796
100.189811587
99.289470315
99.7066009045
99.743770957
99.6900808811
99.7396409512
99.743770957
99.7768110037
99.7768110037
99.3266403675
99.2729502916
99.2605602741
99.7602909803
99.7768110037
99.3101203442
99.7066009045
99.7602909803
99.7602909803
99.2936003208
99.7768110037
99.8470211029
99.743770957
99.8263710737
99.7974610329
99.8305010796
99.8098510504
99.8305010796
99.8305010796
99.7602909803
99.7768110037
99.7602909803
99.3596804142
99.7602909803
99.8305010796
99.7231209278
99.136660099
99.1573101282
99.6033507586
99.5372706652
99.5868307352
99.5537906885
99.5537906885
99.1738301516
99.5537906885
99.5372706652
99.1531801224
99.5372706652
99.136660099
99.136660099
99.1201400757
99.6074807644
99.5868307352
99.1531801224
99.5496606827
99.1697001457
99.5703107119
99.1531801224
99.1697001457
99.1531801224
99.1697001457
99.5372706652
99.5703107119
99.5537906885
99.5372706652
99.5001006126
99.566180706
99.5207506418
99.4464105368
99.1201400757
99.4505405426
99.4670605659
99.1036200523
99.5001006126
99.516620636
99.516620636
99.5496606827
99.136660099
99.5372706652
99.5331406593
99.5496606827
99.5331406593
99.4505405426
99.0829700232
99.087100029
99.4505405426
99.5207506418
99.5868307352
99.5703107119
99.6033507586
99.136660099
99.5703107119
99.6074807644
99.1862201691
99.5868307352
99.1697001457
99.566180706
99.1697001457
99.5703107119
99.1531801224
99.5537906885
99.1697001457
99.5868307352
99.5496606827
99.5703107119
99.5703107119
99.5868307352
99.1160100698
99.5372706652
99.5331406593
99.5537906885
99.5703107119
99.5703107119
99.5537906885
99.5868307352
99.516620636
99.1697001457
99.5868307352
99.516620636
99.5207506418
99.1036200523
99.136660099
99.1531801224
99.5868307352
99.0829700232
99.1201400757
99.5868307352
99.5207506418
99.1201400757
99.5537906885
99.136660099
99.1573101282
99.2027401924
99.136660099
99.5331406593
99.5868307352
99.5537906885
99.5537906885
99.5537906885
99.5868307352
99.566180706
99.5868307352
99.5537906885
99.5868307352
99.516620636
99.1201400757
99.5496606827
99.6033507586
99.5537906885
99.1036200523
99.136660099
99.590960741
99.136660099
99.5703107119
99.1201400757
99.1201400757
99.1036200523
99.1201400757
99.1160100698
99.136660099
99.5496606827
99.5331406593
99.4835805893
99.5496606827
99.5537906885
99.5537906885
99.5331406593
99.5496606827
99.5703107119
99.5868307352
99.1531801224
99.566180706
99.1201400757
99.1201400757
99.1531801224
99.5868307352
99.5496606827
99.5703107119
99.6198707819
99.5868307352
99.5703107119
99.5537906885
99.516620636
99.1201400757
99.5331406593
99.5537906885
99.5703107119
99.5868307352
99.5496606827
99.1738301516
99.6198707819
99.5372706652
99.6033507586
99.566180706
99.5868307352
99.1531801224
99.1036200523
99.136660099
99.5496606827
99.136660099
99.5372706652
99.5868307352
99.2068701982
99.6735608578
99.5537906885
99.6198707819
99.1862201691
99.1903501749

Block: 10
======================================
99.6405208111
99.1903501749
99.5868307352
99.1697001457
99.6033507586
99.1697001457
99.6240007877
99.6363908052
99.6033507586
99.1697001457
99.6074807644
99.6405208111
99.6033507586
99.2233902216
99.5868307352
99.2068701982
99.136660099
99.6405208111
99.5868307352
99.6240007877
99.6033507586
99.6033507586
99.5868307352
99.5703107119
99.5868307352
99.5868307352
99.5703107119
99.5703107119
99.6240007877
99.5868307352
99.5868307352
99.6198707819
99.5537906885
99.5331406593
99.6033507586
99.5868307352
99.5868307352
99.5868307352
99.6240007877
99.6405208111
99.6240007877
99.136660099
99.6198707819
99.1697001457
99.5703107119
99.2068701982
99.1738301516
99.6198707819
99.2068701982
99.5868307352
99.6074807644
99.1903501749
99.2068701982
99.5703107119
99.5868307352
99.6240007877
99.5868307352
99.6033507586
99.2233902216
99.1862201691
99.5868307352
99.6405208111
99.5868307352
99.1697001457
99.5331406593
99.6405208111
99.6570408344
99.6198707819
99.1903501749
99.5703107119
99.5372706652
99.5703107119
99.1201400757
99.5868307352
99.136660099
99.5703107119
99.1738301516
99.1862201691
99.5496606827
99.5868307352
99.6405208111
99.6074807644
99.566180706
99.5868307352
99.5331406593
99.516620636
99.1036200523
99.136660099
99.5703107119
99.1531801224
99.136660099
99.136660099
99.6074807644
99.1903501749
99.5496606827
99.5703107119
99.5496606827
99.6074807644
99.2068701982
99.5868307352
99.6198707819
99.5331406593
99.136660099
99.566180706
99.1201400757
99.516620636
99.6074807644
99.5868307352
99.1201400757
99.6240007877
99.5372706652
99.566180706
99.1903501749
99.1531801224
99.5537906885
99.1903501749
99.1201400757
99.136660099
99.5537906885
99.516620636
99.1531801224
99.1531801224
99.5868307352
99.516620636
99.1531801224
99.5703107119
99.5496606827
99.0994900465
99.6033507586
99.1160100698
99.5331406593
99.5537906885
99.5537906885
99.5537906885
99.5703107119
99.566180706
99.5703107119
99.5537906885
99.5868307352
99.1201400757
99.5331406593
99.1201400757
99.136660099
99.1531801224
99.136660099
99.5703107119
99.5372706652
99.5331406593
99.1697001457
99.1573101282
99.6033507586
99.516620636
99.136660099
99.136660099
99.5537906885
99.5496606827
99.590960741
99.136660099
99.5331406593
99.516620636
99.5703107119
99.5703107119
99.6405208111
99.5703107119
99.5207506418
99.5868307352
99.5537906885
99.5868307352
99.6198707819
99.6033507586
99.6033507586
99.6198707819
99.6405208111
99.6033507586
99.6033507586
99.6074807644
99.6405208111
99.136660099
99.5703107119
99.5537906885
99.5868307352
99.2729502916
99.5703107119
99.6198707819
99.5703107119
99.6198707819
99.1862201691
99.6198707819
99.6363908052
99.6405208111
99.5868307352
99.1903501749
99.1573101282
99.136660099
99.1531801224
99.1036200523
99.5703107119
99.5207506418
99.5703107119
99.6198707819
99.5868307352
99.6405208111
99.5703107119
99.6570408344
99.6570408344
99.6033507586
99.2068701982
99.6405208111
99.6405208111
99.6198707819
99.6198707819
99.5703107119
99.5372706652
99.6033507586
99.5372706652
99.6033507586
99.6363908052
99.1697001457
99.5868307352
99.5868307352
99.6405208111
99.2068701982
99.2068701982
99.6240007877
99.6033507586
99.6363908052
99.6033507586
99.5703107119
99.6198707819
99.5868307352
99.2233902216
99.6363908052
99.5703107119
99.6198707819
99.6033507586
99.1697001457
99.1697001457
99.6405208111
99.5703107119
99.6074807644
99.6529108286
99.6240007877
99.2233902216
99.6405208111
99.1903501749
99.6198707819
99.6570408344
99.2068701982
99.6405208111
99.6405208111
