
Block: 1
======================================
101.197533011
100.350881815
100.350881815
101.181012988
100.801052451
100.768012404
100.763882399
100.763882399
100.784532428
100.780402422

Block: 2
======================================
100.334361792
100.350881815
100.763882399
100.730842352
101.160362959
101.218183041
101.147972941
101.181012988
101.181012988
100.763882399

Block: 3
======================================
100.334361792
100.334361792
100.280671716
100.313711762
101.197533011
99.9337512255
100.730842352
100.317841768
100.730842352
101.214053035

Block: 4
======================================
100.313711762
100.334361792
101.164492965
100.313711762
99.9544012547
100.747362375
100.297191739
100.350881815
100.313711762
100.346751809

Block: 5
======================================
100.313711762
100.297191739
100.363271832
101.218183041
99.9667912722
101.197533011
101.197533011
100.763882399
100.313711762
101.164492965

Block: 6
======================================
100.313711762
100.330231786
100.796922445
100.747362375
100.334361792
100.747362375
99.9502712488
101.214053035
99.9337512255
100.784532428

Block: 7
======================================
100.330231786
100.693672299
100.747362375
101.181012988
100.780402422
99.9172312021
101.197533011
100.330231786
101.214053035
101.181012988

Block: 8
======================================
100.796922445
100.313711762
99.9172312021
100.313711762
100.334361792
100.313711762
100.313711762
100.317841768
100.714322329
100.350881815

Block: 9
======================================
100.330231786
100.346751809
100.313711762
100.334361792
100.747362375
100.313711762
100.313711762
100.313711762
101.201663017
100.350881815

Block: 10
======================================
100.334361792
100.350881815
100.763882399
101.214053035
100.313711762
100.313711762
100.346751809
99.9337512255
100.801052451
101.201663017
