
Block: 1
======================================
301.150651741
300.691307974
300.687242985
300.687242985
301.577475595
301.593735552
300.691307974
301.573410606
301.150651741
301.118131828
301.134391785
301.114066839
301.577475595
301.55715065
300.687242985
301.577475595
301.577475595
300.70756793
301.134391785
300.675048018
300.691307974
300.70756793
302.463643217
301.988039494
300.687242985
300.691307974
300.691307974
300.691307974
301.561215639
301.593735552
302.020559406
301.561215639
301.134391785
301.134391785
301.134391785
301.114066839
300.691307974
301.118131828
301.150651741
301.118131828
300.670983028
300.687242985
301.114066839
300.691307974
300.670983028
300.687242985
300.687242985
300.670983028
301.55715065
300.675048018
302.431123304
300.687242985
300.687242985
300.691307974
301.114066839
302.447383261
301.561215639
301.118131828
300.687242985
301.134391785
301.134391785
300.670983028
301.134391785
300.691307974
301.577475595
301.55715065
301.134391785
301.170976686
301.118131828
300.691307974
301.118131828
301.134391785
300.691307974
301.561215639
301.561215639

Average distance is : 301.123 cm
Average deviation is : 0.461 cm
Block: 2
======================================
300.703502941
301.983974504
300.703502941
300.691307974
300.691307974
300.70756793
300.691307974
302.447383261
301.134391785
301.55715065
300.691307974
301.118131828
300.70756793
300.691307974
300.687242985
301.988039494
301.150651741
301.118131828
301.577475595
301.55715065
300.70756793
301.134391785
300.691307974
300.691307974
300.70756793
300.691307974
300.723827887
301.134391785
300.691307974
301.971779537
301.561215639
301.134391785
301.988039494
300.691307974
301.983974504
300.675048018
301.118131828
300.691307974
301.577475595
302.410798359
300.670983028
301.577475595
301.55715065
301.134391785
301.118131828
301.577475595
301.134391785
301.55715065
300.675048018
301.55715065
300.691307974
301.114066839
301.134391785
300.654723072
301.561215639
301.118131828
300.675048018
301.593735552
301.577475595
302.020559406
302.427058315
300.654723072
300.675048018
301.577475595
301.561215639
300.670983028
301.101871872
302.000234461
300.687242985
301.114066839
300.670983028
302.85388217
301.118131828
300.691307974
300.70756793

Average distance is : 301.184 cm
Average deviation is : 0.547 cm
Block: 3
======================================
300.70756793
301.114066839
300.670983028
300.675048018
300.723827887
300.675048018
301.540890694
300.727892876
301.577475595
300.70756793
301.114066839
300.691307974
300.70756793
301.134391785
301.134391785
301.134391785
300.687242985
300.675048018
300.670983028
300.691307974
301.150651741
300.658788061
301.540890694
302.427058315
302.020559406
300.691307974
301.134391785
301.134391785
301.577475595
301.134391785
300.691307974
301.150651741
301.134391785
301.150651741
302.85388217
301.561215639
300.675048018
300.687242985
301.118131828
301.114066839
301.561215639
300.675048018
301.983974504
300.675048018
300.691307974
301.561215639
300.687242985
300.675048018
300.691307974
301.118131828
301.114066839
300.654723072
300.70756793
301.118131828
301.561215639
300.70756793
300.723827887
300.675048018
301.55715065
301.130326796
301.988039494
301.118131828
301.114066839
300.687242985
300.670983028
301.097806883
300.691307974
301.114066839
301.573410606
300.691307974
301.150651741
301.118131828
301.130326796
301.097806883
301.118131828

Average distance is : 301.067 cm
Average deviation is : 0.449 cm
Block: 4
======================================
301.150651741
301.967714548
300.829517603
301.101871872
301.55715065
301.134391785
300.691307974
301.597800541
301.118131828
300.691307974
300.691307974
300.691307974
302.020559406
300.691307974
302.447383261
301.114066839
300.675048018
300.654723072
301.577475595
301.130326796
300.658788061
300.703502941
301.118131828
300.691307974
300.691307974
301.577475595
301.597800541
301.134391785
300.70756793
300.687242985
300.723827887
301.134391785
300.687242985
300.723827887
301.134391785
302.020559406
302.020559406
300.70756793
301.577475595
301.134391785
301.577475595
300.70756793
300.675048018
302.447383261
302.443318272
300.691307974
300.691307974
301.134391785
300.675048018
302.463643217
300.70756793
300.691307974
301.150651741
302.00429945
300.70756793
300.691307974
300.723827887
301.166911697
300.691307974
301.577475595
301.150651741
300.691307974
300.691307974
300.691307974
301.130326796
300.70756793
302.00429945
301.114066839
302.447383261
301.577475595
300.691307974
301.573410606
300.691307974
301.577475595
301.561215639

Average distance is : 301.158 cm
Average deviation is : 0.548 cm
Block: 5
======================================
300.691307974
301.577475595
302.020559406
300.675048018
300.691307974
300.70756793
302.447383261
300.70756793
300.70756793
300.70756793
301.577475595
300.691307974
300.691307974
300.675048018
301.146586752
300.691307974
301.577475595
301.150651741
301.593735552
300.691307974
301.118131828
301.134391785
301.577475595
301.114066839
300.910817385
300.675048018
301.114066839
300.691307974
301.118131828
300.70756793
300.691307974
301.134391785
300.70756793
300.70756793
301.130326796
301.577475595
300.658788061
301.134391785
300.675048018
301.597800541
301.577475595
301.150651741
300.687242985
300.691307974
301.118131828
300.691307974
300.70756793
301.114066839
301.150651741
301.130326796
301.114066839
300.691307974
300.70756793
300.670983028
301.55715065
300.70756793
300.691307974
300.691307974
300.670983028
300.691307974
301.134391785
301.55715065
301.134391785
300.691307974
300.675048018
300.670983028
301.134391785
301.593735552
301.118131828
300.70756793
301.134391785
300.691307974
300.691307974
300.691307974
300.658788061

Average distance is : 300.988 cm
Average deviation is : 0.386 cm
Block: 6
======================================
301.540890694
301.130326796
302.00429945
301.593735552
301.118131828
300.670983028
301.577475595
300.691307974
301.577475595
301.573410606
300.687242985
301.101871872
301.130326796
301.134391785
301.118131828
302.85388217
300.691307974
302.447383261
301.150651741
301.134391785
302.85388217
300.70756793
301.593735552
301.114066839
300.691307974
300.670983028
301.114066839
300.703502941
300.70756793
301.150651741
301.561215639
301.134391785
300.658788061
300.691307974
300.658788061
300.691307974
300.670983028
300.654723072
301.134391785
300.70756793
301.544955683
301.130326796
300.670983028
300.691307974
300.691307974
300.691307974
300.687242985
301.561215639
300.675048018
300.691307974
301.561215639
300.658788061
300.691307974
300.691307974
300.691307974
300.691307974
300.691307974
300.670983028
300.675048018
300.675048018
300.687242985
300.670983028
301.118131828
301.55715065
300.675048018
300.654723072
302.431123304
300.675048018
301.134391785
300.691307974
300.670983028
300.691307974
300.670983028
301.967714548
301.134391785

Average distance is : 301.053 cm
Average deviation is : 0.529 cm
Block: 7
======================================
300.670983028
300.638463116
300.670983028
300.670983028
300.638463116
300.675048018
300.670983028
302.427058315
301.55715065
301.544955683
300.654723072
301.097806883
300.670983028
301.130326796
301.540890694
301.544955683
300.670983028
300.675048018
300.675048018
300.638463116
301.118131828
300.658788061
300.658788061
301.540890694
301.097806883
301.114066839
300.654723072
300.658788061
300.638463116
300.675048018
301.118131828
300.654723072
300.670983028
300.654723072
301.114066839
301.097806883
301.101871872
301.967714548
300.654723072
301.101871872
301.118131828
301.118131828
300.638463116
301.085611916
301.540890694
300.638463116
300.654723072
301.081546926
300.675048018
300.675048018
300.654723072
301.544955683
301.114066839
300.654723072
300.670983028
301.967714548
301.101871872
301.081546926
301.544955683
300.638463116
301.561215639
300.675048018
300.675048018
300.638463116
301.097806883
301.951454592
301.540890694
301.101871872
301.540890694
300.670983028
300.670983028
301.544955683
301.081546926
301.540890694
301.101871872

Average distance is : 301.013 cm
Average deviation is : 0.422 cm
Block: 8
======================================
301.081546926
300.670983028
300.622203159
301.118131828
300.658788061
300.658788061
301.540890694
300.638463116
301.101871872
301.101871872
301.561215639
300.670983028
300.638463116
301.540890694
301.101871872
301.081546926
300.670983028
300.670983028
300.638463116
300.687242985
302.00429945
301.097806883
300.658788061
300.638463116
301.097806883
300.654723072
300.658788061
301.097806883
301.097806883
300.691307974
300.638463116
300.675048018
301.540890694
300.658788061
301.983974504
301.118131828
302.410798359
300.670983028
301.097806883
300.638463116
301.561215639
300.658788061
301.097806883
300.654723072
300.654723072
301.085611916
300.670983028
301.097806883
300.658788061
301.081546926
301.101871872
300.658788061
301.081546926
301.085611916
300.654723072
301.540890694
301.101871872
300.638463116
300.654723072
300.638463116
301.085611916
301.983974504
301.114066839
301.971779537
300.638463116
301.097806883
300.658788061
301.097806883
300.638463116
300.658788061
301.114066839
301.101871872
300.670983028
301.524630737
300.654723072

Average distance is : 300.986 cm
Average deviation is : 0.412 cm
Block: 9
======================================
300.670983028
300.638463116
301.524630737
300.622203159
300.654723072
300.654723072
301.114066839
301.544955683
300.654723072
301.118131828
300.670983028
301.540890694
301.101871872
300.654723072
300.670983028
300.658788061
300.675048018
301.101871872
302.427058315
300.638463116
300.654723072
301.524630737
301.951454592
300.654723072
301.544955683
301.097806883
300.654723072
301.114066839
301.081546926
301.967714548
300.638463116
301.118131828
300.638463116
301.101871872
300.638463116
301.544955683
300.638463116
300.654723072
301.150651741
301.114066839
301.101871872
301.971779537
301.097806883
302.431123304
301.097806883
301.544955683
300.670983028
301.097806883
300.670983028
301.374226141
301.118131828
300.654723072
301.544955683
301.101871872
300.638463116
300.675048018
300.638463116
301.097806883
301.085611916
301.118131828
301.561215639
301.967714548
300.675048018
301.097806883
301.540890694
301.524630737
300.654723072
301.081546926
300.691307974
300.675048018
301.134391785
301.081546926
301.101871872
301.951454592
302.00429945

Average distance is : 301.097 cm
Average deviation is : 0.468 cm
Block: 10
======================================
300.675048018
302.00429945
301.118131828
301.114066839
301.561215639
301.540890694
301.114066839
301.081546926
301.540890694
301.114066839
301.118131828
300.670983028
301.118131828
300.654723072
301.561215639
300.675048018
301.544955683
301.101871872
301.544955683
301.577475595
300.675048018
301.55715065
301.118131828
301.988039494
300.654723072
300.658788061
301.101871872
301.101871872
300.654723072
301.101871872
300.687242985
300.670983028
302.00429945
301.085611916
301.097806883
301.55715065
300.670983028
301.55715065
301.118131828
301.114066839
300.691307974
300.675048018
301.561215639
300.675048018
300.70756793
301.577475595
300.70756793
301.561215639
301.390486097
302.00429945
300.691307974
300.691307974
301.097806883
302.410798359
300.670983028
300.670983028
300.691307974
300.675048018
301.114066839
301.118131828
301.150651741
301.55715065
301.988039494
302.431123304
301.540890694
301.134391785
301.561215639
301.114066839
301.134391785
300.675048018
301.561215639
300.670983028
300.691307974
301.118131828
301.097806883

Average distance is : 301.166 cm
Average deviation is : 0.455 cm
Block: 1
======================================
300.84171257
301.695360279
300.809192657
300.382368803
301.284796381
300.398628759
300.845777559
301.695360279
300.431148672
300.398628759
300.84171257
301.284796381
300.84171257
300.382368803
301.695360279
300.825452614
300.382368803
300.845777559
300.402693748
300.825452614
300.845777559
300.386433792
300.382368803
299.939284992
299.955544949
300.398628759
301.268536425
300.825452614
300.386433792
300.382368803
300.845777559
300.398628759
300.84171257
300.382368803
300.382368803
300.809192657
301.28886137
301.252276468
300.398628759
300.386433792
300.845777559
300.414888716
299.99212985
301.731945181
301.28886137
299.955544949
300.398628759
301.28886137
300.418953705
300.825452614
300.402693748
300.435213661
299.988064861
301.731945181
300.398628759
300.418953705
300.418953705
300.382368803
301.28886137
300.845777559
300.398628759
300.862037516
300.829517603
301.28886137
301.272601414
300.825452614
301.284796381
301.284796381
300.857972527
300.398628759
300.435213661
300.398628759
300.414888716
300.418953705
300.825452614

Average distance is : 300.722 cm
Average deviation is : 0.452 cm
Block: 2
======================================
300.418953705
301.268536425
300.414888716
300.435213661
300.398628759
300.857972527
300.418953705
300.418953705
300.398628759
300.435213661
300.84171257
300.398628759
300.845777559
300.418953705
300.862037516
300.418953705
300.451473618
300.435213661
300.878297472
300.862037516
301.731945181
300.84171257
300.845777559
300.435213661
301.321381283
300.862037516
300.451473618
300.878297472
300.878297472
300.894557428
300.435213661
300.435213661
300.435213661
301.321381283
300.435213661
300.435213661
300.451473618
301.321381283
300.435213661
300.435213661
300.898622417
300.451473618
300.451473618
300.435213661
301.317316294
301.301056337
301.748205137
300.435213661
300.467733574
300.894557428
300.862037516
301.337641239
301.321381283
300.414888716
300.878297472
300.894557428
300.435213661
301.321381283
300.910817385
300.467733574
300.467733574
300.435213661
300.845777559
300.878297472
300.008389807
300.878297472
300.451473618
301.748205137
300.435213661
301.321381283
300.431148672
300.451473618
301.337641239
301.321381283
300.927077341

Average distance is : 300.751 cm
Average deviation is : 0.393 cm
Block: 3
======================================
300.467733574
300.943337297
300.48399353
301.341706228
300.910817385
300.467733574
300.894557428
300.48399353
300.927077341
300.451473618
300.93114233
301.370161152
300.451473618
300.471798563
301.374226141
300.910817385
300.467733574
300.48399353
300.488058519
300.504318476
300.927077341
300.927077341
300.93114233
300.504318476
300.467733574
300.927077341
300.910817385
300.48399353
300.467733574
301.374226141
300.488058519
301.370161152
300.48399353
300.910817385
300.943337297
300.910817385
301.370161152
300.910817385
300.504318476
301.353901196
300.504318476
300.910817385
300.927077341
301.357966185
300.488058519
301.374226141
302.634372759
300.467733574
301.353901196
300.471798563
300.488058519
301.801049995
300.467733574
300.910817385
300.488058519
301.353901196
300.467733574
300.467733574
300.914882374
301.357966185
300.504318476
300.910817385
300.488058519
300.467733574
300.451473618
300.947402287
300.488058519
300.48399353
300.467733574
301.370161152
300.910817385
300.48399353
300.451473618
300.467733574
300.910817385

Average distance is : 300.813 cm
Average deviation is : 0.414 cm
Block: 4
======================================
300.451473618
300.451473618
301.321381283
300.857972527
300.488058519
300.894557428
300.894557428
301.337641239
300.894557428
300.878297472
300.910817385
300.451473618
300.451473618
302.614047813
300.878297472
300.451473618
300.451473618
300.467733574
300.451473618
300.467733574
300.894557428
301.78072505
300.467733574
300.418953705
300.435213661
301.748205137
300.910817385
300.431148672
300.418953705
300.894557428
300.435213661
300.878297472
300.894557428
300.467733574
300.451473618
301.337641239
300.48399353
300.451473618
300.910817385
300.467733574
300.451473618
301.337641239
300.878297472
301.337641239
300.894557428
301.337641239
301.321381283
300.418953705
300.435213661
301.731945181
300.431148672
300.451473618
300.431148672
300.435213661
300.894557428
300.451473618
300.451473618
300.455538607
300.418953705
300.451473618
300.451473618
300.435213661
300.471798563
301.731945181
300.435213661
300.435213661
300.894557428
300.862037516
301.321381283
300.894557428
300.878297472
300.451473618
300.451473618
300.878297472
301.321381283

Average distance is : 300.776 cm
Average deviation is : 0.443 cm
Block: 5
======================================
300.418953705
300.84171257
300.84171257
301.695360279
300.418953705
300.414888716
300.857972527
301.284796381
300.878297472
300.435213661
300.418953705
300.435213661
300.862037516
300.435213661
300.471798563
300.431148672
300.862037516
300.878297472
300.435213661
301.305121326
300.418953705
301.748205137
300.418953705
300.862037516
300.402693748
300.862037516
301.321381283
300.894557428
301.711620235
301.321381283
300.857972527
300.435213661
299.99212985
300.862037516
301.731945181
299.99212985
300.862037516
300.878297472
300.402693748
300.414888716
300.398628759
300.845777559
300.418953705
300.398628759
300.878297472
300.414888716
300.398628759
300.418953705
301.764465094
300.878297472
301.284796381
300.398628759
301.301056337
300.435213661
300.435213661
300.414888716
301.305121326
300.862037516
300.418953705
301.744140148
300.382368803
300.878297472
300.418953705
300.402693748
300.402693748
300.894557428
300.862037516
300.418953705
301.321381283
300.435213661
300.862037516
300.414888716
300.418953705
301.284796381
300.431148672

Average distance is : 300.750 cm
Average deviation is : 0.434 cm
Block: 6
======================================
300.418953705
302.191288948
300.451473618
300.862037516
301.715685225
301.727880192
300.845777559
300.435213661
300.435213661
301.727880192
300.84171257
301.317316294
300.862037516
300.857972527
301.28886137
300.825452614
300.84171257
300.418953705
300.862037516
301.305121326
301.305121326
300.398628759
300.862037516
300.418953705
300.418953705
300.418953705
301.284796381
300.862037516
301.731945181
300.878297472
299.99212985
301.305121326
300.431148672
300.402693748
300.84171257
300.398628759
300.862037516
300.398628759
301.28886137
300.878297472
300.435213661
300.84171257
302.191288948
301.305121326
301.321381283
300.84171257
300.862037516
300.435213661
300.878297472
300.435213661
300.878297472
300.435213661
300.435213661
300.418953705
300.435213661
301.321381283
300.878297472
300.878297472
300.451473618
300.414888716
300.894557428
301.321381283
300.878297472
300.435213661
300.414888716
300.451473618
300.435213661
300.414888716
300.878297472
300.878297472
300.894557428
300.435213661
300.894557428
300.451473618
300.435213661

Average distance is : 300.824 cm
Average deviation is : 0.451 cm
Block: 7
======================================
300.910817385
300.435213661
300.435213661
300.467733574
300.435213661
300.435213661
300.008389807
300.451473618
300.431148672
301.337641239
300.894557428
301.353901196
300.878297472
300.451473618
300.857972527
300.894557428
300.467733574
300.451473618
300.451473618
300.435213661
301.321381283
301.321381283
301.764465094
300.414888716
300.431148672
300.435213661
301.321381283
300.894557428
301.744140148
300.451473618
300.451473618
300.435213661
300.874232483
300.435213661
300.878297472
300.435213661
300.451473618
300.451473618
300.471798563
300.431148672
300.862037516
301.321381283
300.878297472
300.435213661
301.341706228
300.894557428
300.435213661
300.431148672
302.618112803
300.451473618
300.874232483
300.451473618
300.451473618
300.435213661
301.337641239
300.467733574
300.451473618
300.435213661
300.435213661
300.894557428
301.337641239
300.451473618
301.321381283
300.467733574
300.894557428
300.894557428
300.467733574
300.467733574
300.451473618
300.878297472
300.435213661
300.467733574
300.467733574
300.451473618
300.910817385

Average distance is : 300.722 cm
Average deviation is : 0.431 cm
Block: 8
======================================
300.894557428
300.008389807
300.435213661
301.370161152
300.008389807
300.008389807
300.467733574
300.435213661
300.48399353
301.78072505
300.894557428
300.467733574
300.467733574
300.467733574
300.878297472
300.467733574
301.744140148
301.317316294
300.451473618
300.431148672
300.435213661
301.301056337
300.418953705
300.894557428
300.435213661
300.431148672
300.878297472
300.874232483
300.894557428
300.451473618
300.857972527
299.99212985
300.862037516
301.321381283
300.878297472
301.748205137
300.878297472
300.878297472
300.418953705
301.305121326
300.894557428
300.435213661
300.451473618
300.451473618
300.878297472
300.471798563
301.748205137
300.435213661
301.321381283
301.337641239
300.435213661
300.451473618
300.435213661
300.878297472
300.878297472
300.451473618
300.435213661
301.337641239
300.431148672
300.894557428
300.451473618
300.008389807
300.451473618
300.894557428
300.414888716
300.435213661
300.435213661
300.435213661
300.874232483
300.878297472
301.321381283
300.878297472
301.321381283
300.451473618
300.451473618

Average distance is : 300.725 cm
Average deviation is : 0.431 cm
Block: 9
======================================
300.894557428
300.451473618
300.435213661
300.435213661
300.414888716
300.894557428
300.857972527
300.435213661
300.435213661
300.435213661
300.845777559
300.878297472
300.431148672
300.862037516
300.451473618
301.337641239
300.431148672
300.862037516
300.414888716
300.878297472
301.321381283
300.435213661
300.894557428
301.321381283
300.435213661
301.301056337
301.305121326
300.857972527
300.862037516
300.435213661
300.878297472
301.305121326
300.914882374
301.764465094
300.431148672
300.435213661
301.301056337
300.414888716
301.748205137
301.748205137
300.435213661
300.451473618
300.862037516
300.878297472
300.418953705
300.435213661
300.878297472
300.874232483
301.321381283
300.862037516
300.451473618
300.435213661
301.305121326
300.845777559
300.435213661
300.418953705
300.418953705
300.414888716
300.418953705
300.435213661
300.418953705
300.435213661
300.414888716
301.301056337
300.414888716
300.414888716
301.321381283
300.435213661
301.321381283
300.418953705
302.154704046
300.402693748
300.878297472
300.862037516
300.435213661

Average distance is : 300.771 cm
Average deviation is : 0.419 cm
Block: 10
======================================
300.418953705
300.398628759
300.862037516
300.414888716
301.284796381
300.845777559
300.845777559
300.878297472
300.386433792
300.435213661
300.402693748
300.418953705
300.398628759
300.862037516
300.398628759
300.418953705
300.414888716
300.857972527
300.414888716
300.845777559
301.305121326
300.382368803
300.398628759
300.857972527
300.402693748
300.84171257
300.829517603
300.845777559
300.382368803
300.845777559
301.305121326
300.418953705
302.581527901
301.711620235
300.414888716
300.414888716
301.301056337
300.84171257
300.414888716
300.862037516
300.366108847
300.84171257
300.418953705
300.402693748
301.711620235
300.418953705
300.382368803
300.435213661
301.305121326
301.305121326
300.414888716
300.857972527
300.857972527
301.268536425
300.402693748
301.305121326
300.414888716
301.284796381
300.845777559
300.398628759
300.845777559
301.731945181
300.382368803
300.382368803
301.284796381
301.731945181
300.402693748
300.418953705
300.84171257
300.418953705
300.825452614
300.402693748
301.711620235
302.170964003
300.402693748

Average distance is : 300.789 cm
Average deviation is : 0.487 cm