
Block: 1
======================================
300.654723072
300.687242985
300.675048018
300.670983028
301.540890694
301.097806883
301.540890694
301.983974504
300.654723072
300.691307974

Average distance is : 301.020 cm
Average deviation is : 0.495 cm
Block: 2
======================================
301.081546926
300.723827887
300.605943203
300.638463116
300.670983028
300.670983028
301.097806883
301.097806883
301.097806883
300.675048018

Average distance is : 300.836 cm
Average deviation is : 0.224 cm
Block: 3
======================================
300.638463116
300.687242985
301.134391785
301.55715065
300.675048018
301.097806883
301.114066839
300.691307974
301.101871872
301.097806883

Average distance is : 300.980 cm
Average deviation is : 0.297 cm
Block: 4
======================================
302.431123304
300.691307974
301.577475595
301.150651741
300.670983028
300.691307974
300.687242985
302.000234461
300.670983028
301.150651741

Average distance is : 301.172 cm
Average deviation is : 0.636 cm
Block: 5
======================================
300.675048018
301.561215639
301.134391785
301.134391785
300.70756793
300.675048018
301.118131828
300.675048018
301.593735552
301.097806883

Average distance is : 301.037 cm
Average deviation is : 0.352 cm
Block: 6
======================================
300.670983028
301.577475595
301.097806883
301.097806883
300.670983028
300.703502941
300.70756793
300.670983028
300.675048018
301.561215639

Average distance is : 300.943 cm
Average deviation is : 0.371 cm
Block: 7
======================================
301.134391785
301.114066839
302.427058315
300.691307974
300.691307974
301.561215639
301.134391785
300.691307974
301.134391785
301.593735552

Average distance is : 301.217 cm
Average deviation is : 0.536 cm
Block: 8
======================================
301.593735552
301.130326796
301.118131828
302.410798359
301.134391785
301.134391785
300.654723072
300.675048018
300.744152832
301.097806883

Average distance is : 301.169 cm
Average deviation is : 0.519 cm
Block: 9
======================================
301.577475595
302.020559406
300.70756793
300.670983028
300.691307974
301.577475595
300.70756793
300.675048018
301.118131828
301.150651741

Average distance is : 301.090 cm
Average deviation is : 0.488 cm
Block: 10
======================================
301.55715065
300.744152832
300.654723072
300.654723072
301.150651741
300.675048018
300.691307974
301.150651741
301.114066839
301.577475595

Average distance is : 300.997 cm
Average deviation is : 0.366 cm
Block: 1
======================================
300.776672745
300.862037516
300.366108847
300.825452614
301.252276468
300.845777559
300.809192657
300.84171257
300.382368803
300.366108847

Average distance is : 300.733 cm
Average deviation is : 0.283 cm
Block: 2
======================================
300.845777559
300.402693748
301.252276468
300.825452614
300.845777559
300.809192657
301.252276468
300.845777559
300.366108847
301.256341457

Average distance is : 300.870 cm
Average deviation is : 0.320 cm
Block: 3
======================================
300.813257647
300.809192657
300.813257647
301.236016512
300.333588934
301.252276468
300.366108847
300.366108847
300.84171257
300.366108847

Average distance is : 300.720 cm
Average deviation is : 0.352 cm
Block: 4
======================================
300.809192657
300.829517603
301.679100323
300.34984889
300.809192657
300.366108847
300.366108847
300.366108847
300.809192657
301.679100323

Average distance is : 300.806 cm
Average deviation is : 0.507 cm
Block: 5
======================================
300.809192657
300.829517603
300.366108847
300.825452614
300.776672745
301.236016512
300.398628759
300.809192657
301.252276468
300.792932701

Average distance is : 300.810 cm
Average deviation is : 0.288 cm
Block: 6
======================================
300.809192657
301.252276468
300.398628759
300.809192657
300.34984889
300.792932701
300.809192657
300.809192657
300.382368803
300.829517603

Average distance is : 300.724 cm
Average deviation is : 0.276 cm
Block: 7
======================================
300.34984889
300.34984889
300.366108847
300.772607756
300.345783901
300.366108847
300.809192657
300.825452614
301.236016512
300.809192657

Average distance is : 300.623 cm
Average deviation is : 0.310 cm
Block: 8
======================================
300.825452614
300.382368803
300.792932701
301.219756556
300.792932701
302.089664221
300.366108847
300.809192657
300.772607756
300.345783901

Average distance is : 300.840 cm
Average deviation is : 0.516 cm
Block: 9
======================================
301.252276468
300.792932701
301.231951523
300.329523945
300.809192657
300.809192657
301.252276468
300.792932701
300.366108847
300.809192657

Average distance is : 300.845 cm
Average deviation is : 0.331 cm
Block: 10
======================================
300.382368803
300.34984889
300.366108847
301.252276468
300.329523945
300.809192657
300.34984889
300.366108847
300.366108847
300.333588934

Average distance is : 300.490 cm
Average deviation is : 0.304 cm