
Block: 1
======================================
200.295877123
200.365104747
200.27958827
200.312165976
200.352888107
200.316238189
200.756037211
201.20398066
201.187691808
200.760109425
201.187691808
200.727531719
200.829337049
201.171402955
200.829337049
200.760109425
200.299949336
200.348815894
200.36917696
200.316238189
200.808975983
200.312165976
200.27958827
200.348815894
200.27958827
200.348815894
200.299949336
201.62749083
200.295877123
200.365104747
200.299949336
200.295877123
200.295877123
200.316238189
200.776398277
200.295877123
200.312165976
201.167330742
200.365104747
200.385465813
200.27958827
200.295877123
200.295877123
200.299949336
201.187691808
200.723459506
200.825264835
200.295877123
201.187691808
200.727531719
201.20398066
201.187691808
200.723459506
200.365104747
200.723459506
200.739748359
200.829337049
200.299949336
201.187691808
201.20398066
201.183619595
200.760109425
201.187691808
201.183619595
201.187691808
200.723459506
201.187691808
201.167330742
201.220269513
200.743820572
200.283660483
200.739748359
200.743820572
200.723459506
200.27958827

Block: 2
======================================
200.727531719
200.727531719
200.36917696
200.776398277
200.589076471
200.760109425
200.295877123
201.183619595
201.187691808
200.743820572
200.27958827
200.760109425
200.283660483
200.263299417
200.283660483
200.283660483
200.36917696
200.727531719
200.707170653
200.743820572
200.707170653
200.348815894
200.739748359
201.187691808
201.187691808
201.20398066
200.723459506
200.739748359
201.187691808
201.187691808
200.727531719
201.167330742
201.187691808
201.171402955
200.707170653
201.20398066
200.825264835
200.723459506
200.727531719
200.727531719
201.167330742
200.739748359
200.829337049
201.187691808
200.739748359
201.187691808
200.723459506
200.348815894
200.808975983
200.365104747
201.183619595
200.727531719
200.727531719
200.727531719
200.707170653
201.187691808
200.743820572
200.727531719
200.727531719
200.723459506
200.760109425
200.283660483
200.813048196
200.263299417
200.27958827
200.263299417
200.743820572
200.743820572
200.723459506
200.723459506
200.743820572
201.187691808
200.283660483
200.739748359
200.723459506

Block: 3
======================================
201.171402955
200.27958827
200.723459506
200.727531719
200.743820572
200.299949336
200.78047049
200.760109425
200.283660483
201.236558366
200.760109425
201.20398066
200.743820572
201.20398066
200.743820572
200.727531719
200.723459506
200.739748359
200.723459506
201.187691808
200.723459506
200.723459506
200.743820572
200.743820572
200.348815894
200.723459506
200.743820572
200.727531719
200.727531719
200.743820572
200.727531719
200.263299417
200.263299417
201.187691808
200.723459506
200.727531719
200.723459506
200.723459506
200.743820572
200.743820572
200.743820572
200.707170653
200.365104747
201.183619595
201.183619595
200.348815894
200.295877123
201.187691808
201.187691808
200.299949336
200.727531719
201.187691808
201.171402955
200.723459506
200.723459506
200.739748359
200.743820572
200.723459506
200.723459506
200.332527041
201.187691808
200.727531719
201.20398066
200.743820572
201.171402955
200.299949336
201.187691808
200.727531719
201.187691808
201.171402955
200.707170653
200.743820572
200.723459506
201.167330742
200.829337049

Block: 4
======================================
201.183619595
201.187691808
200.723459506
201.20398066
200.727531719
200.723459506
200.723459506
201.167330742
200.808975983
201.187691808
200.829337049
200.760109425
200.27958827
200.267371631
200.739748359
201.187691808
201.20398066
200.723459506
200.727531719
201.187691808
200.723459506
200.727531719
200.267371631
200.727531719
200.27958827
200.295877123
200.743820572
200.796759343
200.263299417
201.187691808
200.316238189
200.723459506
200.723459506
200.283660483
200.829337049
201.183619595
201.183619595
201.171402955
200.727531719
200.36917696
201.20398066
200.739748359
201.20398066
200.299949336
201.187691808
200.813048196
201.187691808
200.299949336
200.348815894
201.151041889
200.36917696
200.299949336
200.316238189
200.727531719
200.295877123
200.299949336
201.187691808
201.171402955
200.739748359
200.829337049
200.723459506
200.743820572
200.723459506
201.220269513
200.727531719
200.743820572
200.27958827
200.295877123
201.20398066
201.199908447
201.187691808
200.36917696
201.187691808
201.183619595
200.727531719

Block: 5
======================================
200.316238189
201.20398066
200.707170653
201.167330742
201.187691808
200.365104747
201.20398066
200.711242867
200.727531719
200.316238189
200.299949336
200.36917696
201.187691808
200.723459506
200.365104747
201.183619595
200.299949336
201.187691808
201.183619595
201.20398066
201.183619595
200.348815894
200.365104747
200.723459506
201.20398066
200.36917696
200.727531719
200.743820572
201.171402955
200.723459506
200.27958827
201.20398066
201.20398066
200.727531719
200.743820572
201.187691808
201.187691808
200.739748359
201.20398066
201.187691808
201.171402955
201.187691808
200.727531719
201.20398066
200.263299417
200.727531719
200.723459506
201.187691808
200.739748359
201.187691808
200.283660483
201.20398066
200.776398277
200.263299417
201.167330742
200.27958827
200.707170653
200.27958827
200.727531719
200.283660483
200.743820572
200.743820572
200.27958827
200.27958827
200.739748359
200.723459506
200.727531719
200.263299417
201.220269513
200.727531719
200.743820572
200.743820572
200.707170653
200.707170653
200.27958827

Block: 6
======================================
200.743820572
200.723459506
200.247010565
200.283660483
200.723459506
200.743820572
200.727531719
200.727531719
201.167330742
200.739748359
200.299949336
200.776398277
200.27958827
200.299949336
200.365104747
201.187691808
200.723459506
201.20398066
201.20398066
200.727531719
200.727531719
201.167330742
201.20398066
200.743820572
200.727531719
200.723459506
200.723459506
201.167330742
200.707170653
201.171402955
200.743820572
200.727531719
200.760109425
200.743820572
200.743820572
200.263299417
201.187691808
200.739748359
200.707170653
201.187691808
200.727531719
200.743820572
200.723459506
200.723459506
200.283660483
200.727531719
200.829337049
200.743820572
201.187691808
201.183619595
200.365104747
201.20398066
200.743820572
201.187691808
200.727531719
200.348815894
200.743820572
200.332527041
200.727531719
201.187691808
201.187691808
201.183619595
200.295877123
201.187691808
201.171402955
200.723459506
201.183619595
200.727531719
201.187691808
200.348815894
201.199908447
200.316238189
201.20398066
200.727531719
201.167330742

Block: 7
======================================
200.316238189
200.79268713
200.283660483
200.739748359
200.808975983
200.316238189
200.316238189
201.187691808
201.183619595
200.743820572
200.312165976
201.20398066
201.187691808
200.776398277
200.332527041
201.20398066
201.20398066
200.299949336
201.20398066
201.20398066
200.723459506
201.187691808
200.78047049
200.295877123
200.365104747
200.316238189
200.299949336
200.312165976
201.187691808
201.187691808
201.187691808
201.183619595
201.187691808
201.187691808
200.723459506
201.187691808
200.727531719
200.316238189
200.295877123
200.295877123
200.295877123
201.20398066
200.727531719
200.332527041
201.171402955
200.27958827
200.723459506
200.743820572
200.760109425
201.20398066
201.20398066
201.187691808
201.183619595
201.187691808
200.727531719
200.723459506
200.723459506
200.829337049
200.743820572
200.743820572
200.739748359
200.743820572
200.727531719
200.739748359
201.20398066
200.727531719
200.385465813
200.723459506
200.727531719
200.760109425
200.727531719
200.756037211
200.707170653
201.20398066
201.20398066

Block: 8
======================================
201.187691808
201.187691808
200.332527041
200.760109425
200.267371631
200.739748359
200.312165976
200.739748359
200.743820572
201.20398066
200.316238189
200.299949336
200.760109425
200.3813936
201.20398066
201.187691808
200.845625901
201.20398066
201.631563044
200.760109425
200.299949336
200.312165976
200.299949336
200.316238189
200.36917696
200.299949336
200.312165976
200.299949336
200.316238189
200.332527041
201.199908447
200.316238189
200.365104747
200.776398277
200.776398277
200.365104747
200.385465813
200.348815894
200.385465813
200.36917696
200.316238189
200.365104747
200.36917696
200.727531719
200.316238189
200.776398277
200.36917696
201.187691808
200.312165976
200.332527041
200.36917696
200.385465813
201.20398066
200.299949336
200.316238189
200.36917696
200.316238189
200.348815894
200.808975983
200.316238189
201.187691808
201.20398066
200.829337049
201.187691808
201.20398066
201.187691808
200.316238189
201.20398066
201.183619595
201.20398066
200.723459506
200.385465813
201.187691808
201.187691808
201.171402955

Block: 9
======================================
200.316238189
200.316238189
200.385465813
200.829337049
200.332527041
200.760109425
201.20398066
200.760109425
200.723459506
200.295877123
200.316238189
200.312165976
200.829337049
200.79268713
200.299949336
200.813048196
200.841553688
200.299949336
200.295877123
200.299949336
200.316238189
200.295877123
200.295877123
200.299949336
200.299949336
200.365104747
201.20398066
200.316238189
200.3813936
200.776398277
201.187691808
200.36917696
200.316238189
200.743820572
200.743820572
200.760109425
201.20398066
200.316238189
200.829337049
201.20398066
201.20398066
201.20398066
201.187691808
201.20398066
201.000370002
200.776398277
201.20398066
200.27958827
200.743820572
201.20398066
200.743820572
200.283660483
200.743820572
201.187691808
200.743820572
200.739748359
200.743820572
200.743820572
200.825264835
200.760109425
200.723459506
201.20398066
200.727531719
200.743820572
200.727531719
200.739748359
201.187691808
201.20398066
200.743820572
201.20398066
200.723459506
201.20398066
200.727531719
200.743820572
200.743820572

Block: 10
======================================
200.316238189
200.332527041
200.813048196
200.776398277
200.776398277
201.20398066
200.316238189
201.187691808
200.743820572
201.187691808
200.760109425
200.27958827
200.316238189
200.348815894
200.808975983
200.365104747
201.187691808
200.739748359
200.316238189
200.365104747
200.312165976
200.283660483
200.845625901
201.220269513
201.220269513
200.829337049
201.20398066
201.220269513
200.776398277
201.187691808
201.183619595
200.316238189
200.796759343
200.332527041
200.299949336
200.299949336
200.316238189
200.316238189
200.316238189
200.295877123
200.316238189
201.20398066
200.841553688
200.316238189
201.220269513
200.332527041
200.316238189
200.316238189
200.796759343
200.299949336
200.316238189
200.332527041
200.36917696
200.365104747
200.825264835
200.316238189
200.316238189
201.199908447
201.187691808
200.845625901
201.199908447
200.316238189
200.760109425
200.845625901
200.829337049
201.220269513
201.664140749
201.20398066
200.385465813
201.171402955
200.267371631
201.20398066
200.316238189
201.187691808
201.20398066
