
Block: 1
======================================
401.161723709
400.737175441
401.485189056
400.72504549
401.165767026
400.721002173
400.704828906
401.145550442
400.26410737
400.704828906
400.688655639
401.161723709
400.704828906
399.819342518
400.26410737
400.26410737
400.741218758
399.80316925
400.72504549
399.823385835
399.843602419
400.26410737
400.243890786
400.26410737
402.451541781

Block: 2
======================================
400.26410737
399.807212567
399.859775686
399.823385835
401.161723709
400.296453905
399.859775686
400.688655639
400.280280638
400.26410737
399.839559102
399.823385835
400.284323955
400.741218758
399.807212567
400.280280638
400.280280638
400.737175441
399.839559102
401.602445245
400.721002173
400.260064054
400.26410737
401.181940293
400.721002173

Block: 3
======================================
401.177896976
401.198113561
400.741218758
401.602445245
401.177896976
400.737175441
400.721002173
400.704828906
401.177896976
401.161723709
401.602445245
401.606488562
400.890821481
400.721002173
400.721002173
401.618618512
401.194070244
401.198113561
401.198113561
400.316670489
401.194070244
400.757392025
400.757392025
400.773565292
400.753348708

Block: 4
======================================
402.059340048
400.757392025
401.246633363
400.753348708
400.773565292
401.198113561
400.332843757
400.753348708
400.753348708
401.655008364
401.198113561
401.198113561
400.332843757
400.757392025
400.757392025
402.500061584
400.300497222
400.296453905
400.300497222
401.214286828
401.194070244
400.284323955
400.312627172
400.721002173
400.721002173

Block: 5
======================================
400.737175441
401.622661829
401.549882126
401.145550442
400.741218758
400.72504549
400.296453905
400.296453905
400.741218758
400.721002173
402.471758366
401.161723709
400.721002173
400.26410737
400.704828906
400.688655639
401.129377174
401.161723709
401.149593759
401.602445245
401.606488562
401.145550442
402.892263317
401.129377174
401.606488562

Block: 6
======================================
400.280280638
400.753348708
400.741218758
400.737175441
400.280280638
401.145550442
400.737175441
400.280280638
400.296453905
400.300497222
400.312627172
400.300497222
400.280280638
400.280280638
400.704828906
400.737175441
400.737175441
399.859775686
400.280280638
399.839559102
401.194070244
401.602445245
401.177896976
399.839559102
400.721002173

Block: 7
======================================
400.26410737
399.807212567
402.87609005
400.704828906
400.737175441
400.741218758
400.247934103
400.280280638
400.243890786
400.243890786
400.243890786
400.26410737
399.823385835
399.823385835
401.177896976
401.165767026
400.300497222
400.280280638
401.181940293
400.280280638
400.316670489
400.737175441
400.721002173
400.280280638
400.737175441

Block: 8
======================================
400.280280638
399.823385835
400.757392025
400.296453905
400.312627172
400.757392025
400.737175441
401.606488562
401.194070244
401.181940293
401.194070244
400.284323955
400.296453905
400.300497222
400.296453905
400.316670489
400.316670489
400.312627172
400.280280638
400.316670489
400.753348708
400.296453905
400.757392025
400.78973856
399.875948954

Block: 9
======================================
400.296453905
400.316670489
400.26410737
401.177896976
400.26410737
401.214286828
400.773565292
400.741218758
400.312627172
401.165767026
400.316670489
400.296453905
401.198113561
400.741218758
401.177896976
402.047210097
400.280280638
401.198113561
400.316670489
401.161723709
400.280280638
400.280280638
400.280280638
400.284323955
400.296453905

Block: 10
======================================
401.177896976
400.26410737
400.721002173
400.296453905
400.704828906
400.72504549
399.823385835
401.586271977
400.26410737
401.198113561
400.757392025
399.823385835
401.194070244
399.80316925
399.839559102
400.332843757
399.859775686
399.855732369
399.855732369
399.859775686
400.26410737
400.721002173
400.737175441
400.704828906
400.280280638
