
Block: 1
======================================
400.63609252
401.553925443
401.537752175
400.63609252
401.958257127
401.092987323
401.533708858
400.652265787
400.231760836
400.688655639

Block: 2
======================================
401.533708858
401.129377174
401.09703064
400.688655639
400.247934103
400.721002173
400.656309104
401.129377174
399.7910393
399.786995983

Block: 3
======================================
400.227717519
400.284323955
399.786995983
400.704828906
399.807212567
400.688655639
399.7910393
399.80316925
400.26410737
400.280280638

Block: 4
======================================
399.786995983
400.247934103
400.231760836
400.195370984
400.26410737
401.125333858
400.231760836
400.247934103
400.26410737
400.227717519

Block: 5
======================================
400.721002173
400.737175441
400.312627172
400.296453905
400.721002173
400.741218758
401.214286828
400.757392025
401.198113561
400.296453905

Block: 6
======================================
401.161723709
401.198113561
401.194070244
400.757392025
400.753348708
400.741218758
401.198113561
402.924609852
400.741218758
401.214286828

Block: 7
======================================
401.618618512
401.161723709
401.198113561
401.177896976
400.721002173
400.704828906
401.145550442
402.892263317
400.721002173
401.161723709

Block: 8
======================================
401.149593759
401.165767026
401.145550442
401.165767026
400.296453905
400.296453905
400.296453905
400.300497222
400.280280638
401.177896976

Block: 9
======================================
400.753348708
401.177896976
401.177896976
401.622661829
401.638835096
400.721002173
400.773565292
402.5041049
401.181940293
400.721002173

Block: 10
======================================
400.296453905
400.757392025
400.737175441
400.280280638
400.721002173
401.177896976
400.296453905
400.721002173
400.721002173
401.194070244
