
Block: 1
======================================
299.410836411
299.427096367
299.378316498
299.394576454
299.394576454

Average distance is : 299.401 cm
Average deviation is : 0.019 cm
Block: 2
======================================
299.357991552
299.427096367
299.378316498
299.431161356
299.4149014

Average distance is : 299.402 cm
Average deviation is : 0.032 cm
Block: 3
======================================
299.427096367
299.410836411
299.410836411
299.427096367
299.427096367

Average distance is : 299.421 cm
Average deviation is : 0.009 cm
Block: 4
======================================
299.443356323
299.394576454
299.394576454
299.394576454
299.4149014

Average distance is : 299.408 cm
Average deviation is : 0.021 cm
Block: 5
======================================
299.427096367
299.447421312
299.394576454
299.410836411
299.394576454

Average distance is : 299.415 cm
Average deviation is : 0.023 cm
Block: 6
======================================
299.427096367
298.918972731
298.971817589
299.410836411
299.410836411

Average distance is : 299.228 cm
Average deviation is : 0.259 cm
Block: 7
======================================
299.431161356
299.410836411
298.984012556
299.378316498
299.463681269

Average distance is : 299.334 cm
Average deviation is : 0.198 cm
Block: 8
======================================
299.378316498
299.431161356
299.036857414
299.427096367
298.9677526

Average distance is : 299.248 cm
Average deviation is : 0.227 cm
Block: 9
======================================
299.427096367
299.394576454
299.410836411
299.447421312
299.410836411

Average distance is : 299.418 cm
Average deviation is : 0.020 cm
Block: 10
======================================
299.4149014
299.410836411
299.410836411
298.9677526
299.341731596

Average distance is : 299.309 cm
Average deviation is : 0.193 cm