
Block: 1
======================================
298.898647785
299.427096367
299.378316498
299.362056541
299.374251509
299.362056541
299.341731596
299.410836411
299.427096367
299.378316498
299.427096367
299.394576454
299.362056541
299.410836411
299.427096367
299.410836411
299.394576454
299.410836411
299.410836411
299.427096367
299.410836411
299.357991552
299.378316498
299.4149014
299.345796585
299.378316498
299.394576454
298.951492643
298.935232687
299.378316498
298.918972731
299.410836411
299.394576454
299.4149014
298.951492643
298.898647785
298.918972731
298.918972731
298.914907742
299.410836411
299.394576454
299.378316498
299.394576454
298.918972731
299.394576454
298.935232687
299.362056541
299.357991552
299.341731596
299.394576454
299.378316498
299.427096367
299.362056541
299.357991552
299.394576454
299.341731596
299.394576454
299.394576454
299.362056541
299.378316498
299.357991552
298.935232687
299.341731596
299.378316498
299.394576454
299.410836411
299.374251509
298.935232687
299.345796585
298.918972731
299.378316498
299.378316498
299.378316498
299.378316498
299.410836411
299.378316498
299.394576454
299.410836411
299.374251509
299.410836411
299.394576454
299.394576454
299.394576454
299.378316498
299.362056541
299.394576454
299.394576454
298.935232687
299.362056541
298.918972731
298.951492643
298.951492643
298.951492643
299.394576454
299.394576454
299.427096367
299.410836411
298.935232687
299.394576454
299.378316498

Average distance is : 299.296 cm
Average deviation is : 0.185 cm
Block: 2
======================================
299.394576454
299.4149014
299.410836411
299.378316498
299.394576454
299.378316498
299.427096367
299.378316498
298.508408833
299.378316498
299.362056541
299.410836411
299.427096367
299.4149014
299.394576454
299.394576454
299.394576454
298.935232687
299.341731596
298.914907742
299.378316498
299.394576454
299.394576454
299.345796585
299.362056541
298.935232687
298.918972731
298.951492643
299.357991552
299.427096367
298.935232687
299.4149014
298.984012556
299.410836411
299.410836411
299.357991552
299.374251509
298.9677526
299.394576454
298.9677526
299.410836411
299.378316498
299.378316498
299.357991552
299.362056541
299.374251509
298.931167698
299.394576454
298.914907742
299.410836411
298.902712774
298.914907742
299.362056541
298.951492643
299.378316498
299.378316498
298.935232687
298.914907742
299.362056541
299.378316498
299.378316498
298.918972731
299.4149014
299.374251509
299.329536629
299.362056541
299.378316498
299.410836411
299.394576454
299.394576454
299.394576454
298.935232687
299.378316498
299.394576454
299.362056541
298.914907742
299.378316498
299.394576454
298.931167698
298.935232687
299.362056541
299.345796585
298.9677526
299.357991552
299.378316498
298.914907742
299.357991552
299.378316498
298.935232687
298.882387829
299.345796585
298.951492643
299.394576454
298.951492643
299.345796585
298.914907742
298.914907742
298.918972731
298.902712774
299.362056541

Average distance is : 299.234 cm
Average deviation is : 0.223 cm
Block: 3
======================================
299.345796585
299.357991552
298.898647785
299.345796585
299.341731596
299.345796585
299.362056541
298.931167698
299.378316498
299.357991552
298.918972731
298.951492643
299.394576454
298.882387829
298.935232687
299.378316498
298.898647785
299.362056541
298.902712774
299.309211683
299.362056541
298.886452818
299.341731596
299.378316498
299.357991552
299.329536629
299.357991552
299.362056541
299.345796585
299.357991552
299.394576454
299.378316498
299.362056541
298.935232687
299.394576454
298.886452818
299.374251509
299.378316498
298.931167698
299.378316498
298.914907742
299.374251509
298.918972731
299.362056541
299.378316498
298.918972731
299.394576454
299.345796585
299.378316498
299.341731596
299.394576454
299.362056541
299.341731596
299.362056541
299.341731596
299.378316498
299.345796585
299.362056541
299.378316498
299.374251509
299.378316498
298.918972731
299.341731596
299.345796585
299.394576454
299.362056541
298.914907742
299.378316498
299.362056541
298.914907742
298.918972731
299.362056541
299.362056541
298.935232687
299.410836411
298.898647785
298.918972731
299.362056541
299.345796585
299.362056541
299.341731596
299.357991552
299.378316498
299.357991552
299.378316498
299.378316498
298.914907742
298.866127872
299.378316498
298.947427654
298.984012556
299.378316498
298.898647785
299.4149014
299.410836411
299.4149014
299.357991552
299.357991552
299.378316498
299.374251509

Average distance is : 299.245 cm
Average deviation is : 0.202 cm
Block: 4
======================================
299.362056541
299.394576454
299.410836411
299.345796585
299.378316498
298.971817589
299.378316498
299.378316498
299.394576454
299.362056541
299.362056541
298.918972731
299.378316498
299.362056541
299.378316498
299.394576454
299.378316498
299.362056541
299.394576454
299.378316498
299.378316498
299.378316498
298.914907742
299.4149014
299.410836411
298.951492643
299.374251509
299.394576454
298.951492643
299.394576454
299.410836411
299.394576454
299.374251509
299.394576454
299.362056541
299.394576454
299.394576454
299.357991552
299.394576454
299.362056541
299.362056541
299.394576454
299.362056541
299.378316498
299.394576454
299.378316498
299.378316498
298.902712774
299.341731596
298.898647785
299.341731596
299.378316498
299.341731596
299.341731596
299.362056541
298.951492643
299.394576454
299.410836411
298.951492643
299.394576454
299.410836411
299.378316498
299.362056541
298.902712774
299.357991552
299.341731596
299.4149014
299.394576454
298.951492643
299.4149014
299.378316498
298.918972731
299.394576454
299.410836411
299.4149014
299.427096367
299.394576454
298.9677526
299.374251509
299.394576454
298.9677526
299.378316498
299.427096367
298.931167698
299.427096367
298.935232687
298.951492643
299.378316498
299.443356323
298.9677526
299.394576454
298.9677526
299.394576454
299.427096367
299.4149014
298.882387829
299.410836411
298.931167698
299.394576454
299.410836411

Average distance is : 299.292 cm
Average deviation is : 0.185 cm
Block: 5
======================================
298.935232687
299.4149014
299.427096367
299.378316498
299.410836411
299.357991552
298.935232687
299.362056541
298.951492643
299.410836411
298.918972731
298.984012556
299.362056541
298.918972731
299.410836411
299.357991552
299.4149014
299.410836411
298.931167698
299.410836411
299.394576454
299.378316498
299.374251509
298.935232687
299.410836411
299.374251509
299.357991552
299.410836411
299.357991552
299.410836411
299.374251509
298.951492643
299.394576454
299.394576454
299.378316498
299.394576454
299.394576454
299.394576454
299.374251509
299.378316498
299.394576454
298.951492643
299.394576454
299.427096367
299.378316498
298.918972731
298.951492643
299.362056541
299.378316498
299.362056541
298.935232687
299.427096367
298.898647785
299.394576454
299.394576454
299.378316498
299.410836411
299.374251509
299.427096367
298.9677526
299.447421312
298.935232687
298.931167698
299.4149014
298.918972731
298.951492643
299.431161356
298.935232687
299.431161356
299.394576454
299.443356323
299.378316498
299.378316498
299.394576454
299.378316498
298.947427654
299.394576454
298.935232687
298.951492643
299.394576454
299.394576454
299.394576454
298.9677526
298.9677526
299.410836411
299.362056541
299.427096367
298.914907742
299.410836411
299.410836411
298.9677526
298.935232687
299.410836411
299.394576454
298.951492643
299.410836411
298.984012556
299.378316498
299.394576454
298.918972731

Average distance is : 299.255 cm
Average deviation is : 0.212 cm
Block: 6
======================================
299.362056541
298.898647785
298.902712774
298.918972731
299.431161356
299.4149014
299.394576454
299.378316498
299.427096367
299.378316498
299.378316498
299.394576454
298.931167698
298.951492643
298.9677526
299.362056541
299.362056541
299.427096367
299.394576454
299.427096367
299.378316498
299.394576454
298.9677526
299.410836411
298.914907742
299.427096367
299.394576454
298.951492643
299.427096367
299.362056541
299.410836411
299.394576454
299.378316498
299.378316498
299.357991552
298.971817589
299.362056541
299.362056541
299.378316498
299.410836411
299.362056541
299.378316498
299.374251509
299.394576454
299.394576454
298.914907742
299.394576454
299.357991552
299.378316498
299.390511465
299.357991552
299.394576454
298.951492643
298.935232687
299.374251509
298.918972731
299.394576454
299.378316498
299.410836411
299.410836411
298.935232687
299.4149014
299.394576454
299.362056541
299.378316498
299.362056541
298.931167698
299.410836411
299.431161356
298.935232687
299.362056541
299.378316498
299.378316498
299.378316498
299.4149014
299.4149014
299.378316498
298.951492643
299.394576454
299.378316498
299.427096367
299.410836411
299.394576454
299.4149014
299.394576454
299.362056541
299.4149014
299.394576454
299.378316498
299.410836411
298.9677526
298.951492643
299.394576454
298.951492643
299.394576454
299.378316498
299.394576454
299.378316498
299.378316498
298.9677526

Average distance is : 299.291 cm
Average deviation is : 0.189 cm
Block: 7
======================================
299.410836411
299.431161356
299.378316498
299.394576454
299.394576454
299.4149014
299.427096367
299.447421312
299.394576454
299.410836411
298.984012556
298.951492643
299.394576454
298.947427654
299.431161356
299.394576454
299.362056541
299.378316498
298.951492643
299.431161356
299.378316498
299.427096367
299.431161356
298.9677526
299.394576454
298.931167698
299.378316498
299.410836411
298.951492643
299.410836411
299.431161356
299.378316498
299.410836411
299.378316498
299.378316498
299.410836411
299.410836411
298.988077545
299.378316498
299.410836411
299.394576454
298.971817589
298.9677526
298.935232687
299.394576454
299.390511465
299.394576454
299.394576454
299.410836411
299.394576454
298.935232687
299.378316498
299.394576454
298.9677526
299.378316498
298.935232687
298.935232687
299.378316498
299.394576454
299.394576454
299.374251509
299.362056541
299.378316498
299.000272512
299.427096367
298.951492643
299.427096367
299.362056541
299.378316498
298.935232687
299.357991552
299.394576454
299.374251509
299.394576454
299.394576454
299.394576454
299.378316498
299.394576454
299.378316498
299.357991552
299.394576454
299.394576454
299.410836411
299.394576454
299.394576454
299.357991552
299.362056541
298.951492643
298.935232687
299.357991552
298.951492643
299.394576454
298.951492643
299.378316498
299.378316498
299.378316498
299.378316498
299.427096367
298.935232687
299.427096367

Average distance is : 299.293 cm
Average deviation is : 0.188 cm
Block: 8
======================================
299.4149014
299.410836411
299.410836411
298.9677526
299.394576454
298.918972731
299.394576454
299.394576454
298.914907742
298.935232687
299.378316498
299.394576454
298.9677526
299.410836411
299.394576454
298.898647785
298.984012556
298.492148876
299.362056541
299.357991552
299.362056541
299.378316498
298.918972731
299.394576454
299.394576454
299.4149014
298.951492643
299.362056541
298.971817589
299.357991552
299.357991552
298.914907742
299.394576454
299.374251509
299.378316498
299.394576454
299.378316498
299.394576454
299.378316498
298.918972731
299.345796585
299.410836411
299.374251509
299.410836411
299.410836411
299.394576454
299.378316498
298.935232687
299.394576454
299.378316498
299.410836411
299.362056541
299.394576454
299.362056541
299.410836411
299.394576454
299.4149014
298.984012556
298.951492643
298.951492643
299.394576454
299.378316498
299.378316498
299.378316498
298.984012556
299.378316498
299.394576454
299.394576454
299.341731596
299.394576454
299.394576454
299.394576454
299.410836411
298.935232687
298.898647785
299.394576454
299.394576454
299.394576454
298.914907742
299.378316498
299.410836411
299.378316498
299.394576454
299.362056541
299.362056541
298.935232687
299.378316498
298.935232687
299.410836411
298.918972731
299.345796585
299.345796585
299.378316498
299.394576454
299.410836411
299.378316498
299.341731596
298.951492643
299.362056541
299.345796585

Average distance is : 299.269 cm
Average deviation is : 0.207 cm
Block: 9
======================================
299.410836411
299.394576454
298.935232687
299.394576454
299.378316498
299.394576454
299.357991552
298.935232687
299.394576454
299.362056541
299.374251509
299.362056541
299.378316498
299.427096367
298.935232687
299.410836411
298.935232687
299.378316498
299.378316498
299.378316498
299.378316498
299.394576454
299.394576454
299.410836411
299.378316498
299.378316498
298.935232687
299.394576454
299.378316498
299.410836411
299.357991552
299.410836411
298.951492643
299.378316498
299.374251509
299.362056541
299.394576454
298.951492643
299.378316498
299.357991552
299.378316498
299.357991552
298.931167698
299.378316498
299.410836411
298.914907742
299.394576454
299.410836411
298.918972731
299.431161356
299.431161356
299.378316498
299.378316498
299.427096367
299.374251509
299.374251509
299.378316498
299.362056541
299.394576454
299.378316498
299.374251509
299.394576454
298.902712774
299.410836411
299.362056541
299.362056541
299.378316498
299.394576454
299.362056541
299.378316498
299.362056541
299.378316498
299.362056541
298.935232687
299.378316498
298.951492643
298.935232687
299.341731596
299.374251509
299.374251509
299.357991552
299.362056541
299.410836411
299.378316498
299.378316498
299.427096367
298.931167698
299.394576454
298.918972731
299.362056541
298.918972731
299.410836411
299.4149014
299.378316498
299.378316498
299.394576454
298.951492643
299.378316498
299.362056541
298.898647785

Average distance is : 299.298 cm
Average deviation is : 0.180 cm
Block: 10
======================================
299.362056541
299.394576454
299.374251509
299.394576454
299.427096367
299.394576454
299.378316498
299.431161356
299.410836411
299.378316498
299.410836411
299.362056541
299.410836411
299.394576454
299.394576454
298.951492643
299.362056541
299.394576454
299.427096367
299.362056541
299.378316498
299.394576454
298.914907742
299.378316498
299.410836411
299.394576454
299.410836411
298.984012556
299.427096367
299.378316498
299.394576454
299.394576454
299.394576454
299.362056541
298.935232687
299.394576454
299.394576454
298.9677526
299.378316498
299.410836411
298.918972731
299.394576454
299.357991552
299.4149014
298.914907742
299.394576454
299.374251509
299.410836411
299.410836411
299.378316498
298.9677526
299.341731596
299.394576454
299.378316498
299.4149014
298.951492643
299.378316498
299.394576454
299.410836411
299.378316498
299.394576454
299.427096367
299.378316498
299.394576454
299.410836411
299.394576454
299.410836411
299.378316498
299.394576454
299.374251509
299.394576454
299.394576454
299.345796585
299.394576454
298.914907742
299.394576454
299.431161356
299.32547164
299.378316498
298.918972731
299.410836411
299.410836411
299.410836411
298.935232687
299.374251509
299.410836411
298.935232687
298.951492643
299.378316498
299.362056541
299.362056541
298.9677526
298.951492643
299.394576454
299.378316498
299.410836411
298.9677526
299.378316498
298.914907742
298.931167698

Average distance is : 299.306 cm
Average deviation is : 0.178 cm