
Block: 1
======================================
50.9053328276
50.8189061165
50.7983283281
50.8559461355
50.4032347918
50.4238125801
50.4238125801
50.4032347918
50.7859816551
50.8353683472
50.4238125801
50.8189061165
50.4361592531
50.4567370415
50.4567370415
50.4567370415
50.4567370415
50.4731992722
50.4402748108
50.4567370415
50.4567370415
50.4567370415
50.4567370415
50.8559461355
50.8682928085
50.4731992722
50.4567370415
50.4402748108
50.4567370415
50.4567370415
50.4402748108
50.4567370415
50.4567370415
50.4402748108
50.4238125801
50.4402748108
50.4773148298
50.4567370415
50.4402748108
50.4731992722
50.4567370415
50.8847550392
50.4567370415
50.4361592531
50.4196970224
50.4773148298
50.4361592531
50.4402748108
50.4731992722
50.8559461355
50.4196970224
50.4402748108
50.8724083662
50.4361592531
50.4402748108
50.4402748108
50.4567370415
50.4731992722
50.8518305779
50.8724083662
50.4196970224
50.4567370415
50.4567370415
50.4402748108
50.8724083662
50.4567370415
50.4361592531
50.4567370415
50.4361592531
50.4361592531
50.4196970224
50.4402748108
50.4731992722
50.4526214838
50.4567370415
50.4196970224
50.4402748108
50.4567370415
50.4361592531
50.4196970224
50.4402748108
50.4567370415
50.4773148298
50.4361592531
50.4567370415
50.4567370415
50.4567370415
50.4567370415
50.4402748108
50.4402748108
50.4567370415
50.4567370415
50.4567370415
50.4402748108
50.4567370415
50.4402748108
50.4567370415
50.4402748108
50.4731992722
50.4361592531

Average distance is : 50.508 cm
Average deviation is : 0.146 cm
Block: 2
======================================
50.8682928085
50.8559461355
50.8682928085
50.7983283281
50.8394839048
50.8189061165
50.8559461355
50.8518305779
50.8024438858
50.8518305779
50.8518305779
50.8682928085
50.4361592531
50.4402748108
50.4567370415
50.4567370415
50.4402748108
50.4567370415
50.8518305779
50.4567370415
50.4402748108
50.4567370415
50.4402748108
50.8559461355
50.4402748108
50.4731992722
50.4402748108
50.4567370415
50.4567370415
50.4567370415
50.4567370415
50.4567370415
50.4567370415
50.8353683472
50.4567370415
50.4567370415
50.4196970224
50.4361592531
50.4567370415
50.4731992722
50.4402748108
50.8559461355
50.4238125801
50.8724083662
50.8559461355
50.4402748108
50.4402748108
50.4402748108
50.8353683472
50.4402748108
50.4731992722
50.4567370415
50.4731992722
50.8888705969
50.4402748108
50.8888705969
50.8724083662
50.4567370415
50.8724083662
50.8888705969
50.4402748108
50.4402748108
50.4238125801
50.8518305779
50.4773148298
50.4567370415
50.8682928085
50.4773148298
50.4567370415
50.8724083662
50.8682928085
50.8518305779
50.4402748108
50.4402748108
50.8888705969
50.8559461355
50.8518305779
50.8888705969
50.4402748108
50.8559461355
50.4567370415
50.4567370415
50.8888705969
50.4402748108
50.4402748108
50.8724083662
50.8682928085
50.8888705969
50.8724083662
50.4567370415
50.8353683472
50.8888705969
50.4402748108
50.8888705969
50.8724083662
50.8724083662
50.8724083662
50.8682928085
50.4402748108
50.4731992722

Average distance is : 50.639 cm
Average deviation is : 0.207 cm
Block: 3
======================================
50.8189061165
50.8353683472
50.8024438858
50.4032347918
50.4567370415
50.4238125801
50.4402748108
50.4402748108
50.3867725611
50.4073503494
50.8394839048
50.3867725611
50.8518305779
50.8394839048
50.8682928085
50.8682928085
50.8888705969
50.8682928085
50.8559461355
50.4361592531
50.8518305779
50.8888705969
50.4361592531
50.8682928085
50.8559461355
50.8682928085
50.8724083662
50.8518305779
50.8518305779
50.8888705969
50.4238125801
50.4402748108
50.4402748108
50.4402748108
50.4402748108
50.4567370415
50.4402748108
50.4526214838
50.4402748108
50.4402748108
50.4196970224
50.4567370415
50.8847550392
50.8559461355
50.8518305779
50.8888705969
50.8724083662
50.8518305779
50.8682928085
50.4402748108
50.8888705969
50.8353683472
50.4567370415
50.8518305779
50.8559461355
50.8724083662
50.8518305779
50.8888705969
50.8724083662
50.8353683472
50.8518305779
50.8888705969
50.8353683472
50.8518305779
50.8724083662
50.8888705969
50.8724083662
50.8724083662
50.8518305779
50.8724083662
50.8724083662
50.8724083662
50.8353683472
50.8394839048
50.8518305779
50.8518305779
50.8518305779
50.8724083662
50.8559461355
50.8724083662
50.8353683472
50.8724083662
50.8724083662
50.8559461355
50.8888705969
50.4402748108
50.8888705969
50.4567370415
50.8394839048
50.8559461355
50.8559461355
50.8518305779
50.8559461355
50.8518305779
50.8559461355
50.8353683472
50.8518305779
50.8847550392
50.8682928085
50.8724083662

Average distance is : 50.750 cm
Average deviation is : 0.189 cm
Block: 4
======================================
50.8189061165
50.8518305779
50.8682928085
50.8353683472
50.8518305779
50.8724083662
50.8518305779
50.8559461355
50.8682928085
50.8518305779
50.8888705969
50.8518305779
50.8353683472
50.8888705969
50.8518305779
50.8682928085
50.8724083662
50.4567370415
50.4402748108
50.8888705969
50.8559461355
50.8518305779
50.4567370415
50.4567370415
50.8724083662
50.8518305779
50.4773148298
50.4731992722
50.8682928085
50.4196970224
50.4402748108
50.4567370415
50.4731992722
50.4402748108
50.4402748108
50.4731992722
50.4773148298
50.4567370415
50.4567370415
50.4567370415
50.8353683472
50.4402748108
50.4567370415
50.8353683472
50.4402748108
50.4402748108
50.4731992722
50.4567370415
50.4402748108
50.4567370415
50.4402748108
50.4402748108
50.4361592531
50.4567370415
50.4567370415
50.4402748108
50.4567370415
50.4567370415
50.4402748108
50.4567370415
50.4402748108
50.4238125801
50.4567370415
50.4238125801
50.4567370415
50.4731992722
50.4402748108
50.4567370415
50.4361592531
50.4402748108
50.4402748108
50.4402748108
50.4238125801
50.8888705969
50.4731992722
50.8724083662
50.4402748108
50.4567370415
50.4402748108
50.4402748108
50.4238125801
50.4402748108
50.4731992722
50.4402748108
50.8682928085
50.4731992722
50.4567370415
50.8682928085
50.8682928085
50.4773148298
50.4526214838
50.4567370415
50.4567370415
50.4567370415
50.4402748108
50.4402748108
50.8847550392
50.4731992722
50.4361592531
50.8394839048

Average distance is : 50.582 cm
Average deviation is : 0.193 cm
Block: 5
======================================
50.8847550392
50.7818660975
50.8559461355
50.8888705969
50.8682928085
50.8682928085
50.8682928085
50.8724083662
50.9053328276
50.8394839048
50.8682928085
50.8724083662
50.8559461355
50.4567370415
50.4402748108
50.4567370415
50.4238125801
50.4567370415
50.4567370415
50.4361592531
50.4196970224
50.4567370415
50.4402748108
50.4238125801
50.4361592531
50.4361592531
50.4238125801
50.4567370415
50.4567370415
50.4567370415
50.4402748108
50.4402748108
50.4238125801
50.4402748108
50.4361592531
50.4567370415
50.4402748108
50.4567370415
50.4238125801
50.4361592531
50.4402748108
50.4567370415
50.4361592531
50.4361592531
50.4567370415
50.4567370415
50.8559461355
50.4238125801
50.4361592531
50.4361592531
50.4402748108
50.4567370415
50.4567370415
50.4402748108
50.4731992722
50.4238125801
50.2509591579
50.8724083662
50.8724083662
50.4731992722
50.4402748108
50.8559461355
50.4567370415
50.4361592531
50.4567370415
50.8559461355
50.4196970224
50.4731992722
50.4402748108
50.4567370415
50.4731992722
50.4567370415
50.4238125801
50.4238125801
50.4567370415
50.4567370415
50.4402748108
50.4402748108
50.4567370415
50.4402748108
50.8353683472
50.4567370415
50.4402748108
50.4402748108
50.4402748108
50.4731992722
50.4361592531
50.4402748108
50.4567370415
50.4196970224
50.4402748108
50.4402748108
50.4361592531
50.4567370415
50.4567370415
50.4567370415
50.4238125801
50.4402748108
50.4567370415
50.4402748108

Average distance is : 50.522 cm
Average deviation is : 0.167 cm
Block: 6
======================================
50.8888705969
50.8353683472
50.8724083662
50.8724083662
50.4361592531
50.4567370415
50.4402748108
50.9053328276
50.4402748108
50.4567370415
50.4361592531
50.4937770605
50.4567370415
50.4731992722
50.4238125801
50.4361592531
50.4238125801
50.4402748108
50.4526214838
50.4402748108
50.4567370415
50.4361592531
50.4567370415
50.4361592531
50.4361592531
50.4567370415
50.4731992722
50.4567370415
50.4567370415
50.4402748108
50.4567370415
50.4526214838
50.4361592531
50.4196970224
50.4567370415
50.4402748108
50.4196970224
50.4567370415
50.4196970224
50.4567370415
50.4567370415
50.4567370415
50.4402748108
50.4773148298
50.4567370415
50.4402748108
50.4567370415
50.4567370415
50.4361592531
50.4238125801
50.4402748108
50.4567370415
50.4731992722
50.4402748108
50.4402748108
50.4731992722
50.4402748108
50.4567370415
50.4567370415
50.4567370415
50.4567370415
50.4731992722
50.4402748108
50.4567370415
50.4567370415
50.4526214838
50.4402748108
50.4402748108
50.4238125801
50.4567370415
50.4402748108
50.4731992722
50.4567370415
50.4567370415
50.4402748108
50.4567370415
50.4567370415
50.4567370415
50.4567370415
50.4731992722
50.4567370415
50.4567370415
50.4567370415
50.8888705969
50.4731992722
50.4567370415
50.4731992722
50.8888705969
50.4567370415
50.4567370415
50.4731992722
50.4567370415
50.4402748108
50.4402748108
50.4773148298
50.4361592531
50.4361592531
50.4361592531
50.4402748108
50.4567370415

Average distance is : 50.481 cm
Average deviation is : 0.111 cm
Block: 7
======================================
50.8559461355
50.8394839048
50.8189061165
50.3908881187
50.8559461355
50.4238125801
50.8024438858
50.8024438858
50.4032347918
50.8394839048
50.3703103304
50.4032347918
50.8682928085
50.4361592531
50.4402748108
50.4402748108
50.4567370415
50.4238125801
50.4361592531
50.4238125801
50.8847550392
50.8724083662
50.4402748108
50.4402748108
50.8724083662
50.8189061165
50.8518305779
50.4196970224
50.8682928085
50.4238125801
50.8724083662
50.8518305779
50.4238125801
50.8518305779
50.8724083662
50.8518305779
50.8724083662
50.4567370415
50.8724083662
50.4361592531
50.4032347918
50.4402748108
50.4773148298
50.4402748108
50.4567370415
50.4402748108
50.4402748108
50.7119016171
50.4402748108
50.4402748108
50.8888705969
50.8559461355
50.4238125801
50.4402748108
50.4402748108
50.4567370415
50.4402748108
50.4567370415
50.8682928085
50.4361592531
50.4196970224
50.4567370415
50.4402748108
50.4567370415
50.4196970224
50.4567370415
50.4731992722
50.4567370415
50.4402748108
50.8682928085
50.4238125801
50.4402748108
50.4238125801
50.4402748108
50.4567370415
50.4238125801
50.8559461355
50.4567370415
50.4361592531
50.4402748108
50.8724083662
50.8559461355
50.8724083662
50.8518305779
50.4361592531
50.4402748108
50.4238125801
50.4402748108
50.4567370415
50.4402748108
50.4567370415
50.4361592531
50.4402748108
50.4567370415
50.8724083662
50.4526214838
50.8518305779
50.4196970224
50.4567370415
50.4567370415

Average distance is : 50.575 cm
Average deviation is : 0.197 cm
Block: 8
======================================
50.8189061165
50.7859816551
50.3867725611
50.8724083662
50.8394839048
50.8230216742
50.8518305779
50.8518305779
50.8724083662
50.8559461355
50.8353683472
50.8518305779
50.4402748108
50.4567370415
50.4361592531
50.4402748108
50.4567370415
50.4238125801
50.4567370415
50.4196970224
50.8559461355
50.4196970224
50.4567370415
50.4526214838
50.4196970224
50.4567370415
50.4567370415
50.4567370415
50.4073503494
50.4402748108
50.4567370415
50.4567370415
50.4567370415
50.4567370415
50.4402748108
50.4361592531
50.4402748108
50.4567370415
50.4402748108
50.4402748108
50.4402748108
50.4402748108
50.4567370415
50.4402748108
50.4402748108
50.4402748108
50.4402748108
50.4567370415
50.4361592531
50.4238125801
50.4361592531
50.4196970224
50.4402748108
50.4361592531
50.4567370415
50.4567370415
50.4567370415
50.4567370415
50.8518305779
50.4567370415
50.4238125801
50.4196970224
50.8724083662
50.8682928085
50.4567370415
50.4567370415
50.4567370415
50.4567370415
50.4567370415
49.938176775
50.4361592531
50.4567370415
50.4567370415
50.8682928085
50.8724083662
50.8724083662
50.4567370415
50.4402748108
50.4402748108
50.4567370415
50.8724083662
50.4238125801
50.4402748108
50.4196970224
50.4361592531
50.4196970224
50.4402748108
50.4731992722
50.8682928085
50.4567370415
50.4402748108
50.4402748108
50.8724083662
50.4402748108
50.8518305779
50.8518305779
50.4361592531
50.4567370415
50.4567370415
50.4402748108

Average distance is : 50.533 cm
Average deviation is : 0.184 cm
Block: 9
======================================
50.8518305779
50.8353683472
50.8682928085
50.8847550392
50.8189061165
50.8024438858
50.8353683472
50.8724083662
50.8189061165
50.8682928085
50.8724083662
50.8724083662
50.8353683472
50.8518305779
50.8682928085
50.8518305779
50.8559461355
50.8353683472
50.8559461355
50.8353683472
50.8353683472
50.4402748108
50.8518305779
50.8724083662
50.8682928085
50.8559461355
50.8394839048
50.8559461355
50.8724083662
50.8888705969
50.8559461355
50.8518305779
50.8353683472
50.8559461355
50.8682928085
50.8724083662
50.8353683472
50.8518305779
50.8888705969
50.8724083662
50.8559461355
50.8682928085
50.8518305779
50.4402748108
50.4402748108
50.4567370415
50.4196970224
50.4402748108
50.4567370415
50.4196970224
50.4196970224
50.4361592531
50.8888705969
50.8353683472
50.8888705969
50.8682928085
50.8682928085
50.8682928085
50.8559461355
50.8847550392
50.8518305779
50.8518305779
50.8353683472
50.8559461355
50.8518305779
50.8724083662
50.8518305779
50.8559461355
50.4567370415
50.8682928085
50.8724083662
50.8518305779
50.8682928085
50.4731992722
50.4402748108
50.4567370415
50.8518305779
50.8724083662
50.8682928085
50.8559461355
50.8724083662
50.8559461355
50.8724083662
50.8353683472
50.8682928085
50.8724083662
50.8518305779
50.8724083662
50.8724083662
50.8353683472
50.8847550392
50.8682928085
50.8724083662
50.8682928085
50.8724083662
50.8559461355
50.4238125801
50.4238125801
50.4402748108
50.4567370415

Average distance is : 50.784 cm
Average deviation is : 0.162 cm
Block: 10
======================================
50.8847550392
50.8559461355
50.8189061165
50.7859816551
50.8724083662
50.8888705969
50.8353683472
50.8353683472
50.8518305779
50.9053328276
50.8559461355
50.8888705969
50.4402748108
50.4361592531
50.4526214838
50.4567370415
50.4402748108
50.4731992722
50.4567370415
50.4361592531
50.4402748108
50.4567370415
50.4731992722
50.4526214838
50.4567370415
50.4402748108
50.4567370415
50.4567370415
50.4402748108
50.4196970224
50.4361592531
50.4361592531
50.4567370415
50.4402748108
50.4731992722
50.8518305779
50.4567370415
50.4731992722
50.4402748108
50.4567370415
50.4238125801
50.4402748108
50.4567370415
50.4402748108
50.4361592531
50.4402748108
50.4402748108
50.4238125801
50.4402748108
50.4567370415
50.8724083662
50.4238125801
50.4402748108
50.4567370415
50.4773148298
50.4731992722
50.4567370415
50.8559461355
50.8518305779
50.4238125801
50.4402748108
50.4402748108
50.4402748108
50.4567370415
50.4238125801
50.8559461355
50.4402748108
50.4567370415
50.4567370415
50.4402748108
50.8559461355
50.4567370415
50.8888705969
50.4073503494
50.4731992722
50.4567370415
50.4567370415
50.4567370415
50.4238125801
50.4238125801
50.8682928085
50.4567370415
50.4361592531
50.8682928085
50.8518305779
50.8724083662
50.8353683472
50.8724083662
50.8559461355
50.4402748108
50.4567370415
50.4567370415
50.4567370415
50.4402748108
50.8888705969
50.8559461355
50.4567370415
50.4402748108
50.4238125801
50.4238125801

Average distance is : 50.562 cm
Average deviation is : 0.188 cm