
Block: 1
======================================
300.12627449
300.142534447
300.142534447
301.06528697
300.158794403
301.044962025
300.158794403
300.622203159
301.049027014
300.601878214
300.162859392
300.622203159
300.162859392
301.049027014
300.601878214
300.589683247
300.179119349
300.162859392
300.605943203
300.179119349
301.06528697
301.06528697
300.195379305
301.06528697
301.081546926
300.195379305
300.622203159
301.06528697
300.179119349
300.179119349
300.605943203
300.622203159
300.622203159
300.622203159
300.162859392
300.179119349
300.622203159
301.049027014
301.097806883
299.736035538
301.06528697
300.179119349
301.081546926
300.195379305
300.622203159
301.101871872
300.199444294
301.06528697
300.622203159
301.081546926
300.622203159
300.162859392
300.146599436
299.736035538
300.605943203
300.162859392
300.130339479
300.605943203
300.622203159
301.06528697
301.06528697
300.162859392
300.175054359
300.638463116
300.638463116
301.06528697
301.492110825
300.622203159
300.589683247
300.605943203
300.142534447
301.081546926
300.179119349
300.601878214
301.06528697

Block: 2
======================================
300.142534447
300.179119349
300.162859392
300.605943203
300.162859392
301.085611916
301.06528697
300.605943203
299.719775581
301.06528697
301.06528697
300.179119349
300.638463116
301.06528697
301.081546926
300.179119349
300.605943203
300.175054359
300.179119349
300.179119349
300.622203159
300.162859392
300.654723072
300.162859392
300.195379305
301.101871872
300.638463116
299.736035538
300.605943203
299.736035538
299.736035538
300.638463116
300.158794403
300.195379305
301.081546926
300.199444294
300.179119349
301.101871872
300.622203159
299.736035538
300.211639261
300.638463116
301.06528697
299.736035538
300.622203159
300.622203159
300.622203159
300.195379305
301.081546926
300.179119349
300.638463116
300.158794403
300.179119349
300.654723072
300.195379305
299.736035538
300.179119349
301.492110825
299.715710592
300.195379305
300.622203159
300.179119349
302.378278446
301.081546926
300.622203159
300.179119349
300.622203159
300.638463116
301.06528697
300.162859392
300.622203159
300.622203159
299.719775581
300.605943203
300.158794403

Block: 3
======================================
300.622203159
301.081546926
301.049027014
299.736035538
300.175054359
300.605943203
301.06528697
300.638463116
300.642528105
300.179119349
299.736035538
300.638463116
300.195379305
300.622203159
300.179119349
300.605943203
301.06528697
300.605943203
300.605943203
300.146599436
300.146599436
301.06528697
300.162859392
300.179119349
300.622203159
300.162859392
300.605943203
300.12627449
300.605943203
300.601878214
299.756360483
300.638463116
301.049027014
301.085611916
299.736035538
300.211639261
300.601878214
300.179119349
300.162859392
299.736035538
299.715710592
300.158794403
300.179119349
301.06528697
299.715710592
301.06528697
300.601878214
300.142534447
299.715710592
300.638463116
300.179119349
300.605943203
300.142534447
301.06528697
300.622203159
300.179119349
300.146599436
301.06528697
300.195379305
300.179119349
300.179119349
300.162859392
300.605943203
300.622203159
300.622203159
301.06528697
299.719775581
299.719775581
300.638463116
300.179119349
300.162859392
300.622203159
300.622203159
300.585618258
300.605943203

Block: 4
======================================
300.199444294
300.638463116
300.142534447
300.601878214
301.081546926
300.638463116
300.622203159
301.081546926
301.06528697
299.719775581
300.179119349
299.752295494
301.081546926
299.736035538
301.06528697
299.736035538
299.736035538
300.199444294
300.195379305
300.195379305
301.081546926
299.719775581
300.195379305
299.719775581
300.162859392
300.622203159
299.788880396
300.622203159
300.179119349
300.21570425
299.719775581
300.179119349
299.752295494
299.719775581
300.675048018
300.179119349
299.719775581
301.081546926
300.179119349
300.21570425
300.179119349
301.06528697
301.085611916
301.081546926
301.081546926
300.638463116
300.414888716
300.654723072
300.622203159
301.085611916
301.085611916
301.085611916
300.195379305
299.731970549
300.642528105
301.085611916
301.508370781
299.756360483
300.638463116
300.195379305
301.081546926
300.195379305
300.179119349
300.638463116
300.195379305
300.195379305
301.06528697
301.081546926
300.622203159
301.049027014
300.158794403
300.622203159
301.06528697
301.06528697
300.179119349

Block: 5
======================================
300.195379305
299.736035538
301.081546926
300.199444294
300.605943203
300.642528105
300.622203159
300.622203159
299.736035538
300.622203159
299.752295494
300.622203159
299.76855545
300.622203159
300.601878214
299.736035538
299.736035538
300.158794403
300.162859392
300.179119349
300.179119349
300.179119349
300.195379305
299.719775581
300.638463116
300.622203159
299.715710592
299.736035538
299.736035538
300.179119349
300.179119349
300.179119349
300.175054359
299.736035538
299.719775581
300.195379305
300.179119349
300.195379305
300.211639261
299.715710592
300.179119349
300.179119349
299.719775581
299.715710592
299.736035538
300.162859392
300.195379305
300.622203159
300.179119349
300.179119349
299.76855545
301.101871872
299.752295494
300.622203159
301.06528697
299.703515625
301.06528697
299.719775581
300.605943203
300.195379305
301.06528697
299.736035538
300.605943203
300.179119349
300.195379305
299.736035538
300.162859392
300.179119349
300.158794403
299.731970549
300.158794403
299.736035538
300.195379305
301.044962025
299.719775581

Block: 6
======================================
300.179119349
300.179119349
301.081546926
299.731970549
299.736035538
300.622203159
300.622203159
299.736035538
300.158794403
300.158794403
300.199444294
299.736035538
301.085611916
301.101871872
299.752295494
299.736035538
300.179119349
299.719775581
299.731970549
300.179119349
300.622203159
300.21570425
300.638463116
300.638463116
300.162859392
300.622203159
300.162859392
301.06528697
299.719775581
299.736035538
300.622203159
300.605943203
300.162859392
300.179119349
300.195379305
300.162859392
300.162859392
300.158794403
300.179119349
300.601878214
299.719775581
300.601878214
300.162859392
300.638463116
300.142534447
300.130339479
300.158794403
299.703515625
299.703515625
301.081546926
300.601878214
300.162859392
300.601878214
300.601878214
300.605943203
301.06528697
299.719775581
300.130339479
300.179119349
300.605943203
300.605943203
300.130339479
300.585618258
300.162859392
300.162859392
299.703515625
299.687255669
299.719775581
300.179119349
300.605943203
299.703515625
300.146599436
300.601878214
301.049027014
300.589683247

Block: 7
======================================
300.162859392
299.687255669
301.049027014
300.12627449
300.12627449
300.162859392
300.110014534
300.12627449
300.146599436
300.12627449
300.142534447
300.146599436
300.142534447
300.158794403
300.162859392
300.162859392
300.142534447
301.012442112
300.158794403
301.049027014
299.703515625
301.049027014
300.605943203
300.142534447
300.585618258
299.68319068
300.12627449
300.569358301
300.110014534
300.12627449
300.142534447
301.016507101
300.585618258
300.162859392
300.601878214
301.016507101
299.699450636
300.12627449
300.110014534
301.032767057
300.146599436
300.142534447
300.146599436
300.569358301
300.12627449
301.049027014
301.028702068
300.589683247
300.601878214
300.110014534
300.110014534
300.110014534
299.687255669
300.57342329
301.028702068
301.028702068
301.012442112
301.032767057
301.016507101
300.12627449
300.142534447
301.032767057
299.699450636
299.687255669
300.57342329
300.569358301
300.57342329
301.012442112
299.68319068
300.57342329
300.142534447
300.12627449
301.459590912
300.110014534
300.569358301

Block: 8
======================================
300.162859392
300.130339479
300.110014534
300.589683247
300.093754578
300.110014534
300.110014534
299.666930723
299.63441081
300.536838388
300.12627449
301.439265966
300.093754578
300.093754578
300.114079523
300.110014534
300.110014534
300.130339479
299.666930723
300.093754578
300.110014534
300.110014534
300.557163334
300.557163334
300.093754578
300.093754578
300.089689589
299.666930723
300.979922199
300.110014534
300.093754578
300.093754578
300.073429632
300.996182156
300.093754578
300.093754578
300.093754578
300.077494621
299.614085865
300.089689589
299.618150854
300.110014534
300.093754578
299.63441081
299.614085865
300.557163334
300.077494621
300.520578432
300.093754578
299.63441081
300.996182156
300.073429632
301.390486097
300.520578432
300.093754578
300.963662243
300.536838388
300.093754578
300.077494621
300.061234665
300.553098345
300.073429632
301.42300601
299.650670767
300.077494621
300.077494621
299.614085865
300.110014534
300.077494621
300.077494621
299.597825909
299.63441081
300.536838388
300.504318476
300.057169676

Block: 9
======================================
299.63441081
300.979922199
300.504318476
300.093754578
300.044974709
300.979922199
300.077494621
300.520578432
300.061234665
300.077494621
300.061234665
300.504318476
300.504318476
300.057169676
300.040909719
300.488058519
300.504318476
300.061234665
300.963662243
300.520578432
300.093754578
299.618150854
300.516513443
300.520578432
300.061234665
300.077494621
300.504318476
300.947402287
300.073429632
300.061234665
300.077494621
299.614085865
300.057169676
300.040909719
300.057169676
300.536838388
300.057169676
300.077494621
300.073429632
300.077494621
300.040909719
300.963662243
300.061234665
300.516513443
299.63441081
300.963662243
300.520578432
300.963662243
299.630345821
299.63441081
299.618150854
300.077494621
300.061234665
300.983987188
300.061234665
300.500253487
299.63441081
300.093754578
300.979922199
300.057169676
300.943337297
299.618150854
300.093754578
300.061234665
300.520578432
300.077494621
300.024649763
300.504318476
300.536838388
300.500253487
300.520578432
299.630345821
300.040909719
300.061234665
299.618150854

Block: 10
======================================
300.061234665
300.061234665
299.618150854
300.963662243
299.614085865
299.630345821
299.614085865
299.618150854
300.963662243
300.947402287
299.618150854
300.947402287
299.597825909
300.500253487
299.630345821
299.597825909
300.963662243
300.077494621
300.040909719
301.374226141
299.614085865
300.963662243
299.618150854
301.406746054
299.63441081
300.061234665
300.077494621
300.947402287
300.073429632
300.504318476
299.63441081
300.077494621
300.500253487
300.520578432
299.618150854
300.061234665
300.963662243
299.650670767
299.63441081
299.614085865
299.614085865
300.48399353
299.614085865
300.093754578
300.963662243
299.597825909
299.618150854
300.963662243
300.073429632
299.618150854
299.618150854
299.618150854
300.110014534
299.63441081
300.077494621
299.597825909
300.500253487
300.520578432
299.614085865
299.63441081
299.614085865
300.520578432
300.110014534
299.63441081
299.614085865
300.077494621
300.536838388
300.520578432
300.536838388
299.650670767
299.63441081
300.500253487
300.073429632
300.093754578
300.093754578
