
Block: 1
======================================
49.3167275667
49.300265336
49.3167275667
49.4196165085
49.3331897974

Block: 2
======================================
49.4072698355
49.3661142588
49.3167275667
49.300265336
49.2838031054

Block: 3
======================================
49.3373053551
49.3167275667
49.3496520281
49.3331897974
49.3866920471

Block: 4
======================================
49.3331897974
49.300265336
49.300265336
49.3825764894
49.300265336

Block: 5
======================================
49.3496520281
49.3537675858
49.3866920471
49.3208431244
49.3373053551

Block: 6
======================================
49.3537675858
49.3702298164
49.3167275667
49.3331897974
49.3537675858

Block: 7
======================================
49.4360787392
49.4196165085
49.300265336
49.3537675858
49.4031542778

Block: 8
======================================
49.3866920471
49.3496520281
49.3496520281
49.3825764894
49.3866920471

Block: 9
======================================
49.3167275667
49.3661142588
49.3331897974
49.300265336
49.3866920471

Block: 10
======================================
49.3866920471
49.4072698355
49.3496520281
49.3825764894
49.3167275667
