
Block: 1
======================================
299.357991552
298.951492643
299.394576454
299.394576454
299.394576454
299.394576454
299.345796585
298.951492643
299.431161356
298.951492643

Block: 2
======================================
299.410836411
299.4149014
299.410836411
299.410836411
299.394576454
299.427096367
299.378316498
299.378316498
298.931167698
299.410836411

Block: 3
======================================
299.357991552
298.935232687
299.378316498
298.931167698
298.898647785
299.345796585
298.9677526
299.410836411
298.918972731
299.357991552

Block: 4
======================================
299.378316498
299.394576454
299.410836411
298.935232687
299.378316498
299.378316498
299.362056541
298.374264193
299.410836411
299.341731596

Block: 5
======================================
299.362056541
299.357991552
299.427096367
299.378316498
299.394576454
299.374251509
298.902712774
299.394576454
299.378316498
298.984012556

Block: 6
======================================
299.378316498
299.378316498
299.394576454
299.341731596
299.378316498
299.394576454
299.394576454
299.341731596
299.394576454
299.378316498

Block: 7
======================================
299.378316498
299.374251509
299.362056541
299.378316498
299.362056541
299.410836411
299.362056541
299.378316498
299.357991552
299.394576454

Block: 8
======================================
298.931167698
298.882387829
299.357991552
299.427096367
299.410836411
298.935232687
299.410836411
298.914907742
298.898647785
299.32547164

Block: 9
======================================
299.357991552
299.378316498
299.410836411
299.341731596
299.394576454
299.374251509
299.378316498
299.410836411
299.410836411
299.341731596

Block: 10
======================================
299.341731596
299.362056541
299.309211683
299.32547164
299.374251509
299.410836411
299.410836411
299.378316498
299.357991552
299.378316498
