
Block: 1
======================================
398.735733604
399.180498457
399.196671724
398.751906872
399.192628407
399.148151922
399.17645514
399.16432519
398.739776921
398.278838801
398.755950189
398.772123456
398.739776921
398.735733604
399.144108605
398.735733604
399.17645514
398.739776921
399.16432519
398.719560337
398.315228653
399.144108605
398.278838801
398.311185336
398.735733604
398.299055386
398.755950189
398.755950189
398.735733604
398.755950189
398.751906872
398.278838801
399.180498457
398.739776921
398.772123456
398.788296723
398.788296723
398.735733604
398.772123456
398.735733604
398.788296723
398.788296723
398.772123456
398.751906872
398.788296723
398.751906872
398.808513308
398.772123456
398.772123456
398.788296723

Block: 2
======================================
398.772123456
398.751906872
398.751906872
398.315228653
398.79234004
398.755950189
398.751906872
398.295012069
398.347575188
398.295012069
398.719560337
398.295012069
398.755950189
397.85833385
398.755950189
397.854290533
398.315228653
398.723603654
398.719560337
398.755950189
398.755950189
398.278838801
398.723603654
398.735733604
398.735733604
398.755950189
398.735733604
398.719560337
398.295012069
398.739776921
398.751906872
398.70338707
398.723603654
398.719560337
398.755950189
398.772123456
398.719560337
398.755950189
398.772123456
398.295012069
398.751906872
398.772123456
398.723603654
398.735733604
398.719560337
398.755950189
398.719560337
398.735733604
398.755950189
398.278838801

Block: 3
======================================
398.739776921
398.687213802
398.262665534
398.278838801
398.707430387
398.719560337
398.278838801
397.838117266
398.295012069
398.70338707
398.295012069
398.299055386
398.295012069
398.295012069
398.278838801
398.687213802
398.707430387
398.282882118
398.246492267
398.262665534
398.246492267
397.838117266
398.262665534
397.842160583
398.246492267
397.821943998
398.278838801
398.246492267
398.262665534
398.278838801
397.789597464
398.262665534
398.246492267
398.262665534
398.262665534
398.262665534
397.805770731
398.210102415
398.230318999
398.282882118
398.278838801
398.230318999
398.278838801
398.226275682
398.262665534
397.381222463
398.214145732
398.246492267
398.24244895
398.193929148

Block: 4
======================================
398.246492267
398.278838801
398.226275682
398.230318999
397.801727414
398.214145732
397.348875928
397.838117266
397.805770731
397.789597464
398.246492267
398.230318999
398.197972465
397.805770731
397.785554147
398.246492267
397.85833385
398.230318999
397.769380879
397.805770731
398.246492267
397.805770731
397.785554147
398.278838801
398.230318999
398.246492267
398.230318999
398.246492267
398.246492267
397.332702661
397.365049195
398.230318999
398.226275682
398.230318999
398.197972465
398.210102415
398.193929148
398.230318999
398.230318999
397.821943998
397.805770731
398.210102415
397.328659344
398.210102415
398.193929148
397.805770731
397.381222463
398.193929148
398.210102415
398.210102415

Block: 5
======================================
398.210102415
398.193929148
398.181799197
397.769380879
397.361005878
398.230318999
397.769380879
398.210102415
398.214145732
398.193929148
398.210102415
398.17775588
398.246492267
398.181799197
398.210102415
398.230318999
398.17775588
398.226275682
397.789597464
398.193929148
398.210102415
398.214145732
397.805770731
398.210102415
397.757250929
398.24244895
398.193929148
398.210102415
398.193929148
398.193929148
398.226275682
398.214145732
397.753207612
398.214145732
398.193929148
398.17775588
398.17775588
398.17775588
398.17775588
398.214145732
398.193929148
398.214145732
397.769380879
397.789597464
398.210102415
398.210102415
397.753207612
398.226275682
397.737034345
398.193929148

Block: 6
======================================
398.634650683
398.230318999
398.17775588
398.618477416
398.634650683
398.17775588
398.193929148
398.650823951
398.197972465
398.193929148
398.210102415
398.17775588
398.193929148
398.197972465
398.161582613
398.638694
398.17775588
398.230318999
398.226275682
398.634650683
398.214145732
398.634650683
398.638694
398.17775588
398.193929148
397.773424196
398.17775588
398.193929148
397.753207612
398.17775588
398.214145732
398.193929148
398.17775588
397.785554147
398.230318999
398.230318999
397.753207612
398.210102415
397.773424196
398.210102415
398.181799197
397.769380879
398.230318999
398.197972465
398.230318999
398.197972465
398.210102415
398.197972465
398.246492267
398.197972465

Block: 7
======================================
397.753207612
398.226275682
397.769380879
397.769380879
398.230318999
398.161582613
398.17775588
398.214145732
398.230318999
398.230318999
397.789597464
398.214145732
398.214145732
398.197972465
398.193929148
398.193929148
398.230318999
398.226275682
398.230318999
397.801727414
397.785554147
398.193929148
398.230318999
398.193929148
397.769380879
398.193929148
398.226275682
398.638694
398.246492267
398.226275682
398.17775588
397.789597464
398.226275682
397.789597464
398.214145732
398.193929148
398.210102415
398.193929148
398.193929148
398.230318999
398.230318999
398.193929148
398.230318999
398.230318999
398.210102415
397.769380879
398.17775588
398.230318999
398.193929148
398.197972465

Block: 8
======================================
398.17775588
398.214145732
398.197972465
398.230318999
398.214145732
398.214145732
397.753207612
397.789597464
398.161582613
398.17775588
397.769380879
398.226275682
397.773424196
397.773424196
398.230318999
398.210102415
397.785554147
398.226275682
398.24244895
398.193929148
397.773424196
397.753207612
398.17775588
397.773424196
398.230318999
397.737034345
398.210102415
398.214145732
398.210102415
398.226275682
398.230318999
398.193929148
398.230318999
398.17775588
398.226275682
398.24244895
398.193929148
398.210102415
398.214145732
398.145409346
398.197972465
398.230318999
398.193929148
398.226275682
398.193929148
398.230318999
397.789597464
398.246492267
398.197972465
397.753207612

Block: 9
======================================
398.161582613
397.805770731
398.230318999
398.214145732
398.210102415
397.737034345
398.226275682
397.753207612
398.197972465
397.332702661
397.769380879
397.753207612
398.214145732
398.193929148
398.193929148
397.753207612
398.214145732
398.214145732
398.17775588
398.17775588
397.753207612
398.193929148
398.193929148
398.214145732
398.17775588
398.17775588
397.757250929
398.246492267
398.197972465
398.17775588
397.328659344
397.737034345
398.197972465
398.161582613
398.17775588
398.210102415
398.210102415
397.753207612
397.753207612
397.757250929
398.17775588
398.193929148
397.785554147
398.17775588
398.193929148
397.737034345
398.197972465
398.17775588
398.145409346
398.230318999

Block: 10
======================================
397.753207612
398.193929148
398.193929148
398.193929148
398.17775588
398.193929148
397.737034345
397.312486076
397.789597464
397.737034345
398.193929148
398.17775588
397.737034345
398.17775588
398.193929148
398.141366029
397.757250929
397.737034345
398.193929148
398.210102415
398.193929148
398.141366029
398.141366029
398.17775588
397.753207612
398.193929148
398.193929148
397.296312809
397.753207612
397.753207612
398.161582613
397.753207612
398.161582613
398.210102415
397.753207612
398.197972465
397.71681776
398.17775588
398.210102415
398.17775588
398.197972465
398.193929148
397.757250929
397.753207612
398.17775588
398.197972465
398.193929148
398.197972465
398.193929148
398.145409346

Block: 1
======================================
398.687213802
399.144108605
398.70338707
399.127935338
398.666997218
398.755950189
399.144108605
398.70338707
399.127935338
399.180498457
398.707430387
399.127935338
399.16432519
398.70338707
399.160281873
398.719560337
398.687213802
399.111762071
398.70338707
399.127935338
399.095588803
398.683170485
398.719560337
398.671040535
398.666997218
398.671040535
398.226275682
398.671040535
398.70338707
398.735733604
398.666997218
398.719560337
398.671040535
398.687213802
398.246492267
398.687213802
398.230318999
398.666997218
398.671040535
398.683170485
398.666997218
398.70338707
398.671040535
398.707430387
398.230318999
398.70338707
397.785554147
398.650823951
398.193929148
398.650823951

Block: 2
======================================
398.24244895
398.214145732
398.654867268
398.687213802
398.278838801
398.230318999
398.687213802
398.246492267
398.666997218
398.671040535
398.214145732
398.687213802
398.230318999
398.634650683
398.214145732
398.654867268
398.230318999
398.687213802
398.671040535
398.671040535
398.687213802
398.654867268
398.70338707
398.70338707
398.687213802
398.687213802
398.210102415
398.650823951
398.634650683
398.214145732
398.634650683
398.214145732
398.210102415
398.193929148
398.638694
398.193929148
398.210102415
398.230318999
398.230318999
398.193929148
398.193929148
398.210102415
398.602304149
398.598260832
398.650823951
398.634650683
398.618477416
398.226275682
398.17775588
398.638694

Block: 3
======================================
398.634650683
398.634650683
398.618477416
398.650823951
398.618477416
398.17775588
398.654867268
398.582087564
398.634650683
398.602304149
398.618477416
398.602304149
398.634650683
398.634650683
398.638694
398.602304149
398.650823951
398.602304149
398.634650683
398.618477416
398.602304149
398.638694
398.638694
398.618477416
398.622520733
398.925769496
398.602304149
398.638694
398.654867268
398.634650683
399.043025684
399.075372219
398.602304149
399.043025684
398.638694
399.01067915
398.586130881
398.565914297
398.602304149
399.043025684
398.634650683
398.618477416
398.602304149
398.586130881
398.618477416
399.026852417
398.569957614
399.006635833
398.634650683
399.059198952

Block: 4
======================================
399.026852417
399.043025684
399.01067915
398.586130881
398.921726179
399.043025684
399.0228091
399.431184101
399.043025684
399.006635833
399.006635833
399.447357368
399.043025684
399.026852417
399.026852417
399.01067915
399.026852417
398.54974103
399.043025684
399.0228091
399.01067915
399.026852417
399.026852417
399.026852417
399.043025684
399.026852417
399.006635833
398.990462565
399.447357368
399.01067915
399.431184101
399.419054151
399.431184101
398.990462565
398.994505882
399.451400685
399.01067915
399.451400685
398.994505882
399.451400685
399.463530636
398.990462565
399.467573953
399.006635833
399.043025684
398.565914297
399.467573953
399.0228091
398.586130881
399.063242269

Block: 5
======================================
399.447357368
399.447357368
399.043025684
399.026852417
399.48374722
398.974289298
399.467573953
399.415010834
399.398837566
399.435227418
398.974289298
399.435227418
399.435227418
399.467573953
399.415010834
399.415010834
399.415010834
399.431184101
399.378620982
399.398837566
398.958116031
398.937899446
399.431184101
399.431184101
399.415010834
399.419054151
399.026852417
399.006635833
399.006635833
399.006635833
398.990462565
398.978332615
398.958116031
398.978332615
398.533567762
399.026852417
399.006635833
398.974289298
398.974289298
398.974289298
399.01067915
399.026852417
399.01067915
399.01067915
399.447357368
399.006635833
399.043025684
399.043025684
399.026852417
399.026852417

Block: 6
======================================
398.586130881
398.618477416
398.994505882
399.026852417
399.006635833
398.602304149
398.602304149
399.01067915
399.026852417
398.602304149
398.602304149
398.634650683
398.602304149
398.650823951
399.026852417
398.650823951
398.634650683
398.161582613
399.059198952
398.634650683
398.654867268
279.195071197
398.618477416
398.671040535
398.602304149
399.043025684
398.634650683
399.043025684
399.095588803
399.059198952
399.075372219
399.043025684
399.043025684
399.043025684
398.634650683
399.043025684
398.618477416
399.063242269
399.043025684
399.075372219
399.043025684
399.075372219
399.059198952
398.586130881
399.095588803
399.059198952
399.063242269
399.079415536
399.075372219
399.043025684

Block: 7
======================================
399.01067915
399.0228091
398.974289298
399.467573953
399.026852417
399.043025684
398.978332615
399.026852417
399.01067915
399.398837566
398.941942763
398.958116031
398.517394495
399.006635833
398.990462565
398.937899446
398.941942763
398.990462565
398.958116031
398.974289298
398.974289298
398.958116031
398.974289298
398.990462565
398.974289298
398.54974103
398.974289298
398.974289298
398.994505882
398.569957614
399.01067915
398.974289298
398.990462565
398.958116031
398.54974103
398.092846227
398.978332615
398.517394495
399.01067915
398.602304149
398.569957614
398.553784347
398.54974103
398.569957614
398.586130881
398.076672959
398.565914297
398.586130881
398.602304149
398.586130881

Block: 8
======================================
398.602304149
398.553784347
398.602304149
398.622520733
398.618477416
398.618477416
398.618477416
398.638694
398.622520733
398.602304149
398.598260832
399.026852417
398.598260832
399.059198952
399.075372219
399.079415536
398.618477416
398.634650683
398.618477416
399.063242269
399.043025684
399.043025684
398.618477416
399.059198952
399.043025684
399.075372219
398.618477416
399.075372219
398.586130881
280.670881844
399.075372219
399.059198952
399.095588803
399.127935338
399.095588803
399.075372219
399.095588803
399.095588803
399.516093755
399.079415536
399.499920487
399.095588803
399.516093755
399.499920487
399.48374722
399.48374722
399.48374722
399.568656874
399.532267022
399.536310339

Block: 9
======================================
399.95681529
399.516093755
399.552483606
399.940642023
399.552483606
399.536310339
399.516093755
399.584830141
399.548440289
399.532267022
399.584830141
399.107718754
399.552483606
399.516093755
399.127935338
399.568656874
399.568656874
399.568656874
399.160281873
399.536310339
399.160281873
399.091545486
399.111762071
399.111762071
399.127935338
399.111762071
399.079415536
399.091545486
399.111762071
399.520137072
399.499920487
399.107718754
398.634650683
399.059198952
399.463530636
399.516093755
399.499920487
399.059198952
399.499920487
399.48374722
399.075372219
398.602304149
399.467573953
399.111762071
399.111762071
399.091545486
399.127935338
399.091545486
399.079415536
399.063242269

Block: 10
======================================
399.107718754
399.111762071
399.043025684
399.095588803
398.618477416
399.091545486
399.059198952
399.059198952
398.622520733
399.043025684
398.687213802
399.079415536
398.671040535
398.650823951
398.687213802
398.618477416
398.70338707
398.17775588
398.638694
398.634650683
398.666997218
398.634650683
398.634650683
398.634650683
398.671040535
398.654867268
398.650823951
398.650823951
398.671040535
398.666997218
398.70338707
398.671040535
398.654867268
398.618477416
398.17775588
398.650823951
398.193929148
398.17775588
398.650823951
398.687213802
398.650823951
398.650823951
398.671040535
398.666997218
398.666997218
398.650823951
398.618477416
398.602304149
398.197972465
398.210102415
