
Block: 1
======================================
99.9007111788
99.9007111788
99.8635411263
99.8635411263
100.280671716
99.9172312021
99.9172312021
99.8635411263
99.8841911554
99.8965811729
100.330231786
99.8800611496
99.9172312021
99.8965811729
99.9172312021
99.8965811729
100.330231786
99.8965811729
99.9172312021
99.9172312021
99.8800611496
99.9007111788
99.9007111788
99.8841911554
99.8800611496
99.9007111788
99.9337512255
99.8800611496
99.8800611496
99.9172312021
99.9007111788
99.8965811729
100.334361792
99.8965811729
99.8800611496
99.9337512255
99.8800611496
100.313711762
99.9337512255
99.8965811729
99.8965811729
99.9007111788
100.313711762
99.9172312021
99.9337512255
99.8965811729
99.9172312021
99.9007111788
99.9007111788
99.8800611496
99.8965811729
99.8841911554
99.9172312021
99.8800611496
99.9131011963
99.8841911554
99.9172312021
99.8965811729
99.9172312021
99.8965811729
100.317841768
99.8800611496
99.9007111788
99.8965811729
99.8965811729
99.8841911554
99.8965811729
100.317841768
99.9172312021
99.8800611496
99.9007111788
99.8965811729
99.9337512255
99.9007111788
100.313711762

Average distance is : 99.949 cm
Average deviation is : 0.138 cm
Block: 2
======================================
99.8800611496
100.330231786
99.8965811729
99.9172312021
99.9337512255
99.9007111788
99.8800611496
99.8800611496
99.8841911554
99.8635411263
100.334361792
100.313711762
99.9007111788
99.9007111788
99.9172312021
99.8841911554
99.9007111788
99.8841911554
99.8965811729
99.8965811729
99.8965811729
99.9172312021
99.9007111788
99.9007111788
99.9007111788
99.8841911554
99.9007111788
99.8800611496
100.346751809
100.330231786
99.9502712488
99.9172312021
99.9007111788
100.297191739
99.8965811729
99.9007111788
99.8800611496
99.9172312021
99.9007111788
99.8965811729
99.8800611496
99.8841911554
99.8800611496
100.346751809
99.9172312021
99.8800611496
99.8800611496
99.9007111788
99.9337512255
99.8800611496
99.8800611496
100.346751809
100.317841768
99.9544012547
100.297191739
99.9007111788
99.8800611496
99.9172312021
99.9502712488
99.9337512255
99.8800611496
99.8800611496
99.8635411263
99.9502712488
99.9337512255
99.8841911554
99.9502712488
99.8800611496
100.330231786
99.9337512255
99.9131011963
99.9172312021
99.8965811729
99.9007111788
99.8800611496

Average distance is : 99.964 cm
Average deviation is : 0.153 cm
Block: 3
======================================
99.9337512255
100.297191739
100.27654171
99.8965811729
99.8676711321
100.334361792
100.297191739
99.8635411263
99.8470211029
99.8800611496
99.8841911554
99.8841911554
100.313711762
99.9337512255
99.9172312021
99.9172312021
99.9172312021
100.313711762
99.9172312021
99.9296212196
99.9337512255
99.9007111788
99.9337512255
99.9502712488
99.8800611496
99.8841911554
99.9172312021
99.8800611496
99.8635411263
100.280671716
100.383921862
100.330231786
99.9502712488
99.8800611496
99.9172312021
99.9337512255
99.9172312021
100.297191739
99.9172312021
99.9337512255
99.8800611496
99.8800611496
99.8965811729
100.297191739
99.9337512255
99.9337512255
99.9502712488
99.9296212196
100.297191739
99.8800611496
99.9172312021
99.9172312021
99.9172312021
99.8635411263
100.313711762
99.9337512255
99.9007111788
100.313711762
99.9007111788
99.9007111788
99.8800611496
99.8965811729
99.9007111788
99.9172312021
99.8965811729
99.8800611496
99.8800611496
99.9337512255
99.8965811729
99.9007111788
100.297191739
99.9131011963
99.9172312021
99.9337512255
99.8800611496

Average distance is : 99.987 cm
Average deviation is : 0.165 cm
Block: 4
======================================
99.9007111788
99.8841911554
100.297191739
100.297191739
99.8635411263
99.9172312021
99.8965811729
99.9172312021
99.8965811729
99.9296212196
99.9007111788
99.8800611496
99.9007111788
99.9337512255
99.9337512255
99.9007111788
99.9007111788
99.8800611496
100.330231786
100.297191739
100.330231786
100.313711762
99.9007111788
99.8800611496
99.8841911554
99.8800611496
99.8841911554
100.317841768
100.367401838
100.330231786
99.8635411263
99.8841911554
99.8841911554
100.330231786
99.8635411263
99.8800611496
99.9337512255
99.9502712488
99.9337512255
99.9007111788
99.8800611496
100.313711762
99.9007111788
99.9337512255
99.9007111788
99.8965811729
99.8965811729
99.9007111788
100.297191739
100.297191739
100.367401838
99.9172312021
100.334361792
99.8965811729
99.9007111788
99.9007111788
99.9337512255
99.8965811729
99.8841911554
99.9007111788
99.8965811729
100.313711762
99.8800611496
99.8800611496
99.9007111788
99.8965811729
99.9172312021
99.8965811729
99.9337512255
99.8800611496
99.9007111788
99.8965811729
99.9337512255
100.297191739
99.9502712488

Average distance is : 99.996 cm
Average deviation is : 0.178 cm
Block: 5
======================================
99.8800611496
99.8635411263
99.9172312021
99.9502712488
99.8635411263
99.8800611496
99.8965811729
100.297191739
99.8841911554
99.8470211029
100.297191739
99.9131011963
99.8800611496
99.8841911554
99.8800611496
100.313711762
99.8800611496
99.9337512255
99.9007111788
99.9007111788
99.9007111788
99.8800611496
99.9131011963
99.9007111788
99.9172312021
99.9131011963
99.8800611496
99.9172312021
99.9007111788
99.9172312021
99.9007111788
99.9007111788
99.9007111788
99.8800611496
99.8800611496
99.9502712488
99.8965811729
99.9007111788
99.8965811729
99.9007111788
99.8800611496
99.9007111788
99.9007111788
99.9337512255
99.8965811729
100.313711762
100.330231786
99.8800611496
99.8841911554
99.8800611496
99.8965811729
99.9007111788
99.9172312021
99.9337512255
99.8965811729
100.317841768
99.8800611496
99.9502712488
99.8800611496
99.8841911554
99.9007111788
99.8635411263
99.9172312021
99.9131011963
99.9007111788
99.9007111788
99.9172312021
99.9502712488
99.8635411263
99.8965811729
99.9007111788
99.8800611496
99.9131011963
99.9172312021
99.9544012547

Average distance is : 99.933 cm
Average deviation is : 0.115 cm
Block: 6
======================================
99.8800611496
99.8965811729
99.8965811729
100.297191739
99.9172312021
99.8800611496
100.297191739
99.9007111788
99.8800611496
99.9502712488
99.8841911554
100.346751809
99.8800611496
99.8841911554
99.9172312021
99.9502712488
99.8965811729
100.297191739
99.8800611496
99.9337512255
99.8841911554
99.9131011963
99.8800611496
100.350881815
99.9007111788
99.8800611496
99.8965811729
100.313711762
99.9337512255
100.297191739
99.8635411263
100.297191739
99.8676711321
100.280671716
100.330231786
99.8635411263
99.8800611496
99.9007111788
99.8635411263
99.8800611496
99.8800611496
99.9007111788
99.8800611496
99.9337512255
99.8965811729
99.8841911554
99.9172312021
99.8965811729
100.313711762
99.8841911554
99.8800611496
99.9172312021
99.9131011963
99.9007111788
99.8800611496
99.9337512255
99.9337512255
99.9007111788
99.8841911554
99.9337512255
99.8841911554
99.9337512255
99.9007111788
99.8965811729
99.8841911554
99.8965811729
99.9007111788
99.8635411263
99.9007111788
99.9172312021
99.9172312021
99.9131011963
99.9007111788
99.8965811729
99.9007111788

Average distance is : 99.959 cm
Average deviation is : 0.149 cm
Block: 7
======================================
99.9337512255
99.9007111788
100.313711762
99.8635411263
99.8470211029
99.9007111788
99.9007111788
99.9131011963
100.27654171
99.9131011963
99.9007111788
99.8965811729
100.297191739
99.8841911554
100.313711762
99.9007111788
100.317841768
99.8800611496
99.9007111788
99.9337512255
99.8965811729
99.9172312021
99.8635411263
99.9337512255
99.9007111788
99.9502712488
99.8635411263
99.9007111788
99.9502712488
99.8841911554
99.9337512255
99.9131011963
99.8965811729
99.8841911554
99.9544012547
99.8800611496
99.9172312021
99.8635411263
99.8965811729
99.9502712488
99.8965811729
100.313711762
99.8965811729
99.9007111788
99.9502712488
99.8965811729
99.9007111788
99.8965811729
99.9502712488
99.8965811729
100.297191739
99.9007111788
99.9131011963
99.9007111788
99.9007111788
99.8965811729
99.9007111788
100.301321745
99.8965811729
99.9131011963
99.8841911554
99.9007111788
99.8800611496
100.297191739
99.8965811729
99.8635411263
99.9007111788
99.9502712488
99.9172312021
99.9502712488
99.9007111788
99.9007111788
99.8965811729
99.9172312021
99.9172312021

Average distance is : 99.952 cm
Average deviation is : 0.132 cm
Block: 8
======================================
99.8965811729
99.9007111788
99.9007111788
99.9007111788
99.8800611496
99.8800611496
99.8965811729
99.8800611496
99.8800611496
99.9007111788
99.8965811729
99.8635411263
99.8841911554
99.8965811729
99.8800611496
100.313711762
99.9337512255
99.9172312021
99.9007111788
99.8965811729
99.9337512255
99.8800611496
100.330231786
99.9502712488
100.313711762
99.9502712488
100.297191739
99.8965811729
100.330231786
100.297191739
99.8841911554
99.8965811729
100.363271832
99.9172312021
100.297191739
99.9337512255
99.9172312021
99.9007111788
99.8965811729
99.8841911554
99.8965811729
99.9337512255
99.8676711321
99.8800611496
99.8965811729
99.9172312021
99.8800611496
99.8800611496
99.8800611496
99.9007111788
99.8635411263
99.9131011963
99.9007111788
99.9502712488
99.8965811729
99.9007111788
100.367401838
99.9502712488
99.9172312021
99.8800611496
100.280671716
100.297191739
99.8635411263
99.8800611496
99.9007111788
99.8841911554
99.8841911554
100.313711762
99.9131011963
99.8965811729
99.8965811729
99.9172312021
100.346751809
99.9007111788
100.350881815

Average distance is : 99.978 cm
Average deviation is : 0.167 cm
Block: 9
======================================
99.9007111788
100.297191739
99.9007111788
99.9172312021
99.9502712488
99.9172312021
99.8841911554
99.9007111788
99.8841911554
99.9172312021
100.330231786
99.9172312021
100.334361792
99.8965811729
99.8800611496
99.9337512255
99.8965811729
99.8965811729
99.9337512255
99.9131011963
99.8841911554
99.8800611496
99.9007111788
99.8965811729
100.330231786
100.297191739
99.8800611496
100.330231786
100.280671716
99.9131011963
99.8800611496
100.334361792
99.9007111788
99.8965811729
99.8965811729
99.8841911554
99.9172312021
99.8841911554
99.8965811729
99.8800611496
99.9007111788
99.8800611496
99.9007111788
100.297191739
99.8965811729
99.9131011963
99.8800611496
99.8800611496
99.8800611496
99.8965811729
99.8965811729
99.9007111788
99.8800611496
100.297191739
99.9337512255
99.8841911554
99.9007111788
99.8800611496
99.8800611496
99.8965811729
99.8965811729
100.297191739
99.9007111788
99.8800611496
99.9007111788
99.9172312021
99.8965811729
100.297191739
99.8800611496
99.8800611496
99.9131011963
99.8965811729
99.8965811729
99.9007111788
99.9172312021

Average distance is : 99.964 cm
Average deviation is : 0.153 cm
Block: 10
======================================
99.8841911554
99.9172312021
99.9337512255
99.8635411263
99.8635411263
99.9007111788
99.9172312021
100.313711762
100.317841768
99.8841911554
100.297191739
100.330231786
99.8800611496
99.8635411263
100.297191739
99.9172312021
99.9337512255
99.9007111788
99.9172312021
100.334361792
100.346751809
99.9337512255
100.297191739
100.301321745
99.8800611496
99.9172312021
99.9296212196
99.9172312021
100.334361792
99.9172312021
100.280671716
100.330231786
99.9131011963
100.297191739
99.9296212196
100.350881815
99.8841911554
99.9337512255
99.9131011963
100.350881815
99.9131011963
99.9172312021
100.330231786
99.8470211029
100.297191739
99.9502712488
99.9172312021
99.9172312021
99.9296212196
99.9172312021
100.350881815
100.280671716
99.9007111788
99.9337512255
99.9007111788
99.9172312021
100.330231786
99.9337512255
100.350881815
100.334361792
100.350881815
99.9337512255
99.9337512255
99.9502712488
99.9337512255
99.9502712488
99.9337512255
99.9337512255
99.9337512255
99.9172312021
100.350881815
100.313711762
100.317841768
99.9337512255
100.346751809

Average distance is : 100.062 cm
Average deviation is : 0.199 cm
Average distance for 10x75 is : 99.974 cm
Average deviation for 10x75 is : 0.155 cm
 Percentage of values that failed: 0.000