
Block: 1
======================================
99.8635411263
99.8635411263
99.8676711321
99.8635411263
100.317841768
100.27654171
99.9172312021
99.8635411263
100.297191739
99.9007111788
99.9007111788
99.8635411263
100.301321745
99.9007111788
99.8635411263
100.313711762
99.9337512255
99.8800611496
100.297191739
99.8676711321
100.297191739
99.8965811729
99.8841911554
99.9007111788
99.8635411263

Block: 2
======================================
99.9172312021
100.297191739
99.9502712488
99.9172312021
99.9172312021
99.8800611496
99.8800611496
99.9502712488
100.313711762
100.330231786
99.9007111788
99.9007111788
99.9337512255
99.8965811729
99.9007111788
100.264151692
99.8800611496
99.8800611496
99.9131011963
99.9337512255
100.280671716
100.313711762
99.9337512255
99.9131011963
100.313711762

Block: 3
======================================
99.9172312021
100.297191739
99.8800611496
99.9337512255
99.9172312021
99.8841911554
99.9502712488
99.9007111788
100.313711762
99.9172312021
99.9502712488
99.8635411263
99.8841911554
99.9007111788
99.9007111788
99.8800611496
99.970921278
99.8635411263
100.297191739
99.8635411263
99.9172312021
99.9131011963
99.9172312021
99.8635411263
99.9172312021

Block: 4
======================================
99.9296212196
99.9172312021
99.8841911554
99.9172312021
99.9131011963
99.9337512255
99.9337512255
99.9131011963
99.8841911554
99.9007111788
100.297191739
100.297191739
99.9337512255
99.8635411263
99.9131011963
99.9502712488
99.9337512255
100.313711762
99.8800611496
99.9172312021
99.9667912722
99.8800611496
100.297191739
100.367401838
99.9337512255

Block: 5
======================================
99.9337512255
99.8800611496
99.4464105368
99.9296212196
99.9172312021
99.9337512255
99.9337512255
99.9172312021
99.9172312021
99.9131011963
99.9337512255
99.8800611496
99.9337512255
99.8635411263
99.9502712488
99.9131011963
100.297191739
100.346751809
99.8965811729
100.313711762
100.313711762
99.8841911554
99.8965811729
99.9007111788
99.9296212196

Block: 6
======================================
99.9544012547
76.7726784945
99.8305010796
99.9337512255
99.9007111788
99.8841911554
99.9131011963
99.8800611496
99.8841911554
99.8800611496
100.346751809
100.297191739
100.297191739
99.8800611496
99.9131011963
99.9131011963
99.9337512255
99.9337512255
100.363271832
100.330231786
100.297191739
100.297191739
99.9337512255
99.8676711321
100.297191739

Block: 7
======================================
99.8800611496
99.8635411263
100.313711762
99.8800611496
99.9007111788
99.9502712488
99.8800611496
99.8635411263
100.297191739
99.8841911554
99.8635411263
100.400441885
100.297191739
99.8635411263
99.8635411263
99.8965811729
99.8635411263
100.313711762
99.9337512255
99.8800611496
99.8635411263
99.8965811729
100.297191739
100.280671716
99.9172312021

Block: 8
======================================
99.9007111788
99.8470211029
99.8800611496
99.8800611496
100.280671716
100.297191739
99.8635411263
99.8965811729
99.9337512255
99.8800611496
100.297191739
99.8800611496
99.9007111788
99.8470211029
100.313711762
99.9172312021
99.8841911554
99.8841911554
99.9007111788
99.8800611496
100.330231786
100.330231786
99.9007111788
100.313711762
99.8800611496

Block: 9
======================================
99.8800611496
100.301321745
100.297191739
99.8470211029
99.8635411263
99.9337512255
99.8800611496
99.9502712488
99.9172312021
99.8841911554
99.9007111788
99.8841911554
99.9502712488
100.280671716
99.9502712488
99.8841911554
100.297191739
99.8800611496
100.313711762
100.330231786
100.280671716
99.8470211029
99.8635411263
99.8965811729
99.9007111788

Block: 10
======================================
99.9337512255
100.313711762
99.8635411263
99.8965811729
99.8635411263
99.8965811729
100.297191739
100.334361792
99.9007111788
99.9007111788
99.9131011963
99.9337512255
99.9007111788
99.9337512255
100.297191739
100.313711762
99.8965811729
99.8470211029
99.8800611496
99.9172312021
99.9007111788
99.9337512255
99.9337512255
100.313711762
100.297191739
