
Block: 1
======================================
300.589683247
301.455525923
300.569358301
301.42300601
300.569358301
300.553098345
301.882349777
301.882349777
301.012442112
300.585618258
300.996182156
301.016507101
300.57342329
300.996182156
300.996182156
300.536838388
300.553098345
301.016507101
301.866089821
300.996182156
300.569358301
300.536838388
301.886414766
301.455525923
301.012442112

Block: 2
======================================
301.012442112
301.443330956
300.675048018
300.569358301
301.866089821
300.553098345
300.979922199
300.553098345
300.569358301
300.553098345
300.57342329
301.012442112
301.455525923
300.996182156
300.569358301
301.886414766
301.012442112
301.439265966
301.42300601
300.569358301
300.996182156
300.996182156
300.557163334
300.996182156
301.443330956

Block: 3
======================================
300.979922199
300.569358301
300.569358301
300.996182156
300.557163334
300.110014534
300.536838388
301.000247145
301.028702068
300.553098345
300.536838388
301.439265966
301.016507101
300.996182156
300.996182156
300.57342329
300.57342329
300.996182156
301.012442112
300.553098345
300.569358301
300.553098345
300.585618258
300.57342329
300.553098345

Block: 4
======================================
300.963662243
301.443330956
301.475850868
300.557163334
301.42300601
300.536838388
300.996182156
301.439265966
301.016507101
301.016507101
300.569358301
301.849829865
300.536838388
301.016507101
300.569358301
301.455525923
300.553098345
300.979922199
300.553098345
301.459590912
300.996182156
301.427070999
300.569358301
300.996182156
301.833569908

Block: 5
======================================
300.12627449
300.553098345
300.557163334
300.557163334
301.459590912
300.569358301
300.996182156
301.443330956
300.569358301
301.882349777
300.553098345
300.536838388
301.000247145
300.553098345
300.57342329
300.585618258
300.553098345
300.569358301
300.979922199
300.589683247
301.886414766
300.553098345
300.553098345
300.996182156
300.996182156

Block: 6
======================================
300.536838388
301.012442112
300.57342329
301.42300601
300.553098345
301.866089821
300.569358301
302.309173632
300.569358301
300.57342329
300.996182156
300.557163334
300.553098345
301.439265966
301.439265966
300.553098345
301.455525923
300.589683247
301.443330956
301.455525923
301.012442112
301.443330956
301.016507101
301.459590912
301.439265966

Block: 7
======================================
300.553098345
300.569358301
300.553098345
300.557163334
300.996182156
301.016507101
301.032767057
300.57342329
300.553098345
301.016507101
301.439265966
300.569358301
301.012442112
300.553098345
301.886414766
301.42300601
300.589683247
300.536838388
301.42300601
300.536838388
300.553098345
300.553098345
300.589683247
301.439265966
300.589683247

Block: 8
======================================
301.455525923
301.439265966
300.57342329
300.57342329
301.016507101
300.553098345
300.996182156
300.557163334
301.882349777
301.000247145
300.57342329
300.589683247
300.553098345
300.996182156
301.459590912
301.455525923
300.569358301
300.569358301
301.016507101
300.996182156
300.569358301
300.553098345
301.028702068
301.439265966
300.569358301

Block: 9
======================================
301.42300601
300.553098345
301.455525923
300.57342329
301.016507101
301.016507101
301.42300601
301.000247145
300.569358301
301.016507101
300.569358301
301.012442112
300.996182156
300.585618258
300.569358301
302.735997486
300.569358301
301.028702068
300.553098345
301.028702068
300.57342329
301.439265966
301.032767057
300.569358301
301.032767057

Block: 10
======================================
301.443330956
300.57342329
300.536838388
300.553098345
301.475850868
301.012442112
301.012442112
300.57342329
301.016507101
300.536838388
301.459590912
300.996182156
300.553098345
301.459590912
300.569358301
301.016507101
301.455525923
300.57342329
300.553098345
302.309173632
301.016507101
300.569358301
300.996182156
301.016507101
301.012442112
