
Block: 1
======================================
50.8559461355
50.4567370415
50.4731992722
50.4567370415
50.4731992722
50.8682928085
50.4567370415
50.4402748108
50.4402748108
50.8559461355
50.4567370415
50.4937770605
50.8724083662
50.4196970224
50.4567370415
50.4567370415
50.4361592531
50.4731992722
50.4567370415
50.4567370415
50.4402748108
50.4402748108
50.4402748108
50.4731992722
50.4731992722
50.4032347918
50.4567370415
50.4567370415
50.4567370415
50.4567370415
50.4896615028
50.4567370415
50.4773148298
50.8888705969
50.4567370415
50.4731992722
50.4238125801
50.4402748108
50.4402748108
50.4567370415
50.4937770605
50.4402748108
50.4567370415
50.4402748108
50.4731992722
50.9053328276
50.4731992722
50.4196970224
50.4896615028
50.4567370415
50.4567370415
50.4567370415
50.4567370415
50.4567370415
50.4567370415
50.8888705969
50.8518305779
50.4196970224
50.8353683472
50.8724083662
50.4567370415
50.8559461355
50.4567370415
50.8682928085
50.4567370415
50.4567370415
51.7695999384
50.8518305779
50.8682928085
50.4567370415
50.8559461355
50.8518305779
50.8724083662
50.8682928085
50.8888705969

Average distance is : 50.577 cm
Average deviation is : 0.228 cm
Block: 2
======================================
50.4402748108
50.4361592531
50.8353683472
50.9053328276
51.0452617884
50.8888705969
50.4567370415
50.4238125801
50.4567370415
50.4196970224
50.4238125801
50.4567370415
50.4567370415
50.4731992722
50.4196970224
50.4402748108
50.4567370415
50.4731992722
50.4567370415
50.4238125801
50.4402748108
50.4196970224
50.4032347918
50.4196970224
50.4073503494
50.4731992722
50.4567370415
50.4567370415
50.4731992722
50.4567370415
50.4567370415
50.4773148298
50.4567370415
50.4196970224
50.4402748108
50.4567370415
50.4526214838
50.4402748108
50.4402748108
50.4402748108
50.4402748108
50.4731992722
50.4196970224
50.4073503494
50.4731992722
50.4196970224
50.4238125801
50.4567370415
50.4402748108
50.4731992722
50.4402748108
50.2509591579
50.4731992722
50.4567370415
50.4567370415
50.4731992722
50.4567370415
50.4402748108
50.4196970224
50.4731992722
50.4731992722
50.4567370415
50.4402748108
50.4402748108
50.4196970224
50.4402748108
50.4731992722
50.4402748108
50.4238125801
50.4567370415
50.4731992722
50.4196970224
50.4238125801
50.4238125801
50.4731992722

Average distance is : 50.468 cm
Average deviation is : 0.113 cm
Block: 3
======================================
50.8724083662
50.8559461355
50.8682928085
50.8353683472
50.4567370415
50.8682928085
50.8724083662
50.8724083662
50.8353683472
50.8724083662
50.8559461355
50.8888705969
50.8559461355
50.4567370415
50.8518305779
50.8724083662
50.8353683472
50.4361592531
50.4073503494
50.8518305779
21.2815487146
50.4567370415
50.4731992722
50.8888705969
50.8724083662
50.4567370415
50.4196970224
50.8724083662
50.4567370415
50.4526214838
50.4238125801
50.8518305779
50.4402748108
50.4567370415
50.5061237335
50.4731992722
50.4567370415
50.4361592531
50.4896615028
50.4567370415
50.4567370415
50.4196970224
50.4402748108
50.4402748108
50.4073503494
50.4402748108
50.4567370415
50.4402748108
50.4402748108
50.4731992722
50.4731992722
50.8559461355
50.4567370415
50.4773148298
50.4567370415
50.4361592531
50.4402748108
50.4731992722
50.4896615028
50.4567370415
50.4773148298
50.4567370415
50.4567370415
50.4402748108
50.4238125801
50.4567370415
50.4402748108
50.8724083662
50.4567370415
50.4402748108
50.8559461355
50.4731992722
50.4238125801
50.4196970224
50.4567370415

Average distance is : 50.188 cm
Average deviation is : 3.388 cm
Block: 4
======================================
50.8518305779
50.8724083662
50.8682928085
50.8394839048
50.8888705969
50.8682928085
50.8888705969
50.4402748108
50.4731992722
50.4238125801
50.8724083662
51.0287995577
50.8518305779
50.8518305779
50.8724083662
50.8724083662
50.8559461355
50.8682928085
50.8682928085
50.8518305779
50.8724083662
50.4567370415
50.8724083662
50.4773148298
50.8888705969
50.8559461355
50.8724083662
50.4402748108
50.4567370415
50.8353683472
50.8888705969
50.4526214838
50.8518305779
50.4731992722
50.4567370415
50.8559461355
50.4731992722
50.4567370415
50.4731992722
50.4196970224
50.4567370415
50.4402748108
50.4402748108
50.4731992722
50.4567370415
50.4773148298
50.4402748108
50.4361592531
50.4402748108
50.4361592531
50.4567370415
50.4402748108
50.4567370415
50.4731992722
50.4731992722
50.4402748108
50.4402748108
50.4402748108
50.4567370415
50.4731992722
50.4402748108
50.4567370415
50.4773148298
50.4073503494
50.4402748108
50.4032347918
50.4361592531
50.4567370415
50.4567370415
50.4238125801
50.4731992722
50.8724083662
50.4402748108
50.4567370415
50.4402748108

Average distance is : 50.602 cm
Average deviation is : 0.205 cm
Block: 5
======================================
50.4567370415
50.4402748108
50.8888705969
50.4567370415
50.4567370415
50.4567370415
50.4567370415
50.4402748108
50.4567370415
50.4402748108
50.8353683472
50.4567370415
50.8724083662
50.4567370415
50.4402748108
50.8888705969
50.4896615028
50.8724083662
50.4567370415
50.4896615028
50.4567370415
50.4526214838
50.4361592531
50.4402748108
50.4196970224
50.4567370415
50.4361592531
50.4567370415
50.4773148298
50.4402748108
50.4567370415
50.4402748108
50.4361592531
50.4526214838
50.4731992722
50.4731992722
50.4567370415
50.4567370415
50.4731992722
50.5061237335
50.4731992722
50.4896615028
50.4731992722
50.4567370415
50.4567370415
50.4773148298
50.4526214838
50.4731992722
50.4402748108
50.4402748108
50.4567370415
50.8724083662
50.4773148298
50.8518305779
50.4567370415
50.8559461355
50.4731992722
50.4567370415
50.4731992722
50.4567370415
50.4402748108
50.4731992722
50.4896615028
50.4402748108
50.8682928085
50.4196970224
50.4402748108
50.4567370415
50.4567370415
50.4196970224
50.4567370415
50.4567370415
50.4731992722
50.4773148298
50.4731992722

Average distance is : 50.507 cm
Average deviation is : 0.135 cm
Block: 6
======================================
50.8724083662
50.8518305779
50.8724083662
50.9053328276
50.8888705969
50.8682928085
50.8559461355
50.8518305779
50.8724083662
50.8518305779
50.4032347918
50.8724083662
50.8724083662
50.8682928085
50.8724083662
50.4731992722
50.8724083662
50.4361592531
50.8888705969
50.8847550392
50.8189061165
50.8724083662
50.8682928085
50.8518305779
50.4361592531
50.8518305779
50.8559461355
50.8518305779
50.8724083662
50.8888705969
50.8724083662
50.8394839048
50.8682928085
50.8682928085
50.8847550392
50.4567370415
51.1316884995
50.8518305779
50.8353683472
50.8724083662
50.4567370415
50.8682928085
50.8888705969
50.8724083662
50.8847550392
50.8682928085
50.8518305779
50.8559461355
50.8724083662
50.8724083662
50.9053328276
50.8682928085
50.4402748108
50.8559461355
50.4567370415
50.4731992722
50.4402748108
50.4937770605
50.8559461355
50.8682928085
50.4402748108
50.8724083662
50.4731992722
50.4402748108
50.4361592531
50.8724083662
50.4402748108
50.4937770605
50.4402748108
50.4731992722
50.4567370415
50.8724083662
50.4731992722
50.4402748108
50.4402748108

Average distance is : 50.744 cm
Average deviation is : 0.198 cm
Block: 7
======================================
50.4402748108
50.8353683472
50.8724083662
50.8724083662
50.4773148298
50.4073503494
50.4567370415
50.4402748108
50.4402748108
50.4402748108
50.4402748108
50.4567370415
50.4731992722
50.4567370415
50.4731992722
50.4567370415
50.4567370415
50.4567370415
50.4567370415
50.4567370415
50.4402748108
50.4731992722
50.4567370415
50.4567370415
50.4196970224
50.4731992722
50.4238125801
49.5760077
50.4567370415
50.4567370415
50.8724083662
50.4402748108
50.4196970224
50.4567370415
50.8559461355
50.4567370415
50.4731992722
50.4526214838
50.4361592531
50.8682928085
50.4402748108
50.4402748108
50.4731992722
50.4567370415
50.4402748108
50.4567370415
50.4402748108
50.4567370415
50.8518305779
50.8724083662
50.4567370415
50.4567370415
50.5431637526
50.8518305779
50.8724083662
50.4731992722
50.4402748108
50.4896615028
50.4238125801
50.4567370415
51.1810751915
50.4567370415
50.4567370415
50.4567370415
50.4731992722
50.4361592531
50.4731992722
50.4567370415
50.4731992722
50.4196970224
50.4567370415
50.4196970224
50.4567370415
50.4402748108
50.4238125801

Average distance is : 50.505 cm
Average deviation is : 0.194 cm
Block: 8
======================================
50.4731992722
50.4567370415
50.4567370415
50.4567370415
50.4361592531
50.4731992722
50.4032347918
50.4402748108
50.4567370415
50.4402748108
50.4402748108
50.4731992722
50.4361592531
50.4196970224
50.4402748108
50.4731992722
50.4238125801
50.4731992722
50.4567370415
50.4402748108
50.4567370415
50.4567370415
50.4567370415
50.4567370415
50.4238125801
50.6789771557
50.4567370415
50.4402748108
50.4567370415
50.4731992722
50.4567370415
50.4196970224
50.4731992722
50.4361592531
50.4567370415
50.4402748108
50.4567370415
50.4567370415
50.4567370415
50.4567370415
50.4567370415
50.4402748108
50.4773148298
50.4402748108
50.4567370415
50.4402748108
50.4731992722
50.4526214838
50.4567370415
50.4402748108
50.4731992722
50.4567370415
50.4402748108
50.4567370415
50.4773148298
50.4402748108
50.4567370415
50.4731992722
50.4402748108
50.4567370415
50.8189061165
50.4773148298
50.4567370415
50.4567370415
50.4402748108
50.4567370415
50.4567370415
50.4567370415
50.4731992722
50.4238125801
50.4567370415
50.4361592531
50.4896615028
50.4402748108
50.4402748108

Average distance is : 50.460 cm
Average deviation is : 0.052 cm
Block: 9
======================================
51.337466383
50.4937770605
50.4238125801
50.4896615028
50.5102392912
50.4731992722
50.4402748108
50.4567370415
50.4896615028
50.4731992722
50.4238125801
50.4032347918
50.4402748108
50.4567370415
50.4567370415
50.4526214838
50.4567370415
50.4567370415
50.4731992722
50.4731992722
50.4937770605
50.4731992722
50.4731992722
50.4731992722
50.4896615028
50.4196970224
50.4567370415
50.4731992722
50.4361592531
50.4526214838
50.4567370415
50.4526214838
50.4567370415
50.4526214838
50.4731992722
50.4196970224
50.4402748108
50.4567370415
50.4896615028
50.4361592531
50.4731992722
50.4402748108
50.4567370415
50.4402748108
50.4238125801
50.4731992722
50.4567370415
50.4937770605
50.4402748108
50.4526214838
50.4238125801
50.4402748108
50.4567370415
50.4567370415
50.4402748108
50.4402748108
50.4402748108
50.8518305779
50.4731992722
50.8847550392
50.4238125801
50.4402748108
50.8518305779
50.4238125801
50.4731992722
50.4196970224
50.8518305779
50.4773148298
50.4567370415
50.4361592531
50.4196970224
50.4361592531
50.4361592531
50.8724083662
50.4896615028

Average distance is : 50.494 cm
Average deviation is : 0.144 cm
Block: 10
======================================
50.4567370415
50.4567370415
50.4196970224
50.4567370415
50.4526214838
50.4567370415
50.4238125801
50.4361592531
50.4567370415
50.4567370415
50.4773148298
50.4402748108
50.4196970224
50.4567370415
50.4567370415
50.4731992722
50.4402748108
50.4238125801
50.4567370415
50.4526214838
50.4402748108
50.4731992722
50.4567370415
50.4773148298
50.4567370415
50.4567370415
50.4402748108
50.4567370415
50.4731992722
50.4402748108
50.4567370415
50.4731992722
50.4567370415
50.4773148298
50.4731992722
50.4567370415
50.4731992722
50.4567370415
50.4731992722
50.4238125801
50.4402748108
50.4731992722
50.4567370415
50.7859816551
50.4526214838
50.4402748108
50.4567370415
50.4238125801
50.4402748108
50.4567370415
50.4402748108
50.4937770605
50.4238125801
50.4731992722
50.4567370415
50.4402748108
50.4567370415
50.4402748108
50.4567370415
50.4567370415
50.4731992722
50.4731992722
50.4731992722
50.4402748108
50.4402748108
50.4567370415
50.4196970224
50.4196970224
50.4361592531
50.4402748108
50.4196970224
50.4196970224
50.4361592531
50.4567370415
50.4567370415

Average distance is : 50.456 cm
Average deviation is : 0.042 cm