
Block: 1
======================================
400.63609252
400.672482371
400.721002173
400.63609252
400.619919252
401.501362324
400.619919252
400.652265787
400.603745985
400.619919252
400.652265787
401.044467521
401.076814055
400.63609252
401.129377174
401.080857372
401.076814055
400.640135837
400.619919252
401.076814055
400.63609252
400.619919252
400.63609252
400.63609252
400.63609252
400.63609252
400.619919252
400.688655639
401.076814055
400.619919252
401.060640788
401.076814055
400.688655639
400.704828906
401.129377174
401.060640788
400.603745985
400.704828906
400.619919252
400.619919252
400.603745985
401.044467521
401.044467521
401.040424204
401.044467521
400.619919252
401.485189056
400.603745985
401.044467521
400.603745985

Average distance is : 400.811 cm
Average deviation is : 0.247 cm
Block: 2
======================================
401.060640788
401.060640788
400.619919252
401.060640788
400.603745985
400.619919252
400.688655639
400.619919252
400.603745985
400.688655639
400.704828906
401.060640788
400.652265787
400.603745985
400.619919252
400.640135837
401.064684105
401.553925443
400.619919252
400.63609252
401.501362324
400.652265787
400.619919252
400.603745985
400.619919252
400.583529401
401.060640788
400.619919252
402.35045886
400.619919252
401.501362324
401.076814055
401.044467521
401.485189056
401.080857372
401.521578908
401.57009871
400.603745985
401.501362324
401.501362324
401.060640788
401.024250937
401.505405641
401.925910592
401.044467521
401.044467521
401.485189056
401.485189056
402.775007129
401.925910592

Average distance is : 401.064 cm
Average deviation is : 0.504 cm
Block: 3
======================================
401.893564057
401.517535591
401.517535591
401.028294253
401.517535591
401.893564057
401.909737325
401.044467521
401.469015789
401.469015789
401.925910592
401.909737325
401.044467521
401.909737325
401.909737325
401.925910592
401.060640788
401.044467521
401.125333858
401.517535591
401.044467521
401.958257127
401.517535591
400.656309104
401.080857372
401.10916059
401.076814055
401.145550442
401.060640788
401.076814055
401.080857372
400.672482371
401.060640788
401.537752175
400.640135837
401.57009871
401.060640788
401.064684105
400.63609252
400.619919252
401.076814055
401.517535591
401.076814055
401.076814055
400.652265787
402.823526931
400.652265787
401.080857372
401.586271977
401.962300444

Average distance is : 401.316 cm
Average deviation is : 0.469 cm
Block: 4
======================================
400.672482371
400.656309104
400.737175441
400.63609252
401.076814055
400.656309104
400.656309104
401.076814055
401.537752175
400.688655639
401.092987323
400.640135837
401.076814055
401.942083859
401.044467521
401.10916059
401.076814055
401.958257127
400.211544251
400.619919252
400.652265787
400.63609252
400.652265787
400.63609252
400.195370984
401.076814055
400.741218758
400.63609252
401.080857372
401.129377174
400.63609252
401.145550442
401.076814055
401.080857372
400.199414301
400.672482371
400.195370984
401.09703064
401.076814055
400.704828906
400.619919252
400.619919252
400.619919252
401.501362324
400.603745985
400.619919252
401.060640788
401.060640788
400.619919252
400.63609252

Average distance is : 400.849 cm
Average deviation is : 0.377 cm
Block: 5
======================================
401.064684105
401.517535591
401.060640788
401.080857372
400.640135837
400.63609252
400.63609252
401.485189056
400.619919252
401.044467521
401.060640788
401.129377174
401.080857372
401.076814055
401.521578908
401.145550442
400.63609252
401.076814055
400.619919252
400.619919252
401.076814055
401.060640788
401.092987323
402.382805395
401.076814055
400.63609252
401.092987323
401.060640788
401.076814055
401.076814055
401.060640788
400.656309104
401.060640788
400.652265787
400.63609252
401.09703064
400.652265787
400.672482371
401.080857372
401.080857372
401.080857372
400.737175441
400.652265787
401.092987323
401.060640788
400.704828906
401.092987323
401.113203907
400.721002173
400.688655639

Average distance is : 400.980 cm
Average deviation is : 0.320 cm
Block: 6
======================================
401.145550442
401.076814055
401.076814055
401.076814055
401.092987323
400.63609252
401.113203907
400.63609252
400.63609252
401.10916059
401.537752175
400.63609252
401.076814055
400.640135837
401.09703064
401.076814055
400.63609252
401.145550442
401.978473711
400.63609252
400.63609252
400.656309104
401.501362324
401.958257127
400.656309104
400.656309104
401.533708858
400.652265787
401.517535591
401.145550442
401.57009871
400.619919252
401.09703064
400.619919252
401.076814055
400.619919252
401.533708858
400.652265787
400.619919252
401.092987323
401.076814055
401.092987323
400.63609252
401.145550442
401.076814055
400.63609252
401.09703064
401.060640788
400.63609252
401.064684105

Average distance is : 401.000 cm
Average deviation is : 0.362 cm
Block: 7
======================================
400.567356133
400.587572718
401.129377174
401.044467521
401.060640788
401.044467521
401.040424204
401.501362324
401.028294253
401.909737325
400.619919252
400.599702668
401.485189056
401.092987323
401.060640788
401.044467521
401.044467521
401.064684105
401.485189056
401.044467521
401.044467521
401.060640788
401.064684105
401.060640788
401.501362324
401.485189056
401.044467521
401.060640788
400.619919252
401.044467521
401.044467521
400.603745985
400.619919252
401.113203907
400.583529401
401.060640788
401.044467521
401.129377174
401.064684105
401.501362324
401.060640788
400.688655639
400.688655639
401.501362324
400.684612322
401.060640788
400.603745985
401.044467521
401.060640788
401.060640788

Average distance is : 401.033 cm
Average deviation is : 0.298 cm
Block: 8
======================================
400.640135837
400.63609252
400.619919252
401.028294253
401.060640788
400.619919252
401.060640788
400.603745985
400.619919252
401.028294253
401.028294253
401.060640788
401.501362324
400.583529401
401.028294253
401.044467521
401.044467521
401.10916059
401.044467521
401.044467521
401.028294253
401.092987323
401.962300444
401.448799205
401.57009871
401.448799205
401.469015789
402.334285593
401.469015789
401.464972472
401.452842522
401.464972472
401.452842522
401.448799205
401.909737325
401.889520741
402.334285593
401.008077669
401.028294253
401.024250937
401.028294253
401.485189056
401.974430394
401.501362324
401.060640788
401.044467521
401.008077669
401.925910592
401.485189056
401.501362324

Average distance is : 401.254 cm
Average deviation is : 0.433 cm
Block: 9
======================================
401.129377174
401.060640788
401.145550442
401.076814055
401.129377174
401.129377174
401.501362324
402.386848712
401.080857372
400.619919252
401.501362324
400.63609252
400.63609252
401.080857372
401.521578908
401.145550442
401.958257127
401.958257127
400.721002173
401.076814055
401.092987323
401.521578908
400.704828906
401.113203907
401.092987323
401.09703064
401.09703064
400.63609252
401.076814055
401.076814055
400.688655639
400.619919252
401.09703064
401.092987323
401.076814055
400.704828906
400.656309104
400.63609252
400.737175441
401.113203907
400.63609252
400.721002173
400.721002173
401.09703064
400.721002173
400.227717519
400.688655639
400.243890786
400.247934103
400.737175441

Average distance is : 400.989 cm
Average deviation is : 0.420 cm
Block: 10
======================================
400.688655639
400.668439054
400.704828906
400.668439054
400.231760836
401.092987323
400.672482371
400.26410737
400.227717519
401.113203907
400.243890786
400.656309104
400.63609252
400.640135837
401.092987323
401.080857372
400.652265787
400.652265787
400.721002173
401.586271977
400.737175441
400.721002173
401.145550442
400.721002173
400.211544251
401.533708858
400.721002173
400.652265787
400.721002173
401.080857372
401.958257127
401.586271977
400.721002173
402.382805395
400.668439054
400.672482371
401.076814055
400.640135837
401.09703064
400.63609252
401.092987323
400.656309104
400.63609252
401.092987323
401.161723709
401.161723709
400.668439054
400.688655639
401.501362324
400.656309104

Average distance is : 400.866 cm
Average deviation is : 0.430 cm