
Block: 1
======================================
401.145550442
400.32880044
400.721002173
401.145550442
400.26410737

Average distance is : 400.721 cm
Average deviation is : 0.425 cm
Block: 2
======================================
401.129377174
400.247934103
400.704828906
400.688655639
400.688655639

Average distance is : 400.692 cm
Average deviation is : 0.312 cm
Block: 3
======================================
400.753348708
400.668439054
400.668439054
401.129377174
400.227717519

Average distance is : 400.689 cm
Average deviation is : 0.321 cm
Block: 4
======================================
400.672482371
400.231760836
400.211544251
400.619919252
401.57009871

Average distance is : 400.661 cm
Average deviation is : 0.551 cm
Block: 5
======================================
400.195370984
400.211544251
400.688655639
400.300497222
400.231760836

Average distance is : 400.326 cm
Average deviation is : 0.207 cm
Block: 6
======================================
400.704828906
400.231760836
400.243890786
400.688655639
400.247934103

Average distance is : 400.423 cm
Average deviation is : 0.250 cm
Block: 7
======================================
401.076814055
401.113203907
400.603745985
400.688655639
400.668439054

Average distance is : 400.830 cm
Average deviation is : 0.244 cm
Block: 8
======================================
401.602445245
400.688655639
401.113203907
401.10916059
401.092987323

Average distance is : 401.121 cm
Average deviation is : 0.324 cm
Block: 9
======================================
400.704828906
400.640135837
400.688655639
400.243890786
400.247934103

Average distance is : 400.505 cm
Average deviation is : 0.238 cm
Block: 10
======================================
400.332843757
401.198113561
400.688655639
400.684612322
400.721002173

Average distance is : 400.725 cm
Average deviation is : 0.308 cm