
Block: 1
======================================
100.350881815
100.350881815
100.813442469
100.346751809
99.9667912722
100.747362375
100.367401838
100.350881815
100.350881815
100.350881815
100.330231786
100.350881815
100.346751809
100.350881815
100.367401838
100.330231786
100.350881815
100.350881815
100.346751809
100.350881815
100.334361792
100.350881815
100.367401838
100.350881815
100.346751809
100.350881815
100.367401838
100.330231786
100.334361792
100.334361792
100.350881815
100.350881815
100.350881815
100.350881815
100.367401838
100.350881815
100.330231786
100.367401838
100.350881815
100.346751809
100.334361792
100.350881815
100.350881815
100.334361792
100.346751809
100.350881815
100.350881815
100.330231786
100.350881815
100.367401838
100.334361792
100.330231786
100.346751809
100.334361792
100.330231786
100.350881815
100.350881815
100.350881815
100.350881815
100.346751809
100.334361792
100.330231786
100.317841768
100.313711762
100.346751809
100.350881815
100.334361792
100.350881815
100.350881815
100.346751809
100.346751809
100.367401838
100.330231786
100.346751809
100.350881815
100.350881815
100.330231786
100.350881815
100.346751809
100.350881815
100.330231786
100.367401838
100.334361792
100.367401838
100.367401838
100.367401838
100.313711762
100.367401838
100.346751809
100.350881815
100.313711762
100.346751809
100.334361792
100.317841768
100.330231786
100.313711762
100.330231786
100.350881815
100.350881815
100.367401838

Block: 2
======================================
100.730842352
99.9172312021
100.350881815
100.346751809
100.780402422
100.330231786
100.346751809
100.363271832
100.330231786
100.334361792
100.334361792
100.330231786
100.350881815
100.330231786
100.350881815
100.346751809
100.350881815
100.346751809
100.350881815
100.330231786
100.334361792
100.330231786
100.350881815
100.350881815
100.330231786
100.346751809
100.317841768
100.350881815
100.334361792
100.350881815
100.350881815
100.346751809
100.334361792
100.367401838
100.350881815
100.367401838
100.346751809
100.334361792
100.367401838
100.346751809
100.313711762
100.350881815
100.367401838
100.350881815
100.330231786
100.346751809
100.334361792
100.346751809
100.334361792
100.350881815
100.346751809
100.350881815
100.346751809
100.330231786
100.346751809
100.334361792
100.346751809
100.367401838
100.350881815
100.330231786
100.346751809
100.346751809
100.313711762
100.350881815
100.334361792
100.367401838
100.334361792
100.334361792
100.350881815
100.330231786
100.350881815
100.334361792
100.363271832
100.334361792
100.313711762
100.330231786
100.346751809
100.330231786
100.334361792
100.313711762
100.330231786
100.313711762
100.350881815
100.330231786
100.334361792
100.350881815
100.334361792
100.350881815
100.350881815
100.367401838
100.346751809
100.313711762
100.346751809
100.350881815
100.350881815
100.367401838
100.334361792
100.334361792
100.346751809
100.346751809

Block: 3
======================================
100.334361792
101.197533011
100.367401838
100.747362375
101.181012988
100.350881815
99.9172312021
100.346751809
100.334361792
100.367401838
100.330231786
100.334361792
100.367401838
100.350881815
100.330231786
100.363271832
100.367401838
100.350881815
99.9337512255
100.334361792
100.367401838
100.330231786
100.317841768
100.350881815
100.350881815
100.330231786
100.383921862
100.367401838
100.350881815
100.346751809
100.350881815
100.350881815
100.363271832
100.350881815
100.334361792
100.330231786
100.363271832
100.346751809
100.350881815
100.520212054
100.367401838
100.330231786
100.330231786
100.350881815
100.330231786
100.367401838
100.350881815
100.346751809
100.330231786
100.346751809
100.334361792
100.346751809
100.330231786
100.367401838
100.367401838
100.346751809
100.350881815
100.350881815
100.350881815
100.383921862
100.346751809
100.367401838
100.346751809
100.330231786
100.330231786
100.350881815
100.350881815
100.350881815
100.350881815
99.9337512255
100.346751809
100.334361792
100.367401838
100.367401838
100.330231786
100.346751809
100.350881815
100.367401838
100.350881815
100.346751809
100.334361792
100.350881815
100.350881815
100.334361792
100.313711762
100.346751809
100.334361792
100.350881815
100.350881815
100.367401838
100.346751809
100.334361792
100.367401838
100.350881815
100.350881815
100.350881815
100.350881815
100.350881815
100.346751809
100.350881815

Block: 4
======================================
101.214053035
99.9502712488
101.197533011
100.363271832
100.763882399
100.367401838
100.346751809
100.334361792
100.330231786
100.350881815
100.330231786
100.346751809
100.346751809
99.9131011963
100.330231786
100.350881815
100.367401838
100.346751809
100.363271832
100.334361792
100.367401838
100.330231786
100.346751809
100.350881815
100.350881815
100.367401838
100.350881815
100.334361792
100.346751809
100.334361792
100.350881815
100.367401838
100.363271832
100.350881815
100.350881815
100.346751809
100.330231786
100.730842352
100.334361792
100.330231786
100.350881815
100.346751809
100.317841768
100.313711762
100.334361792
100.346751809
100.350881815
100.330231786
100.350881815
100.363271832
100.350881815
100.334361792
100.346751809
100.334361792
100.334361792
100.350881815
100.350881815
100.350881815
100.313711762
100.350881815
100.367401838
100.330231786
100.350881815
100.367401838
100.334361792
100.350881815
100.346751809
100.330231786
100.367401838
100.350881815
100.350881815
100.330231786
100.346751809
100.346751809
100.350881815
100.346751809
100.350881815
100.334361792
100.346751809
100.363271832
100.367401838
100.350881815
100.330231786
100.330231786
100.367401838
100.350881815
100.363271832
100.346751809
100.313711762
100.330231786
100.334361792
100.346751809
100.313711762
100.350881815
100.350881815
100.330231786
100.350881815
100.330231786
100.330231786
100.367401838

Block: 5
======================================
101.197533011
99.9667912722
100.730842352
100.363271832
101.214053035
101.197533011
100.330231786
100.367401838
100.346751809
100.367401838
100.346751809
100.350881815
100.330231786
100.334361792
100.367401838
100.346751809
100.334361792
100.367401838
100.346751809
100.367401838
100.334361792
100.350881815
100.367401838
100.350881815
100.330231786
100.330231786
100.350881815
100.350881815
100.350881815
100.350881815
100.346751809
100.367401838
100.330231786
100.367401838
100.334361792
100.350881815
100.350881815
100.363271832
100.346751809
100.379791856
100.346751809
100.330231786
100.330231786
99.9502712488
100.383921862
100.367401838
100.383921862
100.346751809
100.350881815
100.367401838
100.367401838
100.367401838
100.367401838
100.367401838
100.334361792
100.350881815
100.350881815
100.367401838
100.330231786
100.367401838
100.350881815
100.367401838
100.346751809
100.350881815
100.350881815
100.363271832
100.383921862
100.350881815
100.350881815
100.350881815
100.350881815
100.383921862
100.346751809
100.330231786
100.330231786
100.350881815
100.313711762
100.350881815
100.350881815
99.9502712488
100.367401838
100.330231786
100.350881815
100.367401838
100.367401838
100.350881815
100.383921862
100.346751809
100.367401838
100.334361792
100.367401838
100.020481348
100.350881815
100.350881815
100.363271832
100.330231786
100.346751809
100.367401838
100.367401838
100.334361792

Block: 6
======================================
100.144381523
100.334361792
100.334361792
100.334361792
100.780402422
100.780402422
100.350881815
100.367401838
100.367401838
100.350881815
100.346751809
100.346751809
100.383921862
100.350881815
100.346751809
100.350881815
100.383921862
100.330231786
100.350881815
100.367401838
100.796922445
100.330231786
100.367401838
100.346751809
100.780402422
100.780402422
100.784532428
100.350881815
100.780402422
100.801052451
99.9502712488
100.334361792
100.784532428
100.346751809
100.780402422
100.660632253
100.350881815
101.197533011
100.363271832
100.780402422
100.763882399
100.346751809
100.330231786
100.763882399
100.763882399
100.768012404
100.350881815
100.330231786
99.9172312021
100.350881815
100.334361792
100.768012404
100.367401838
100.780402422
100.350881815
100.780402422
100.784532428
99.9502712488
101.197533011
100.763882399
100.763882399
100.97038269
99.9544012547
100.367401838
100.383921862
100.367401838
100.367401838
100.801052451
100.346751809
100.801052451
100.350881815
100.334361792
100.784532428
100.780402422
100.763882399
100.747362375
100.747362375
100.747362375
100.784532428
100.780402422
100.763882399
99.9337512255
100.763882399
101.181012988
100.350881815
100.784532428
100.763882399
100.747362375
100.363271832
100.784532428
100.747362375
100.346751809
100.367401838
100.383921862
100.367401838
100.350881815
100.763882399
100.330231786
100.367401838
99.9502712488

Block: 7
======================================
100.313711762
100.780402422
100.297191739
100.346751809
100.747362375
100.313711762
101.214053035
100.350881815
100.367401838
100.346751809
100.346751809
100.801052451
100.763882399
100.763882399
100.367401838
99.9502712488
100.330231786
100.763882399
100.747362375
100.730842352
100.350881815
100.334361792
100.350881815
100.367401838
100.346751809
100.383921862
100.768012404
100.747362375
100.768012404
100.784532428
99.9502712488
99.9337512255
100.768012404
100.768012404
101.214053035
100.780402422
101.197533011
100.784532428
100.714322329
99.9131011963
100.763882399
100.747362375
101.218183041
100.747362375
101.164492965
100.784532428
100.747362375
100.763882399
100.763882399
100.784532428
100.784532428
101.181012988
100.768012404
100.747362375
101.218183041
100.784532428
101.181012988
100.346751809
100.367401838
100.350881815
100.730842352
100.346751809
100.768012404
101.197533011
101.164492965
100.330231786
100.780402422
99.9172312021
101.164492965
99.9502712488
99.9337512255
100.784532428
100.726712346
100.763882399
101.197533011
101.143842936
101.181012988
99.9337512255
100.334361792
100.747362375
101.201663017
100.747362375
101.164492965
99.9502712488
100.780402422
100.747362375
100.714322329
100.768012404
101.197533011
100.350881815
101.181012988
100.367401838
100.768012404
100.763882399
100.747362375
100.747362375
100.330231786
99.9502712488
100.367401838
99.9337512255

Block: 8
======================================
100.297191739
100.726712346
100.346751809
100.346751809
100.350881815
100.297191739
101.181012988
100.367401838
100.350881815
100.330231786
100.780402422
100.784532428
101.181012988
101.197533011
100.346751809
100.383921862
100.334361792
100.363271832
100.367401838
100.350881815
100.350881815
101.197533011
100.801052451
100.346751809
100.330231786
100.763882399
100.123731494
100.334361792
100.350881815
99.9172312021
100.330231786
100.350881815
100.330231786
100.367401838
99.9502712488
100.350881815
100.367401838
100.346751809
100.330231786
100.350881815
100.747362375
99.9502712488
100.747362375
100.763882399
100.330231786
100.780402422
100.350881815
100.363271832
100.346751809
100.350881815
100.334361792
100.363271832
100.346751809
100.350881815
100.330231786
100.350881815
99.9172312021
100.346751809
100.350881815
100.763882399
100.367401838
100.350881815
99.9172312021
100.367401838
100.726712346
100.367401838
100.367401838
100.784532428
100.346751809
100.346751809
100.330231786
100.313711762
100.346751809
100.334361792
100.330231786
100.334361792
100.350881815
100.317841768
99.9337512255
100.350881815
99.9502712488
100.330231786
100.784532428
100.346751809
99.9337512255
100.330231786
100.350881815
99.9296212196
100.346751809
100.334361792
100.350881815
100.350881815
100.330231786
100.346751809
100.313711762
99.9502712488
100.346751809
100.367401838
100.367401838
100.330231786

Block: 9
======================================
100.330231786
100.383921862
100.334361792
100.003961325
100.313711762
100.330231786
99.9502712488
100.367401838
100.363271832
100.334361792
100.747362375
100.346751809
100.330231786
100.367401838
99.9502712488
100.763882399
100.763882399
99.9172312021
100.784532428
100.346751809
100.350881815
100.350881815
99.9337512255
100.367401838
100.367401838
100.346751809
100.313711762
100.367401838
100.334361792
100.330231786
100.367401838
100.330231786
100.367401838
100.367401838
100.367401838
100.350881815
100.330231786
100.367401838
100.330231786
100.334361792
100.780402422
100.350881815
100.350881815
100.346751809
100.367401838
100.763882399
100.768012404
100.346751809
100.350881815
100.350881815
100.367401838
100.334361792
100.780402422
100.334361792
100.367401838
100.363271832
100.330231786
100.317841768
100.330231786
100.334361792
100.350881815
100.330231786
99.9337512255
100.780402422
100.363271832
100.350881815
100.763882399
100.763882399
100.763882399
100.768012404
100.330231786
100.780402422
100.350881815
100.363271832
100.780402422
99.9172312021
100.330231786
100.350881815
100.334361792
100.350881815
100.350881815
100.768012404
100.346751809
100.346751809
100.350881815
100.330231786
100.350881815
100.334361792
100.330231786
100.334361792
100.367401838
100.346751809
100.350881815
100.346751809
100.334361792
100.330231786
100.334361792
100.350881815
100.346751809
100.330231786

Block: 10
======================================
100.367401838
100.330231786
101.181012988
100.346751809
100.751492381
101.181012988
100.763882399
100.780402422
99.9337512255
99.9337512255
100.350881815
100.367401838
100.350881815
100.330231786
100.350881815
100.334361792
100.350881815
100.346751809
100.330231786
100.346751809
100.313711762
100.367401838
100.334361792
99.9337512255
100.313711762
100.350881815
100.350881815
100.780402422
100.350881815
100.350881815
100.330231786
100.346751809
100.313711762
100.367401838
100.350881815
99.9502712488
100.334361792
100.363271832
100.334361792
99.9337512255
100.346751809
99.9337512255
100.350881815
100.367401838
100.350881815
99.9172312021
100.350881815
100.346751809
100.350881815
99.9172312021
100.350881815
100.334361792
100.346751809
100.334361792
100.330231786
100.350881815
100.346751809
100.330231786
100.367401838
100.346751809
100.350881815
100.330231786
100.367401838
100.363271832
100.334361792
100.330231786
100.350881815
100.330231786
100.330231786
100.334361792
100.330231786
100.334361792
100.313711762
100.350881815
100.367401838
100.367401838
100.350881815
100.330231786
100.350881815
100.313711762
100.334361792
100.350881815
100.346751809
100.367401838
100.367401838
100.763882399
100.780402422
100.763882399
100.763882399
100.768012404
100.317841768
100.350881815
100.346751809
100.330231786
100.330231786
100.350881815
99.9337512255
100.334361792
99.9337512255
100.350881815
