
Block: 1
======================================
100.297191739
100.747362375
100.297191739
92.1528202295
101.214053035
101.197533011
101.201663017
99.9502712488
101.197533011
101.197533011

Block: 2
======================================
100.710192323
99.9337512255
101.181012988
100.313711762
100.747362375
100.297191739
101.164492965
101.181012988
100.780402422
100.367401838

Block: 3
======================================
100.317841768
100.747362375
100.313711762
100.383921862
100.330231786
100.330231786
99.9172312021
100.350881815
100.346751809
100.313711762

Block: 4
======================================
100.313711762
100.780402422
100.346751809
99.5868307352
100.297191739
100.747362375
99.9544012547
99.9337512255
100.367401838
100.334361792

Block: 5
======================================
100.367401838
100.780402422
100.714322329
100.350881815
100.730842352
101.181012988
100.768012404
100.768012404
100.367401838
100.330231786

Block: 6
======================================
100.313711762
100.763882399
101.197533011
100.350881815
100.714322329
100.330231786
100.346751809
100.367401838
100.334361792
99.9172312021

Block: 7
======================================
100.334361792
100.350881815
101.234703064
100.346751809
100.710192323
100.334361792
100.350881815
99.9172312021
100.367401838
100.346751809

Block: 8
======================================
99.4670605659
100.747362375
100.730842352
100.363271832
99.9667912722
100.801052451
99.9502712488
100.768012404
99.9502712488
100.350881815

Block: 9
======================================
100.334361792
100.367401838
100.280671716
100.346751809
100.367401838
100.747362375
99.9172312021
100.350881815
100.346751809
100.346751809

Block: 10
======================================
101.230573058
100.330231786
100.710192323
100.330231786
100.763882399
100.747362375
99.9544012547
99.970921278
99.970921278
100.350881815
