
Block: 1
======================================
399.026852417
398.990462565
399.043025684
399.01067915
399.059198952
399.043025684
399.415010834
398.994505882
399.043025684
399.059198952

Average distance is : 399.068 cm
Average deviation is : 0.124 cm
Block: 2
======================================
399.043025684
372.247964978
398.553784347
398.974289298
399.043025684
399.0228091
399.01067915
399.467573953
399.043025684
399.447357368

Average distance is : 396.385 cm
Average deviation is : 8.485 cm
Block: 3
======================================
399.451400685
398.565914297
399.01067915
399.447357368
399.006635833
399.006635833
399.451400685
399.435227418
399.467573953
399.398837566

Average distance is : 399.224 cm
Average deviation is : 0.309 cm
Block: 4
======================================
398.958116031
399.415010834
399.415010834
399.431184101
399.415010834
399.435227418
399.451400685
399.415010834
399.398837566
398.990462565

Average distance is : 399.333 cm
Average deviation is : 0.190 cm
Block: 5
======================================
400.332843757
399.875948954
399.463530636
399.875948954
400.280280638
400.332843757
399.839559102
400.316670489
400.316670489
400.316670489

Average distance is : 400.095 cm
Average deviation is : 0.308 cm
Block: 6
======================================
399.01067915
400.312627172
399.888078904
400.300497222
400.316670489
399.871905637
400.296453905
400.332843757
399.435227418
399.871905637

Average distance is : 399.964 cm
Average deviation is : 0.449 cm
Block: 7
======================================
400.332843757
400.300497222
399.823385835
399.871905637
400.296453905
400.296453905
399.859775686
400.332843757
400.312627172
400.349017024

Average distance is : 400.178 cm
Average deviation is : 0.226 cm
Block: 8
======================================
400.296453905
400.26410737
399.859775686
399.859775686
399.871905637
399.435227418
400.280280638
399.839559102
399.855732369
400.300497222

Average distance is : 399.986 cm
Average deviation is : 0.288 cm
Block: 9
======================================
400.332843757
400.721002173
400.773565292
400.284323955
400.721002173
400.721002173
400.737175441
400.26410737
400.737175441
400.26410737

Average distance is : 400.556 cm
Average deviation is : 0.233 cm
Block: 10
======================================
400.296453905
400.296453905
400.26410737
400.316670489
400.32880044
399.48374722
399.451400685
399.892122221
399.924468756
399.928512073

Average distance is : 400.018 cm
Average deviation is : 0.340 cm