
Block: 1
======================================
199.8560781
200.332527041
200.299949336
200.316238189
200.295877123
200.263299417
199.839789248
200.299949336
200.263299417
200.316238189
193.702963996
199.884583592
200.348815894
200.27958827
200.295877123
200.299949336
200.283660483
199.835717034
200.299949336
199.888655806
200.312165976
200.332527041
199.819428182
200.316238189
200.299949336
200.316238189
200.295877123
200.27958827
199.888655806
200.295877123
199.8560781
200.283660483
200.27958827
199.852005887
200.316238189
200.299949336
200.299949336
199.8560781
200.27958827
200.27958827
200.316238189
200.27958827
199.872366953
200.299949336
200.299949336
199.819428182
200.299949336
199.872366953
200.299949336
200.332527041
200.312165976
200.316238189
200.295877123
199.872366953
200.316238189
200.316238189
200.299949336
200.316238189
199.888655806
200.316238189
200.299949336
200.312165976
200.332527041
200.332527041
200.332527041
199.8560781
200.332527041
200.299949336
199.835717034
199.424423504
199.852005887
199.872366953
200.295877123
200.295877123
199.888655806
200.299949336
200.328454828
200.299949336
200.283660483
200.316238189
199.888655806
199.872366953
200.27958827
199.872366953
200.332527041
200.27958827
200.316238189
199.888655806
200.312165976
200.27958827
200.348815894
200.283660483
200.348815894
200.27958827
199.921233511
200.299949336
200.348815894
200.316238189
200.316238189
200.299949336

Block: 2
======================================
200.295877123
200.316238189
199.835717034
200.312165976
200.316238189
200.299949336
200.316238189
200.332527041
200.316238189
200.27958827
200.299949336
200.299949336
200.316238189
200.295877123
200.316238189
200.316238189
199.835717034
200.352888107
199.8560781
199.8560781
200.328454828
200.332527041
199.872366953
199.8560781
200.295877123
200.27958827
199.921233511
200.263299417
199.872366953
200.316238189
199.872366953
200.267371631
199.852005887
200.332527041
200.295877123
200.332527041
200.299949336
200.348815894
200.27958827
200.332527041
200.348815894
200.295877123
200.332527041
200.295877123
199.872366953
199.872366953
199.904944658
199.8560781
199.8560781
200.27958827
200.332527041
199.872366953
199.872366953
200.312165976
199.8560781
200.299949336
193.963585639
200.348815894
200.299949336
200.295877123
200.299949336
199.888655806
200.332527041
200.316238189
200.299949336
200.299949336
200.267371631
200.348815894
200.299949336
199.8560781
200.316238189
199.86829474
200.332527041
199.888655806
200.332527041
200.316238189
200.332527041
200.295877123
200.295877123
199.872366953
200.316238189
200.316238189
200.316238189
200.295877123
200.332527041
200.316238189
199.904944658
200.332527041
199.8560781
200.295877123
200.295877123
199.872366953
200.352888107
200.283660483
200.316238189
200.348815894
200.27958827
200.332527041
200.312165976
200.295877123

Block: 3
======================================
200.316238189
200.27958827
200.299949336
200.299949336
200.332527041
200.332527041
200.332527041
200.332527041
200.332527041
200.27958827
200.316238189
200.332527041
199.888655806
200.283660483
200.316238189
200.352888107
200.316238189
200.348815894
200.295877123
199.8560781
200.283660483
199.852005887
200.295877123
199.872366953
200.332527041
200.295877123
199.872366953
200.295877123
200.316238189
200.299949336
200.316238189
200.352888107
200.316238189
200.332527041
199.835717034
199.852005887
199.835717034
199.872366953
200.316238189
200.332527041
199.909016871
199.8560781
200.263299417
199.852005887
200.316238189
200.299949336
200.299949336
200.295877123
200.332527041
200.332527041
200.295877123
200.299949336
200.332527041
199.835717034
200.299949336
199.872366953
200.332527041
199.835717034
199.888655806
200.299949336
199.888655806
200.295877123
200.27958827
200.295877123
199.888655806
200.27958827
199.888655806
200.295877123
200.316238189
200.348815894
200.332527041
199.835717034
200.312165976
200.299949336
200.332527041
199.86829474
200.332527041
200.316238189
200.348815894
200.177782941
200.332527041
199.872366953
200.312165976
199.86829474
199.839789248
200.299949336
200.316238189
200.312165976
200.299949336
200.27958827
200.27958827
200.299949336
200.316238189
199.852005887
199.852005887
200.263299417
199.888655806
200.316238189
200.316238189
200.348815894

Block: 4
======================================
200.316238189
200.316238189
200.332527041
200.299949336
200.283660483
200.283660483
200.332527041
200.348815894
200.295877123
200.27958827
200.295877123
199.872366953
200.283660483
200.332527041
199.872366953
200.332527041
200.295877123
200.295877123
200.332527041
200.316238189
200.27958827
200.299949336
200.316238189
200.299949336
200.267371631
200.332527041
199.852005887
200.27958827
200.316238189
200.332527041
200.312165976
200.295877123
199.86829474
199.835717034
200.295877123
200.316238189
200.267371631
200.263299417
200.332527041
200.316238189
199.823500395
200.316238189
199.839789248
200.348815894
199.835717034
200.316238189
200.27958827
200.316238189
200.27958827
200.316238189
200.299949336
200.295877123
200.348815894
194.045029902
200.295877123
200.27958827
200.295877123
200.316238189
200.332527041
200.332527041
200.316238189
200.299949336
199.8560781
200.263299417
200.295877123
199.835717034
200.332527041
200.312165976
199.835717034
200.295877123
199.852005887
200.299949336
200.283660483
200.299949336
200.316238189
200.312165976
200.316238189
199.888655806
199.8560781
199.852005887
200.316238189
200.299949336
200.27958827
200.316238189
200.295877123
200.316238189
200.316238189
199.8560781
200.263299417
199.839789248
200.299949336
199.8560781
200.295877123
200.299949336
200.263299417
199.852005887
200.27958827
200.27958827
200.312165976
200.332527041

Block: 5
======================================
200.295877123
199.852005887
200.27958827
200.267371631
200.332527041
199.803139329
200.348815894
200.299949336
199.925305724
200.27958827
200.263299417
200.299949336
200.299949336
200.283660483
200.332527041
199.86829474
200.263299417
200.283660483
200.316238189
199.852005887
199.835717034
200.312165976
200.283660483
200.299949336
199.909016871
200.316238189
200.263299417
200.283660483
199.8560781
200.316238189
199.872366953
199.872366953
199.852005887
200.27958827
199.86829474
200.27958827
200.299949336
200.283660483
200.267371631
199.872366953
200.283660483
200.316238189
200.247010565
200.316238189
200.299949336
199.852005887
200.299949336
200.295877123
200.299949336
200.332527041
199.852005887
200.299949336
200.283660483
200.299949336
200.27958827
200.283660483
199.86829474
200.27958827
200.332527041
200.299949336
200.295877123
200.316238189
200.283660483
200.295877123
199.86829474
200.27958827
200.316238189
200.267371631
200.283660483
199.819428182
199.8560781
199.888655806
199.835717034
200.283660483
200.283660483
199.835717034
200.299949336
200.299949336
200.263299417
199.839789248
200.27958827
200.316238189
199.872366953
199.8560781
200.283660483
200.299949336
200.263299417
199.8560781
200.295877123
200.27958827
200.263299417
200.299949336
200.27958827
200.263299417
200.316238189
200.283660483
200.299949336
199.835717034
199.835717034
199.852005887

Block: 6
======================================
200.316238189
200.299949336
200.283660483
200.283660483
200.316238189
200.27958827
200.263299417
200.299949336
200.283660483
200.263299417
200.27958827
200.299949336
199.839789248
199.872366953
200.332527041
200.295877123
200.263299417
200.27958827
200.263299417
200.295877123
200.27958827
199.8560781
199.852005887
200.332527041
200.299949336
200.263299417
199.819428182
200.283660483
200.283660483
200.283660483
199.819428182
200.299949336
200.299949336
200.230721712
200.267371631
199.8560781
200.27958827
200.27958827
200.283660483
200.267371631
200.332527041
200.247010565
200.316238189
200.263299417
199.835717034
200.283660483
200.263299417
200.230721712
200.27958827
200.263299417
200.283660483
200.299949336
200.299949336
200.283660483
200.299949336
200.295877123
200.27958827
200.352888107
200.295877123
200.27958827
200.27958827
199.835717034
199.852005887
200.312165976
199.852005887
200.295877123
199.835717034
200.267371631
200.283660483
200.267371631
199.819428182
199.909016871
200.27958827
200.267371631
200.316238189
200.299949336
200.27958827
199.819428182
199.819428182
200.295877123
200.263299417
200.27958827
200.27958827
200.295877123
200.312165976
200.27958827
200.316238189
199.852005887
200.27958827
200.283660483
200.263299417
200.299949336
200.283660483
200.283660483
199.819428182
200.27958827
200.299949336
200.27958827
200.332527041
200.27958827

Block: 7
======================================
200.295877123
200.299949336
200.27958827
200.312165976
200.283660483
199.782778263
200.299949336
200.247010565
200.348815894
200.295877123
200.247010565
200.27958827
200.295877123
200.267371631
200.312165976
199.835717034
200.316238189
200.263299417
200.27958827
199.86829474
200.295877123
200.295877123
199.835717034
200.27958827
200.263299417
200.299949336
200.283660483
200.295877123
200.27958827
200.295877123
199.839789248
200.316238189
200.263299417
200.263299417
200.27958827
199.835717034
200.27958827
200.316238189
200.312165976
199.835717034
200.295877123
200.263299417
200.27958827
200.263299417
200.316238189
199.819428182
199.8560781
200.263299417
200.316238189
192.733777261
199.904944658
200.316238189
199.8560781
200.299949336
200.299949336
200.27958827
200.316238189
199.86829474
200.263299417
200.247010565
200.299949336
200.316238189
199.839789248
200.316238189
200.27958827
200.316238189
200.27958827
200.263299417
200.27958827
200.263299417
200.299949336
200.283660483
200.283660483
200.299949336
200.247010565
200.295877123
200.27958827
200.263299417
199.8560781
200.27958827
200.263299417
200.299949336
200.283660483
200.267371631
200.316238189
200.312165976
200.299949336
200.283660483
200.27958827
200.295877123
200.27958827
199.819428182
200.283660483
200.348815894
200.283660483
200.27958827
200.263299417
200.295877123
200.316238189
199.839789248

Block: 8
======================================
200.283660483
200.27958827
200.283660483
199.852005887
200.263299417
199.839789248
200.332527041
200.27958827
200.283660483
200.283660483
200.263299417
200.27958827
200.27958827
200.295877123
200.263299417
200.27958827
200.27958827
200.295877123
200.263299417
200.299949336
200.267371631
200.283660483
200.263299417
200.283660483
200.263299417
200.332527041
200.263299417
200.247010565
199.839789248
200.295877123
200.283660483
200.267371631
200.283660483
200.283660483
199.823500395
200.283660483
199.819428182
200.295877123
200.230721712
200.332527041
200.247010565
200.27958827
200.295877123
199.819428182
200.283660483
199.835717034
200.295877123
200.316238189
200.295877123
199.835717034
199.835717034
199.839789248
199.839789248
199.819428182
200.27958827
199.786850476
200.27958827
200.283660483
200.283660483
200.27958827
200.263299417
199.852005887
200.572787619
200.267371631
199.803139329
200.27958827
200.283660483
200.316238189
200.247010565
200.263299417
199.839789248
199.819428182
200.27958827
200.27958827
200.283660483
200.263299417
200.263299417
200.295877123
199.835717034
200.283660483
200.283660483
200.263299417
199.835717034
200.230721712
200.299949336
200.267371631
200.283660483
200.27958827
194.936844587
199.904944658
200.295877123
200.230721712
200.263299417
200.283660483
200.299949336
200.283660483
200.283660483
200.267371631
200.263299417
200.263299417

Block: 9
======================================
200.295877123
200.295877123
200.263299417
200.27958827
200.299949336
200.299949336
200.295877123
200.299949336
200.295877123
200.348815894
200.316238189
200.299949336
199.803139329
200.27958827
200.263299417
159.972822285
200.332527041
200.295877123
200.316238189
200.299949336
199.888655806
200.27958827
200.263299417
200.27958827
200.247010565
200.316238189
200.263299417
200.27958827
200.27958827
200.283660483
200.299949336
200.299949336
200.283660483
200.27958827
199.786850476
200.283660483
200.267371631
200.348815894
200.263299417
200.299949336
200.316238189
200.247010565
200.27958827
200.316238189
200.263299417
200.295877123
200.27958827
200.299949336
200.299949336
200.316238189
200.316238189
200.27958827
200.27958827
200.27958827
200.263299417
200.312165976
200.263299417
200.316238189
200.283660483
199.803139329
199.8560781
200.295877123
200.295877123
200.27958827
199.835717034
200.283660483
199.823500395
200.299949336
200.312165976
200.283660483
200.283660483
200.316238189
200.247010565
200.316238189
200.283660483
200.316238189
200.283660483
200.263299417
200.27958827
199.839789248
199.803139329
200.283660483
200.27958827
200.316238189
199.852005887
200.299949336
200.27958827
200.27958827
200.299949336
200.263299417
200.283660483
200.299949336
200.316238189
200.295877123
199.803139329
200.332527041
200.299949336
200.27958827
200.263299417
200.299949336

Block: 10
======================================
200.299949336
200.295877123
200.299949336
200.283660483
200.267371631
200.27958827
200.283660483
200.299949336
200.295877123
200.27958827
200.27958827
200.332527041
199.803139329
200.27958827
200.283660483
199.803139329
199.839789248
200.267371631
200.295877123
200.247010565
200.247010565
200.27958827
200.299949336
200.299949336
200.263299417
199.839789248
200.27958827
200.299949336
200.247010565
200.332527041
200.263299417
200.299949336
200.267371631
200.247010565
200.299949336
200.27958827
200.263299417
200.299949336
199.835717034
199.852005887
200.283660483
200.27958827
200.299949336
200.27958827
200.263299417
199.872366953
200.27958827
200.247010565
200.267371631
200.27958827
200.316238189
200.263299417
200.263299417
200.299949336
200.267371631
200.263299417
200.263299417
200.312165976
200.27958827
200.263299417
200.332527041
200.299949336
200.263299417
199.803139329
200.27958827
200.332527041
200.316238189
200.267371631
200.299949336
200.283660483
199.819428182
200.27958827
200.263299417
200.263299417
200.27958827
200.316238189
200.267371631
200.295877123
200.27958827
199.803139329
199.8560781
200.267371631
199.819428182
199.839789248
199.835717034
199.835717034
200.316238189
200.27958827
200.299949336
199.803139329
200.283660483
200.470982289
200.332527041
200.247010565
200.27958827
200.263299417
200.295877123
200.27958827
200.27958827
200.263299417
