
Block: 1
======================================
200.043399906
199.579167604
199.583239818
200.075977612
199.562878752

Block: 2
======================================
199.59952867
200.043399906
200.043399906
200.075977612
200.503559995

Block: 3
======================================
200.059688759
199.59952867
200.080049825
200.075977612
200.059688759

Block: 4
======================================
200.059688759
200.02303884
200.059688759
200.075977612
200.059688759

Block: 5
======================================
200.092266464
200.503559995
200.043399906
200.947431231
200.947431231

Block: 6
======================================
200.470982289
200.466910076
200.503559995
200.829337049
200.039327693

Block: 7
======================================
200.927070165
200.931142378
200.059688759
200.910781312
199.59952867

Block: 8
======================================
200.043399906
200.963720083
200.059688759
200.914853525
200.450621223

Block: 9
======================================
200.043399906
200.075977612
200.027111053
200.059688759
200.043399906

Block: 10
======================================
200.055616546
200.092266464
200.059688759
200.963720083
200.5361377
