
Block: 1
======================================
200.914853525
200.947431231
200.947431231
200.947431231
200.487271142
200.483198929
200.487271142
200.947431231
200.947431231
200.503559995

Block: 2
======================================
200.466910076
200.010822201
200.487271142
200.466910076
200.931142378
200.470982289
200.487271142
200.02303884
200.010822201
200.02303884

Block: 3
======================================
200.466910076
200.075977612
200.894492459
200.914853525
200.02303884
200.010822201
200.006749988
200.470982289
200.454693437
200.010822201

Block: 4
======================================
200.947431231
200.487271142
200.055616546
200.02303884
200.055616546
199.546589899
200.027111053
200.043399906
200.027111053
200.006749988

Block: 5
======================================
200.006749988
200.450621223
200.418043518
200.450621223
200.027111053
200.010822201
200.006749988
200.010822201
200.02303884
200.027111053

Block: 6
======================================
200.434332371
199.990461135
200.02303884
200.898564672
200.027111053
200.503559995
200.043399906
200.006749988
200.434332371
200.914853525

Block: 7
======================================
200.010822201
200.454693437
200.894492459
200.914853525
200.043399906
200.894492459
200.010822201
200.898564672
200.02303884
200.434332371

Block: 8
======================================
200.947431231
200.043399906
200.027111053
200.914853525
200.931142378
200.487271142
200.010822201
200.027111053
200.027111053
200.466910076

Block: 9
======================================
200.483198929
200.503559995
200.503559995
200.487271142
200.006749988
200.039327693
200.947431231
200.927070165
200.059688759
200.910781312

Block: 10
======================================
199.990461135
200.943359017
200.043399906
200.059688759
200.947431231
200.487271142
200.967792296
200.967792296
200.487271142
200.470982289
