
Block: 1
======================================
300.179119349
300.130339479
300.162859392
301.049027014
300.195379305
300.179119349
299.699450636
300.158794403
300.605943203
301.06528697
300.162859392
300.638463116
300.179119349
300.195379305
300.179119349
300.179119349
300.179119349
300.638463116
300.175054359
300.638463116
300.638463116
300.638463116
299.736035538
300.195379305
300.195379305
300.179119349
299.752295494
300.179119349
300.622203159
299.77262044
300.654723072
300.638463116
300.622203159
300.211639261
300.162859392
300.211639261
301.049027014
301.097806883
299.703515625
299.719775581
300.622203159
299.752295494
300.622203159
299.752295494
300.622203159
300.622203159
300.622203159
299.719775581
299.752295494
299.719775581

Average distance is : 300.288 cm
Average deviation is : 0.399 cm
Block: 2
======================================
300.622203159
300.638463116
301.085611916
300.179119349
299.699450636
300.211639261
300.622203159
300.195379305
300.195379305
300.638463116
299.736035538
300.622203159
300.638463116
300.622203159
299.736035538
301.081546926
299.719775581
300.179119349
301.06528697
301.085611916
299.76855545
299.736035538
300.179119349
299.752295494
299.752295494
299.752295494
300.195379305
300.622203159
300.585618258
301.085611916
300.162859392
300.638463116
300.227899218
300.179119349
299.752295494
300.179119349
300.638463116
300.638463116
300.195379305
300.622203159
300.622203159
300.622203159
300.179119349
300.622203159
299.736035538
299.719775581
300.605943203
299.699450636
299.736035538
299.736035538

Average distance is : 300.290 cm
Average deviation is : 0.447 cm
Block: 3
======================================
300.622203159
300.162859392
300.162859392
300.162859392
299.736035538
300.179119349
299.719775581
300.162859392
299.719775581
300.179119349
300.162859392
300.175054359
300.179119349
300.162859392
300.638463116
300.589683247
299.719775581
301.049027014
300.622203159
300.179119349
300.162859392
300.158794403
300.605943203
300.146599436
300.605943203
299.719775581
300.158794403
300.162859392
300.142534447
300.142534447
300.146599436
300.162859392
300.162859392
299.703515625
301.049027014
300.162859392
299.666930723
300.589683247
300.158794403
300.162859392
300.162859392
300.162859392
300.146599436
301.032767057
300.162859392
300.162859392
300.622203159
300.179119349
299.703515625
300.146599436

Average distance is : 300.215 cm
Average deviation is : 0.333 cm
Block: 4
======================================
300.12627449
300.179119349
300.162859392
300.622203159
300.158794403
299.719775581
300.162859392
299.699450636
299.699450636
299.715710592
300.162859392
300.179119349
300.175054359
300.158794403
300.142534447
300.638463116
300.162859392
300.179119349
300.146599436
299.703515625
299.719775581
299.719775581
300.179119349
300.179119349
300.162859392
300.605943203
300.146599436
300.158794403
300.162859392
300.622203159
300.162859392
300.162859392
300.605943203
300.179119349
300.211639261
300.162859392
300.162859392
299.736035538
300.585618258
300.142534447
299.699450636
300.158794403
300.179119349
299.715710592
300.179119349
300.638463116
300.162859392
300.179119349
300.162859392
300.642528105

Average distance is : 300.148 cm
Average deviation is : 0.275 cm
Block: 5
======================================
301.081546926
299.752295494
299.736035538
300.179119349
299.703515625
299.715710592
300.179119349
300.622203159
300.179119349
300.622203159
300.642528105
299.699450636
300.622203159
299.715710592
300.179119349
300.179119349
300.179119349
300.601878214
301.049027014
299.703515625
300.195379305
300.179119349
300.605943203
299.719775581
299.736035538
300.162859392
300.622203159
300.622203159
300.622203159
300.61813817
301.492110825
300.195379305
300.622203159
300.601878214
300.162859392
300.142534447
300.179119349
300.179119349
300.179119349
300.162859392
300.162859392
299.719775581
300.622203159
300.162859392
300.605943203
300.158794403
300.179119349
300.622203159
300.158794403
300.622203159

Average distance is : 300.287 cm
Average deviation is : 0.402 cm
Block: 6
======================================
300.162859392
299.719775581
300.179119349
300.589683247
300.179119349
300.199444294
300.638463116
300.605943203
300.162859392
300.162859392
299.736035538
300.146599436
300.622203159
299.699450636
300.638463116
299.736035538
300.21570425
299.719775581
300.638463116
300.158794403
300.622203159
299.736035538
300.638463116
300.179119349
300.179119349
300.622203159
300.638463116
301.06528697
300.638463116
300.162859392
300.179119349
300.179119349
300.142534447
300.622203159
300.195379305
301.081546926
300.622203159
300.162859392
300.605943203
300.622203159
300.622203159
300.195379305
299.752295494
301.508370781
300.195379305
299.736035538
300.179119349
300.622203159
300.179119349
300.179119349

Average distance is : 300.320 cm
Average deviation is : 0.388 cm
Block: 7
======================================
299.719775581
300.601878214
300.605943203
300.638463116
299.752295494
300.638463116
299.736035538
300.179119349
300.179119349
299.752295494
301.097806883
300.179119349
300.179119349
300.179119349
300.199444294
300.622203159
300.642528105
300.162859392
300.162859392
300.622203159
300.179119349
300.162859392
300.622203159
300.146599436
300.179119349
301.085611916
300.605943203
299.736035538
300.622203159
300.195379305
300.142534447
300.158794403
300.179119349
300.622203159
299.752295494
300.179119349
301.101871872
301.049027014
300.179119349
300.195379305
302.394538403
299.736035538
300.195379305
299.736035538
300.654723072
300.162859392
300.179119349
300.179119349
300.622203159
300.158794403

Average distance is : 300.339 cm
Average deviation is : 0.474 cm
Block: 8
======================================
300.195379305
300.179119349
300.642528105
300.195379305
301.06528697
299.731970549
300.622203159
300.142534447
300.622203159
300.146599436
300.162859392
300.195379305
300.179119349
299.719775581
300.622203159
299.736035538
300.195379305
300.622203159
300.622203159
299.719775581
300.605943203
299.699450636
300.179119349
300.622203159
300.179119349
300.179119349
299.736035538
300.162859392
300.162859392
300.162859392
300.622203159
299.736035538
300.622203159
300.638463116
300.175054359
300.179119349
300.211639261
299.736035538
299.731970549
300.622203159
300.622203159
301.081546926
300.638463116
300.622203159
300.622203159
299.736035538
299.736035538
300.622203159
300.622203159
300.654723072

Average distance is : 300.285 cm
Average deviation is : 0.380 cm
Block: 9
======================================
300.158794403
301.06528697
299.736035538
301.06528697
299.736035538
300.622203159
300.642528105
300.622203159
299.752295494
300.179119349
300.195379305
299.752295494
300.211639261
299.736035538
300.21570425
299.719775581
300.179119349
300.179119349
300.179119349
300.179119349
300.622203159
300.638463116
300.195379305
300.195379305
300.195379305
300.179119349
300.162859392
300.179119349
300.195379305
300.622203159
300.162859392
300.162859392
300.179119349
301.508370781
300.179119349
299.736035538
300.638463116
299.752295494
300.622203159
300.622203159
300.622203159
301.049027014
300.179119349
300.179119349
300.179119349
300.195379305
300.605943203
299.736035538
299.731970549
300.638463116

Average distance is : 300.280 cm
Average deviation is : 0.402 cm
Block: 10
======================================
300.195379305
300.146599436
299.715710592
301.049027014
300.162859392
300.158794403
300.162859392
300.195379305
299.719775581
300.211639261
300.622203159
299.719775581
300.179119349
299.719775581
300.199444294
300.179119349
300.179119349
300.622203159
300.179119349
300.158794403
299.703515625
300.162859392
299.703515625
300.622203159
300.638463116
300.158794403
299.731970549
300.162859392
300.622203159
300.162859392
300.622203159
300.142534447
300.179119349
299.719775581
299.719775581
301.524630737
300.179119349
299.715710592
300.179119349
299.703515625
300.179119349
300.142534447
300.162859392
300.179119349
300.195379305
300.162859392
299.699450636
300.162859392
300.146599436
300.158794403

Average distance is : 300.160 cm
Average deviation is : 0.360 cm