
Block: 1
======================================
16.2320260048
50.4339031219
50.4380114555
37.6693106651
50.4339031219
50.4339031219
37.4803273201
50.4380114555
50.4174697876
38.926460743
50.8858198166
50.4174697876
40.3068608284
50.4174697876
50.4380114555
40.3890275002
50.4174697876
50.3846031189
40.1877191544
50.4010364532
50.3846031189
40.1137691498
50.4215781212
50.4380114555
40.2534524918
50.4010364532
50.4010364532
40.5122775078
50.8858198166
50.4380114555
39.9247858047
50.4010364532
50.4010364532
40.2041524887
50.4380114555
50.4174697876
40.5122775078
50.4380114555
50.4380114555
40.0809024811
50.9186864853
50.4339031219
40.1836108208
50.4544447899
50.8693864822
39.0825774193
50.8858198166
50.4544447899
40.0151691437
50.4010364532

Average distance is : 46.367 cm
Average deviation is : 6.681 cm
Block: 2
======================================
50.4544447899
23.881743145
50.4010364532
50.4010364532
37.4803273201
50.4215781212
50.4215781212
37.4433523178
50.4215781212
50.8488448143
39.115444088
50.5037447929
50.4873114586
39.63309412
50.8488448143
50.9227948189
39.9247858047
50.8488448143
50.4051447868
39.185285759
50.881711483
50.8693864822
40.0151691437
50.8693864822
50.4010364532
39.5303857803
50.4544447899
50.8858198166
39.961760807
50.4174697876
50.8693864822
40.0110608101
50.4544447899
50.4873114586
39.9740858078
50.4708781242
50.4873114586
39.5961191177
50.4873114586
50.4708781242
40.8532691956
50.4914197922
50.4708781242
40.2041524887
50.4544447899
50.8693864822
39.9740858078
50.4873114586
50.4503364563
39.8549441338

Average distance is : 46.515 cm
Average deviation is : 6.141 cm
Block: 3
======================================
50.4010364532
50.4380114555
21.7988180161
50.4215781212
50.4010364532
37.4433523178
50.4215781212
50.4215781212
37.9610023499
50.4010364532
50.8652781487
39.5961191177
50.9022531509
50.4215781212
50.4380114555
50.4215781212
50.3887114525
50.4708781242
50.4914197922
50.4873114586
50.4215781212
50.8858198166
50.9186864853
50.4708781242
50.4339031219
50.8858198166
50.4708781242
45.4546028137
50.881711483
50.4380114555
40.1137691498
50.4339031219
50.4215781212
40.5122775078
50.4215781212
50.4914197922
39.6002274513
50.8488448143
50.4051447868
39.374269104
50.8652781487
50.4339031219
40.3232941628
50.9022531509
50.4174697876
38.4786523819
50.8693864822
50.4749864578
38.6512023926
50.4873114586

Average distance is : 47.608 cm
Average deviation is : 5.921 cm
Block: 4
======================================
50.4174697876
20.4882596016
50.4544447899
50.4215781212
38.3389690399
50.4544447899
50.4380114555
37.3611856461
50.4380114555
50.4380114555
38.2198273659
50.4708781242
50.4544447899
39.9946274757
50.8652781487
50.3846031189
40.0644691467
50.4174697876
50.8652781487
39.3372941017
50.4215781212
50.8488448143
39.9083524704
50.9022531509
50.4544447899
39.8056441307
50.4380114555
50.4215781212
40.3397274971
50.4873114586
50.8858198166
39.7522357941
50.9227948189
50.8652781487
39.374269104
50.4380114555
50.3846031189
40.5451441765
50.4544447899
50.4174697876
39.961760807
50.4380114555
50.8488448143
39.772777462
50.4503364563
50.4174697876
40.5287108421
50.8858198166
50.8858198166
39.2715607643

Average distance is : 46.437 cm
Average deviation is : 6.408 cm
Block: 5
======================================
50.4051447868
50.4215781212
22.1398097038
50.4215781212
50.4010364532
37.7021773338
50.4380114555
50.3846031189
37.7350440025
50.4544447899
50.9022531509
39.5961191177
50.8652781487
50.4174697876
40.0809024811
50.4215781212
50.4708781242
40.1343108177
50.4544447899
50.4339031219
40.290427494
50.4380114555
50.4380114555
39.9946274757
50.4010364532
50.4010364532
40.5615775108
50.4380114555
50.4380114555
40.2534524918
50.4174697876
50.4380114555
39.961760807
50.4215781212
50.4544447899
40.6149858475
50.4010364532
50.4051447868
40.4465441704
50.4339031219
50.4339031219
39.9288941383
50.5037447929
50.8858198166
40.1343108177
50.4339031219
50.3846031189
40.3356191635
50.4010364532
50.4051447868

Average distance is : 46.716 cm
Average deviation is : 6.063 cm
Block: 6
======================================
25.3114432335
50.4174697876
50.4544447899
38.1335523605
50.8693864822
50.4339031219
36.8229939461
50.4010364532
50.4010364532
38.4622190475
50.8858198166
50.4749864578
39.8754858017
50.8693864822
50.4544447899
40.031602478
50.4380114555
50.4914197922
40.1137691498
50.8858198166
50.4873114586
39.9288941383
50.4708781242
50.4215781212
39.513952446
50.4174697876
50.3846031189
40.3767024994
50.4051447868
50.8529531479
39.6495274544
50.4873114586
50.4708781242
40.4260025024
50.8858198166
50.4380114555
40.1671774864
50.4873114586
50.4708781242
39.9781941414
50.4544447899
50.4544447899
40.290427494
50.4708781242
50.4873114586
40.0809024811
50.4708781242
50.4339031219
39.8056441307
50.4914197922

Average distance is : 46.528 cm
Average deviation is : 5.994 cm
Block: 7
======================================
50.4544447899
26.0714849472
50.4339031219
50.881711483
40.3027524948
50.4873114586
50.4174697876
39.5303857803
50.8858198166
50.4215781212
39.8590524673
50.3846031189
50.4010364532
40.6848275185
50.4380114555
50.8652781487
38.8730524063
50.4544447899
50.4914197922
40.1302024841
50.4380114555
50.4339031219
37.0119772911
50.4010364532
50.4215781212
39.7193691254
50.4174697876
50.4380114555
39.6659607887
50.3887114525
50.4010364532
39.324969101
50.3846031189
50.4174697876
40.3232941628
50.4380114555
50.4051447868
6.98005876541
50.4215781212
50.8858198166
39.8549441338
50.9022531509
50.8858198166
39.2017190933
50.5078531265
50.4174697876
40.5615775108
50.4010364532
50.4380114555
39.7193691254

Average distance is : 45.894 cm
Average deviation is : 8.090 cm
Block: 8
======================================
50.4339031219
50.4380114555
23.4544764519
50.4010364532
50.4380114555
39.6495274544
50.4010364532
50.4174697876
40.4095691681
50.4174697876
50.4544447899
40.1671774864
50.4215781212
50.4873114586
40.7875358582
50.8858198166
50.4380114555
39.185285759
50.5078531265
50.4215781212
40.2493441582
50.4380114555
50.4010364532
40.4588691711
50.3846031189
50.4380114555
40.1466358185
50.8858198166
50.4708781242
40.0439274788
50.4708781242
50.4544447899
40.2534524918
50.4708781242
50.4708781242
40.360269165
50.4380114555
50.4873114586
40.3890275002
50.4749864578
50.4708781242
40.2534524918
50.4914197922
50.5037447929
39.891919136
50.4544447899
50.5037447929
40.5780108452
50.8858198166
50.4708781242

Average distance is : 46.858 cm
Average deviation is : 5.831 cm
Block: 9
======================================
21.16202631
50.4873114586
50.4380114555
37.6323356628
50.4544447899
50.4174697876
37.4762189865
50.4544447899
50.4708781242
38.6676357269
50.4914197922
50.4174697876
40.031602478
50.5037447929
50.8858198166
39.6125524521
50.8858198166
50.4914197922
40.2534524918
50.4914197922
50.4749864578
40.2164774895
50.4380114555
50.4339031219
40.1302024841
50.4873114586
50.4380114555
40.1507441521
50.4708781242
50.4749864578
40.5451441765
50.4503364563
50.4708781242
39.5262774467
50.4544447899
50.4708781242
40.0110608101
50.4873114586
50.4873114586
40.6149858475
50.4749864578
50.4708781242
39.8220774651
50.4873114586
50.4708781242
40.4629775047
50.4544447899
50.4873114586
40.7012608528
50.9186864853

Average distance is : 46.474 cm
Average deviation is : 6.256 cm
Block: 10
======================================
50.4708781242
23.2613847733
50.4708781242
50.4708781242
37.9117023468
50.4380114555
50.3846031189
36.5641689301
50.4708781242
50.4708781242
39.9412191391
50.4749864578
50.4914197922
40.031602478
50.4749864578
50.4708781242
39.772777462
50.4914197922
50.4380114555
40.7176941872
50.4914197922
50.4339031219
40.4424358368
50.4708781242
50.4708781242
40.1137691498
50.4544447899
50.8693864822
39.842619133
50.4708781242
50.4544447899
40.2698858261
50.8858198166
50.8858198166
39.2715607643
50.4708781242
50.4544447899
40.3232941628
50.5037447929
50.4339031219
40.4588691711
50.4914197922
50.4544447899
40.1137691498
50.4544447899
50.4544447899
40.3356191635
50.4544447899
50.4380114555
40.6478525162

Average distance is : 46.531 cm
Average deviation is : 6.070 cm