
Block: 1
======================================
50.4380114555
5.01627531052
50.4215781212
50.4215781212
50.4010364532
50.4339031219
50.4174697876
21.5728596687
50.8693864822
50.4010364532
50.4010364532
50.4174697876
50.4215781212
25.8126599312
50.4215781212
50.8858198166
50.4380114555
50.3846031189
50.4010364532
25.7263849258
50.4215781212
50.4051447868
50.4010364532
50.4380114555
50.4051447868
25.8660682678
50.4215781212
50.3681697845
50.4215781212
50.4010364532
50.4051447868
25.7099515915
50.4010364532
50.3846031189
50.4215781212
50.4010364532
50.4215781212
26.482318306
50.8488448143
50.4174697876
50.4215781212
50.4174697876
50.4010364532
25.6935182571
50.4708781242
50.4544447899
50.4708781242
50.4215781212
50.4174697876
26.1947349548
50.4010364532
50.4010364532
50.4339031219
50.4380114555
50.4174697876
25.2621432304
50.4544447899
50.4503364563
50.3846031189
50.3846031189
50.4215781212
25.2826848984
50.4010364532
50.3887114525
50.4215781212
50.4215781212
50.4544447899
25.8989349365
50.4708781242
50.4215781212
50.4339031219
50.4174697876
50.4380114555
25.9852099419
50.0025280952

Average distance is : 45.832 cm
Average deviation is : 10.384 cm
Block: 2
======================================
50.4339031219
50.4215781212
50.4544447899
50.4544447899
9.52722558975
50.4873114586
50.4215781212
50.4215781212
50.4749864578
50.4010364532
24.399393177
50.4380114555
50.4544447899
50.4215781212
50.4051447868
50.4215781212
25.9523432732
50.4380114555
50.8858198166
50.4708781242
50.8858198166
50.4873114586
24.8841765404
50.4051447868
50.4010364532
50.9022531509
50.4380114555
50.4215781212
25.4511265755
50.4051447868
50.4544447899
50.4215781212
50.4010364532
50.4380114555
26.0550516129
50.4174697876
50.8858198166
50.8488448143
50.4708781242
50.8858198166
19.5926428795
50.4380114555
50.4544447899
50.4215781212
50.8858198166
50.4544447899
25.6729765892
50.4339031219
50.4873114586
50.4708781242
50.4873114586
46.6788862228
50.4708781242
50.4873114586
50.8858198166
50.4380114555
50.8858198166
24.728059864
50.4010364532
50.4380114555
50.8858198166
50.8858198166
50.4873114586
24.5226431847
50.5037447929
50.4544447899
50.9022531509
50.8693864822
50.9022531509
24.9334765434
50.4708781242
50.9186864853
50.4380114555
50.4708781242
50.4544447899

Average distance is : 46.494 cm
Average deviation is : 9.879 cm
Block: 3
======================================
10.9610340118
50.4215781212
50.4380114555
50.9186864853
50.4174697876
50.4010364532
18.5943178177
50.4174697876
50.4544447899
50.4339031219
50.4380114555
50.4380114555
25.1553265572
50.4380114555
50.4215781212
50.8693864822
50.4708781242
50.4544447899
25.4018265724
50.4010364532
50.4873114586
50.4708781242
50.3846031189
50.4708781242
25.7469265938
50.4010364532
50.4873114586
50.4215781212
50.4708781242
50.4174697876
24.7937932014
50.9022531509
50.3846031189
50.4010364532
50.4215781212
50.8858198166
24.9334765434
50.4010364532
50.3846031189
50.4339031219
50.4215781212
50.8652781487
25.4675599098
50.4544447899
50.4215781212
50.4010364532
50.8652781487
50.4174697876
25.6770849228
50.4380114555
50.4339031219
50.4339031219
50.4503364563
50.3846031189
25.1594348907
50.4174697876
50.4339031219
50.4215781212
50.4215781212
50.3846031189
25.5908099174
50.4544447899
50.4051447868
50.8652781487
50.4873114586
50.4010364532
25.8496349335
50.4215781212
50.4380114555
50.4215781212
50.4215781212
50.4380114555
25.9153682709
50.4380114555
50.8693864822

Average distance is : 45.859 cm
Average deviation is : 10.322 cm
Block: 4
======================================
50.8858198166
50.3887114525
50.8488448143
11.716967392
50.4174697876
50.4010364532
50.3846031189
50.8858198166
50.4174697876
25.3114432335
50.0600447655
50.4215781212
50.4708781242
50.4544447899
50.4708781242
26.9178016663
50.4544447899
50.4708781242
50.8488448143
50.4339031219
50.4380114555
24.021426487
50.4708781242
50.3846031189
50.4215781212
50.4174697876
50.4339031219
25.0033182144
50.4544447899
50.4380114555
50.8693864822
50.4051447868
50.8488448143
25.2950098991
50.4215781212
50.4051447868
50.4174697876
50.4380114555
50.4215781212
26.1947349548
50.4215781212
50.4051447868
50.3846031189
50.4339031219
50.3846031189
24.9499098778
50.4708781242
50.4380114555
50.4215781212
50.4010364532
50.4544447899
26.1741932869
50.0271780968
50.4215781212
50.4010364532
50.4010364532
50.4544447899
25.4881015778
50.9022531509
50.4215781212
50.4051447868
50.4010364532
50.4174697876
23.5736181259
50.4708781242
50.4708781242
50.3846031189
50.3846031189
44.1645860672
50.0066364288
50.4215781212
50.4010364532
50.8858198166
50.3846031189
25.9646682739

Average distance is : 46.179 cm
Average deviation is : 9.803 cm
Block: 5
======================================
50.4051447868
50.4051447868
49.5588280678
50.4339031219
50.4544447899
9.52722558975
50.4174697876
50.4708781242
50.4708781242
50.4708781242
50.9186864853
25.2991182327
50.0230697632
50.4174697876
50.4174697876
50.4010364532
50.4544447899
25.4346932411
50.4174697876
50.4544447899
50.9351198196
50.8858198166
50.4544447899
24.5226431847
50.4708781242
50.4708781242
50.4914197922
50.4873114586
50.4380114555
25.9318016052
50.4174697876
50.4380114555
50.4708781242
50.4544447899
50.4914197922
26.482318306
50.4544447899
50.0600447655
50.4873114586
50.4544447899
50.4708781242
26.3138766289
50.4708781242
50.4544447899
50.4914197922
50.5078531265
50.4380114555
25.3648515701
50.0600447655
50.5037447929
50.4708781242
50.4544447899
50.4380114555
25.3484182358
50.0436114311
50.4544447899
50.4873114586
50.4215781212
50.4708781242
26.2234932899
50.4380114555
50.4708781242
50.4873114586
50.4914197922
50.4503364563
25.5538349152
50.8858198166
50.4339031219
50.4544447899
50.4544447899
50.4708781242
25.6195682526
50.8858198166
50.4380114555
50.4873114586

Average distance is : 46.268 cm
Average deviation is : 9.820 cm
Block: 6
======================================
50.8324114799
50.4010364532
11.0966090202
50.4544447899
50.5037447929
50.4544447899
50.8693864822
50.5078531265
22.6245930672
50.4051447868
50.4010364532
50.4544447899
50.8652781487
50.8652781487
24.399393177
50.9022531509
50.4380114555
50.4174697876
50.4544447899
50.4708781242
26.6918433189
50.4010364532
50.4544447899
50.4914197922
50.4544447899
50.4339031219
25.3114432335
50.4914197922
50.4708781242
50.4873114586
50.4544447899
50.8858198166
25.3484182358
50.4708781242
50.4708781242
50.4708781242
50.9186864853
50.4339031219
25.8126599312
50.4380114555
50.4544447899
50.881711483
50.4380114555
50.8693864822
23.8283348083
50.4215781212
50.4215781212
50.4544447899
50.0888031006
50.4051447868
25.0197515488
50.4339031219
50.4708781242
50.9022531509
50.4873114586
50.9022531509
24.9170432091
50.0559364319
50.4174697876
50.4215781212
50.4708781242
50.4380114555
26.3138766289
50.4380114555
50.4708781242
50.4051447868
50.4544447899
50.8858198166
25.5702682495
49.9902030945
50.3846031189
50.4174697876
50.4174697876
50.8858198166
25.6729765892

Average distance is : 45.930 cm
Average deviation is : 10.219 cm
Block: 7
======================================
50.4544447899
50.4708781242
50.4544447899
50.4873114586
42.4103276253
50.4380114555
50.4010364532
50.4708781242
50.4544447899
50.4380114555
25.1224598885
50.0395030975
50.4708781242
50.4708781242
50.4708781242
50.4708781242
26.2440349579
50.0271780968
50.4708781242
50.4708781242
50.4544447899
50.4380114555
26.3796099663
50.8693864822
50.8858198166
50.4544447899
50.4873114586
50.4749864578
24.9129348755
50.4380114555
50.5078531265
50.4708781242
50.4544447899
50.4544447899
26.2769016266
50.4215781212
50.4708781242
50.4914197922
50.4544447899
50.4544447899
25.6770849228
50.4174697876
50.4544447899
50.4380114555
50.4339031219
50.4873114586
25.5374015808
50.4749864578
50.4380114555
50.4708781242
50.4708781242
50.4544447899
26.0016432762
50.4544447899
50.4873114586
50.4380114555
50.4544447899
50.4339031219
26.2440349579
50.4708781242
50.4873114586
50.4544447899
50.4708781242
50.4708781242
25.8989349365
50.4873114586
50.4544447899
50.4544447899
50.4339031219
50.4708781242
25.3484182358
50.4174697876
50.4873114586
50.4544447899
50.4873114586

Average distance is : 46.733 cm
Average deviation is : 8.795 cm
Block: 8
======================================
50.4010364532
11.4252757072
50.4215781212
50.8693864822
50.4380114555
50.4215781212
50.4051447868
17.8014094353
50.5037447929
50.9186864853
50.4708781242
50.4708781242
50.4544447899
23.0765097618
50.4215781212
50.4215781212
50.4010364532
50.4503364563
50.4051447868
26.3796099663
50.4544447899
50.4708781242
50.4051447868
50.4380114555
50.9022531509
25.5004265785
50.4873114586
50.4174697876
50.4873114586
50.4380114555
50.4339031219
26.1413266182
50.8488448143
50.4380114555
50.4051447868
50.4174697876
50.4544447899
24.9868848801
50.4051447868
50.9022531509
50.4544447899
50.4051447868
50.4339031219
25.8496349335
50.4010364532
50.4914197922
50.8652781487
50.4339031219
50.9022531509
24.9827765465
50.4873114586
50.9022531509
50.8858198166
50.4708781242
50.9022531509
24.5883765221
50.4544447899
50.5037447929
50.3846031189
50.4010364532
50.8652781487
24.8841765404
50.4051447868
50.8858198166
50.4010364532
50.8652781487
50.4051447868
24.1077014923
50.4544447899
50.4215781212
50.8858198166
50.8858198166
50.4215781212
25.3114432335
50.4010364532

Average distance is : 45.851 cm
Average deviation is : 10.461 cm
Block: 9
======================================
50.9186864853
50.4051447868
50.4380114555
50.3846031189
8.27007551193
50.4914197922
50.4339031219
50.4708781242
50.4010364532
50.4339031219
25.2292765617
50.3846031189
50.4708781242
50.4380114555
50.4174697876
50.8858198166
25.8332015991
50.4215781212
50.4174697876
50.4544447899
50.4708781242
50.8858198166
50.8858198166
50.8858198166
50.3846031189
50.8488448143
50.4544447899
18.7791928291
50.4544447899
50.4380114555
50.4708781242
50.4708781242
50.4873114586
25.8455265999
50.4544447899
50.4544447899
50.4380114555
50.4051447868
50.8693864822
25.3484182358
50.9022531509
50.881711483
50.8693864822
50.8652781487
50.8858198166
23.9556931496
50.4174697876
50.4339031219
50.4544447899
50.4339031219
50.4708781242
25.9852099419
50.4339031219
50.4708781242
50.4873114586
50.4215781212
50.4174697876
26.1741932869
50.4010364532
50.3681697845
50.4380114555
50.4708781242
50.4503364563
25.8290932655
50.4708781242
50.4544447899
50.4215781212
50.4380114555
50.4215781212
25.8660682678
50.4503364563
50.4215781212
50.3887114525
50.4708781242
50.4051447868

Average distance is : 46.539 cm
Average deviation is : 9.875 cm
Block: 10
======================================
15.233700943
50.4339031219
50.4380114555
50.4010364532
50.3846031189
50.9186864853
24.9868848801
50.0066364288
50.4215781212
50.4380114555
50.4010364532
50.4174697876
26.3631766319
50.3846031189
50.4174697876
50.4215781212
50.4010364532
50.4051447868
25.8290932655
50.8652781487
50.4380114555
50.4215781212
50.4380114555
50.4215781212
24.1775431633
49.9902030945
50.4380114555
50.4708781242
50.4380114555
50.4010364532
25.5209682465
50.4339031219
50.4010364532
50.4051447868
50.4380114555
50.4174697876
27.020510006
50.0066364288
50.4215781212
50.4380114555
50.4174697876
50.4380114555
26.6220016479
49.9696614265
50.4215781212
50.4010364532
50.4339031219
50.4174697876
26.8479599953
50.4339031219
50.4339031219
50.4010364532
50.4215781212
50.4174697876
25.6770849228
50.0395030975
50.4174697876
50.4174697876
50.4174697876
50.4339031219
27.328635025
50.4174697876
50.4380114555
50.4503364563
50.4380114555
50.4174697876
26.0920266151
50.4010364532
50.4215781212
50.4380114555
50.4544447899
50.4339031219
26.5398349762
49.9860947609
50.4010364532

Average distance is : 46.038 cm
Average deviation is : 9.667 cm