
Block: 1
======================================
50.4174697876
50.4051447868
50.4544447899
50.8488448143
50.4010364532
13.0603924751
50.4010364532
50.4051447868
50.4544447899
50.4215781212

Block: 2
======================================
50.4174697876
50.4380114555
50.3846031189
50.8693864822
50.364061451
50.4544447899
50.4380114555
50.9022531509
50.4380114555
12.891950798

Block: 3
======================================
50.4339031219
50.3887114525
50.4380114555
50.4174697876
50.4544447899
50.3846031189
50.4215781212
50.9186864853
50.8858198166
50.4215781212

Block: 4
======================================
50.4708781242
50.4873114586
50.4544447899
50.4544447899
50.4873114586
50.4010364532
11.8073507309
50.4010364532
50.4503364563
50.4914197922

Block: 5
======================================
50.4708781242
50.4544447899
50.5037447929
50.4873114586
50.4544447899
50.4544447899
50.4708781242
50.4708781242
50.4544447899
50.4544447899

Block: 6
======================================
0.603925037384
50.9227948189
50.4544447899
50.4174697876
50.4544447899
50.9186864853
50.4174697876
50.4380114555
50.4380114555
50.4380114555

Block: 7
======================================
50.8858198166
50.4708781242
50.4215781212
51.1775115013
13.5082008362
50.4380114555
50.4544447899
50.4708781242
50.4708781242
50.4339031219

Block: 8
======================================
50.8858198166
50.3846031189
50.4051447868
50.3846031189
50.3681697845
50.4380114555
50.4174697876
50.4544447899
18.8161678314
50.4708781242

Block: 9
======================================
50.4708781242
50.4174697876
50.3846031189
50.3846031189
50.4380114555
50.4339031219
50.4380114555
50.4544447899
50.4339031219
50.4380114555

Block: 10
======================================
50.4339031219
50.4708781242
5.80918369293
50.4215781212
50.4215781212
50.4544447899
50.4215781212
50.4544447899
50.4544447899
50.9227948189
