
Block: 1
======================================
49.9860947609
50.4174697876
50.4339031219
50.4215781212
50.3846031189
7.0499004364
50.4339031219
50.3846031189
50.4380114555
50.4380114555

Block: 2
======================================
50.4339031219
7.54700880051
50.4544447899
50.4339031219
50.4051447868
50.4339031219
50.4215781212
20.3526845932
50.3887114525
50.4380114555

Block: 3
======================================
50.3846031189
50.4174697876
50.4380114555
10.5460923195
50.4708781242
50.4174697876
50.4174697876
50.4339031219
50.4503364563
24.3624181747

Block: 4
======================================
50.4544447899
50.3846031189
50.4051447868
50.4215781212
50.4010364532
3.54960021973
50.4215781212
50.4544447899
50.4174697876
50.4215781212

Block: 5
======================================
50.5776947975
8.13450050354
50.0436114311
50.4380114555
50.4174697876
50.4380114555
20.5046929359
50.4708781242
50.4380114555
50.4380114555

Block: 6
======================================
50.4215781212
50.4380114555
8.18790884018
49.9696614265
50.4174697876
50.4339031219
50.4380114555
50.951553154
24.091268158
50.4215781212

Block: 7
======================================
50.4503364563
50.4380114555
50.4174697876
50.4380114555
6.10087537766
50.4380114555
50.3846031189
50.4544447899
50.3887114525
50.4215781212

Block: 8
======================================
7.63328380585
50.4380114555
50.4051447868
50.3846031189
50.4010364532
50.4010364532
24.3829598427
50.8858198166
50.4174697876
50.4215781212

Block: 9
======================================
50.4708781242
50.4174697876
7.84280881882
50.4051447868
50.4708781242
50.4544447899
50.4544447899
50.4544447899
21.539993
50.4544447899

Block: 10
======================================
50.4339031219
50.4380114555
50.4174697876
50.4174697876
6.51170873642
50.4708781242
50.4215781212
50.4174697876
50.4215781212
50.4174697876
