
Block: 1
======================================
50.4174697876
50.4339031219
50.4174697876
50.4544447899
50.4380114555
50.4215781212
7.67025880814
50.3846031189
50.4215781212
50.4174697876
50.4544447899
50.4215781212
50.3846031189
50.4174697876
50.4215781212
50.8488448143
50.4708781242
50.4708781242
50.4339031219
50.4010364532
50.4010364532
12.4564674377
50.8488448143
50.4215781212
50.3846031189

Average distance is : 47.229 cm
Average deviation is : 11.207 cm
Block: 2
======================================
50.4215781212
50.4010364532
50.4339031219
50.4339031219
50.4708781242
50.4873114586
50.4873114586
50.0395030975
50.4544447899
50.0066364288
20.9032012939
50.4174697876
50.4544447899
50.4873114586
50.4010364532
50.4914197922
50.4544447899
50.4873114586
50.4544447899
50.4010364532
50.4051447868
50.4380114555
50.8652781487
14.9913092613
50.8858198166

Average distance is : 47.847 cm
Average deviation is : 9.041 cm
Block: 3
======================================
50.4051447868
50.4215781212
50.4708781242
50.4215781212
50.4380114555
50.4708781242
50.8324114799
50.4708781242
50.4215781212
50.4544447899
50.8529531479
49.9860947609
20.0774262428
50.4708781242
50.4174697876
51.0748031616
50.4544447899
50.4708781242
50.4708781242
50.5078531265
50.8693864822
50.4749864578
50.4339031219
50.4051447868
50.4339031219

Average distance is : 49.288 cm
Average deviation is : 6.089 cm
Block: 4
======================================
50.0395030975
22.1603513718
50.4051447868
50.4051447868
50.4215781212
50.3846031189
50.4914197922
50.4708781242
50.5078531265
50.4708781242
50.4708781242
50.4215781212
50.4503364563
50.5078531265
11.2198590279
50.4544447899
50.8858198166
50.4544447899
50.881711483
50.4010364532
50.9022531509
50.4380114555
50.4215781212
50.4708781242
50.4380114555

Average distance is : 47.783 cm
Average deviation is : 9.492 cm
Block: 5
======================================
50.4544447899
50.4708781242
50.4174697876
19.4036595345
50.4215781212
50.4215781212
50.4010364532
50.4010364532
50.4380114555
50.4174697876
50.3846031189
50.3846031189
50.8858198166
50.4708781242
50.4215781212
50.9022531509
12.3208924294
50.4215781212
50.4010364532
50.4010364532
50.3846031189
50.4544447899
50.4051447868
50.4380114555
50.3846031189

Average distance is : 47.692 cm
Average deviation is : 9.635 cm
Block: 6
======================================
50.4380114555
50.0230697632
51.0953448296
50.4380114555
50.4544447899
19.8350345612
50.3846031189
50.4010364532
50.4051447868
50.4215781212
50.3681697845
50.4051447868
50.3887114525
50.4215781212
50.4010364532
50.4708781242
50.4380114555
50.4010364532
15.2665676117
50.4544447899
50.4215781212
50.4215781212
50.4174697876
50.4380114555
50.4380114555

Average distance is : 47.802 cm
Average deviation is : 9.130 cm
Block: 7
======================================
50.4380114555
50.4174697876
50.4051447868
50.4380114555
50.4215781212
50.4215781212
50.4051447868
50.4339031219
2.55127515793
50.4380114555
50.4010364532
50.4174697876
50.3887114525
50.4174697876
49.7642447472
50.4174697876
50.4339031219
50.3887114525
50.4010364532
50.4051447868
50.4708781242
15.4884176254
50.4215781212
50.4215781212
50.8858198166

Average distance is : 47.100 cm
Average deviation is : 11.613 cm
Block: 8
======================================
50.3846031189
50.4544447899
50.4010364532
50.4010364532
50.4051447868
50.4174697876
50.4215781212
50.4215781212
50.4380114555
50.0066364288
19.8843345642
50.4010364532
50.4010364532
50.4380114555
50.4174697876
50.4380114555
50.4010364532
50.4544447899
50.4380114555
50.4174697876
50.4215781212
50.4010364532
50.4215781212
14.6996175766
50.4215781212

Average distance is : 47.752 cm
Average deviation is : 9.198 cm
Block: 9
======================================
50.4215781212
50.4544447899
50.4174697876
50.4174697876
50.4174697876
50.3846031189
50.4544447899
50.4174697876
50.4051447868
50.4174697876
50.4339031219
0.102708339691
50.4503364563
50.4380114555
50.4215781212
50.3846031189
50.4544447899
50.4174697876
50.9022531509
50.4215781212
50.4544447899
50.4215781212
50.4010364532
50.4010364532
14.4736592293

Average distance is : 46.991 cm
Average deviation is : 12.128 cm
Block: 10
======================================
50.4174697876
50.4174697876
50.4174697876
50.4215781212
50.4380114555
50.4339031219
50.4051447868
50.3846031189
50.4010364532
50.4215781212
50.4380114555
50.4544447899
0.653225040436
50.4544447899
50.3846031189
50.4051447868
50.4215781212
50.3846031189
50.4174697876
50.4010364532
50.4339031219
50.4010364532
50.0230697632
50.4380114555
50.3846031189

Average distance is : 48.410 cm
Average deviation is : 9.950 cm