
Block: 1
======================================
50.4215781212
50.881711483
50.9186864853
50.4010364532
50.4380114555

Block: 2
======================================
22.1110513687
50.4380114555
50.4380114555
50.4215781212
50.4010364532

Block: 3
======================================
50.4544447899
50.4010364532
50.4215781212
50.3846031189
50.4544447899

Block: 4
======================================
50.4174697876
50.4380114555
50.4215781212
50.4380114555
50.4708781242

Block: 5
======================================
50.4749864578
50.4544447899
50.4914197922
50.4544447899
50.4708781242

Block: 6
======================================
50.4380114555
50.4010364532
50.4174697876
50.3846031189
50.4051447868

Block: 7
======================================
50.4339031219
50.4051447868
50.4380114555
50.4380114555
50.4174697876

Block: 8
======================================
50.4544447899
50.8858198166
50.4174697876
50.4010364532
50.4174697876

Block: 9
======================================
50.8858198166
50.881711483
50.4380114555
50.9186864853
50.4051447868

Block: 10
======================================
50.4544447899
50.4215781212
50.4174697876
50.4544447899
49.6779697418
