
Block: 1
======================================
50.0066364288
19.4693928719
50.4174697876
50.4215781212
50.4544447899
50.4010364532
50.4174697876
50.4380114555
50.4051447868
50.4215781212
50.4380114555
50.4215781212
50.4380114555
50.4174697876
10.1147172928
50.4174697876
50.4174697876
50.4174697876
50.4215781212
50.4174697876
50.4215781212
50.4215781212
50.3846031189
50.3846031189
50.4215781212
50.4339031219
49.9737697601
15.8869259834
50.4380114555
50.4339031219
50.4380114555
50.4215781212
50.4215781212
50.4174697876
50.4215781212
50.4339031219
50.4380114555
50.4215781212
50.8652781487
50.4174697876
50.4010364532
49.9737697601
18.3683594704
50.4174697876
50.3887114525
50.4010364532
50.4010364532
50.4215781212
50.4339031219
50.4051447868

Average distance is : 47.646 cm
Average deviation is : 9.496 cm
Block: 2
======================================
50.4010364532
50.4215781212
50.4051447868
50.4380114555
50.3846031189
50.4215781212
18.9558511734
50.4544447899
50.4174697876
50.4339031219
50.4010364532
50.4380114555
50.4544447899
50.4174697876
50.3846031189
50.4339031219
50.8529531479
50.4010364532
50.3887114525
15.3199759483
50.4544447899
50.4010364532
50.4215781212
50.4174697876
50.4215781212
50.3846031189
50.4380114555
50.4010364532
50.4544447899
50.4215781212
50.4544447899
50.0066364288
15.9403343201
50.4051447868
50.4010364532
50.4215781212
50.4174697876
50.4215781212
50.4380114555
50.4174697876
50.4174697876
50.4544447899
50.4215781212
50.7502448082
50.4544447899
15.3364092827
50.4010364532
50.4174697876
50.4215781212
50.4380114555

Average distance is : 47.706 cm
Average deviation is : 9.339 cm
Block: 3
======================================
50.4051447868
50.4380114555
50.4051447868
50.4544447899
50.4174697876
50.0230697632
50.0066364288
50.0066364288
0.792908382416
50.4339031219
50.4215781212
50.4544447899
50.4339031219
50.4215781212
50.4010364532
50.4215781212
50.4174697876
50.4010364532
50.4215781212
50.4380114555
50.4174697876
14.5270675659
50.4174697876
50.4215781212
50.4051447868
50.4010364532
50.3846031189
50.4174697876
50.4051447868
50.4215781212
50.4010364532
50.4215781212
50.4010364532
50.4051447868
15.9239009857
50.4339031219
50.4215781212
50.3681697845
50.4380114555
50.4215781212
50.4380114555
50.3846031189
50.4215781212
50.4010364532
49.9696614265
50.4380114555
50.4051447868
16.5771260262
50.4174697876
50.4051447868

Average distance is : 47.307 cm
Average deviation is : 10.693 cm
Block: 4
======================================
50.4174697876
50.4380114555
50.4339031219
50.4174697876
50.4708781242
50.4339031219
50.4051447868
50.4215781212
50.4339031219
50.4339031219
50.4215781212
20.8169262886
50.4010364532
50.3846031189
50.4215781212
50.4010364532
50.4380114555
50.4215781212
50.4010364532
50.4010364532
50.4380114555
50.4174697876
50.4215781212
50.0066364288
16.5935593605
50.4010364532
50.4215781212
50.4215781212
50.3846031189
50.4380114555
50.4215781212
50.4380114555
50.4051447868
50.3846031189
50.4010364532
50.4174697876
50.4174697876
15.9239009857
50.4174697876
50.4174697876
50.3846031189
50.4051447868
50.4544447899
50.4215781212
50.4010364532
50.4174697876
50.4380114555
50.4380114555
50.4174697876
50.4174697876

Average distance is : 48.452 cm
Average deviation is : 7.847 cm
Block: 5
======================================
50.4544447899
50.4051447868
16.2484593391
50.4215781212
50.4339031219
50.4174697876
50.4380114555
50.4010364532
50.3846031189
50.3846031189
50.4051447868
50.4010364532
50.4215781212
50.881711483
50.4215781212
14.9379009247
50.4380114555
50.4010364532
50.4010364532
50.4051447868
50.4380114555
50.4010364532
50.4339031219
50.4010364532
50.4174697876
50.4215781212
50.4174697876
50.4544447899
15.8704926491
50.3846031189
50.4010364532
50.4051447868
50.4174697876
50.4010364532
50.4380114555
50.4544447899
50.4215781212
50.4010364532
50.4215781212
50.3681697845
50.4544447899
15.3898176193
50.4380114555
50.3846031189
50.4010364532
50.4051447868
50.4749864578
50.4380114555
51.0419364929
50.4010364532

Average distance is : 47.654 cm
Average deviation is : 9.546 cm
Block: 6
======================================
50.4051447868
50.4544447899
50.4503364563
50.4339031219
50.4544447899
18.09310112
50.3846031189
50.4215781212
50.4174697876
50.4174697876
50.4215781212
50.4215781212
50.8693864822
50.4380114555
50.4380114555
50.4503364563
50.4174697876
50.4010364532
14.2312675476
50.4051447868
50.4380114555
50.4010364532
50.4215781212
50.4339031219
50.4215781212
50.4051447868
50.4380114555
50.3846031189
50.4708781242
50.4503364563
50.4051447868
14.0792592049
50.4174697876
50.4708781242
50.4380114555
50.4010364532
50.3846031189
50.4051447868
50.4544447899
50.3681697845
50.4215781212
50.4873114586
50.4380114555
50.4215781212
13.5410675049
50.9022531509
50.4174697876
50.4215781212
50.4380114555
50.4503364563

Average distance is : 47.609 cm
Average deviation is : 9.732 cm
Block: 7
======================================
50.4174697876
50.4544447899
50.3846031189
50.4174697876
50.3846031189
50.4339031219
50.4339031219
50.4708781242
16.8523843765
50.4544447899
50.4215781212
50.881711483
50.4544447899
50.4215781212
50.4174697876
50.4010364532
50.4174697876
50.8858198166
50.4380114555
50.8652781487
50.8858198166
13.4917675018
50.4215781212
50.4174697876
50.4215781212
50.4051447868
50.9022531509
50.8858198166
50.4380114555
50.4010364532
50.4380114555
50.4174697876
50.4051447868
50.4010364532
13.8204341888
50.4174697876
50.4380114555
50.3846031189
50.4174697876
50.4051447868
50.4174697876
50.4010364532
50.4174697876
50.4215781212
50.5078531265
50.4215781212
50.4339031219
14.1121258736
50.4380114555
50.4215781212

Average distance is : 47.610 cm
Average deviation is : 9.851 cm
Block: 8
======================================
50.4051447868
50.4010364532
50.4051447868
50.4215781212
50.3681697845
50.4010364532
50.4339031219
50.4544447899
50.4873114586
50.4010364532
50.4708781242
17.8178427696
50.5037447929
50.4914197922
50.4339031219
50.4749864578
50.4914197922
50.4339031219
50.4380114555
50.4174697876
50.4544447899
50.4174697876
50.4708781242
50.5078531265
14.7858925819
50.4708781242
50.4380114555
50.4010364532
50.4708781242
50.4380114555
50.4708781242
50.4544447899
50.4708781242
50.4544447899
50.4749864578
50.3846031189
50.4749864578
14.765350914
50.4708781242
50.4708781242
46.1776695251
50.4503364563
50.4914197922
50.0436114311
50.4708781242
50.4174697876
50.0764780998
50.4544447899
50.4544447899
50.4339031219

Average distance is : 48.267 cm
Average deviation is : 8.318 cm
Block: 9
======================================
50.8693864822
50.9186864853
50.0066364288
16.2320260048
50.4339031219
50.4051447868
50.8652781487
50.8858198166
50.8858198166
50.8693864822
50.4708781242
50.8858198166
50.4708781242
50.4174697876
50.4708781242
50.881711483
8.02768383026
51.2966531754
50.4380114555
50.4708781242
50.8858198166
50.4010364532
50.8693864822
50.4914197922
50.9022531509
50.4708781242
50.4708781242
50.4051447868
50.4174697876
11.8730840683
50.8652781487
50.9186864853
50.3846031189
50.4010364532
50.4708781242
50.4010364532
50.4215781212
50.4215781212
50.4010364532
50.4380114555
50.4174697876
50.4544447899
12.1483424187
50.4380114555
50.4914197922
50.4215781212
50.4010364532
50.4544447899
50.4215781212
50.4174697876

Average distance is : 47.492 cm
Average deviation is : 10.586 cm
Block: 10
======================================
50.4544447899
50.3846031189
50.4708781242
50.4380114555
50.4215781212
50.4215781212
17.4398760796
50.4215781212
50.3846031189
50.4215781212
50.8652781487
50.4215781212
50.4215781212
50.3846031189
50.4215781212
50.4174697876
50.4010364532
50.4544447899
50.4215781212
10.9076256752
50.4339031219
50.4051447868
50.3681697845
50.4380114555
50.4380114555
50.3846031189
50.4339031219
50.4010364532
50.4010364532
50.4380114555
50.4215781212
50.4215781212
14.3011092186
50.4010364532
50.4010364532
50.4174697876
50.4010364532
50.4339031219
50.4873114586
50.4544447899
50.4544447899
50.4544447899
50.4749864578
50.4215781212
50.4215781212
14.5106342316
50.3846031189
50.4051447868
50.4174697876
50.4051447868

Average distance is : 47.540 cm
Average deviation is : 9.927 cm