
Block: 1
======================================
50.4051447868
50.4010364532
50.4051447868
7.06222543716
50.3846031189
50.4215781212
50.4215781212
50.4380114555
50.3846031189
22.3493347168
50.4215781212
50.4380114555
49.9860947609
50.4215781212
50.4051447868
26.6384349823
49.8669530869
50.3846031189
50.4174697876
50.3887114525
50.4215781212
26.3631766319
50.4544447899
50.3846031189
50.4380114555
50.4544447899
50.4051447868
22.6410264015
50.4380114555
50.0066364288
50.4503364563
50.4010364532
50.3846031189
27.2629016876
50.4708781242
50.4380114555
50.4051447868
50.4380114555
50.4215781212
26.5234016418
50.9022531509
50.4010364532
50.4380114555
50.4215781212
31.8108269691
50.0395030975
50.4339031219
50.4010364532
50.4708781242
50.4544447899
27.3656100273
50.4380114555
50.8693864822
50.4339031219
50.4010364532
50.4051447868
25.7797932625
50.4708781242
50.4380114555
50.4174697876
50.4174697876
50.9022531509
26.1084599495
50.4708781242
50.4174697876
50.3846031189
50.4174697876
50.4380114555
26.6220016479
50.4174697876
50.4544447899
50.4380114555
50.4051447868
50.4174697876
26.7616849899
50.4051447868
50.4380114555
50.4215781212
50.4380114555
50.4380114555
26.4535599709
50.4010364532
50.4010364532
50.4215781212
50.8858198166
50.4010364532
25.1717598915
50.4215781212
50.3846031189
50.4174697876
50.3846031189
49.5423947334
26.6918433189
50.4749864578
50.4010364532
50.4380114555
50.4215781212
50.4215781212
27.0739183426
50.4749864578

Block: 2
======================================
50.9022531509
50.4010364532
50.4380114555
50.4215781212
15.821192646
50.4051447868
50.4380114555
50.4174697876
50.4380114555
50.9022531509
26.6548683167
50.4708781242
50.9022531509
50.4544447899
50.3887114525
50.4051447868
25.6935182571
50.4708781242
50.3846031189
50.4174697876
50.4174697876
50.4380114555
26.6918433189
50.4215781212
50.4544447899
50.4380114555
50.881711483
50.4380114555
26.3303099632
50.4708781242
50.8488448143
50.4174697876
50.4174697876
50.4010364532
26.4699933052
50.0230697632
50.4174697876
50.4380114555
50.4380114555
50.4544447899
27.1601933479
50.4708781242
50.4051447868
50.4215781212
50.4010364532
50.4544447899
26.6589766502
50.4708781242
50.4708781242
50.4174697876
50.8488448143
50.4339031219
26.4699933052
50.4380114555
50.8693864822
50.3887114525
50.4873114586
50.4380114555
26.2604682922
50.0066364288
50.4215781212
50.4174697876
50.4174697876
50.4010364532
27.0862433434
50.8693864822
50.4051447868
50.4339031219
50.4010364532
50.4380114555
25.8290932655
50.8652781487
49.8874947548
50.4215781212
50.4174697876
50.4010364532
26.3138766289
50.8693864822
50.4010364532
50.3846031189
50.4339031219
50.4544447899
26.2974432945
50.4873114586
50.4544447899
50.4174697876
50.4174697876
50.8693864822
26.3467432976
50.4380114555
50.4380114555
50.4010364532
50.4544447899
50.4380114555
25.5908099174
50.6804031372
50.4174697876
50.4010364532
50.4010364532
50.4010364532

Block: 3
======================================
15.681509304
50.8858198166
50.8858198166
50.4873114586
50.3887114525
50.4380114555
18.0766677856
50.4873114586
50.4708781242
50.4873114586
50.4544447899
50.4544447899
25.8989349365
50.4380114555
50.5037447929
50.4708781242
50.4503364563
50.4914197922
50.4544447899
50.4215781212
50.4339031219
50.4544447899
50.5037447929
26.4494516373
50.4174697876
50.4010364532
50.4914197922
50.4873114586
50.4708781242
25.9318016052
50.0230697632
50.4749864578
50.4544447899
51.0583698273
50.4873114586
28.2447934151
50.0395030975
50.4708781242
50.4544447899
50.4708781242
50.4544447899
27.0040766716
50.0230697632
50.0271780968
50.4544447899
50.0066364288
50.4708781242
27.5710267067
50.4380114555
50.4873114586
50.4503364563
50.4544447899
50.4708781242
26.5028599739
50.4749864578
50.4544447899
50.4708781242
50.4380114555
50.4544447899
26.2604682922
50.0230697632
50.4174697876
50.4708781242
50.4544447899
50.5078531265
27.13965168
50.0559364319
50.4380114555
50.4544447899
50.4544447899
50.4873114586
27.0369433403
50.4708781242
50.4708781242
50.4380114555
50.4544447899
50.4873114586
24.8800682068
50.4873114586
50.0600447655
50.4339031219
50.4544447899
50.4544447899
26.2440349579
50.0559364319
50.4873114586
50.4708781242
50.8858198166
50.4708781242
27.0369433403
50.8529531479
50.8693864822
50.4544447899
50.4873114586
50.4544447899
25.7592515945
50.4010364532
50.4873114586
50.4339031219
50.4544447899

Block: 4
======================================
50.4380114555
14.2518092155
50.4215781212
50.3846031189
50.4215781212
50.9022531509
50.9022531509
21.6961096764
50.8858198166
50.4873114586
50.4914197922
50.4708781242
50.8858198166
25.0731598854
50.4708781242
50.5078531265
50.4380114555
50.4873114586
50.4215781212
26.6589766502
50.4873114586
50.4708781242
50.4749864578
50.4749864578
50.4914197922
26.2933349609
50.4708781242
50.4544447899
50.4380114555
50.4544447899
50.4914197922
26.1207849503
50.0436114311
50.4749864578
50.4749864578
50.8858198166
50.4708781242
26.2645766258
50.4380114555
50.4708781242
50.4380114555
50.4708781242
50.4380114555
25.9687766075
50.4544447899
50.4544447899
50.5078531265
50.4749864578
50.4708781242
26.6754099846
50.4010364532
50.4339031219
50.4708781242
50.9022531509
50.4544447899
25.9523432732
50.4708781242
50.4708781242
50.4749864578
50.4914197922
50.4380114555
27.0164016724
50.4544447899
50.4873114586
50.4873114586
50.4708781242
50.5078531265
25.9359099388
50.0764780998
50.4174697876
50.4873114586
50.4708781242
50.4503364563
27.1601933479
50.4544447899
50.4380114555
50.4708781242
50.4503364563
50.4708781242
26.6055683136
50.4708781242
50.4380114555
50.4544447899
50.4503364563
50.4544447899
26.5357266426
50.0066364288
50.4708781242
50.4708781242
50.0559364319
51.4363365173
24.5924848557
50.4544447899
50.4914197922
50.4708781242
50.5078531265
50.4544447899
26.2440349579
50.4215781212
50.4503364563

Block: 5
======================================
50.4544447899
50.4380114555
38.856619072
50.4339031219
50.4215781212
50.4708781242
50.4051447868
50.4051447868
22.9532597542
50.8693864822
50.8858198166
50.4051447868
50.4380114555
50.4215781212
24.9827765465
50.4544447899
50.4215781212
50.4010364532
50.3846031189
50.4174697876
25.7304932594
50.4873114586
50.4380114555
50.4174697876
50.8858198166
50.9022531509
25.5538349152
50.0066364288
50.881711483
50.4339031219
50.4380114555
50.4215781212
26.8274183273
50.4339031219
50.4544447899
50.4010364532
50.4544447899
50.8693864822
26.741143322
50.4380114555
50.4215781212
50.3846031189
50.4215781212
50.4174697876
26.950668335
50.881711483
50.4215781212
50.3887114525
50.4215781212
50.4010364532
26.3960433006
50.4215781212
50.4215781212
50.4339031219
50.4215781212
50.4380114555
26.880826664
50.4339031219
49.9902030945
50.4174697876
50.4051447868
50.4380114555
26.7452516556
49.9902030945
50.4010364532
50.4215781212
50.4010364532
50.4380114555
27.4313433647
50.3887114525
50.3846031189
50.4174697876
50.4010364532
50.4380114555
26.7781183243
50.4215781212
50.4010364532
50.4339031219
50.4380114555
50.4215781212
27.13965168
49.9737697601
50.4380114555
50.4174697876
50.3846031189
50.4174697876
25.9852099419
50.0066364288
50.4010364532
50.4215781212
50.4380114555
50.4010364532
26.6918433189
50.4215781212
50.0066364288
50.4010364532
50.4215781212
50.4051447868
27.5011850357
50.3846031189

Block: 6
======================================
50.4544447899
50.4010364532
50.4215781212
50.4010364532
10.6857756615
49.9532280922
50.4215781212
50.4215781212
50.4215781212
50.4215781212
26.1248932838
50.0230697632
50.4174697876
50.3846031189
50.4010364532
50.4010364532
26.4658849716
50.4174697876
50.4051447868
49.9573364258
50.4215781212
50.4339031219
27.0040766716
50.4215781212
50.4051447868
50.4380114555
50.4174697876
50.4215781212
26.552159977
50.4215781212
50.4010364532
50.3846031189
50.4010364532
50.8693864822
25.5908099174
50.4010364532
50.4380114555
50.4380114555
50.4010364532
50.4380114555
25.9852099419
50.0066364288
50.4215781212
50.4174697876
50.4380114555
50.4544447899
24.7116265297
50.0066364288
50.4174697876
50.4544447899
50.4174697876
50.2490281105
26.2604682922
50.0395030975
49.9902030945
50.0230697632
50.4339031219
50.3887114525
27.866826725
50.4215781212
50.4380114555
50.3846031189
50.4380114555
50.4380114555
25.0033182144
50.4708781242
50.4174697876
50.4010364532
50.4174697876
50.3846031189
24.9170432091
50.3846031189
50.4380114555
50.4010364532
50.3846031189
50.4215781212
24.8841765404
50.4215781212
50.3846031189
50.4215781212
50.4051447868
50.4380114555
26.3138766289
50.4215781212
50.4215781212
50.4010364532
50.4010364532
50.3846031189
26.3467432976
50.0395030975
50.0230697632
50.4010364532
50.4380114555
50.3846031189
49.9696614265
50.4380114555
50.4380114555
50.4380114555
50.4380114555
15.8869259834

Block: 7
======================================
50.0230697632
50.4380114555
50.4708781242
50.3681697845
50.4380114555
12.444142437
50.4380114555
50.4215781212
50.4215781212
50.4380114555
50.4215781212
25.5209682465
50.4380114555
50.4174697876
50.4010364532
50.4339031219
50.4380114555
27.7435767174
50.0066364288
50.0436114311
50.4544447899
50.4051447868
50.4010364532
27.3656100273
50.4010364532
50.3846031189
50.4051447868
50.4010364532
50.4174697876
26.3837182999
50.8858198166
50.4380114555
50.8858198166
50.4339031219
50.4215781212
26.4330183029
50.4215781212
50.4215781212
50.4215781212
50.4215781212
50.4010364532
27.5710267067
50.4215781212
50.4380114555
50.4010364532
50.4215781212
50.4380114555
27.1232183456
50.4010364532
50.4010364532
50.4339031219
50.4174697876
50.4174697876
26.3467432976
50.3147614479
50.3846031189
50.4380114555
50.4380114555
50.4873114586
25.7263849258
50.0230697632
50.4339031219
50.4380114555
50.4174697876
50.4010364532
27.398476696
50.8858198166
50.0066364288
50.4174697876
50.4010364532
50.4544447899
26.6589766502
50.0066364288
50.4010364532
50.4174697876
50.4215781212
50.4010364532
28.0024017334
50.4051447868
50.3887114525
50.4174697876
50.3846031189
50.4051447868
27.2259266853
50.0066364288
50.4544447899
50.4010364532
50.4215781212
50.4215781212
27.4642100334
50.4873114586
50.4215781212
50.4339031219
50.4339031219
50.4010364532
26.4001516342
50.0395030975
50.4010364532
50.3681697845
50.4215781212

Block: 8
======================================
50.4708781242
17.6288594246
50.4544447899
50.4339031219
50.4051447868
50.4051447868
50.4215781212
24.469234848
50.3188697815
50.4380114555
50.4380114555
50.4380114555
50.4215781212
26.4494516373
50.881711483
50.4215781212
50.4174697876
50.4051447868
50.4380114555
26.1248932838
50.0395030975
50.4215781212
50.4010364532
50.4215781212
50.4010364532
27.5340517044
50.4503364563
50.4708781242
50.4708781242
50.4544447899
50.4544447899
25.2087348938
50.3681697845
50.4380114555
50.4174697876
50.4010364532
50.4380114555
22.4356097221
50.0025280952
50.9022531509
50.4051447868
50.4051447868
50.4215781212
26.9342350006
50.4380114555
50.4174697876
50.3846031189
50.3846031189
50.4010364532
26.3631766319
49.9860947609
50.4380114555
50.4380114555
50.4215781212
50.4215781212
26.3467432976
50.4174697876
50.4051447868
50.4215781212
50.4215781212
50.4051447868
26.4864266396
50.4051447868
50.8693864822
50.3887114525
50.4215781212
39.6002274513
50.8652781487
50.4544447899
50.3887114525
50.3846031189
50.4010364532
26.4330183029
50.8693864822
50.8858198166
50.4544447899
50.4174697876
50.3887114525
24.6048098564
50.4544447899
50.4051447868
50.3887114525
50.8324114799
50.4215781212
26.0879182816
50.4010364532
50.8529531479
50.4010364532
50.4174697876
50.4380114555
24.8841765404
50.9022531509
50.4380114555
50.4051447868
50.4339031219
50.4174697876
26.7452516556
50.9351198196
50.4380114555
50.4215781212

Block: 9
======================================
50.4380114555
50.4215781212
16.4579843521
50.3887114525
50.4174697876
50.4339031219
50.4380114555
50.4010364532
26.6918433189
50.4380114555
50.4174697876
50.4010364532
50.4215781212
50.4215781212
26.2111682892
49.9902030945
50.3887114525
50.4380114555
50.4174697876
50.4215781212
27.1560850143
50.8652781487
50.0230697632
50.4010364532
50.4380114555
50.4544447899
26.7452516556
50.8858198166
50.4215781212
50.3846031189
50.4503364563
50.4215781212
26.5192933083
50.4215781212
50.4215781212
50.3846031189
50.4174697876
50.4215781212
26.880826664
50.4010364532
50.8652781487
50.4010364532
50.4339031219
50.6968364716
26.6384349823
50.9022531509
50.881711483
50.4380114555
50.4174697876
50.4380114555
25.1388932228
50.3887114525
50.8858198166
50.4380114555
50.4380114555
50.4215781212
25.4839932442
50.4544447899
50.4503364563
50.4174697876
50.4174697876
50.3846031189
25.5209682465
50.4873114586
50.4380114555
50.9022531509
50.8693864822
50.4010364532
25.7921182632
50.4215781212
50.4380114555
50.4215781212
50.8693864822
50.4708781242
26.1043516159
50.4708781242
50.4380114555
50.4380114555
50.4544447899
50.4010364532
26.671301651
50.4215781212
50.4174697876
50.8652781487
50.4544447899
50.4544447899
26.5685933113
50.5078531265
50.4215781212
50.4215781212
50.4215781212
50.3846031189
26.5891349792
50.9022531509
50.4215781212
50.4051447868
50.4051447868
50.4380114555
26.2769016266
50.4544447899

Block: 10
======================================
50.4051447868
50.4380114555
50.4174697876
50.4010364532
12.0292007446
50.4051447868
50.4380114555
50.4544447899
50.4544447899
50.4174697876
25.1923015594
50.4708781242
50.4215781212
50.9186864853
50.8858198166
50.8858198166
25.3278765678
50.8693864822
50.5037447929
50.9022531509
50.4380114555
50.4708781242
25.6072432518
50.4708781242
50.4708781242
50.4010364532
50.4380114555
50.4215781212
27.0040766716
50.4544447899
50.4380114555
50.8693864822
50.4010364532
50.4174697876
26.2070599556
50.4174697876
50.4174697876
50.8858198166
50.4215781212
50.4380114555
50.8488448143
50.4873114586
50.4215781212
50.4174697876
50.8652781487
28.8281767845
50.4174697876
50.4544447899
50.4873114586
50.4544447899
50.4544447899
26.8643933296
50.8858198166
50.4010364532
50.4708781242
50.4544447899
50.4708781242
26.6754099846
50.3887114525
50.4215781212
50.9022531509
50.8652781487
50.4544447899
25.3812849045
50.4339031219
50.8693864822
50.4708781242
50.4380114555
50.4544447899
25.8660682678
50.4873114586
50.4544447899
50.4708781242
50.4544447899
50.4503364563
26.8150933266
50.4051447868
50.4873114586
50.4708781242
50.4873114586
50.4708781242
26.7247099876
50.0230697632
50.4215781212
50.4544447899
50.4914197922
50.4708781242
27.1067850113
50.4503364563
50.4339031219
50.4708781242
50.3846031189
50.9022531509
26.1577599525
50.4174697876
50.4174697876
50.4914197922
50.4010364532
50.4544447899
26.7945516586
