
Block: 1
======================================
198.300492668
76.9118901968
196.797846007
78.3493814468
155.705142879
118.501403332
155.342715907
119.405434656
154.849978113
121.421180177
154.487551141
121.474118948
153.669036293
122.292633796
153.669036293
122.292633796
153.669036293
121.812112641
154.080329823
121.457830095
154.080329823
122.243767238
153.717902851
122.243767238
153.294392681
122.671349621
152.455516768
123.473575616
152.097162008
123.868580294
150.851064777
125.110605311
150.423482394
125.521898842
150.048838782
125.521898842
149.979611158
125.945409012
148.802741551
126.356702542
149.556100988
126.018708849
149.535739923
126.430002379
149.140735245
125.538187695
150.439771247
124.275801611
150.86735363
125.094316459
149.193674016
125.965770078
149.572389841
126.002419996
149.963322306
125.163544083
150.390904689
124.752250552
149.979611158
125.110605311
150.423482394
125.179832935
149.963322306
125.110605311
147.605510879
127.84306035
147.609583092
128.185126257
147.81319375
127.741255021
148.220415068
127.334033704
147.422261286
127.68831625
147.059834313
127.67609961
147.112773085
127.211867309
147.963865638
125.896542454
149.690484023
124.22286284
149.67419517
124.650445223
151.315297079
124.63415637
150.541576576
125.045449901
149.26290164
125.863964748
148.033093262
127.590583134
147.947576785
126.804645991
147.108700871
127.211867309
148.391448021
125.949481225
147.487416697
127.26480608

Block: 2
======================================
198.280131602
78.8217581749
195.804225993
80.9596700907
158.743013906
115.91962018
157.138561916
117.20236733
156.658040762
117.682888484
156.658040762
117.662527418
156.658040762
119.06336875
153.461353421
120.41127131
153.139648581
121.16870296
151.584063148
123.180376267
151.38045249
124.173996282
149.723061728
125.505609989
149.690484023
125.538187695
150.86735363
123.45321455
150.460132313
125.130966377
148.33850925
126.409641314
149.588678694
125.130966377
148.33850925
125.538187695
149.177385163
125.143183017
150.86735363
124.687095141
150.95694232
123.367698073
150.973231173
125.061738753
150.065127635
125.521898842
150.904003549
125.094316459
151.331585932
123.420636845
150.492710018
125.949481225
148.802741551
125.521898842
150.476421165
125.521898842
150.899931335
123.457286763
150.065127635
126.307835984
150.525287724
125.452671218
150.545648789
124.617867517
150.545648789
124.564928746
151.79174602
123.762702751
152.203039551
124.206573987
152.577683163
123.795280457
152.646910787
124.153635216
151.413030195
125.436382365
150.969158959
125.896542454
150.048838782
125.965770078
150.407193542
125.554476547
150.851064777
125.126894164
151.278647161
124.715600634
150.851064777
125.130966377
150.855136991
125.468960071
150.920292401
125.078027606
151.327513719
125.110605311
151.327513719
125.061738753
151.384524703
124.63415637
151.79174602
124.206573987

Block: 3
======================================
198.284203815
77.9014379978
197.958426762
78.0032433271
195.124166393
81.2650860786
194.676222944
82.5478332281
191.776807165
85.4676100731
190.103127551
86.7340683699
189.675545168
87.1412896872
186.804634881
90.0284888268
185.949470115
91.2420083523
184.430534601
92.4351668119
183.559080982
92.8301714897
183.217015076
93.6161086321
181.954628992
94.8784947157
181.152402997
95.6644318581
180.346104789
96.5195966244
177.837621474
98.5679198503
177.837621474
98.5679198503
174.934133482
101.487696695
174.522839952
101.86641252
174.201135111
102.22476728
172.560033202
103.898446894
172.507094431
103.967674518
169.538451028
106.459868979
167.078834271
108.919485736
166.667540741
109.754289436
129.296840453
146.530446601
130.270099401
145.724148393
130.253810549
144.119696403
129.38235693
147.059834313
128.168837404
146.701479554
129.520812178
146.46529119
130.371904731
146.102864218
130.270099401
143.659536314
132.794871569
142.311633754
134.097979784
142.307561541
134.114268637
142.311633754
134.061329865
141.916629076
134.061329865
141.594924235
134.537778807
141.851473665
134.554067659
141.81889596
134.590717578
141.851473665
135.018299961
141.423891282
135.018299961
140.63795414
134.900205779
141.525696611
134.02875216
140.686820698
135.653565216
140.760120535
135.225982833
140.756048322
134.847267008
139.921244621
135.665781856
140.772337174
135.600626445
140.397693563

Block: 4
======================================
198.438947916
77.4249890566
198.776941609
78.5326310396
197.461616755
79.2859904766
196.675679612
80.5320877075
194.199774003
82.1731896162
192.114800858
83.4559367657
191.312574863
83.9160968542
190.868703628
84.7183228493
190.017611074
87.0394843578
189.353840327
87.9475878954
185.55853765
90.8144259691
182.26004498
94.5730787277
181.404880214
95.428243494
180.602654219
96.2141806364
179.751561666
97.1019231081
178.912685752
97.9367268085
178.045304346
98.7918915749
177.206428432
99.2031851053
176.901012444
99.9198946238
176.111003089
100.294538236
175.703781772
100.705831766
175.276199389
101.609863091
174.437323475
102.37951138
174.009741092
102.37951138
173.62288084
103.218387294
172.784004927
104.053190994
169.827578163
106.582035375
169.827578163
106.989256692
169.843867016
106.577963161
169.39999578
106.989256692
169.351129222
107.44941678
168.324931502
108.373809171
167.624510837
109.212685084
167.213217306
109.192324018
167.180639601
109.571039844
166.431352377
110.031199932
165.950831223
110.422132397
165.999697781
110.014911079
166.003769994
110.422132397
166.015986633
110.405843544
165.572115397
110.422132397
165.999697781
109.978261161
165.160821867
111.244719458
164.737311697
112.079523158
164.362668085
111.566424298
162.978115606
113.362270308
160.893142462
115.035949922
160.913503528
115.459460092
158.808169317
117.988304472
157.924499059
118.024954391

Block: 5
======================================
198.267914963
76.1951806784
194.716945076
79.7135728598
192.408000207
82.0876731396
190.872775841
86.2046806574
189.740700579
86.9865455866
188.922185731
88.2163539648
186.034986591
91.1727807283
185.216471744
91.5311354876
183.950013447
93.2088873148
183.168148518
93.5835309267
182.736493921
94.0599798679
182.333344817
93.9948244572
182.34963367
94.4346234798
181.922051287
94.8296281576
141.493118906
132.798943782
141.081825376
134.847267008
140.674604058
134.814689302
141.114403081
132.729716158
143.59030869
132.318422627
144.021963286
130.648815227
145.28434937
131.292224908
144.632795262
130.937942362
144.958572316
128.901835775
147.450766778
128.083320928
147.862060308
126.784284925
149.108157539
127.810482645
148.102320886
128.168837404
148.151187444
128.596419787
147.739893913
128.616780853
145.268060517
129.38235693
146.530446601
129.398645782
146.514157748
128.954774547
145.691570687
130.233449483
145.691570687
130.526648831
145.6956429
130.221232843
145.268060517
130.184582925
145.744509459
128.067032075
147.829482603
128.09960978
146.563024306
128.09960978
147.397828007
128.115898633
147.792832685
128.115898633
145.728220606
128.494614458
147.397828007
128.09960978
148.220415068
127.26480608
147.809121537
127.67609961
148.257064986
125.98205893
149.926672387
125.98205893
149.51945107
126.360774755
149.588678694
126.377063608
149.824867058
126.478868937

Block: 6
======================================
198.300492668
78.9439245701
196.952590108
81.0777642727
194.419673514
82.5966997862
154.829617047
121.07911427
152.765004969
123.555019879
151.942417908
123.726052833
151.091325355
123.54280324
150.643381906
123.970385623
148.59505868
126.014636636
148.391448021
127.879710269
147.589222026
126.702840662
149.604967546
124.650445223
150.851064777
124.63415637
151.278647161
125.05766654
149.604967546
125.061738753
150.851064777
125.061738753
151.246069455
124.63415637
151.258286095
124.22286284
150.374615836
125.933192372
149.999972224
125.456743431
150.851064777
124.63415637
151.689940691
124.666734076
151.225708389
125.110605311
150.952870107
124.564928746
149.808578205
126.067575407
148.562480974
127.692388463
148.631708598
127.745327234
146.11915307
130.237521696
146.11915307
129.809939313
145.316927075
130.970520067
144.119696403
130.152005219
145.781159377
129.789578247
145.320999289
129.38235693
146.937667918
128.954774547
146.579313159
128.832608151
147.540355468
126.784284925
148.990063357
127.757543874
146.583385372
127.623160839
146.648540783
126.784284925
149.161096311
126.377063608
149.568317628
126.34041369
150.081416488
124.243223906
151.759168315
124.22286284
152.15010078
123.383986926
151.364163637
123.730125046
152.663199639
123.367698073
150.529359937
125.489321136
150.476421165
125.110605311
150.851064777
124.687095141
150.86735363
125.094316459

Block: 7
======================================
198.25162611
77.9706656218
195.942681241
79.6117675304
195.942681241
80.874153614
194.664006305
81.2854471445
194.627356386
82.5844831467
191.296286011
85.9807089329
187.912276864
88.4769756079
187.895988011
89.2954904556
187.077473164
90.081427598
185.065799856
92.178617382
184.617856407
92.6591385365
182.500305557
94.3165292978
181.681790709
94.7074617624
180.846987009
95.9902089119
180.435693479
96.4015024424
178.367009187
98.0222432852
178.79459157
98.0222432852
177.120911956
99.2683405161
175.019649959
100.94202013
174.184846258
102.631988597
173.329681492
103.112509751
173.325609279
103.063643193
172.902099109
103.470864511
170.031188822
106.341774797
170.031188822
106.35806365
169.676906276
106.769357181
169.245251679
107.144000793
131.414391303
144.958572316
128.050743222
147.967937851
125.896542454
150.065127635
125.896542454
149.637545252
124.63415637
151.722518396
124.206573987
151.738807249
124.581217599
151.926129055
124.47941227
151.89355135
124.463123417
151.930201268
124.442762351
151.909840202
124.410184646
151.567774296
124.821478176
151.551485443
124.805189323
151.518907738
124.459051204
151.107614207
125.676642942
150.680031824
125.66035409
150.663742971
125.709220648
150.561937642
124.992511129
150.101777554
125.831387043
150.150644112
126.206030655
150.219871736
125.762159419
150.578226495
125.387515807
150.561937642
125.387515807
150.985447812

Block: 8
======================================
198.247553897
78.8380470276
197.461616755
79.2859904766
196.370263624
79.9864111423
196.40284133
80.63796525
193.189865136
83.4885144711
192.921099067
84.3396070242
191.007158875
84.4454845667
189.040279913
86.1354530334
188.225837278
86.8358736992
185.81508708
91.3438136816
185.012861085
91.7713960648
184.226923943
92.6061997652
183.355470324
93.0337821484
183.306603765
93.0704320669
183.322892618
93.4980144501
182.019784403
95.1879829168
181.217558408
95.6318541527
180.757398319
96.03907547
179.869655848
96.4992355585
179.067429852
97.7168272972
178.228553939
98.5190532923
177.87019918
98.4986922264
177.890560246
98.9629245281
174.950422335
101.850123668
174.095257568
102.273633838
173.688036251
102.277706051
172.950965667
102.615699744
174.201135111
102.208478427
174.201135111
102.566833186
173.056843209
103.05957098
172.458227873
103.91880796
172.458227873
103.898446894
171.859612536
105.282999372
170.650165224
106.166669631
169.367418075
107.791482687
168.20683732
108.609997535
165.67799294
111.10626421
165.250410557
111.10626421
165.645415235
111.582713151
164.362668085
112.421589065
163.132859707
113.63510859
162.737855029
114.062690973
161.850112557
114.946361232
161.389952469
115.410593534
161.373663616
115.410593534
160.994947791
115.361726975
160.999020004
115.373943615
160.982731152
115.817814851
160.107205319
116.725918388
159.663334084
116.725918388

Block: 9
======================================
197.852549219
77.6611774206
195.242260575
80.6664707422
192.766354966
82.2546338797
192.012995529
83.1301597118
192.819293737
83.912024641
191.622063065
84.6328063726
191.65464077
85.487971139
190.441121244
86.359424758
187.895988011
88.8353303671
184.735950589
92.4555278778
183.506142211
93.3066204309
183.066343188
93.3106926441
183.066343188
93.7504916668
182.6061831
94.1454963446
182.194889569
94.5730787277
181.832462597
94.5201399565
181.816173744
94.5242121696
181.905762434
94.8784947157
180.623015285
96.1449530125
179.767850518
97.4724945068
178.916757965
97.4602778673
178.896396899
97.8674991846
177.992365575
98.3805980444
178.008654428
98.7918915749
177.597360897
99.219473958
177.157561874
99.2031851053
176.318685961
100.465571189
175.121455288
102.070023179
174.286651587
102.921115732
173.036482143
103.690764022
172.661838531
104.550001001
172.254617214
104.957222319
171.810745978
104.973511171
170.992231131
105.796098232
170.560576534
106.663479638
169.742061687
107.02590661
169.725772834
107.005545545
169.383706927
107.416839075
169.383706927
107.775193834
167.624510837
109.1556741
167.587860918
109.159746313
167.640799689
109.159746313
166.785634923
110.010838866
166.736768365
110.047488785
166.292897129
110.405843544
166.378413606
110.833425927
165.930470157
110.833425927
165.950831223
111.256936097
165.555826545
111.550135446
165.181182933
111.977717829

Block: 10
======================================
198.284203815
79.131246376
195.942681241
81.2325083733
195.515098858
81.6438019037
155.273488283
121.490407801
154.027391052
122.276344943
154.07625761
122.655060768
151.824323726
122.634699702
152.439227915
122.207117319
152.439227915
122.602121997
152.47180562
122.891249132
153.840069246
122.874960279
151.824323726
124.548639894
151.787673807
124.585289812
151.738807249
124.597506452
151.742879462
124.239151692
150.048838782
124.22286284
152.166389632
123.367698073
153.001193333
123.404347992
152.952326775
123.436925697
152.936037922
123.848219228
151.706229544
124.687095141
150.830703712
124.259512758
150.834775925
125.501537776
150.44384346
125.501537776
150.834775925
125.521898842
150.834775925
125.110605311
151.262358308
124.703383994
151.225708389
125.110605311
151.262358308
125.114677525
149.177385163
125.896542454
149.226251721
125.505609989
150.423482394
125.538187695
150.851064777
125.045449901
149.246612787
126.324124837
149.653834105
124.650445223
150.476421165
124.650445223
151.685868478
124.650445223
151.673651838
124.666734076
149.177385163
126.34041369
150.016261077
125.521898842
150.781837153
125.538187695
150.86735363
125.452671218
148.835319257
126.702840662
147.589222026
128.767452741
147.605510879
129.158385205
147.625871944
129.142096353
146.823645949
129.964683414
146.05399766
130.713970637
146.05399766
130.270099401
146.514157748
129.38235693
