
Block: 1
======================================
50.4032347918
50.3867725611
50.3703103304
50.4196970224
50.3703103304
50.4032347918
50.4032347918
50.4032347918
50.3867725611
50.4238125801
50.4196970224
50.4032347918
50.4238125801
50.4073503494
50.4196970224
50.4032347918
50.4073503494
50.4073503494
50.3867725611
50.4073503494
50.3703103304
50.4032347918
50.3703103304
50.4073503494
50.4032347918
50.3867725611
50.3661947727
50.4032347918
50.4196970224
50.4073503494
50.4032347918
50.4032347918
50.3867725611
50.3703103304
50.4196970224
50.4032347918
50.4032347918
50.3867725611
50.4238125801
50.3867725611
50.4238125801
50.4073503494
50.4032347918
50.3908881187
50.4196970224
50.3867725611
50.4238125801
50.3867725611
50.4073503494
50.4196970224
50.3867725611
50.3867725611
50.4032347918
50.3908881187
50.3703103304
50.4073503494
50.4073503494
50.4196970224
50.4238125801
50.4032347918
50.3867725611
50.3867725611
50.4073503494
50.4196970224
50.3703103304
50.4073503494
50.3867725611
50.3538480997
50.4073503494
50.4238125801
50.3867725611
50.7160171747
50.4196970224
50.4196970224
50.3867725611
50.4032347918
50.4073503494
50.4073503494
50.4032347918
50.4032347918
50.3867725611
50.4032347918
50.3703103304
50.4032347918
50.3908881187
50.4032347918
50.3703103304
50.3867725611
50.7859816551
50.8189061165
50.8024438858
50.8189061165
50.4238125801
50.3867725611
50.4032347918
50.3703103304
50.4196970224
50.3867725611
50.4402748108
50.4032347918

Average distance is : 50.419 cm
Average deviation is : 0.087 cm
Block: 2
======================================
50.3908881187
50.4238125801
50.3867725611
50.4238125801
50.4073503494
50.3908881187
50.3703103304
50.3867725611
50.4238125801
50.4238125801
50.4238125801
50.4073503494
50.3867725611
50.4032347918
50.4073503494
50.3703103304
50.4073503494
50.3908881187
50.3867725611
50.3867725611
50.4032347918
50.3538480997
50.3867725611
50.4032347918
50.3867725611
50.3703103304
50.3867725611
50.4032347918
50.3867725611
50.7654038668
50.4032347918
50.3867725611
50.3867725611
50.3703103304
50.3867725611
50.3538480997
50.3703103304
50.4402748108
50.3703103304
50.3703103304
50.3867725611
50.4032347918
50.4073503494
50.4032347918
50.3908881187
50.4073503494
50.4032347918
50.4073503494
50.3867725611
50.3867725611
50.9547195196
50.4073503494
50.4196970224
50.3867725611
50.4032347918
50.4196970224
50.4073503494
50.4196970224
50.4238125801
50.4032347918
50.5966660023
50.4196970224
50.3867725611
50.3867725611
50.4073503494
50.4196970224
50.3908881187
50.3867725611
50.3908881187
50.3703103304
50.4073503494
50.4032347918
50.4032347918
50.3867725611
50.3867725611
50.3703103304
50.4238125801
50.4032347918
50.4073503494
50.3703103304
50.3867725611
50.4032347918
50.3867725611
50.3908881187
50.3703103304
50.3703103304
50.3867725611
50.4032347918
50.4032347918
50.4196970224
50.3867725611
50.4238125801
50.3908881187
50.3908881187
50.3867725611
50.3703103304
50.4196970224
50.4032347918
50.4032347918
50.4073503494

Average distance is : 50.407 cm
Average deviation is : 0.071 cm
Block: 3
======================================
50.4032347918
50.3538480997
50.4238125801
50.3703103304
50.3703103304
50.4196970224
50.3908881187
50.4196970224
50.3867725611
50.3867725611
50.3867725611
50.4032347918
50.3867725611
50.4032347918
50.4073503494
50.4196970224
50.4238125801
50.4196970224
50.3908881187
50.4196970224
50.4073503494
50.3867725611
50.4238125801
50.4402748108
50.4402748108
50.4032347918
50.4032347918
50.4073503494
50.4032347918
50.4032347918
50.4238125801
50.4032347918
50.4073503494
50.3867725611
50.3703103304
50.4073503494
50.4032347918
50.4032347918
50.3867725611
50.4196970224
50.4073503494
50.4032347918
50.3703103304
50.4361592531
50.4238125801
50.4402748108
50.3867725611
50.3867725611
50.4196970224
50.4032347918
50.4073503494
50.3867725611
50.4073503494
50.3703103304
50.3867725611
50.3703103304
50.4073503494
50.4238125801
50.3908881187
50.3867725611
50.4196970224
50.4032347918
50.4032347918
50.4073503494
50.3908881187
50.4032347918
50.3867725611
50.4073503494
50.4196970224
50.3867725611
50.4032347918
50.3867725611
50.4032347918
50.4196970224
50.4196970224
50.3867725611
50.3867725611
50.4073503494
50.4032347918
50.3867725611
50.4238125801
50.3867725611
50.3867725611
50.4238125801
50.4032347918
50.349732542
50.3867725611
50.3703103304
50.3908881187
50.4032347918
50.4032347918
50.4032347918
50.4073503494
50.4032347918
50.4073503494
50.4196970224
50.3867725611
50.4238125801
50.4196970224
50.3867725611

Average distance is : 50.402 cm
Average deviation is : 0.018 cm
Block: 4
======================================
51.0452617884
50.4402748108
50.4567370415
50.3908881187
50.4032347918
50.4238125801
50.3908881187
50.3867725611
50.4073503494
50.4238125801
50.4361592531
50.4238125801
50.3703103304
50.4073503494
50.4073503494
50.4196970224
50.3867725611
50.4032347918
50.4238125801
50.4032347918
50.3867725611
50.4032347918
50.4402748108
50.4238125801
50.3703103304
50.4238125801
50.3867725611
50.4238125801
50.4032347918
50.3908881187
50.3703103304
50.4238125801
50.3703103304
50.3867725611
50.4032347918
50.3867725611
50.3538480997
50.4032347918
50.4402748108
50.4032347918
50.4073503494
49.8682122946
50.3703103304
50.4032347918
50.4032347918
50.4238125801
50.4032347918
50.4073503494
50.3867725611
50.4032347918
50.3867725611
50.0781057358
50.4032347918
50.3867725611
50.4073503494
50.4032347918
50.4032347918
50.4032347918
50.3867725611
50.3908881187
50.4073503494
50.3867725611
50.3867725611
50.4238125801
50.3867725611
50.4032347918
50.4073503494
50.4402748108
50.3867725611
50.4196970224
50.4032347918
50.3908881187
50.4196970224
50.4402748108
50.3867725611
50.4073503494
50.4073503494
50.4032347918
50.4238125801
50.4032347918
50.3867725611
50.4073503494
50.4567370415
50.3867725611
50.3867725611
50.4032347918
50.3867725611
50.4361592531
50.4238125801
50.4032347918
50.4073503494
50.3703103304
50.3867725611
50.3867725611
50.3867725611
50.3867725611
50.3703103304
50.4032347918
50.4073503494
50.4196970224

Average distance is : 50.401 cm
Average deviation is : 0.092 cm
Block: 5
======================================
50.4032347918
50.3703103304
50.3867725611
50.3908881187
50.4032347918
50.4032347918
50.3867725611
50.4073503494
50.4196970224
50.4238125801
50.3867725611
50.4238125801
50.4073503494
50.4073503494
50.4361592531
50.3661947727
50.4073503494
50.3867725611
50.4032347918
50.3867725611
50.4032347918
50.4073503494
50.3867725611
50.3867725611
50.4196970224
50.4032347918
50.4073503494
50.3703103304
50.4073503494
50.4032347918
50.4032347918
50.3703103304
50.4032347918
50.4073503494
50.3703103304
50.3867725611
50.3908881187
50.4073503494
50.3867725611
50.4073503494
50.4073503494
50.3703103304
50.4073503494
50.3703103304
50.4196970224
50.4196970224
50.4032347918
50.4238125801
50.3908881187
50.4196970224
50.4196970224
50.3867725611
50.3867725611
50.4073503494
50.4196970224
50.4238125801
50.4032347918
50.4073503494
50.3867725611
50.4196970224
50.3908881187
50.4032347918
50.4073503494
50.4032347918
50.4238125801
50.3867725611
50.3867725611
50.4032347918
50.3867725611
50.3867725611
50.4032347918
50.4238125801
50.4196970224
50.3703103304
50.3867725611
50.4402748108
50.3867725611
50.4032347918
50.3867725611
50.3703103304
50.3867725611
50.4032347918
50.4073503494
50.3867725611
50.3908881187
50.4032347918
50.3908881187
50.4238125801
50.4032347918
50.4073503494
50.3703103304
50.4032347918
50.4402748108
50.4196970224
50.4073503494
50.3867725611
50.4196970224
50.4073503494
50.4073503494
50.4032347918

Average distance is : 50.401 cm
Average deviation is : 0.017 cm
Block: 6
======================================
50.3703103304
50.3867725611
50.4032347918
50.4032347918
50.4073503494
50.4238125801
50.3908881187
50.3703103304
50.4073503494
50.4032347918
50.4073503494
50.3867725611
50.3703103304
50.4073503494
50.4032347918
50.4196970224
50.4032347918
50.3908881187
50.3867725611
50.3867725611
50.3867725611
50.4032347918
50.3867725611
50.4032347918
50.3867725611
50.4238125801
50.4073503494
50.4073503494
50.4238125801
50.4032347918
50.3703103304
50.4238125801
50.4032347918
50.4073503494
50.4073503494
50.3867725611
50.4402748108
50.4032347918
50.3867725611
50.4032347918
50.3703103304
50.3703103304
50.4238125801
50.3908881187
50.4196970224
50.3703103304
50.3867725611
51.3539286137
50.4238125801
50.4073503494
50.4196970224
50.4402748108
50.4032347918
50.3908881187
50.4032347918
50.4032347918
50.3703103304
50.3867725611
50.4073503494
50.4196970224
50.3908881187
50.4238125801
50.4238125801
50.4073503494
50.4032347918
50.4073503494
50.4238125801
50.4238125801
50.4402748108
50.4238125801
50.3703103304
50.4238125801
50.4032347918
50.3703103304
50.4032347918
50.3867725611
50.3908881187
50.3908881187
50.3867725611
50.4032347918
50.4238125801
50.3867725611
50.3703103304
50.3867725611
50.4032347918
50.4032347918
50.4073503494
50.3867725611
50.4073503494
50.4238125801
50.3703103304
50.4073503494
50.4073503494
50.4032347918
50.4073503494
50.4196970224
50.4238125801
50.4032347918
50.3867725611
50.4032347918

Average distance is : 50.411 cm
Average deviation is : 0.097 cm
Block: 7
======================================
50.4073503494
50.4032347918
50.3867725611
50.4032347918
50.4073503494
50.3867725611
50.4238125801
50.4361592531
50.4073503494
50.4196970224
50.4238125801
50.4032347918
50.3867725611
50.4032347918
50.4196970224
50.3703103304
50.3703103304
50.3867725611
50.4238125801
50.4032347918
50.4196970224
50.4073503494
50.4238125801
50.4238125801
50.3867725611
50.3703103304
50.3703103304
50.4361592531
50.4238125801
50.3908881187
50.3908881187
50.3908881187
50.4196970224
50.4196970224
50.4196970224
50.3908881187
50.4073503494
50.4032347918
50.4238125801
50.4238125801
50.4032347918
50.4402748108
50.4238125801
50.3867725611
50.4032347918
50.4032347918
50.4032347918
50.4238125801
50.3703103304
50.4032347918
50.3867725611
50.4402748108
50.4073503494
50.3703103304
50.4032347918
50.4238125801
50.4238125801
50.3703103304
50.4032347918
50.3703103304
50.3867725611
50.4073503494
50.4032347918
50.3867725611
50.3908881187
50.3703103304
50.4238125801
50.3703103304
50.4073503494
50.3703103304
50.3703103304
50.4032347918
50.4238125801
50.4402748108
50.3703103304
50.3867725611
50.4032347918
50.4238125801
50.4032347918
50.3867725611
50.4196970224
50.4032347918
50.4196970224
50.4073503494
50.4073503494
50.4196970224
50.4238125801
50.4073503494
50.4032347918
50.4032347918
50.3867725611
50.3867725611
50.4238125801
50.4032347918
50.4196970224
50.4032347918
50.4196970224
50.4238125801
50.4238125801
50.4032347918

Average distance is : 50.404 cm
Average deviation is : 0.019 cm
Block: 8
======================================
50.3703103304
50.4238125801
50.4032347918
50.4238125801
50.4032347918
50.4032347918
50.4196970224
50.4073503494
50.4032347918
50.4073503494
50.4238125801
50.4196970224
50.4073503494
50.4032347918
50.4073503494
50.4196970224
50.3703103304
50.4402748108
50.3867725611
50.4032347918
50.3867725611
50.3867725611
50.4196970224
50.4073503494
50.4073503494
50.4032347918
50.3867725611
50.3867725611
50.3703103304
50.4032347918
50.3867725611
50.4032347918
50.3908881187
50.4196970224
50.3703103304
50.4196970224
50.4032347918
50.3867725611
50.1645324469
50.4238125801
50.4238125801
50.4238125801
50.3867725611
50.3867725611
50.3867725611
50.3908881187
50.3867725611
50.4238125801
50.4073503494
50.3867725611
50.4032347918
50.4238125801
50.3908881187
50.4073503494
50.4361592531
50.3867725611
50.4073503494
50.4073503494
50.3867725611
50.3867725611
50.4073503494
50.4073503494
50.3867725611
50.662514925
50.4238125801
50.3703103304
50.3867725611
50.4238125801
50.4073503494
50.4238125801
50.4032347918
50.4032347918
50.4032347918
50.4032347918
50.4361592531
50.3867725611
50.3867725611
50.4238125801
50.3867725611
50.4402748108
50.4238125801
50.3867725611
50.3867725611
50.4032347918
50.4032347918
50.4402748108
50.3867725611
50.4196970224
50.3867725611
50.3703103304
50.4073503494
50.4238125801
50.4402748108
50.4032347918
50.4032347918
50.4196970224
50.3867725611
50.4073503494
50.4032347918
50.3867725611

Average distance is : 50.404 cm
Average deviation is : 0.039 cm
Block: 9
======================================
50.4238125801
50.3908881187
50.4032347918
50.5225859642
50.3867725611
50.4073503494
50.4073503494
50.4196970224
50.4073503494
50.3908881187
50.4032347918
50.4196970224
50.4073503494
50.3867725611
50.4032347918
50.4238125801
50.4032347918
50.4073503494
50.4032347918
50.3867725611
50.4073503494
50.4402748108
50.3703103304
50.4238125801
50.4032347918
50.3703103304
50.4238125801
50.3867725611
50.4073503494
50.3867725611
50.4032347918
50.4073503494
50.2180346966
50.3908881187
50.3867725611
50.4032347918
50.4032347918
50.4032347918
50.4032347918
50.4238125801
50.4032347918
50.4238125801
50.4402748108
50.4238125801
50.3867725611
50.4032347918
50.3867725611
50.4073503494
50.4032347918
50.4238125801
50.3867725611
50.3703103304
50.4032347918
50.3867725611
50.4196970224
50.4073503494
50.3867725611
50.4196970224
50.3908881187
50.4196970224
50.4032347918
50.4073503494
50.3867725611
50.3867725611
50.4032347918
50.4238125801
50.4238125801
50.4238125801
50.7983283281
50.3703103304
50.4032347918
50.349732542
50.4032347918
50.3908881187
50.4196970224
50.4073503494
50.4238125801
50.4402748108
50.3703103304
50.4238125801
50.4032347918
50.3908881187
50.4238125801
50.3703103304
50.3703103304
50.4032347918
50.3867725611
50.4196970224
50.4032347918
50.3867725611
50.4238125801
50.3908881187
50.4032347918
50.4032347918
50.3867725611
50.3703103304
50.4032347918
50.4196970224
50.4073503494
50.3867725611

Average distance is : 50.406 cm
Average deviation is : 0.049 cm
Block: 10
======================================
50.4032347918
50.3703103304
50.4073503494
50.4567370415
50.4196970224
50.4196970224
50.4196970224
50.4196970224
50.4032347918
50.3867725611
50.3867725611
50.4073503494
50.3867725611
50.4196970224
50.3703103304
50.3908881187
50.4238125801
50.4361592531
50.4073503494
50.4402748108
50.4032347918
50.4196970224
50.4073503494
50.4073503494
50.4238125801
50.4238125801
50.3867725611
50.4238125801
50.4196970224
50.4238125801
50.4238125801
50.3867725611
50.3908881187
50.4073503494
50.4073503494
50.4073503494
50.4032347918
50.3867725611
50.3867725611
50.4032347918
50.4402748108
50.4196970224
50.4196970224
50.3867725611
50.4073503494
50.4032347918
50.4073503494
50.4032347918
50.4032347918
50.3703103304
50.3703103304
50.4032347918
50.3867725611
50.4238125801
50.4196970224
50.3867725611
50.4032347918
50.4032347918
50.4238125801
50.4196970224
50.4238125801
50.4032347918
50.3867725611
50.4196970224
50.4238125801
50.4073503494
50.4073503494
50.4238125801
50.3867725611
50.4238125801
50.4196970224
50.3867725611
50.3867725611
50.4402748108
50.3908881187
50.3908881187
50.4238125801
50.4032347918
50.4073503494
50.8189061165
50.3867725611
50.3703103304
50.4032347918
50.4238125801
50.4032347918
50.4032347918
50.4032347918
50.3703103304
50.4032347918
50.4196970224
50.4361592531
50.4238125801
50.3867725611
50.4196970224
50.3867725611
50.3703103304
50.4073503494
50.3867725611
50.4032347918
50.4361592531

Average distance is : 50.410 cm
Average deviation is : 0.045 cm