
Block: 1
======================================
399.043025684
399.063242269
399.095588803
398.602304149
399.095588803

Average distance is : 398.980 cm
Average deviation is : 0.212 cm
Block: 2
======================================
399.111762071
399.111762071
399.059198952
399.095588803
399.043025684

Average distance is : 399.084 cm
Average deviation is : 0.032 cm
Block: 3
======================================
399.516093755
399.059198952
399.144108605
399.111762071
399.079415536

Average distance is : 399.182 cm
Average deviation is : 0.189 cm
Block: 4
======================================
398.634650683
399.059198952
398.671040535
399.127935338
399.095588803

Average distance is : 398.918 cm
Average deviation is : 0.243 cm
Block: 5
======================================
399.499920487
399.075372219
319.066218567
399.552483606
399.499920487

Average distance is : 383.339 cm
Average deviation is : 35.930 cm
Block: 6
======================================
399.536310339
399.536310339
399.568656874
399.144108605
399.111762071

Average distance is : 399.379 cm
Average deviation is : 0.230 cm
Block: 7
======================================
399.180498457
399.180498457
399.180498457
399.160281873
398.768080139

Average distance is : 399.094 cm
Average deviation is : 0.182 cm
Block: 8
======================================
399.17645514
399.079415536
399.111762071
399.144108605
399.160281873

Average distance is : 399.134 cm
Average deviation is : 0.039 cm
Block: 9
======================================
398.739776921
398.70338707
398.735733604
398.70338707
399.212844992

Average distance is : 398.819 cm
Average deviation is : 0.221 cm
Block: 10
======================================
399.111762071
398.70338707
399.144108605
399.144108605
399.192628407

Average distance is : 399.059 cm
Average deviation is : 0.201 cm