
Block: 1
======================================
200.365104747
200.365104747
200.397682452
200.418043518
200.36917696
200.385465813
200.365104747
200.365104747
200.385465813
200.3813936
200.397682452
200.365104747
200.385465813
200.36917696
200.401754665
199.921233511
199.937522364
200.3813936
200.348815894
199.937522364
200.385465813
200.365104747
200.352888107
200.36917696
199.941594577
199.925305724
200.36917696
200.401754665
200.401754665
200.397682452
200.3813936
200.348815894
200.3813936
200.332527041
200.36917696
200.385465813
200.438404584
199.95788343
200.385465813
200.36917696
200.401754665
200.3813936
200.365104747
200.3813936
200.365104747
200.3813936
200.348815894
199.904944658
200.348815894
200.401754665

Block: 2
======================================
199.921233511
200.401754665
200.401754665
200.401754665
200.3813936
200.348815894
200.352888107
200.401754665
200.401754665
200.401754665
199.925305724
199.941594577
199.909016871
200.348815894
200.348815894
200.365104747
200.348815894
199.941594577
200.418043518
199.941594577
199.941594577
200.418043518
200.365104747
200.36917696
200.418043518
199.904944658
200.385465813
200.36917696
200.418043518
200.36917696
200.332527041
200.3813936
199.921233511
200.401754665
199.909016871
199.941594577
200.36917696
200.36917696
200.36917696
199.925305724
200.348815894
199.921233511
200.401754665
200.348815894
200.365104747
200.36917696
200.36917696
200.332527041
199.941594577
200.3813936

Block: 3
======================================
200.365104747
200.385465813
200.352888107
200.385465813
200.352888107
200.385465813
200.352888107
200.348815894
200.3813936
199.921233511
199.925305724
200.401754665
200.36917696
199.888655806
200.332527041
200.385465813
200.385465813
200.352888107
200.36917696
200.365104747
199.888655806
200.348815894
200.385465813
200.332527041
200.36917696
200.385465813
200.36917696
200.36917696
200.348815894
200.348815894
200.312165976
199.904944658
200.328454828
199.937522364
200.348815894
200.365104747
199.921233511
200.36917696
200.365104747
200.3813936
200.348815894
200.348815894
200.348815894
200.348815894
200.365104747
200.401754665
200.3813936
200.365104747
199.925305724
200.352888107

Block: 4
======================================
200.332527041
200.332527041
200.385465813
200.352888107
200.365104747
200.316238189
200.348815894
200.365104747
199.888655806
199.888655806
200.348815894
200.332527041
200.3813936
200.365104747
200.348815894
200.36917696
200.352888107
200.3813936
200.348815894
200.348815894
200.365104747
200.332527041
200.36917696
200.352888107
200.365104747
200.332527041
200.332527041
200.3813936
200.36917696
200.332527041
200.332527041
200.348815894
200.332527041
199.909016871
200.332527041
200.348815894
200.348815894
200.348815894
200.312165976
200.316238189
200.36917696
200.352888107
199.872366953
200.332527041
200.385465813
200.348815894
199.888655806
200.316238189
200.316238189
200.316238189

Block: 5
======================================
200.36917696
200.365104747
192.098512006
200.332527041
200.3813936
200.316238189
200.348815894
200.27958827
200.312165976
200.348815894
200.348815894
199.909016871
200.332527041
200.332527041
200.348815894
200.348815894
200.332527041
200.332527041
200.332527041
199.904944658
200.365104747
200.348815894
200.348815894
200.312165976
200.332527041
200.365104747
193.825130391
199.941594577
200.352888107
200.332527041
199.904944658
199.904944658
200.348815894
200.316238189
200.332527041
193.006615543
199.44478457
199.888655806
200.365104747
200.365104747
194.729161716
200.332527041
199.941594577
200.332527041
200.365104747
199.888655806
200.316238189
199.872366953
199.904944658
200.352888107

Block: 6
======================================
200.365104747
200.385465813
200.316238189
200.332527041
200.401754665
200.332527041
200.365104747
200.365104747
200.348815894
200.316238189
200.332527041
200.348815894
199.888655806
200.348815894
199.925305724
199.733911705
200.332527041
199.921233511
200.348815894
200.385465813
199.904944658
199.888655806
200.348815894
199.937522364
200.348815894
200.332527041
200.348815894
200.332527041
200.332527041
200.365104747
200.3813936
200.348815894
200.401754665
200.348815894
200.348815894
200.348815894
200.348815894
199.909016871
200.332527041
200.332527041
200.365104747
200.332527041
200.36917696
200.385465813
200.385465813
200.332527041
200.776398277
200.348815894
200.401754665
200.348815894

Block: 7
======================================
200.418043518
200.348815894
200.348815894
200.332527041
200.36917696
200.352888107
200.401754665
200.365104747
200.385465813
199.937522364
200.401754665
200.397682452
200.365104747
200.365104747
200.3813936
200.348815894
200.3813936
200.434332371
199.904944658
200.365104747
200.418043518
200.332527041
200.397682452
200.365104747
200.332527041
200.418043518
200.365104747
200.401754665
199.921233511
200.36917696
200.401754665
199.925305724
200.401754665
200.352888107
200.385465813
200.385465813
200.316238189
200.348815894
200.332527041
200.352888107
200.352888107
200.36917696
199.921233511
200.3813936
200.385465813
200.36917696
200.332527041
200.365104747
200.365104747
200.3813936

Block: 8
======================================
200.312165976
200.316238189
200.348815894
200.365104747
200.401754665
199.937522364
200.365104747
200.36917696
199.941594577
200.385465813
200.348815894
200.365104747
200.365104747
200.385465813
200.36917696
200.385465813
200.348815894
200.348815894
200.365104747
199.925305724
200.401754665
200.348815894
200.401754665
199.925305724
200.332527041
200.352888107
200.401754665
200.3813936
200.385465813
200.397682452
199.888655806
200.348815894
200.348815894
199.921233511
200.397682452
200.332527041
200.401754665
200.385465813
200.348815894
199.904944658
200.348815894
200.365104747
200.332527041
200.348815894
200.385465813
200.36917696
200.365104747
200.365104747
200.3813936
200.348815894

Block: 9
======================================
200.365104747
200.401754665
200.365104747
200.36917696
199.937522364
200.36917696
200.348815894
200.401754665
200.352888107
200.36917696
200.365104747
200.3813936
200.3813936
200.401754665
200.385465813
200.365104747
200.418043518
200.401754665
200.385465813
200.401754665
199.904944658
199.95788343
200.348815894
200.401754665
200.418043518
200.401754665
200.365104747
200.348815894
200.332527041
200.401754665
200.348815894
200.36917696
200.385465813
200.348815894
200.3813936
199.937522364
200.365104747
200.397682452
199.904944658
200.385465813
200.365104747
199.904944658
200.418043518
200.365104747
200.385465813
200.385465813
200.36917696
200.348815894
200.348815894
200.385465813

Block: 10
======================================
200.401754665
200.348815894
200.3813936
200.365104747
200.36917696
200.36917696
200.401754665
200.385465813
200.365104747
200.401754665
200.348815894
200.385465813
200.385465813
200.36917696
200.36917696
200.348815894
200.401754665
200.348815894
200.365104747
200.365104747
200.352888107
200.418043518
200.401754665
200.348815894
200.385465813
200.348815894
199.921233511
200.365104747
200.3813936
200.332527041
199.904944658
200.348815894
200.365104747
200.352888107
200.348815894
200.348815894
200.3813936
200.352888107
199.921233511
200.332527041
200.348815894
199.925305724
200.332527041
200.348815894
200.348815894
200.3813936
200.348815894
200.397682452
200.365104747
200.365104747
