
Block: 1
======================================
200.348815894
200.299949336
200.316238189
200.299949336
200.332527041
199.86829474
200.299949336
200.299949336
200.316238189
200.316238189

Block: 2
======================================
200.365104747
200.295877123
200.348815894
200.299949336
200.352888107
200.316238189
200.348815894
200.316238189
200.316238189
200.332527041

Block: 3
======================================
200.332527041
200.263299417
200.295877123
200.332527041
200.312165976
200.352888107
200.332527041
200.352888107
200.365104747
200.385465813

Block: 4
======================================
200.352888107
200.348815894
200.348815894
200.299949336
200.295877123
200.348815894
199.8560781
200.332527041
200.348815894
199.888655806

Block: 5
======================================
200.299949336
200.27958827
200.332527041
200.365104747
200.316238189
200.332527041
199.888655806
200.332527041
200.365104747
200.365104747

Block: 6
======================================
200.332527041
200.332527041
200.332527041
200.332527041
200.348815894
200.36917696
200.36917696
200.36917696
200.348815894
200.316238189

Block: 7
======================================
200.36917696
200.332527041
199.872366953
200.36917696
200.365104747
200.348815894
200.365104747
200.348815894
200.365104747
200.299949336

Block: 8
======================================
200.385465813
200.332527041
200.348815894
199.493651128
199.941594577
199.904944658
199.904944658
199.937522364
200.3813936
200.348815894

Block: 9
======================================
200.352888107
200.332527041
200.36917696
200.365104747
200.348815894
200.348815894
200.332527041
199.974172282
199.904944658
200.365104747

Block: 10
======================================
200.295877123
200.348815894
200.316238189
200.332527041
199.86829474
199.904944658
200.36917696
200.365104747
200.316238189
199.904944658
