
Block: 1
======================================
302.569332933
301.166911697
301.544955683
301.130326796
301.593735552
301.118131828
300.691307974
301.101871872
300.670983028
301.577475595
300.691307974
301.55715065
301.55715065
301.097806883
301.695360279
301.118131828
301.097806883
302.447383261
300.675048018
301.544955683
300.670983028
300.675048018
300.670983028
301.150651741
301.577475595
301.544955683
301.097806883
300.670983028
300.691307974
300.670983028
301.097806883
301.573410606
301.118131828
300.675048018
301.118131828
301.097806883
302.837622213
302.00429945
301.577475595
301.101871872
300.675048018
301.561215639
300.691307974
301.134391785
301.540890694
301.114066839
300.638463116
301.577475595
301.097806883
301.101871872
300.675048018
301.577475595
301.114066839
301.097806883
300.654723072
301.561215639
300.670983028
301.55715065
301.097806883
300.670983028
301.097806883
300.654723072
300.654723072
300.675048018
300.658788061
301.118131828
300.670983028
301.561215639
300.638463116
301.577475595
301.540890694
301.118131828
300.687242985
301.097806883
300.675048018
301.540890694
300.691307974
301.118131828
301.118131828
301.134391785
302.00429945
300.670983028
301.097806883
301.118131828
300.675048018
301.101871872
300.691307974
301.134391785
300.675048018
302.020559406
301.577475595
300.687242985
301.561215639
301.101871872
301.097806883
300.670983028
300.691307974
301.134391785
300.691307974
301.118131828

Average distance is : 301.136 cm
Average deviation is : 0.458 cm
Block: 2
======================================
301.55715065
300.670983028
300.723827887
300.691307974
300.691307974
300.691307974
300.70756793
301.577475595
300.687242985
301.114066839
301.561215639
300.691307974
301.134391785
301.577475595
302.000234461
301.118131828
301.150651741
301.593735552
301.118131828
300.670983028
300.654723072
301.577475595
302.463643217
302.020559406
300.687242985
301.118131828
301.561215639
300.691307974
301.114066839
300.691307974
300.670983028
301.577475595
300.691307974
300.70756793
300.691307974
302.837622213
301.130326796
302.447383261
301.118131828
301.114066839
300.658788061
302.00429945
300.691307974
300.687242985
301.134391785
300.70756793
302.870142126
302.00429945
300.691307974
300.691307974
301.561215639
300.691307974
300.670983028
300.691307974
301.114066839
300.642528105
301.118131828
301.118131828
301.130326796
301.577475595
300.675048018
301.101871872
301.118131828
300.687242985
301.561215639
300.687242985
302.443318272
301.134391785
301.577475595
301.593735552
301.130326796
301.118131828
300.654723072
301.561215639
300.670983028
300.670983028
302.431123304
301.561215639
300.670983028
301.561215639
301.114066839
301.150651741
302.431123304
301.134391785
300.691307974
300.691307974
300.670983028
301.097806883
301.577475595
301.561215639
300.691307974
300.675048018
301.114066839
301.573410606
301.134391785
301.130326796
300.670983028
300.675048018
301.540890694
300.675048018

Average distance is : 301.164 cm
Average deviation is : 0.549 cm
Block: 3
======================================
300.297004032
300.70756793
301.573410606
300.670983028
301.118131828
301.577475595
300.675048018
302.000234461
301.130326796
302.00429945
300.670983028
301.561215639
300.691307974
300.691307974
301.097806883
300.691307974
301.118131828
300.691307974
300.691307974
300.670983028
301.134391785
302.463643217
300.687242985
301.134391785
300.70756793
301.577475595
300.687242985
300.703502941
301.134391785
300.691307974
301.114066839
300.675048018
301.561215639
301.150651741
301.561215639
300.670983028
300.675048018
300.675048018
301.561215639
300.691307974
302.447383261
302.020559406
300.675048018
302.00429945
300.691307974
300.70756793
302.857947159
301.118131828
300.70756793
300.670983028
300.691307974
301.573410606
301.134391785
301.097806883
301.134391785
301.016507101
301.134391785
301.577475595
300.70756793
300.670983028
301.577475595
300.675048018
300.658788061
301.130326796
301.097806883
300.70756793
302.000234461
300.675048018
301.561215639
300.654723072
300.691307974
300.638463116
300.687242985
301.101871872
301.134391785
301.55715065
300.675048018
300.675048018
300.675048018
300.670983028
301.540890694
301.097806883
300.658788061
301.118131828
301.114066839
301.561215639
300.670983028
300.675048018
301.540890694
301.114066839
301.097806883
300.638463116
301.081546926
300.687242985
301.114066839
301.561215639
301.55715065
300.654723072
301.101871872
301.540890694

Average distance is : 301.076 cm
Average deviation is : 0.487 cm
Block: 4
======================================
300.638463116
301.55715065
301.101871872
301.081546926
300.675048018
301.097806883
301.097806883
300.670983028
301.540890694
301.540890694
300.658788061
301.085611916
300.638463116
300.675048018
301.988039494
300.675048018
300.638463116
301.097806883
301.097806883
301.988039494
300.638463116
301.081546926
301.097806883
300.670983028
301.081546926
301.081546926
301.528695726
301.085611916
301.971779537
301.540890694
301.971779537
300.654723072
301.097806883
300.654723072
302.837622213
301.561215639
301.55715065
301.097806883
301.528695726
301.097806883
300.638463116
301.118131828
301.118131828
301.101871872
301.118131828
300.642528105
300.638463116
300.691307974
301.524630737
300.654723072
300.654723072
301.561215639
301.097806883
300.642528105
301.508370781
300.658788061
301.544955683
301.951454592
301.540890694
301.081546926
300.670983028
300.654723072
301.561215639
301.101871872
300.670983028
302.410798359
300.658788061
301.134391785
300.654723072
302.821362257
302.410798359
300.638463116
301.097806883
300.642528105
300.638463116
301.081546926
300.638463116
300.654723072
300.638463116
300.654723072
300.654723072
300.622203159
301.544955683
301.544955683
301.085611916
301.081546926
301.101871872
300.691307974
300.638463116
300.638463116
300.658788061
301.540890694
300.675048018
301.085611916
301.097806883
300.622203159
301.097806883
300.654723072
301.081546926
301.097806883

Average distance is : 301.095 cm
Average deviation is : 0.500 cm
Block: 5
======================================
301.097806883
300.654723072
301.097806883
301.085611916
301.134391785
301.081546926
302.394538403
301.544955683
301.081546926
301.101871872
301.983974504
300.658788061
300.658788061
300.654723072
300.654723072
300.638463116
300.658788061
300.638463116
301.524630737
301.081546926
300.642528105
300.675048018
301.06528697
301.06528697
300.638463116
301.097806883
301.544955683
300.638463116
301.081546926
300.638463116
301.097806883
301.967714548
300.622203159
301.524630737
301.101871872
301.935194635
301.081546926
301.983974504
301.081546926
300.675048018
301.101871872
300.654723072
300.654723072
300.654723072
301.540890694
301.524630737
300.638463116
301.085611916
300.675048018
301.101871872
300.642528105
300.642528105
301.492110825
301.097806883
301.101871872
300.642528105
300.642528105
300.654723072
301.101871872
301.540890694
301.528695726
301.081546926
301.085611916
301.085611916
301.081546926
300.638463116
301.540890694
300.654723072
301.508370781
301.524630737
300.638463116
300.638463116
300.658788061
300.654723072
301.097806883
300.675048018
300.622203159
300.670983028
301.081546926
302.398603392
301.101871872
302.414863348
301.101871872
302.837622213
300.638463116
301.983974504
301.101871872
301.524630737
301.081546926
301.528695726
302.394538403
301.097806883
301.097806883
301.540890694
301.577475595
301.081546926
301.540890694
301.081546926
301.540890694
302.394538403

Average distance is : 301.143 cm
Average deviation is : 0.508 cm
Block: 6
======================================
301.06528697
301.967714548
301.101871872
300.654723072
301.524630737
301.081546926
301.097806883
301.967714548
301.085611916
301.118131828
302.394538403
302.378278446
301.101871872
301.097806883
301.55715065
302.394538403
300.654723072
301.081546926
301.081546926
301.540890694
301.561215639
301.540890694
301.524630737
301.540890694
301.524630737
301.118131828
300.658788061
300.638463116
301.118131828
301.540890694
300.654723072
300.675048018
301.118131828
301.561215639
301.540890694
300.670983028
300.70756793
300.670983028
300.691307974
301.097806883
301.134391785
301.097806883
300.691307974
301.114066839
301.55715065
301.134391785
300.691307974
301.114066839
301.118131828
301.101871872
301.561215639
301.577475595
300.675048018
300.654723072
301.577475595
301.118131828
300.70756793
300.691307974
301.561215639
301.577475595
300.687242985
301.561215639
301.097806883
301.118131828
300.670983028
300.654723072
301.524630737
301.097806883
300.670983028
301.101871872
300.658788061
300.675048018
300.687242985
300.687242985
300.691307974
301.114066839
301.134391785
300.70756793
302.431123304
300.670983028
300.691307974
301.577475595
301.097806883
301.134391785
300.70756793
301.561215639
300.675048018
302.00429945
300.691307974
301.134391785
301.134391785
301.134391785
301.130326796
300.723827887
300.70756793
300.687242985
301.55715065
300.654723072
300.687242985
301.577475595

Average distance is : 301.135 cm
Average deviation is : 0.450 cm
Block: 7
======================================
301.967714548
301.134391785
301.540890694
300.687242985
301.114066839
300.687242985
300.691307974
301.118131828
301.134391785
301.55715065
300.691307974
300.675048018
300.691307974
300.691307974
300.70756793
300.703502941
301.561215639
301.573410606
300.687242985
301.988039494
301.561215639
301.55715065
300.675048018
300.691307974
301.097806883
301.150651741
300.687242985
301.268536425
301.561215639
300.687242985
301.097806883
301.577475595
300.691307974
300.70756793
301.577475595
300.691307974
301.134391785
300.670983028
301.114066839
300.691307974
300.70756793
301.577475595
300.675048018
301.577475595
300.658788061
300.670983028
300.691307974
301.118131828
301.114066839
301.118131828
300.670983028
300.675048018
301.540890694
301.55715065
300.691307974
300.675048018
300.654723072
300.675048018
300.70756793
300.675048018
300.675048018
300.654723072
301.118131828
301.561215639
301.114066839
301.561215639
301.130326796
301.101871872
301.101871872
300.654723072
302.447383261
300.691307974
301.134391785
300.670983028
301.134391785
301.540890694
301.577475595
301.561215639
300.670983028
301.577475595
301.561215639
301.561215639
301.114066839
300.654723072
300.670983028
300.70756793
301.134391785
302.00429945
301.561215639
301.118131828
301.114066839
300.670983028
301.097806883
300.670983028
300.691307974
300.670983028
301.561215639
300.691307974
301.134391785
300.675048018

Average distance is : 301.057 cm
Average deviation is : 0.417 cm
Block: 8
======================================
300.654723072
300.70756793
301.540890694
301.097806883
300.654723072
301.134391785
302.431123304
301.101871872
300.691307974
300.654723072
301.118131828
300.658788061
301.561215639
300.638463116
300.70756793
300.654723072
301.988039494
301.544955683
300.658788061
301.561215639
301.544955683
300.70756793
300.658788061
300.691307974
302.427058315
300.670983028
300.654723072
300.675048018
301.118131828
301.55715065
301.967714548
302.447383261
301.544955683
300.654723072
300.675048018
301.118131828
300.638463116
301.118131828
301.118131828
302.431123304
301.544955683
300.638463116
300.675048018
300.675048018
300.670983028
301.114066839
300.687242985
300.675048018
300.658788061
300.658788061
300.670983028
300.70756793
301.134391785
301.544955683
301.101871872
300.658788061
301.118131828
301.097806883
301.097806883
302.394538403
300.675048018
302.394538403
300.675048018
300.654723072
300.670983028
301.544955683
300.654723072
300.675048018
300.675048018
300.691307974
301.097806883
300.670983028
300.654723072
301.988039494
300.687242985
300.670983028
300.691307974
301.130326796
301.081546926
300.642528105
300.642528105
301.101871872
300.675048018
301.118131828
300.675048018
300.809192657
300.670983028
301.524630737
301.544955683
301.150651741
302.410798359
301.524630737
301.988039494
302.414863348
301.097806883
300.658788061
301.101871872
300.670983028
300.670983028
301.097806883

Average distance is : 301.079 cm
Average deviation is : 0.542 cm
Block: 9
======================================
301.561215639
300.670983028
301.983974504
301.118131828
300.670983028
301.983974504
301.097806883
301.540890694
301.118131828
301.097806883
301.101871872
301.540890694
300.654723072
301.114066839
300.638463116
300.654723072
301.544955683
300.638463116
301.561215639
301.06528697
302.447383261
301.988039494
301.134391785
300.675048018
301.544955683
300.670983028
301.101871872
301.118131828
301.114066839
301.540890694
301.951454592
301.097806883
301.097806883
301.06528697
301.097806883
300.654723072
301.524630737
301.544955683
301.971779537
300.638463116
301.528695726
301.561215639
301.540890694
300.654723072
301.081546926
300.654723072
301.524630737
301.544955683
300.654723072
300.638463116
300.642528105
302.414863348
302.398603392
301.097806883
300.638463116
300.638463116
301.524630737
302.427058315
301.524630737
300.654723072
300.622203159
300.658788061
301.524630737
301.540890694
301.081546926
301.081546926
301.967714548
300.622203159
300.675048018
300.675048018
300.670983028
301.081546926
301.06528697
300.670983028
300.658788061
300.654723072
300.675048018
300.654723072
301.528695726
301.085611916
301.081546926
301.101871872
301.544955683
301.085611916
301.101871872
301.081546926
301.540890694
300.670983028
301.097806883
301.081546926
301.101871872
301.540890694
300.654723072
300.638463116
301.544955683
300.691307974
300.605943203
301.101871872
301.069351959
301.508370781

Average distance is : 301.157 cm
Average deviation is : 0.478 cm
Block: 1
======================================
300.553098345
300.504318476
301.370161152
300.536838388
300.500253487
301.390486097
300.536838388
300.520578432
300.504318476
301.833569908
300.536838388
300.979922199
300.520578432
300.927077341
300.943337297
300.927077341
301.406746054
301.801049995
301.370161152
300.963662243
300.536838388
301.390486097
300.963662243
300.536838388
300.943337297
300.963662243
300.520578432
300.947402287
300.963662243
300.93114233
300.500253487
300.504318476
300.927077341
301.833569908
300.504318476
300.947402287
301.386421108
300.943337297
300.943337297
300.500253487
300.516513443
300.057169676
300.504318476
300.963662243
300.504318476
300.947402287
300.516513443
300.520578432
300.500253487
300.927077341
301.386421108
300.48399353
300.520578432
300.93114233
300.963662243
301.390486097
300.927077341
301.833569908
300.500253487
300.93114233
300.48399353
301.370161152
300.488058519
300.520578432
300.500253487
300.504318476
300.947402287
300.500253487
300.963662243
301.849829865
300.943337297
300.963662243
300.947402287
300.516513443
300.520578432
300.654723072
300.947402287
300.520578432
302.240068817
301.390486097
300.488058519
300.93114233
300.947402287
300.979922199
300.963662243
300.520578432
300.520578432
300.48399353
300.927077341
301.406746054
300.947402287
300.500253487
300.947402287
300.93114233
300.488058519
301.390486097
300.48399353
301.390486097
300.947402287
300.520578432

Average distance is : 300.866 cm
Average deviation is : 0.406 cm
Block: 2
======================================
300.504318476
300.536838388
300.520578432
300.947402287
300.48399353
300.979922199
300.500253487
300.93114233
300.93114233
301.813244963
301.386421108
301.390486097
300.500253487
300.48399353
300.500253487
300.943337297
300.488058519
300.504318476
300.516513443
300.504318476
301.370161152
301.390486097
300.520578432
300.516513443
300.520578432
300.504318476
300.943337297
300.500253487
300.520578432
300.93114233
300.963662243
300.963662243
300.504318476
300.927077341
300.500253487
300.488058519
301.370161152
302.244133806
300.500253487
300.959597254
302.223808861
300.500253487
301.817309952
300.504318476
301.390486097
300.943337297
301.390486097
300.471798563
300.504318476
300.947402287
300.93114233
300.943337297
300.48399353
300.910817385
301.390486097
300.500253487
300.504318476
301.406746054
300.48399353
300.943337297
300.48399353
300.943337297
301.390486097
300.516513443
300.488058519
300.943337297
300.927077341
300.500253487
301.626255465
301.374226141
300.488058519
301.390486097
300.520578432
300.488058519
300.947402287
300.910817385
300.520578432
300.504318476
300.48399353
300.927077341
301.370161152
302.244133806
300.504318476
300.504318476
300.520578432
300.943337297
300.520578432
300.979922199
300.963662243
300.500253487
300.504318476
300.93114233
300.979922199
301.386421108
300.504318476
301.406746054
300.963662243
300.536838388
300.979922199
300.488058519

Average distance is : 300.858 cm
Average deviation is : 0.435 cm
Block: 3
======================================
300.516513443
300.520578432
300.516513443
301.390486097
301.390486097
301.406746054
300.963662243
300.520578432
301.406746054
300.979922199
300.536838388
300.536838388
300.927077341
301.42300601
300.963662243
300.500253487
301.406746054
301.833569908
300.979922199
300.504318476
300.979922199
300.520578432
301.406746054
300.979922199
300.500253487
301.42300601
300.943337297
302.256328773
300.504318476
300.963662243
300.520578432
300.963662243
301.406746054
301.42300601
300.959597254
300.488058519
300.520578432
300.943337297
300.520578432
301.406746054
301.406746054
300.959597254
300.996182156
300.943337297
301.833569908
300.959597254
301.406746054
301.374226141
300.520578432
300.520578432
300.500253487
300.963662243
300.979922199
300.520578432
300.943337297
300.963662243
300.504318476
300.536838388
300.536838388
300.520578432
300.959597254
300.504318476
300.943337297
300.963662243
300.520578432
300.520578432
300.943337297
301.406746054
300.520578432
300.504318476
300.504318476
300.504318476
300.516513443
300.947402287
301.390486097
300.963662243
300.959597254
300.504318476
300.520578432
301.42300601
300.947402287
300.557163334
300.520578432
301.390486097
301.406746054
300.500253487
300.504318476
302.683152628
300.536838388
300.520578432
300.520578432
300.520578432
300.504318476
300.504318476
300.947402287
301.386421108
300.947402287
301.386421108
300.504318476
300.504318476

Average distance is : 300.901 cm
Average deviation is : 0.436 cm
Block: 4
======================================
300.979922199
301.390486097
300.947402287
300.947402287
300.979922199
301.833569908
300.520578432
301.402681065
300.963662243
300.947402287
301.386421108
300.963662243
300.504318476
300.520578432
300.947402287
301.42300601
301.406746054
300.963662243
300.943337297
301.42300601
302.276653719
300.963662243
300.536838388
302.292913675
300.516513443
300.979922199
300.536838388
300.963662243
301.427070999
300.500253487
300.516513443
300.504318476
301.406746054
300.500253487
300.963662243
300.959597254
300.520578432
300.520578432
300.963662243
301.833569908
300.943337297
300.520578432
300.520578432
301.406746054
300.963662243
300.520578432
300.927077341
300.959597254
300.963662243
300.520578432
301.439265966
300.536838388
300.979922199
301.849829865
300.536838388
300.536838388
300.979922199
300.516513443
300.996182156
301.42300601
300.963662243
302.292913675
300.963662243
302.260393763
300.979922199
300.536838388
300.979922199
301.42300601
300.553098345
300.979922199
300.996182156
300.536838388
300.520578432
300.963662243
300.963662243
301.42300601
300.979922199
300.504318476
300.996182156
300.979922199
300.963662243
300.963662243
300.979922199
300.979922199
301.406746054
301.406746054
302.292913675
300.504318476
301.406746054
300.520578432
300.536838388
300.963662243
300.516513443
300.536838388
300.963662243
300.979922199
300.979922199
300.520578432
300.520578432
300.963662243

Average distance is : 300.988 cm
Average deviation is : 0.454 cm
Block: 5
======================================
301.000247145
301.427070999
300.963662243
301.866089821
301.849829865
300.943337297
300.557163334
300.520578432
300.520578432
300.979922199
300.520578432
301.406746054
300.979922199
300.536838388
300.553098345
301.42300601
300.536838388
300.520578432
300.979922199
300.557163334
300.979922199
301.439265966
300.520578432
300.979922199
300.520578432
300.536838388
300.979922199
300.553098345
300.536838388
300.536838388
301.42300601
300.536838388
301.866089821
300.979922199
300.963662243
300.553098345
300.520578432
301.406746054
300.536838388
302.292913675
300.516513443
300.504318476
301.427070999
300.979922199
300.536838388
300.536838388
300.996182156
301.427070999
300.553098345
300.963662243
300.553098345
300.996182156
300.553098345
301.406746054
300.996182156
300.979922199
300.520578432
300.979922199
300.557163334
301.42300601
300.553098345
300.520578432
300.553098345
301.42300601
300.520578432
301.012442112
300.536838388
300.520578432
300.979922199
300.979922199
300.979922199
300.963662243
300.553098345
300.536838388
301.882349777
300.500253487
300.520578432
301.42300601
301.42300601
301.406746054
300.979922199
300.536838388
300.536838388
300.553098345
300.516513443
300.557163334
300.979922199
300.520578432
300.557163334
301.42300601
300.520578432
300.553098345
301.406746054
300.979922199
300.983987188
300.536838388
301.439265966
300.943337297
301.427070999
301.406746054

Average distance is : 300.899 cm
Average deviation is : 0.419 cm
Block: 6
======================================
300.947402287
300.520578432
300.979922199
300.536838388
300.516513443
300.520578432
300.963662243
300.963662243
301.42300601
300.947402287
300.963662243
300.943337297
300.93114233
300.979922199
301.42300601
300.979922199
300.536838388
301.406746054
301.386421108
301.390486097
301.427070999
301.42300601
301.406746054
301.42300601
300.979922199
300.963662243
300.947402287
300.963662243
301.406746054
300.963662243
301.406746054
302.276653719
301.406746054
300.963662243
300.963662243
301.406746054
301.849829865
302.276653719
301.406746054
301.406746054
300.520578432
301.406746054
300.996182156
300.963662243
301.849829865
300.520578432
301.42300601
301.406746054
301.87015481
300.963662243
300.979922199
301.42300601
301.402681065
301.42300601
301.849829865
301.443330956
301.443330956
301.406746054
301.829504919
300.979922199
301.406746054
302.735997486
301.42300601
301.406746054
300.959597254
301.443330956
300.536838388
301.42300601
300.553098345
300.996182156
301.439265966
302.71973753
300.963662243
301.427070999
302.276653719
301.032767057
301.443330956
301.443330956
300.979922199
300.979922199
300.979922199
300.996182156
301.443330956
300.536838388
300.536838388
303.162821341
300.996182156
300.979922199
301.42300601
300.536838388
301.016507101
301.42300601
301.427070999
302.292913675
301.866089821
300.536838388
300.983987188
301.42300601
301.012442112
301.42300601

Average distance is : 301.252 cm
Average deviation is : 0.502 cm
Block: 7
======================================
300.979922199
301.439265966
300.57342329
300.996182156
300.569358301
300.553098345
301.475850868
300.553098345
300.57342329
301.439265966
301.032767057
300.553098345
301.475850868
301.455525923
300.569358301
300.569358301
300.569358301
300.553098345
301.016507101
300.585618258
300.996182156
300.996182156
301.016507101
300.585618258
301.886414766
301.016507101
301.475850868
301.882349777
300.589683247
300.553098345
300.585618258
301.032767057
301.455525923
300.585618258
301.012442112
300.996182156
303.179081297
300.557163334
300.57342329
300.585618258
300.557163334
301.459590912
301.443330956
301.032767057
301.016507101
301.439265966
300.57342329
301.012442112
301.000247145
301.000247145
301.016507101
300.57342329
300.553098345
301.882349777
300.536838388
300.996182156
300.553098345
300.589683247
300.553098345
300.996182156
300.536838388
302.309173632
300.553098345
300.996182156
301.866089821
300.979922199
301.000247145
300.979922199
300.536838388
300.569358301
300.996182156
302.313238621
301.42300601
301.118131828
300.569358301
301.000247145
300.979922199
300.996182156
301.439265966
302.276653719
301.443330956
301.000247145
300.979922199
301.42300601
303.146561384
301.427070999
300.569358301
301.42300601
301.406746054
300.979922199
301.000247145
300.979922199
300.979922199
301.427070999
300.536838388
300.536838388
300.996182156
301.42300601
300.520578432
300.979922199

Average distance is : 301.045 cm
Average deviation is : 0.531 cm
Block: 8
======================================
300.979922199
300.979922199
300.996182156
300.979922199
300.979922199
300.996182156
300.996182156
300.996182156
300.979922199
301.439265966
300.553098345
300.979922199
300.536838388
301.012442112
300.996182156
300.585618258
301.866089821
300.553098345
300.536838388
300.536838388
300.553098345
300.979922199
300.979922199
300.536838388
300.557163334
300.520578432
301.012442112
301.439265966
301.000247145
301.000247145
301.886414766
300.996182156
300.57342329
301.443330956
301.882349777
300.536838388
301.016507101
300.536838388
301.012442112
300.979922199
300.569358301
300.569358301
300.553098345
301.459590912
300.996182156
300.996182156
300.996182156
302.309173632
300.536838388
301.443330956
301.000247145
301.032767057
300.536838388
300.979922199
301.42300601
301.443330956
301.439265966
301.427070999
300.553098345
301.439265966
302.309173632
300.536838388
300.983987188
300.979922199
300.536838388
301.406746054
301.866089821
300.520578432
300.996182156
300.553098345
300.996182156
300.996182156
300.520578432
300.553098345
303.146561384
300.979922199
301.866089821
300.536838388
300.979922199
301.000247145
301.406746054
301.42300601
301.402681065
300.553098345
300.983987188
300.516513443
300.979922199
300.996182156
300.520578432
300.979922199
300.536838388
301.443330956
302.292913675
300.516513443
300.963662243
300.536838388
300.500253487
300.504318476
300.536838388
301.42300601

Average distance is : 301.009 cm
Average deviation is : 0.491 cm
Block: 9
======================================
302.276653719
300.520578432
300.536838388
300.536838388
300.963662243
300.959597254
301.406746054
301.42300601
301.000247145
300.963662243
301.386421108
300.504318476
300.979922199
300.963662243
301.849829865
300.963662243
300.963662243
300.504318476
300.979922199
300.959597254
300.536838388
301.42300601
300.963662243
300.500253487
300.963662243
300.504318476
300.979922199
300.963662243
300.536838388
300.963662243
300.959597254
300.504318476
300.979922199
300.959597254
301.42300601
301.866089821
300.979922199
300.520578432
301.406746054
300.536838388
300.536838388
301.406746054
300.536838388
300.979922199
300.979922199
300.504318476
301.42300601
300.520578432
300.536838388
300.979922199
300.979922199
300.520578432
300.504318476
301.42300601
300.536838388
300.963662243
301.866089821
301.406746054
301.443330956
301.849829865
300.996182156
300.979922199
301.849829865
300.996182156
300.557163334
302.309173632
300.520578432
300.996182156
300.979922199
301.439265966
300.979922199
301.406746054
300.996182156
301.42300601
300.553098345
300.996182156
300.979922199
300.996182156
300.536838388
301.443330956
300.996182156
300.979922199
300.979922199
300.557163334
302.329498577
301.443330956
300.553098345
301.866089821
300.557163334
300.979922199
302.276653719
301.012442112
300.553098345
301.439265966
301.455525923
300.979922199
300.996182156
301.406746054
300.516513443
300.979922199

Average distance is : 301.038 cm
Average deviation is : 0.459 cm
Block: 10
======================================
300.520578432
301.016507101
301.016507101
301.000247145
301.012442112
300.57342329
300.569358301
302.329498577
300.553098345
301.016507101
300.520578432
300.553098345
300.553098345
301.000247145
301.000247145
300.536838388
300.589683247
300.553098345
300.585618258
300.553098345
301.439265966
300.553098345
301.012442112
301.882349777
300.57342329
301.439265966
301.459590912
300.57342329
301.459590912
300.57342329
300.57342329
301.016507101
300.585618258
300.553098345
300.57342329
300.553098345
300.569358301
300.996182156
300.996182156
301.016507101
301.455525923
301.455525923
300.553098345
301.012442112
300.553098345
300.585618258
302.341693544
300.57342329
301.049027014
300.996182156
301.016507101
300.553098345
300.553098345
300.589683247
300.557163334
301.012442112
300.569358301
300.585618258
301.439265966
300.553098345
300.553098345
300.553098345
300.569358301
301.016507101
300.569358301
300.557163334
300.589683247
300.536838388
301.459590912
300.553098345
300.996182156
300.585618258
301.42300601
301.016507101
301.439265966
300.553098345
300.553098345
301.866089821
301.439265966
300.553098345
301.016507101
300.553098345
300.553098345
300.553098345
301.012442112
301.866089821
301.459590912
301.443330956
300.979922199
300.536838388
302.292913675
300.553098345
300.996182156
301.439265966
301.443330956
300.536838388
300.979922199
301.000247145
300.569358301
300.569358301

Average distance is : 300.902 cm
Average deviation is : 0.447 cm