
Block: 1
======================================
300.638463116
300.622203159
300.601878214
300.179119349
301.06528697
300.146599436
300.605943203
300.605943203
300.57342329
300.585618258
300.142534447
300.142534447
301.028702068
300.146599436
300.589683247
301.049027014
300.585618258
300.589683247
301.028702068
301.044962025
300.585618258
300.589683247
300.146599436
300.162859392
300.589683247
301.455525923
301.049027014
300.179119349
300.601878214
299.715710592
300.605943203
301.439265966
300.162859392
301.032767057
300.142534447
300.622203159
301.049027014
301.049027014
301.044962025
301.049027014
300.589683247
300.585618258
301.475850868
300.601878214
300.179119349
300.589683247
300.605943203
301.06528697
300.601878214
301.049027014
301.049027014
300.110014534
300.605943203
300.585618258
301.06528697
300.142534447
300.585618258
300.12627449
300.605943203
300.605943203
300.146599436
300.146599436
300.605943203
300.589683247
300.605943203
300.12627449
300.12627449
300.585618258
300.605943203
301.935194635
300.12627449
300.605943203
300.589683247
300.12627449
300.142534447

Average distance is : 300.602 cm
Average deviation is : 0.405 cm
Block: 2
======================================
301.032767057
300.589683247
300.162859392
301.016507101
300.130339479
301.032767057
300.12627449
300.142534447
300.162859392
301.049027014
301.028702068
301.032767057
300.162859392
300.12627449
300.146599436
300.605943203
300.12627449
300.605943203
300.130339479
300.601878214
300.142534447
300.585618258
300.605943203
299.719775581
300.130339479
300.589683247
300.585618258
300.605943203
300.601878214
300.585618258
301.049027014
300.589683247
301.049027014
301.049027014
300.622203159
300.175054359
301.044962025
302.325433588
300.158794403
301.049027014
301.049027014
300.162859392
301.049027014
301.049027014
299.715710592
300.158794403
301.028702068
299.699450636
301.049027014
301.032767057
299.719775581
300.605943203
300.585618258
300.589683247
300.179119349
300.179119349
301.049027014
300.605943203
300.605943203
301.044962025
301.492110825
299.68319068
300.605943203
301.06528697
299.699450636
300.162859392
299.703515625
301.049027014
300.146599436
300.589683247
300.179119349
300.162859392
300.162859392
300.179119349
300.142534447

Average distance is : 300.526 cm
Average deviation is : 0.494 cm
Block: 3
======================================
301.032767057
300.162859392
300.142534447
300.589683247
300.142534447
300.162859392
300.130339479
300.146599436
300.589683247
300.162859392
300.142534447
300.142534447
300.601878214
301.475850868
300.605943203
300.569358301
301.049027014
300.605943203
300.130339479
300.57342329
300.57342329
299.703515625
301.049027014
300.57342329
300.589683247
300.162859392
300.57342329
300.585618258
300.142534447
301.028702068
300.605943203
300.569358301
300.589683247
300.162859392
300.130339479
300.142534447
300.605943203
300.57342329
300.146599436
301.049027014
300.142534447
300.585618258
300.605943203
300.589683247
300.12627449
300.589683247
300.605943203
300.622203159
300.605943203
300.605943203
300.601878214
301.049027014
301.049027014
300.585618258
300.158794403
301.06528697
301.049027014
300.179119349
301.049027014
301.049027014
301.06528697
300.162859392
300.605943203
300.622203159
300.605943203
299.719775581
300.605943203
300.12627449
300.589683247
300.638463116
300.601878214
300.605943203
299.715710592
300.142534447
300.179119349

Average distance is : 300.502 cm
Average deviation is : 0.362 cm
Block: 4
======================================
299.703515625
301.081546926
300.638463116
300.12627449
300.162859392
300.605943203
300.162859392
301.06528697
301.085611916
300.158794403
301.06528697
301.06528697
300.605943203
299.703515625
299.715710592
299.703515625
299.736035538
300.605943203
301.06528697
301.081546926
300.605943203
299.719775581
299.719775581
300.162859392
300.179119349
299.719775581
300.605943203
300.162859392
300.179119349
300.162859392
301.06528697
300.162859392
300.179119349
299.699450636
299.715710592
299.736035538
300.601878214
300.622203159
300.179119349
299.736035538
300.158794403
300.162859392
300.179119349
300.158794403
299.699450636
300.622203159
299.699450636
300.162859392
300.179119349
300.175054359
301.06528697
299.736035538
300.158794403
299.699450636
300.162859392
301.049027014
299.719775581
300.195379305
300.638463116
299.736035538
300.211639261
301.081546926
299.719775581
301.049027014
301.455525923
301.06528697
300.605943203
300.589683247
300.162859392
301.06528697
300.162859392
300.638463116
300.179119349
300.605943203
301.049027014

Average distance is : 300.334 cm
Average deviation is : 0.498 cm
Block: 5
======================================
300.179119349
300.146599436
300.195379305
300.179119349
300.638463116
300.179119349
300.179119349
300.622203159
301.049027014
301.044962025
300.162859392
300.179119349
301.06528697
300.179119349
300.162859392
300.601878214
301.06528697
300.179119349
299.715710592
300.179119349
301.06528697
300.179119349
300.195379305
300.658788061
300.162859392
300.162859392
300.179119349
301.06528697
300.162859392
300.158794403
300.179119349
300.162859392
299.715710592
300.179119349
299.719775581
300.195379305
124.904919767
300.227899218
299.736035538
300.179119349
300.179119349
300.179119349
299.719775581
300.195379305
300.179119349
300.179119349
300.179119349
300.195379305
300.158794403
300.162859392
300.162859392
300.179119349
300.175054359
300.589683247
299.736035538
301.081546926
300.605943203
300.179119349
300.179119349
300.162859392
300.179119349
299.719775581
300.179119349
301.081546926
299.719775581
301.081546926
300.605943203
300.199444294
299.719775581
301.081546926
300.158794403
300.638463116
300.622203159
300.622203159
300.605943203

Average distance is : 297.969 cm
Average deviation is : 20.257 cm
Block: 6
======================================
300.158794403
299.76855545
300.642528105
300.142534447
300.146599436
300.162859392
300.162859392
300.179119349
300.162859392
300.162859392
300.605943203
300.158794403
300.158794403
300.158794403
300.622203159
300.146599436
300.195379305
300.605943203
300.638463116
299.752295494
300.638463116
300.179119349
300.199444294
300.179119349
300.179119349
299.736035538
300.179119349
300.658788061
300.605943203
300.638463116
300.642528105
300.622203159
300.622203159
300.146599436
300.179119349
300.642528105
300.158794403
300.162859392
299.699450636
300.195379305
300.162859392
301.508370781
299.715710592
299.719775581
299.715710592
300.638463116
300.158794403
300.162859392
300.179119349
300.61813817
300.605943203
300.162859392
301.049027014
299.68319068
300.605943203
301.049027014
301.044962025
300.179119349
300.179119349
299.703515625
300.158794403
299.699450636
300.179119349
300.162859392
300.589683247
299.719775581
300.162859392
299.736035538
300.142534447
300.179119349
300.158794403
300.162859392
300.142534447
300.158794403
300.162859392

Average distance is : 300.258 cm
Average deviation is : 0.362 cm
Block: 7
======================================
300.142534447
300.12627449
301.049027014
301.032767057
300.142534447
301.471785879
300.638463116
300.142534447
300.146599436
300.142534447
300.142534447
301.032767057
300.146599436
300.622203159
300.146599436
300.142534447
300.146599436
300.12627449
300.110014534
300.605943203
299.68319068
301.049027014
300.605943203
300.146599436
301.028702068
300.585618258
301.032767057
300.162859392
300.158794403
300.162859392
300.146599436
301.016507101
301.049027014
300.605943203
300.146599436
301.049027014
300.142534447
301.049027014
301.028702068
300.162859392
301.032767057
300.146599436
299.703515625
300.142534447
301.028702068
300.142534447
300.162859392
300.569358301
301.012442112
300.146599436
301.475850868
300.146599436
301.032767057
301.032767057
300.57342329
300.179119349
301.012442112
301.049027014
300.589683247
300.589683247
301.028702068
300.142534447
300.569358301
300.601878214
300.585618258
301.044962025
300.146599436
300.57342329
300.12627449
300.110014534
300.553098345
300.158794403
301.016507101
300.605943203
301.016507101

Average distance is : 300.524 cm
Average deviation is : 0.431 cm
Block: 8
======================================
300.179119349
300.179119349
300.142534447
301.012442112
300.589683247
300.996182156
300.093754578
300.12627449
301.032767057
300.146599436
301.012442112
300.146599436
301.012442112
300.553098345
300.110014534
300.12627449
300.569358301
301.439265966
300.110014534
300.130339479
300.589683247
300.110014534
300.569358301
300.12627449
300.114079523
300.605943203
300.12627449
301.028702068
300.585618258
300.12627449
300.589683247
300.12627449
300.585618258
300.589683247
300.130339479
300.589683247
300.12627449
300.622203159
300.569358301
300.12627449
300.12627449
301.492110825
300.110014534
300.589683247
300.110014534
300.569358301
300.585618258
301.032767057
300.569358301
300.585618258
300.110014534
301.016507101
301.012442112
300.553098345
301.032767057
301.049027014
300.589683247
300.12627449
300.12627449
300.130339479
300.130339479
300.158794403
300.162859392
299.699450636
300.569358301
301.032767057
300.162859392
301.049027014
300.569358301
300.110014534
300.589683247
301.032767057
300.179119349
299.68319068
301.012442112

Average distance is : 300.472 cm
Average deviation is : 0.401 cm
Block: 9
======================================
300.622203159
300.605943203
300.158794403
300.179119349
300.146599436
301.06528697
300.162859392
301.012442112
301.06528697
300.605943203
300.146599436
300.605943203
300.569358301
300.142534447
300.569358301
300.601878214
300.158794403
300.146599436
300.589683247
300.589683247
299.699450636
300.585618258
300.601878214
300.142534447
300.162859392
300.585618258
300.142534447
301.455525923
301.06528697
301.049027014
299.68319068
300.12627449
300.12627449
300.12627449
300.589683247
299.699450636
300.589683247
299.68319068
300.57342329
300.589683247
300.146599436
301.049027014
300.589683247
300.142534447
301.049027014
300.622203159
299.68319068
300.130339479
299.699450636
301.044962025
300.569358301
301.049027014
301.028702068
301.028702068
300.601878214
301.032767057
299.703515625
300.569358301
299.699450636
299.699450636
299.666930723
299.699450636
300.605943203
300.162859392
299.68319068
300.179119349
300.162859392
300.589683247
300.605943203
299.703515625
299.703515625
301.032767057
300.605943203
300.585618258
300.569358301

Average distance is : 300.396 cm
Average deviation is : 0.462 cm
Block: 10
======================================
300.12627449
300.158794403
300.162859392
300.12627449
300.114079523
300.110014534
300.142534447
300.553098345
300.12627449
300.601878214
300.585618258
300.12627449
300.585618258
300.585618258
300.569358301
301.028702068
300.12627449
299.703515625
300.114079523
300.162859392
300.589683247
300.110014534
300.605943203
299.715710592
300.622203159
300.589683247
299.699450636
300.146599436
300.57342329
300.130339479
299.666930723
300.12627449
300.12627449
300.146599436
300.569358301
300.110014534
300.57342329
299.68319068
300.12627449
300.12627449
300.146599436
299.666930723
300.12627449
300.142534447
300.622203159
300.57342329
300.142534447
300.12627449
299.703515625
299.666930723
300.12627449
300.146599436
300.110014534
300.12627449
300.142534447
299.699450636
300.162859392
299.666930723
300.12627449
299.666930723
301.032767057
300.142534447
300.142534447
300.12627449
301.028702068
300.589683247
300.146599436
300.12627449
300.605943203
299.666930723
300.12627449
299.699450636
300.130339479
300.12627449
300.12627449

Average distance is : 300.194 cm
Average deviation is : 0.335 cm