
Block: 1
======================================
300.12627449
299.68319068
299.703515625
300.179119349
300.146599436
300.585618258
301.049027014
301.049027014
300.605943203
300.589683247
300.589683247
299.736035538
301.488045835
301.044962025
300.589683247
300.589683247
300.589683247
301.049027014
300.589683247
300.589683247
300.585618258
300.142534447
300.142534447
300.142534447
300.130339479
300.146599436
300.162859392
300.158794403
300.142534447
300.605943203
301.032767057
301.049027014
300.585618258
300.158794403
300.585618258
300.142534447
124.583785629
299.240106869
300.158794403
301.049027014
301.06528697
301.06528697
301.455525923
300.179119349
301.06528697
300.162859392
300.605943203
301.06528697
299.699450636
299.699450636

Block: 2
======================================
301.049027014
300.162859392
300.605943203
300.605943203
300.589683247
301.049027014
300.622203159
301.044962025
299.719775581
299.699450636
299.699450636
300.179119349
299.699450636
301.044962025
301.049027014
300.622203159
300.162859392
300.162859392
299.719775581
300.146599436
300.179119349
299.715710592
301.081546926
300.601878214
300.585618258
301.049027014
300.179119349
299.715710592
299.699450636
299.715710592
301.049027014
300.622203159
301.049027014
300.585618258
301.06528697
299.699450636
300.195379305
300.162859392
299.715710592
299.715710592
300.175054359
301.081546926
301.06528697
301.06528697
300.585618258
300.638463116
300.589683247
300.175054359
300.589683247
301.049027014

Block: 3
======================================
300.601878214
300.601878214
300.622203159
300.605943203
299.699450636
299.699450636
300.601878214
300.162859392
299.703515625
300.146599436
300.162859392
301.508370781
300.146599436
300.146599436
300.130339479
300.589683247
300.142534447
300.162859392
300.146599436
300.146599436
300.605943203
300.601878214
300.585618258
300.605943203
299.736035538
300.199444294
300.605943203
300.622203159
300.12627449
300.142534447
300.585618258
300.142534447
300.162859392
301.06528697
300.622203159
300.162859392
300.146599436
301.028702068
300.162859392
300.162859392
300.622203159
300.142534447
300.622203159
300.162859392
300.142534447
300.146599436
300.146599436
300.146599436
300.605943203
300.601878214

Block: 4
======================================
300.146599436
300.130339479
300.12627449
300.12627449
299.736035538
300.605943203
301.049027014
300.12627449
300.162859392
300.142534447
300.158794403
300.142534447
300.12627449
300.162859392
300.589683247
300.622203159
300.146599436
300.589683247
300.146599436
300.12627449
300.158794403
300.146599436
300.146599436
300.162859392
300.622203159
300.158794403
300.12627449
300.146599436
300.162859392
300.605943203
300.601878214
300.589683247
300.142534447
300.162859392
300.179119349
301.508370781
302.36201849
300.146599436
300.195379305
300.585618258
299.736035538
300.146599436
300.622203159
300.162859392
300.622203159
300.622203159
300.175054359
301.081546926
299.715710592
299.719775581

Block: 5
======================================
299.703515625
301.540890694
300.622203159
299.736035538
300.622203159
300.146599436
300.638463116
300.179119349
300.622203159
300.179119349
300.179119349
301.06528697
299.719775581
301.06528697
300.622203159
300.179119349
300.589683247
301.085611916
299.719775581
300.146599436
299.715710592
299.736035538
300.622203159
299.736035538
299.703515625
301.471785879
301.06528697
301.06528697
300.146599436
300.605943203
301.081546926
300.622203159
302.378278446
300.179119349
301.06528697
301.06528697
300.605943203
300.605943203
300.622203159
301.06528697
299.703515625
300.179119349
301.044962025
299.736035538
299.719775581
300.601878214
300.605943203
300.162859392
300.605943203
301.049027014

Block: 6
======================================
300.670983028
300.146599436
301.06528697
300.195379305
301.081546926
300.195379305
299.752295494
301.06528697
299.736035538
300.622203159
300.179119349
300.162859392
300.61813817
301.081546926
301.06528697
300.195379305
300.179119349
299.715710592
300.162859392
299.719775581
300.622203159
301.044962025
300.605943203
300.605943203
301.049027014
300.601878214
301.06528697
300.162859392
300.622203159
301.085611916
300.589683247
300.605943203
300.158794403
300.601878214
299.719775581
300.605943203
300.605943203
301.085611916
299.736035538
301.06528697
301.06528697
301.06528697
301.049027014
301.06528697
300.605943203
301.06528697
300.585618258
301.032767057
301.049027014
301.044962025

Block: 7
======================================
301.06528697
300.605943203
300.158794403
301.028702068
300.162859392
300.622203159
300.142534447
300.589683247
300.601878214
301.06528697
300.12627449
300.142534447
300.142534447
300.146599436
301.492110825
301.032767057
300.601878214
300.12627449
300.142534447
300.622203159
300.12627449
300.622203159
300.158794403
300.179119349
300.130339479
300.162859392
300.162859392
300.146599436
300.12627449
300.142534447
300.605943203
300.12627449
300.130339479
300.146599436
300.162859392
300.158794403
300.179119349
300.179119349
300.622203159
300.162859392
300.601878214
300.605943203
300.622203159
300.622203159
300.146599436
300.162859392
300.605943203
300.601878214
300.622203159
300.605943203

Block: 8
======================================
300.146599436
300.622203159
301.049027014
300.605943203
300.605943203
300.142534447
300.162859392
301.032767057
300.175054359
300.130339479
300.162859392
301.049027014
301.032767057
300.162859392
300.146599436
300.162859392
300.146599436
300.142534447
300.146599436
300.146599436
300.12627449
299.715710592
300.142534447
300.589683247
300.162859392
300.142534447
300.146599436
300.162859392
300.142534447
300.12627449
300.146599436
300.146599436
300.605943203
300.179119349
300.589683247
300.142534447
301.032767057
300.146599436
301.049027014
300.142534447
300.162859392
300.146599436
300.142534447
300.158794403
300.146599436
300.179119349
300.179119349
300.162859392
301.044962025
300.162859392

Block: 9
======================================
300.585618258
301.028702068
301.032767057
301.049027014
301.049027014
300.162859392
300.12627449
300.142534447
300.158794403
300.158794403
300.601878214
300.605943203
300.589683247
300.146599436
300.179119349
300.601878214
300.605943203
300.146599436
300.179119349
300.162859392
300.146599436
300.162859392
300.162859392
300.622203159
300.162859392
300.146599436
300.158794403
300.605943203
300.605943203
300.601878214
300.622203159
300.179119349
300.142534447
301.06528697
300.146599436
300.162859392
300.605943203
300.142534447
301.06528697
300.605943203
300.605943203
300.585618258
300.162859392
300.605943203
300.142534447
300.601878214
301.049027014
301.06528697
301.06528697
300.589683247

Block: 10
======================================
300.142534447
300.142534447
301.049027014
301.06528697
300.162859392
300.622203159
300.142534447
300.146599436
301.028702068
300.146599436
300.146599436
300.589683247
300.146599436
300.146599436
300.142534447
300.162859392
301.06528697
300.12627449
301.028702068
300.130339479
300.130339479
300.146599436
300.589683247
300.601878214
301.032767057
300.146599436
300.142534447
300.605943203
300.146599436
300.622203159
300.162859392
300.12627449
300.146599436
300.12627449
300.142534447
300.110014534
300.110014534
300.569358301
300.605943203
300.146599436
300.12627449
300.162859392
300.146599436
300.638463116
300.146599436
300.605943203
300.146599436
300.142534447
300.12627449
300.158794403
