
Block: 1
======================================
300.146599436
300.146599436
301.475850868
300.146599436
300.158794403
300.130339479
300.146599436
300.569358301
300.605943203
299.715710592
300.605943203
301.032767057
300.162859392
300.110014534
301.032767057
300.179119349
299.687255669
299.699450636
300.569358301
301.06528697
300.585618258
300.142534447
300.601878214
300.605943203
300.605943203
300.605943203
300.142534447
300.142534447
300.589683247
301.049027014
301.032767057
300.589683247
300.589683247
300.589683247
300.589683247
300.585618258
300.605943203
300.605943203
300.162859392
300.146599436
300.57342329
300.158794403
300.162859392
300.162859392
300.146599436
300.589683247
300.12627449
300.589683247
300.589683247
300.12627449
300.162859392
300.146599436
300.142534447
300.146599436
301.012442112
300.142534447
300.622203159
300.12627449
300.130339479
300.589683247
300.146599436
300.12627449
300.57342329
301.032767057
301.459590912
301.049027014
301.91486969
300.12627449
300.585618258
300.585618258
300.146599436
300.605943203
300.12627449
300.142534447
300.605943203
300.569358301
300.12627449
300.146599436
300.605943203
300.12627449
300.12627449
300.130339479
300.12627449
300.589683247
300.57342329
300.12627449
301.439265966
300.130339479
300.569358301
300.589683247
300.557163334
301.032767057
300.569358301
300.585618258
300.589683247
300.146599436
301.032767057
301.918934679
300.553098345
301.049027014

Block: 2
======================================
300.585618258
300.605943203
300.589683247
300.110014534
301.032767057
300.12627449
299.699450636
300.162859392
301.049027014
300.142534447
300.162859392
301.049027014
300.130339479
301.032767057
300.57342329
300.589683247
300.585618258
300.146599436
300.162859392
300.12627449
301.032767057
300.130339479
300.12627449
300.130339479
300.605943203
300.146599436
300.142534447
300.569358301
300.569358301
300.589683247
300.605943203
300.162859392
300.158794403
300.12627449
300.130339479
300.589683247
300.146599436
300.130339479
300.12627449
300.158794403
300.589683247
300.57342329
300.585618258
300.028714752
300.585618258
301.032767057
301.032767057
300.162859392
300.589683247
300.142534447
300.585618258
300.601878214
300.142534447
300.585618258
300.146599436
301.471785879
300.162859392
301.032767057
300.605943203
300.601878214
299.68319068
301.049027014
301.06528697
300.158794403
301.028702068
299.736035538
301.049027014
301.06528697
300.162859392
301.049027014
300.162859392
300.142534447
300.146599436
299.703515625
300.179119349
299.703515625
300.601878214
300.179119349
300.142534447
300.162859392
300.162859392
301.06528697
300.589683247
300.605943203
300.589683247
299.687255669
300.622203159
300.162859392
300.142534447
299.68319068
299.719775581
300.179119349
299.703515625
300.146599436
300.142534447
300.142534447
299.68319068
300.638463116
301.049027014
300.605943203

Block: 3
======================================
300.605943203
301.081546926
301.06528697
300.585618258
301.049027014
300.162859392
299.719775581
300.638463116
299.703515625
300.142534447
300.146599436
300.589683247
299.687255669
299.719775581
299.699450636
299.719775581
299.719775581
299.715710592
299.703515625
300.162859392
301.049027014
301.049027014
301.049027014
301.028702068
299.699450636
300.179119349
301.06528697
301.049027014
299.703515625
300.589683247
299.719775581
299.699450636
299.719775581
301.049027014
301.044962025
299.736035538
300.605943203
299.715710592
300.158794403
301.049027014
299.715710592
300.585618258
299.703515625
301.06528697
300.589683247
300.162859392
299.68319068
299.699450636
299.703515625
300.179119349
300.142534447
300.605943203
300.146599436
300.158794403
299.703515625
300.146599436
300.179119349
300.162859392
300.638463116
301.032767057
299.699450636
300.605943203
301.032767057
300.142534447
301.044962025
300.179119349
300.622203159
300.142534447
300.162859392
300.605943203
300.158794403
300.589683247
300.142534447
300.146599436
300.142534447
301.028702068
301.028702068
301.049027014
300.146599436
301.032767057
300.622203159
301.935194635
301.049027014
301.028702068
301.028702068
301.049027014
300.146599436
300.146599436
301.032767057
300.179119349
301.032767057
300.162859392
300.589683247
300.622203159
301.06528697
300.569358301
300.158794403
300.179119349
301.016507101
300.130339479

Block: 4
======================================
300.142534447
300.162859392
301.012442112
301.000247145
300.585618258
300.162859392
300.146599436
300.146599436
300.142534447
301.032767057
301.049027014
301.049027014
301.032767057
300.12627449
301.049027014
300.162859392
300.142534447
301.032767057
301.032767057
301.032767057
300.142534447
301.032767057
301.049027014
301.049027014
301.049027014
300.162859392
300.162859392
300.12627449
300.605943203
300.179119349
300.162859392
300.605943203
300.146599436
300.601878214
301.028702068
300.146599436
300.162859392
300.162859392
300.146599436
300.158794403
300.601878214
301.044962025
301.049027014
300.146599436
300.162859392
300.142534447
300.622203159
301.016507101
300.179119349
301.06528697
300.605943203
300.146599436
300.605943203
300.12627449
301.06528697
300.146599436
299.719775581
301.049027014
300.622203159
300.569358301
300.142534447
300.142534447
300.179119349
301.06528697
300.130339479
300.605943203
300.589683247
300.130339479
300.146599436
300.622203159
300.12627449
300.130339479
300.130339479
300.12627449
301.032767057
301.028702068
301.06528697
300.589683247
300.142534447
300.142534447
300.12627449
300.146599436
300.605943203
301.049027014
300.605943203
300.142534447
300.142534447
300.605943203
301.471785879
301.032767057
301.049027014
300.569358301
300.589683247
301.455525923
300.585618258
301.028702068
301.049027014
300.605943203
301.492110825
300.569358301

Block: 5
======================================
300.589683247
300.589683247
300.146599436
301.06528697
300.179119349
301.044962025
301.032767057
301.049027014
300.585618258
300.162859392
301.06528697
300.589683247
299.666930723
300.162859392
301.032767057
300.162859392
299.703515625
300.162859392
300.162859392
300.146599436
300.605943203
300.162859392
300.162859392
300.142534447
300.158794403
300.158794403
300.162859392
299.68319068
300.57342329
300.162859392
300.162859392
300.179119349
300.146599436
300.12627449
300.142534447
300.130339479
300.605943203
300.605943203
300.142534447
299.68319068
300.158794403
300.130339479
300.622203159
299.68319068
300.146599436
299.666930723
299.68319068
299.699450636
300.146599436
300.589683247
300.589683247
300.146599436
301.049027014
300.589683247
300.57342329
299.699450636
300.589683247
300.130339479
300.589683247
299.687255669
299.703515625
301.049027014
300.146599436
300.585618258
300.12627449
299.699450636
299.703515625
300.605943203
301.049027014
300.589683247
300.585618258
300.179119349
300.12627449
300.569358301
300.12627449
300.110014534
300.162859392
300.142534447
300.601878214
300.12627449
300.110014534
300.569358301
300.569358301
300.142534447
300.585618258
300.142534447
301.016507101
301.032767057
300.12627449
301.032767057
300.57342329
300.130339479
300.162859392
301.032767057
300.12627449
300.12627449
300.585618258
300.142534447
300.110014534
300.130339479

Block: 6
======================================
300.569358301
300.569358301
300.12627449
300.12627449
300.110014534
300.12627449
300.12627449
301.016507101
300.110014534
301.475850868
299.68319068
301.012442112
300.569358301
300.130339479
301.000247145
300.569358301
300.569358301
300.130339479
300.996182156
300.12627449
299.68319068
300.622203159
300.996182156
300.996182156
301.032767057
300.605943203
300.996182156
300.130339479
300.146599436
300.110014534
300.130339479
301.016507101
301.016507101
300.57342329
299.68319068
301.016507101
301.012442112
301.012442112
300.996182156
300.12627449
301.012442112
300.553098345
301.012442112
300.996182156
300.142534447
300.12627449
301.032767057
300.158794403
300.130339479
301.000247145
301.028702068
300.114079523
300.146599436
301.012442112
301.012442112
301.032767057
300.110014534
300.110014534
300.130339479
300.553098345
300.585618258
300.142534447
301.028702068
300.553098345
300.114079523
300.130339479
300.12627449
301.012442112
300.142534447
300.12627449
301.012442112
300.12627449
300.589683247
300.57342329
300.585618258
300.569358301
300.605943203
300.114079523
300.130339479
300.569358301
300.569358301
300.57342329
301.032767057
301.012442112
300.130339479
301.032767057
301.016507101
300.589683247
301.012442112
300.162859392
300.605943203
300.57342329
299.699450636
301.049027014
301.049027014
300.57342329
300.589683247
301.049027014
301.049027014
300.146599436

Block: 7
======================================
300.601878214
300.589683247
300.57342329
300.605943203
301.049027014
300.162859392
301.012442112
300.110014534
300.110014534
301.032767057
300.162859392
300.158794403
301.032767057
300.110014534
301.049027014
300.622203159
300.589683247
300.142534447
300.162859392
301.032767057
300.605943203
301.016507101
300.110014534
301.028702068
301.028702068
301.028702068
301.455525923
300.589683247
301.032767057
300.569358301
300.146599436
300.142534447
300.605943203
300.622203159
301.032767057
301.032767057
301.016507101
300.130339479
301.028702068
300.585618258
300.585618258
301.049027014
301.475850868
301.028702068
301.049027014
300.142534447
300.12627449
301.049027014
300.589683247
300.589683247
300.589683247
301.032767057
300.146599436
301.016507101
301.049027014
300.57342329
300.589683247
300.57342329
300.146599436
300.601878214
301.044962025
300.12627449
300.142534447
300.589683247
301.049027014
301.049027014
300.605943203
301.06528697
300.179119349
300.642528105
301.044962025
301.028702068
301.049027014
301.044962025
300.589683247
301.012442112
300.130339479
301.044962025
300.589683247
300.569358301
300.569358301
300.142534447
300.12627449
300.12627449
300.142534447
300.585618258
300.57342329
300.585618258
300.179119349
300.158794403
300.585618258
300.585618258
300.585618258
301.032767057
300.158794403
301.455525923
300.585618258
301.049027014
301.049027014
300.12627449

Block: 8
======================================
300.179119349
300.146599436
301.032767057
300.195379305
300.195379305
301.049027014
299.703515625
300.12627449
300.146599436
300.605943203
301.032767057
300.601878214
300.585618258
300.162859392
300.162859392
300.162859392
300.199444294
301.049027014
301.049027014
300.146599436
301.049027014
301.049027014
299.719775581
300.605943203
300.162859392
300.162859392
300.601878214
300.142534447
300.142534447
301.06528697
301.049027014
301.032767057
301.049027014
300.622203159
301.032767057
300.162859392
300.605943203
301.049027014
300.142534447
300.158794403
300.162859392
300.158794403
300.622203159
300.622203159
300.146599436
300.12627449
300.146599436
300.158794403
300.162859392
300.146599436
300.146599436
300.162859392
299.703515625
300.142534447
300.601878214
300.601878214
300.601878214
300.589683247
300.158794403
300.605943203
300.162859392
300.130339479
300.142534447
300.162859392
300.589683247
300.162859392
300.162859392
300.605943203
300.605943203
122.022842503
299.719775581
300.61813817
300.162859392
300.605943203
300.622203159
301.049027014
301.049027014
300.605943203
299.699450636
300.146599436
300.179119349
301.049027014
301.06528697
300.605943203
300.162859392
300.622203159
300.142534447
300.605943203
300.179119349
300.142534447
300.12627449
300.146599436
300.146599436
300.146599436
300.622203159
300.589683247
300.162859392
299.699450636
300.142534447
300.622203159

Block: 9
======================================
300.585618258
300.142534447
300.622203159
300.162859392
301.049027014
300.589683247
300.162859392
299.687255669
301.032767057
301.049027014
300.130339479
300.142534447
300.585618258
301.028702068
301.455525923
300.589683247
301.049027014
301.049027014
301.028702068
300.569358301
301.028702068
300.589683247
300.589683247
300.605943203
300.179119349
300.605943203
300.57342329
299.719775581
301.049027014
301.032767057
301.049027014
300.605943203
300.605943203
300.601878214
300.142534447
300.589683247
300.57342329
300.130339479
300.146599436
300.585618258
300.605943203
301.032767057
300.146599436
300.162859392
300.130339479
300.130339479
300.146599436
300.605943203
300.605943203
300.146599436
300.589683247
300.589683247
301.032767057
300.162859392
301.049027014
300.622203159
300.589683247
300.569358301
300.57342329
301.012442112
300.12627449
300.585618258
300.142534447
300.142534447
300.142534447
300.589683247
302.345758533
300.605943203
300.146599436
300.162859392
300.12627449
300.162859392
300.605943203
300.146599436
300.142534447
300.162859392
300.162859392
300.158794403
300.110014534
301.049027014
300.146599436
300.146599436
300.130339479
300.589683247
299.699450636
300.553098345
300.585618258
300.142534447
300.605943203
300.162859392
300.142534447
301.049027014
300.146599436
300.12627449
300.569358301
301.028702068
300.12627449
300.146599436
300.589683247
300.130339479

Block: 10
======================================
300.12627449
300.093754578
300.57342329
300.605943203
300.12627449
300.162859392
300.12627449
300.589683247
300.605943203
301.032767057
300.12627449
300.130339479
300.12627449
299.666930723
300.146599436
300.110014534
300.142534447
300.146599436
300.12627449
300.146599436
300.12627449
300.114079523
300.093754578
300.585618258
300.142534447
300.110014534
300.130339479
300.142534447
300.12627449
300.110014534
300.569358301
300.12627449
301.028702068
301.012442112
300.553098345
300.12627449
300.57342329
300.12627449
300.142534447
300.158794403
300.12627449
300.142534447
301.032767057
300.622203159
300.589683247
300.589683247
300.130339479
300.142534447
300.12627449
301.016507101
299.703515625
300.110014534
300.130339479
300.12627449
300.130339479
300.12627449
300.12627449
300.12627449
301.012442112
300.114079523
300.536838388
301.475850868
300.12627449
301.032767057
300.57342329
300.12627449
300.589683247
300.12627449
300.585618258
301.049027014
300.146599436
300.12627449
300.57342329
300.12627449
300.601878214
300.601878214
301.044962025
300.142534447
300.130339479
300.146599436
301.028702068
300.12627449
300.130339479
301.012442112
300.12627449
300.093754578
300.110014534
300.569358301
300.569358301
300.57342329
300.12627449
300.110014534
300.244159174
300.605943203
300.110014534
300.110014534
300.093754578
300.589683247
300.569358301
300.114079523
