
Block: 1
======================================
50.4380114555
50.4051447868
50.0066364288
50.4503364563
50.4873114586
50.4380114555
17.8507094383
50.0395030975
50.4380114555
50.4174697876

Average distance is : 47.097 cm
Average deviation is : 10.278 cm
Block: 2
======================================
50.0395030975
50.0066364288
49.9902030945
50.4544447899
50.0559364319
50.4380114555
50.4708781242
26.6055683136
50.0559364319
50.4544447899

Average distance is : 47.857 cm
Average deviation is : 7.470 cm
Block: 3
======================================
50.0395030975
50.4380114555
50.4544447899
50.4544447899
50.0066364288
50.4544447899
50.4544447899
50.4544447899
25.7428182602
50.8159781456

Average distance is : 47.932 cm
Average deviation is : 7.800 cm
Block: 4
======================================
50.0230697632
50.4215781212
50.4380114555
50.4380114555
50.0066364288
50.4708781242
50.4380114555
50.4339031219
50.4380114555
25.7263849258

Average distance is : 47.883 cm
Average deviation is : 7.787 cm
Block: 5
======================================
50.0395030975
50.0764780998
50.4174697876
50.4544447899
50.4215781212
50.4215781212
50.0230697632
50.4544447899
50.4215781212
50.4215781212

Average distance is : 50.315 cm
Average deviation is : 0.186 cm
Block: 6
======================================
2.61700849533
50.0230697632
50.4010364532
50.4215781212
50.0230697632
50.4380114555
20.0075845718
50.4749864578
50.4215781212
50.4010364532

Average distance is : 42.523 cm
Average deviation is : 16.953 cm
Block: 7
======================================
50.4215781212
9.04655056
49.9737697601
50.4380114555
50.0395030975
50.0395030975
50.4544447899
20.6608096123
50.0230697632
50.4215781212

Average distance is : 43.152 cm
Average deviation is : 15.165 cm
Block: 8
======================================
49.9860947609
50.0230697632
50.0395030975
0.135575008392
50.4544447899
50.4708781242
50.4215781212
50.4339031219
50.4544447899
20.6115096092

Average distance is : 42.303 cm
Average deviation is : 17.508 cm
Block: 9
======================================
50.0764780998
50.0395030975
50.4174697876
50.4380114555
50.4544447899
50.0436114311
50.0395030975
50.4380114555
50.4215781212
50.4339031219

Average distance is : 50.280 cm
Average deviation is : 0.199 cm
Block: 10
======================================
5.70647535324
50.0436114311
50.0066364288
50.4708781242
50.4380114555
50.4215781212
20.0240179062
50.0559364319
50.0066364288
50.4544447899

Average distance is : 42.763 cm
Average deviation is : 16.116 cm
Block: 1
======================================
50.2983281136
49.8669530869
50.2983281136
50.3024364471
49.8505197525
50.692728138
50.2654614449
50.2654614449
49.8833864212
49.8505197525

Average distance is : 50.157 cm
Average deviation is : 0.283 cm
Block: 2
======================================
49.8833864212
50.3147614479
50.6639698029
50.2983281136
49.8874947548
24.2966848373
50.2654614449
49.8505197525
49.8874947548
49.8833864212

Average distance is : 47.523 cm
Average deviation is : 8.166 cm
Block: 3
======================================
18.0068261147
50.2818947792
49.8340864182
50.2983281136
49.8505197525
49.8998197556
23.7626014709
50.2490281105
50.2818947792
49.9039280891

Average distance is : 44.237 cm
Average deviation is : 12.384 cm
Block: 4
======================================
50.7297031403
50.2818947792
50.2983281136
50.7091614723
50.2818947792
50.7132698059
49.8340864182
21.1086179733
50.6968364716
49.8833864212

Average distance is : 47.454 cm
Average deviation is : 9.263 cm
Block: 5
======================================
50.3024364471
49.8833864212
50.3353031158
50.6434281349
49.8505197525
49.8669530869
49.8833864212
49.8669530869
24.4158265114
50.2818947792

Average distance is : 47.533 cm
Average deviation is : 8.127 cm
Block: 6
======================================
49.8505197525
49.9039280891
50.2983281136
50.6968364716
49.9039280891
49.8505197525
49.8833864212
49.8505197525
49.8340864182
24.2638181686

Average distance is : 47.434 cm
Average deviation is : 8.146 cm
Block: 7
======================================
49.8669530869
49.8669530869
49.8669530869
50.2983281136
49.8669530869
50.2777864456
49.8340864182
49.8669530869
49.8710614204
49.8669530869

Average distance is : 49.948 cm
Average deviation is : 0.179 cm
Block: 8
======================================
1.15444173813
50.6762948036
50.7297031403
50.3476281166
50.2449197769
49.8710614204
15.9567676544
49.9039280891
49.8669530869
49.8874947548

Average distance is : 41.864 cm
Average deviation is : 17.901 cm
Block: 9
======================================
49.8833864212
49.8669530869
50.2983281136
49.9039280891
49.8505197525
49.8340864182
49.8669530869
26.6754099846
50.2449197769
49.8340864182

Average distance is : 47.626 cm
Average deviation is : 7.363 cm
Block: 10
======================================
49.8874947548
50.2818947792
23.3969597816
49.8833864212
49.8710614204
49.8669530869
49.8669530869
49.8874947548
22.0042346954
49.8505197525

Average distance is : 44.480 cm
Average deviation is : 11.484 cm