
Block: 1
======================================
50.7132698059
50.692728138
50.6598614693
50.6968364716
46.8350028992
50.3311947823
50.7297031403
50.6762948036
50.7132698059
50.3147614479
21.1579179764
50.6968364716
50.2983281136
50.6762948036
50.2449197769
50.2449197769
22.4725847244
50.6804031372
50.2449197769
50.2654614449
50.2490281105
50.7132698059
22.3657680511
50.2325947762
50.7132698059
50.622886467
50.6968364716
50.7297031403
21.4865846634
50.2983281136
50.7297031403
50.6968364716
50.6762948036
50.7132698059
21.4865846634
50.2654614449
50.7132698059
50.6434281349
50.7297031403
50.7297031403
21.8522263527
50.2325947762
50.6968364716
50.7132698059
50.2449197769
50.6968364716
22.1439180374
50.2818947792
50.7297031403
50.7297031403
50.7132698059
50.7132698059
19.9377429008
49.8505197525
50.2654614449
50.692728138
50.2490281105
50.7297031403
22.8300097466
49.8669530869
50.6968364716
50.6434281349
50.7132698059
50.6968364716
21.2441929817
49.9039280891
50.7132698059
50.2120531082
50.7297031403
50.7132698059
21.9015263557
49.8176530838
50.7132698059
50.692728138
50.7132698059

Average distance is : 46.255 cm
Average deviation is : 10.257 cm
Block: 2
======================================
27.6038933754
49.8998197556
50.2818947792
50.2120531082
50.2654614449
50.6762948036
17.9575261116
50.2325947762
50.7091614723
49.8340864182
49.8998197556
50.2818947792
23.1052680969
50.2983281136
50.2284864426
50.6968364716
50.692728138
50.7132698059
22.0206680298
50.7297031403
50.2490281105
50.7132698059
50.7132698059
50.7132698059
21.7125430107
50.2284864426
50.6762948036
50.6804031372
50.6762948036
50.7132698059
21.609834671
50.7132698059
50.7297031403
50.2654614449
50.2818947792
50.7297031403
21.8152513504
49.8669530869
50.7297031403
50.2490281105
50.7132698059
50.7132698059
22.3657680511
50.2654614449
50.2654614449
50.2490281105
50.2120531082
50.2449197769
22.4684763908
50.2818947792
50.2490281105
50.6762948036
50.7132698059
50.2654614449
22.2959263802
50.6639698029
50.2284864426
50.6598614693
50.6968364716
50.6968364716
21.1086179733
50.2449197769
50.6968364716
50.7132698059
50.7132698059
50.7132698059
21.5564263344
50.7297031403
50.7132698059
50.7132698059
50.692728138
50.9022531509
20.5375596046
49.8874947548
50.2490281105

Average distance is : 45.540 cm
Average deviation is : 10.882 cm
Block: 3
======================================
50.6762948036
50.6434281349
50.7297031403
50.3353031158
50.7132698059
50.2983281136
50.2818947792
50.6968364716
23.9680181503
50.2654614449
50.7297031403
50.6968364716
50.6762948036
50.7091614723
20.5416679382
50.7132698059
50.2818947792
50.2654614449
50.692728138
50.7132698059
22.1439180374
50.6804031372
50.692728138
50.6804031372
50.7132698059
50.7297031403
22.2630597115
50.3311947823
50.2654614449
50.7297031403
50.692728138
49.8669530869
22.5383180618
50.7091614723
50.2284864426
50.7132698059
50.7297031403
50.7132698059
22.0740763664
50.2818947792
50.7461364746
50.692728138
50.6804031372
50.6804031372
21.3674429893
50.7132698059
50.6968364716
50.7132698059
50.7132698059
50.6968364716
20.4512845993
50.3147614479
50.2983281136
50.692728138
50.6968364716
50.6762948036
21.9713680267
49.8669530869
50.2983281136
50.7132698059
50.2818947792
50.2983281136
23.5037764549
50.6804031372
50.3147614479
50.6968364716
50.3188697815
50.2818947792
22.6451347351
50.3024364471
50.7297031403
50.692728138
50.7297031403
49.8710614204
2.3951584816

Average distance is : 45.731 cm
Average deviation is : 11.316 cm
Block: 4
======================================
50.1956197739
50.7132698059
50.2654614449
50.2325947762
50.2818947792
50.2983281136
50.7132698059
50.3147614479
50.7132698059
50.3147614479
21.1086179733
50.2284864426
50.2983281136
50.7132698059
50.7461364746
50.692728138
21.490692997
50.2654614449
50.6804031372
50.2983281136
50.2983281136
50.6762948036
50.7461364746
50.3188697815
50.692728138
50.6598614693
50.8159781456
10.4433839798
50.692728138
50.2654614449
50.7091614723
50.7132698059
50.2818947792
22.4191763878
50.2284864426
50.692728138
50.7132698059
50.7091614723
50.7461364746
21.3304679871
50.2983281136
50.7132698059
50.6968364716
50.7502448082
50.7297031403
20.7840596199
50.2983281136
50.2654614449
50.7132698059
50.2325947762
50.7338114738
23.0395347595
49.8340864182
50.2654614449
49.8669530869
49.9203614235
50.6762948036
22.3493347168
49.8176530838
50.7132698059
50.6968364716
50.7132698059
50.6639698029
23.0888347626
50.3024364471
50.7132698059
50.2449197769
50.6968364716
50.2449197769
22.7314097404
50.6968364716
50.6968364716
50.6598614693
50.2490281105
50.6269948006

Average distance is : 46.539 cm
Average deviation is : 10.220 cm
Block: 5
======================================
50.7461364746
50.6269948006
50.2325947762
50.2284864426
50.2490281105
20.4389595985
49.8340864182
50.7132698059
50.7132698059
50.6434281349
50.692728138
21.6262680054
50.2983281136
50.3353031158
50.7132698059
50.7461364746
50.6968364716
22.8505514145
50.2818947792
50.7132698059
50.6968364716
50.7132698059
50.3024364471
21.4003096581
50.7297031403
50.7132698059
50.7132698059
50.692728138
50.7132698059
21.6591346741
50.2654614449
50.692728138
50.7297031403
50.7132698059
50.6762948036
21.868659687
49.8340864182
50.7297031403
50.7132698059
50.7297031403
50.7132698059
22.2836013794
50.2654614449
50.7297031403
50.7297031403
50.7132698059
50.7461364746
22.4520430565
50.2490281105
50.2654614449
50.7091614723
50.2983281136
50.6968364716
22.6081597328
50.2284864426
49.8710614204
50.7461364746
50.7132698059
50.3147614479
23.6763264656
50.2983281136
50.692728138
50.7132698059
50.6804031372
50.6804031372
21.5194513321
50.2490281105
50.2449197769
50.6968364716
50.7132698059
50.692728138
23.0231014252
50.7132698059
50.2449197769
50.2818947792

Average distance is : 45.988 cm
Average deviation is : 10.496 cm
Block: 6
======================================
50.2654614449
50.6968364716
49.8710614204
50.7132698059
50.7132698059
50.2449197769
50.6968364716
17.694592762
50.2490281105
50.3353031158
50.2818947792
50.692728138
50.7132698059
23.4339347839
49.8833864212
50.2983281136
50.7132698059
50.7132698059
49.8710614204
22.7971430779
50.2449197769
50.2983281136
50.7461364746
50.7297031403
50.2983281136
22.7314097404
50.2818947792
50.3024364471
50.2777864456
50.6968364716
50.7297031403
23.4503681183
50.6639698029
50.7297031403
50.3024364471
50.7297031403
50.2818947792
22.5218847275
50.2449197769
50.7132698059
49.8669530869
50.6968364716
50.7297031403
49.8874947548
50.6762948036
50.692728138
50.7091614723
50.7132698059
4.76977529526
50.7297031403
50.7502448082
50.6968364716
50.2983281136
50.7132698059
21.6755680084
50.3147614479
50.7297031403
50.7132698059
50.7461364746
50.692728138
22.1110513687
50.2983281136
50.2983281136
50.2983281136
50.3147614479
50.7461364746
23.1093764305
50.2818947792
50.6968364716
50.7091614723
50.7132698059
50.7132698059
22.5013430595
50.2654614449
50.7132698059

Average distance is : 46.112 cm
Average deviation is : 10.833 cm
Block: 7
======================================
50.2818947792
50.3147614479
49.8505197525
49.9162530899
50.2490281105
50.7132698059
50.7297031403
50.6804031372
23.2613847733
50.692728138
50.7502448082
50.2818947792
50.3147614479
49.8669530869
22.9696930885
50.2818947792
50.7132698059
50.6968364716
50.7091614723
50.2818947792
21.8481180191
49.8874947548
50.2983281136
50.7091614723
50.7297031403
50.3147614479
24.4856681824
50.2983281136
50.2613531113
50.7297031403
50.2983281136
50.7132698059
22.2794930458
50.2983281136
50.2654614449
50.2983281136
49.8546280861
50.7297031403
24.6951931953
49.8833864212
49.8669530869
50.2818947792
50.7132698059
50.2983281136
24.3829598427
50.2613531113
50.6804031372
50.2818947792
49.8546280861
50.3147614479
24.2966848373
50.2654614449
50.3024364471
50.2654614449
50.3188697815
50.3311947823
24.3336598396
50.2818947792
49.8874947548
49.8669530869
50.2983281136
50.7297031403
24.1241348267
50.2654614449
50.2983281136
50.6968364716
50.3024364471
50.6804031372
23.4010681152
49.8669530869
50.2983281136
49.8874947548
50.6762948036
50.2818947792
24.728059864

Average distance is : 46.081 cm
Average deviation is : 9.829 cm
Block: 8
======================================
50.7297031403
50.7132698059
50.2983281136
50.6968364716
50.692728138
50.2818947792
50.2818947792
49.9039280891
49.8669530869
49.9039280891
24.2432765007
49.8710614204
50.2818947792
49.8669530869
49.9039280891
49.8874947548
25.4305849075
50.7091614723
50.7132698059
49.8833864212
50.2983281136
50.7132698059
18.6436178207
50.2818947792
50.2983281136
49.8340864182
50.3147614479
49.9039280891
24.60891819
49.8710614204
50.6968364716
50.7091614723
50.7132698059
50.7132698059
22.8998514175
50.7132698059
50.7132698059
50.692728138
50.7502448082
50.7132698059
20.5581012726
49.8669530869
50.7297031403
50.6762948036
50.7297031403
50.7132698059
23.1422430992
49.8669530869
50.7132698059
49.8669530869
50.3024364471
50.7297031403
24.1939764977
50.2983281136
50.7297031403
50.6968364716
50.7502448082
50.7297031403
22.5383180618
50.2449197769
50.3024364471
50.2983281136
50.7132698059
50.2983281136
50.6762948036
50.2818947792
50.2818947792
50.2818947792
50.6968364716
18.610751152
50.2983281136
50.2983281136
50.0436114311
50.2818947792
50.3311947823

Average distance is : 46.667 cm
Average deviation is : 9.591 cm
Block: 9
======================================
1.24071674347
50.2818947792
50.7132698059
50.6968364716
50.7132698059
50.7132698059
16.4579843521
50.2818947792
50.7091614723
50.6804031372
49.8874947548
50.7132698059
23.4709097862
50.7132698059
50.2983281136
50.3024364471
50.7132698059
50.2983281136
23.4216097832
50.7132698059
49.8998197556
50.7338114738
49.8669530869
50.6762948036
24.5555098534
49.8710614204
50.2818947792
50.6968364716
50.2818947792
50.6968364716
23.7995764732
49.8874947548
50.7132698059
50.7502448082
49.9039280891
49.8833864212
24.3829598427
50.2654614449
50.7461364746
50.2983281136
50.2654614449
50.7132698059
22.7314097404
49.9203614235
50.2983281136
50.2818947792
49.8998197556
49.8833864212
25.3484182358
49.8669530869
50.2983281136
50.6968364716
50.7132698059
50.6762948036
22.9532597542
49.8340864182
50.7091614723
50.7297031403
50.7132698059
50.7132698059
22.1973263741
49.8176530838
50.9227948189
50.7132698059
50.6968364716
50.3024364471
23.4175014496
50.7461364746
50.7091614723
50.7132698059
50.7091614723
50.6804031372
21.9179596901
50.3147614479
50.2818947792

Average distance is : 45.368 cm
Average deviation is : 11.427 cm
Block: 10
======================================
50.7132698059
50.2325947762
50.7091614723
50.2284864426
50.7132698059
50.6968364716
50.2818947792
50.7297031403
25.5579432487
50.3147614479
50.692728138
50.3188697815
50.6762948036
50.2818947792
22.3493347168
49.8505197525
50.6968364716
50.7297031403
50.6968364716
50.6968364716
23.9351514816
50.2818947792
50.7297031403
50.2983281136
50.7132698059
50.7297031403
22.9532597542
50.3024364471
49.8669530869
50.6804031372
50.7297031403
50.692728138
24.0871598244
50.2654614449
50.7132698059
50.2818947792
50.7132698059
50.2613531113
23.5243181229
50.2325947762
50.2818947792
50.7132698059
50.6804031372
50.3147614479
18.6600511551
49.8710614204
50.2983281136
50.2654614449
50.3147614479
50.7132698059
24.6582181931
50.3353031158
50.6968364716
50.6968364716
50.2818947792
50.7297031403
23.3147931099
50.7132698059
50.2818947792
50.6968364716
50.692728138
50.7461364746
22.6944347382
50.3311947823
50.7132698059
50.7297031403
49.8505197525
49.8669530869
24.539076519
50.2613531113
50.7297031403
50.7132698059
50.7132698059
50.6639698029
22.1439180374

Average distance is : 46.121 cm
Average deviation is : 10.096 cm