
Block: 1
======================================
200.12484417
200.092266464
200.092266464
78.0398932457
198.797302675

Average distance is : 175.429 cm
Average deviation is : 54.445 cm
Block: 2
======================================
200.145205235
80.5687376261
197.188778472
80.5646654129
195.857164764

Average distance is : 150.865 cm
Average deviation is : 64.192 cm
Block: 3
======================================
200.145205235
78.8258303881
195.20968287
81.7985460043
193.006615543

Average distance is : 149.797 cm
Average deviation is : 63.492 cm
Block: 4
======================================
200.145205235
81.0248255014
196.761196089
82.7880938053
193.617447519

Average distance is : 150.867 cm
Average deviation is : 62.998 cm
Block: 5
======================================
200.145205235
76.1055919886
197.734455037
79.2859904766
195.038649917

Average distance is : 149.662 cm
Average deviation is : 65.730 cm
Block: 6
======================================
200.11262753
79.7461505651
197.139911914
81.5419965744
196.252169442

Average distance is : 150.959 cm
Average deviation is : 64.207 cm
Block: 7
======================================
200.108555317
77.457566762
197.294656014
79.7502227783
194.134618592

Average distance is : 149.749 cm
Average deviation is : 64.986 cm
Block: 8
======================================
199.668756294
79.8520281076
197.514555526
80.756059432
195.739070582

Average distance is : 150.706 cm
Average deviation is : 64.284 cm
Block: 9
======================================
200.503559995
77.1317897081
197.192850685
78.9276357174
158.095532012

Average distance is : 142.370 cm
Average deviation is : 61.060 cm
Block: 10
======================================
200.141133022
80.7031206608
196.235880589
85.1784829378
155.293849349

Average distance is : 143.510 cm
Average deviation is : 58.037 cm