
Block: 1
======================================
198.145748568
198.214976192
197.73852725
198.166109633
198.178326273
198.194615126
198.178326273
198.231265044
198.166109633
198.182398486
198.178326273
198.198687339
198.182398486
198.178326273
197.718166184
198.178326273
198.16203742
197.75074389
198.178326273
198.16203742
198.149820781
198.194615126
198.182398486
197.734455037
198.16203742

Block: 2
======================================
197.75074389
198.198687339
198.198687339
197.718166184
197.754816103
198.145748568
198.145748568
198.113170862
197.754816103
198.145748568
198.16203742
197.718166184
198.178326273
198.178326273
197.734455037
198.214976192
197.771104956
198.178326273
198.16203742
198.198687339
197.718166184
197.73852725
198.145748568
197.73852725
198.166109633

Block: 3
======================================
198.178326273
198.145748568
198.16203742
198.198687339
198.182398486
198.178326273
197.73852725
198.182398486
197.734455037
198.182398486
198.166109633
197.718166184
198.198687339
198.198687339
198.16203742
198.182398486
198.210903978
198.166109633
198.214976192
198.076520944
198.198687339
198.198687339
198.166109633
198.178326273
197.73852725

Block: 4
======================================
198.25162611
198.214976192
198.214976192
198.178326273
198.166109633
198.194615126
198.214976192
198.16203742
198.166109633
198.178326273
198.231265044
198.145748568
198.198687339
198.194615126
198.145748568
198.16203742
197.734455037
197.701877332
198.145748568
198.16203742
198.166109633
197.734455037
198.16203742
198.182398486
198.231265044

Block: 5
======================================
197.734455037
197.734455037
198.145748568
197.73852725
198.182398486
198.198687339
198.16203742
197.754816103
198.178326273
198.178326273
197.771104956
198.145748568
198.194615126
198.198687339
198.182398486
197.734455037
198.214976192
198.178326273
198.182398486
198.214976192
198.198687339
197.73852725
198.194615126
198.166109633
197.767032743

Block: 6
======================================
198.16203742
198.214976192
198.16203742
198.214976192
197.803682661
198.231265044
198.16203742
197.73852725
198.16203742
198.214976192
198.235337257
197.734455037
198.214976192
198.210903978
198.214976192
198.198687339
198.178326273
198.145748568
198.145748568
198.214976192
197.73852725
197.73852725
198.198687339
197.754816103
198.235337257

Block: 7
======================================
198.178326273
198.210903978
197.84033258
198.178326273
198.231265044
198.231265044
198.166109633
197.734455037
198.194615126
198.198687339
198.145748568
197.791466022
198.16203742
198.166109633
198.194615126
198.166109633
198.16203742
198.166109633
198.214976192
197.734455037
198.145748568
198.198687339
198.231265044
198.16203742
198.182398486

Block: 8
======================================
198.16203742
197.754816103
198.214976192
198.166109633
198.16203742
198.166109633
198.182398486
198.231265044
197.807754874
197.771104956
198.198687339
198.231265044
198.231265044
197.754816103
197.75074389
198.182398486
198.194615126
197.734455037
197.73852725
198.178326273
197.73852725
198.231265044
198.198687339
197.754816103
198.178326273

Block: 9
======================================
197.73852725
197.771104956
198.231265044
198.182398486
198.16203742
198.214976192
198.214976192
198.198687339
198.182398486
198.231265044
198.194615126
198.198687339
197.718166184
198.178326273
198.231265044
197.718166184
198.214976192
198.198687339
198.16203742
198.198687339
198.198687339
197.734455037
198.198687339
197.734455037
198.178326273

Block: 10
======================================
198.194615126
198.178326273
198.182398486
198.129459715
198.210903978
197.73852725
198.214976192
197.73852725
198.194615126
198.182398486
197.734455037
198.166109633
198.182398486
198.214976192
197.73852725
198.182398486
198.178326273
197.722238398
198.16203742
198.198687339
197.718166184
197.73852725
198.16203742
197.734455037
197.754816103
