
Block: 1
======================================
46.6788862228
50.8324114799
50.7995448112
50.7831114769
50.7790031433
50.8159781456
50.4010364532
50.3681697845
50.8324114799
50.4174697876

Average distance is : 50.271 cm
Average deviation is : 1.277 cm
Block: 2
======================================
50.8488448143
50.8159781456
50.7995448112
50.3846031189
50.3476281166
15.5253926277
50.3846031189
50.4215781212
50.4010364532
50.7995448112

Average distance is : 47.073 cm
Average deviation is : 11.087 cm
Block: 3
======================================
49.9367947578
50.7790031433
50.7790031433
50.7954364777
50.8324114799
50.7995448112
50.0066364288
50.3846031189
50.3846031189
50.3681697845

Average distance is : 50.507 cm
Average deviation is : 0.341 cm
Block: 4
======================================
50.3517364502
50.4051447868
8.28650884628
50.8159781456
50.8159781456
50.3681697845
50.3517364502
49.9860947609
49.9532280922
50.364061451

Average distance is : 46.170 cm
Average deviation is : 13.314 cm
Block: 5
======================================
50.7666781425
50.3517364502
50.3147614479
50.8159781456
50.3681697845
50.3681697845
49.9902030945
21.5769680023
50.7995448112
50.3846031189

Average distance is : 47.574 cm
Average deviation is : 9.138 cm
Block: 6
======================================
50.8159781456
50.7790031433
50.3476281166
50.3681697845
50.7461364746
50.3147614479
50.8159781456
50.7790031433
50.7995448112
50.7831114769

Average distance is : 50.655 cm
Average deviation is : 0.216 cm
Block: 7
======================================
50.7666781425
50.762569809
50.3147614479
11.9100590706
50.8159781456
50.7995448112
50.8159781456
50.7995448112
50.7995448112
50.8529531479

Average distance is : 46.864 cm
Average deviation is : 12.282 cm
Block: 8
======================================
50.7831114769
50.7831114769
50.8324114799
50.3311947823
50.3311947823
50.8324114799
50.8159781456
49.9532280922
18.212242794
50.3846031189

Average distance is : 47.326 cm
Average deviation is : 10.234 cm
Block: 9
======================================
50.7790031433
50.8324114799
50.8159781456
50.7995448112
50.7995448112
50.3846031189
50.3846031189
50.4380114555
50.7831114769
50.4010364532

Average distance is : 50.642 cm
Average deviation is : 0.207 cm
Block: 10
======================================
49.9532280922
50.7995448112
50.8324114799
50.762569809
50.7297031403
1.91037511826
50.3681697845
50.3846031189
50.7831114769
50.4051447868

Average distance is : 45.693 cm
Average deviation is : 15.386 cm