
Block: 1
======================================
100.780402422
101.284263134
100.784532428
100.763882399
100.834092498
100.780402422
101.230573058
101.680743694
100.421091914
100.346751809

Block: 2
======================================
100.784532428
106.653270721
99.970921278
101.197533011
99.9337512255
100.780402422
99.9667912722
101.251223087
100.784532428
100.416961908

Block: 3
======================================
101.234703064
100.763882399
100.813442469
101.234703064
100.801052451
100.400441885
101.197533011
101.197533011
100.850612521
100.780402422

Block: 4
======================================
100.784532428
100.834092498
100.817572474
100.796922445
100.350881815
101.201663017
100.367401838
100.796922445
101.680743694
100.383921862

Block: 5
======================================
100.817572474
100.416961908
100.763882399
100.834092498
100.784532428
101.214053035
100.834092498
101.251223087
101.647703648
100.834092498

Block: 6
======================================
101.251223087
101.251223087
101.251223087
100.404571891
101.164492965
101.214053035
100.383921862
100.817572474
100.817572474
99.9337512255

Block: 7
======================================
100.763882399
100.421091914
100.801052451
100.763882399
100.813442469
100.784532428
99.9502712488
100.416961908
100.834092498
100.416961908

Block: 8
======================================
100.433481932
100.726712346
101.680743694
101.214053035
100.350881815
100.768012404
100.334361792
100.780402422
100.817572474
101.218183041

Block: 9
======================================
101.664223671
100.817572474
100.416961908
101.234703064
100.383921862
100.813442469
100.330231786
100.850612521
100.416961908
100.367401838

Block: 10
======================================
100.784532428
101.664223671
100.780402422
100.834092498
100.350881815
100.784532428
99.9502712488
100.416961908
99.9998313189
100.768012404
