
Block: 1
======================================
300.899596
300.899596
302.193457389
300.458874464
300.915769267
301.324144268
301.344360852
300.475047731
300.899596
300.903639317
301.344360852
300.479091048
301.344360852
300.495264316
300.495264316
301.340317535
301.356490803
300.479091048
300.956202435
300.495264316
300.475047731
300.458874464
300.462917781
300.458874464
300.495264316
300.479091048
302.209630656
300.915769267
300.919812584
300.479091048
301.785082388
301.817428923
300.903639317
300.931942534
302.205587339
300.458874464
300.952159119
301.785082388
300.495264316
301.344360852
300.935985851
300.462917781
302.193457389
300.462917781
300.458874464
300.475047731
300.919812584
300.495264316
300.903639317
301.340317535

Average distance is : 300.956 cm
Average deviation is : 0.542 cm
Block: 2
======================================
300.475047731
301.340317535
300.915769267
301.36053412
301.344360852
301.328187585
300.511437583
302.225803924
300.475047731
301.344360852
300.495264316
301.344360852
300.495264316
300.458874464
300.495264316
300.972375703
301.36053412
300.935985851
300.475047731
300.479091048
300.915769267
300.479091048
302.209630656
301.344360852
300.495264316
301.340317535
302.205587339
300.903639317
301.376707387
301.36053412
300.491220999
301.36053412
301.356490803
300.495264316
300.479091048
300.479091048
300.903639317
302.209630656
300.479091048
301.340317535
301.36053412
300.495264316
300.458874464
301.376707387
301.340317535
301.376707387
300.479091048
301.340317535
302.209630656
300.479091048

Average distance is : 301.039 cm
Average deviation is : 0.553 cm
Block: 3
======================================
300.915769267
301.356490803
300.952159119
300.919812584
300.458874464
301.797212338
300.458874464
302.173240805
300.458874464
300.919812584
300.495264316
300.475047731
300.491220999
300.475047731
300.956202435
300.495264316
300.931942534
301.344360852
300.475047731
301.340317535
301.36053412
300.462917781
300.903639317
301.344360852
300.475047731
300.919812584
300.479091048
300.462917781
300.462917781
300.935985851
300.462917781
301.781039071
300.479091048
300.475047731
300.475047731
300.915769267
300.479091048
300.935985851
301.340317535
300.915769267
300.462917781
300.462917781
300.479091048
301.340317535
300.935985851
301.340317535
300.462917781
301.340317535
301.344360852
300.475047731

Average distance is : 300.852 cm
Average deviation is : 0.440 cm
Block: 4
======================================
300.458874464
300.935985851
300.479091048
300.935985851
300.919812584
300.462917781
300.462917781
302.241977191
300.479091048
300.475047731
300.462917781
300.462917781
301.36053412
300.935985851
300.952159119
300.495264316
300.475047731
301.36053412
300.479091048
300.919812584
300.935985851
300.475047731
300.475047731
300.495264316
300.511437583
300.935985851
300.462917781
300.903639317
300.479091048
300.915769267
300.919812584
300.479091048
300.462917781
300.479091048
300.5154809
300.495264316
300.495264316
300.479091048
300.899596
300.495264316
301.340317535
300.479091048
300.495264316
301.340317535
300.952159119
300.479091048
301.344360852
301.344360852
300.475047731
301.340317535

Average distance is : 300.753 cm
Average deviation is : 0.385 cm
Block: 5
======================================
301.376707387
302.650352192
301.356490803
300.462917781
300.919812584
300.462917781
300.903639317
300.919812584
301.36053412
300.919812584
300.495264316
300.919812584
300.919812584
301.801255655
300.475047731
300.458874464
300.935985851
300.458874464
300.458874464
301.344360852
300.458874464
300.919812584
300.442701197
300.462917781
301.785082388
300.903639317
301.768909121
300.479091048
300.462917781
300.458874464
300.919812584
300.919812584
300.462917781
300.479091048
300.899596
300.479091048
300.919812584
300.899596
300.899596
300.919812584
300.903639317
300.919812584
300.462917781
300.935985851
301.324144268
300.475047731
300.915769267
301.36053412
300.446744514
300.915769267

Average distance is : 300.884 cm
Average deviation is : 0.457 cm
Block: 6
======================================
301.344360852
300.919812584
301.36053412
300.903639317
301.36053412
301.37266407
301.376707387
301.356490803
300.919812584
300.495264316
300.919812584
300.903639317
301.344360852
300.495264316
301.36053412
300.919812584
300.903639317
300.919812584
300.899596
300.899596
301.356490803
300.475047731
300.919812584
300.479091048
300.919812584
301.344360852
300.479091048
301.356490803
302.193457389
301.340317535
300.479091048
300.935985851
300.462917781
300.462917781
300.479091048
300.919812584
300.479091048
301.376707387
301.344360852
300.479091048
300.462917781
300.475047731
300.458874464
300.919812584
301.340317535
301.344360852
300.462917781
300.458874464
300.475047731
301.36053412

Average distance is : 300.940 cm
Average deviation is : 0.409 cm
Block: 7
======================================
300.479091048
300.479091048
301.36053412
300.475047731
300.903639317
300.935985851
301.328187585
301.344360852
300.899596
301.36053412
301.768909121
300.919812584
301.344360852
301.340317535
301.324144268
300.883422732
300.442701197
301.36053412
301.356490803
301.344360852
301.732519269
300.919812584
300.495264316
301.344360852
300.479091048
300.479091048
301.340317535
300.458874464
301.344360852
301.36053412
300.903639317
300.903639317
301.340317535
300.511437583
300.495264316
300.458874464
300.915769267
300.479091048
302.209630656
300.883422732
300.915769267
302.61396234
300.458874464
301.768909121
300.479091048
301.36053412
300.479091048
300.495264316
300.899596
300.919812584

Average distance is : 301.022 cm
Average deviation is : 0.498 cm
Block: 8
======================================
301.340317535
300.883422732
301.36053412
301.324144268
300.919812584
302.205587339
300.596347237
301.344360852
300.903639317
301.36053412
300.458874464
300.899596
300.458874464
300.442701197
301.340317535
302.630135608
301.324144268
301.340317535
300.475047731
300.479091048
301.340317535
301.344360852
301.340317535
300.899596
301.36053412
301.36053412
300.495264316
300.491220999
300.462917781
301.954901695
300.458874464
300.475047731
300.479091048
300.479091048
300.479091048
300.462917781
301.36053412
301.344360852
300.903639317
300.442701197
302.209630656
301.36053412
301.36053412
300.495264316
301.344360852
301.36053412
300.495264316
300.903639317
300.511437583
301.36053412

Average distance is : 301.028 cm
Average deviation is : 0.536 cm
Block: 9
======================================
300.495264316
300.919812584
300.903639317
300.495264316
301.344360852
300.919812584
300.462917781
300.495264316
300.935985851
300.883422732
300.491220999
300.919812584
301.36053412
301.36053412
300.919812584
301.344360852
300.458874464
300.899596
300.935985851
300.479091048
300.458874464
300.462917781
301.785082388
302.193457389
301.324144268
301.768909121
302.173240805
300.52761085
300.462917781
300.442701197
301.307971001
300.915769267
301.781039071
300.903639317
300.903639317
300.919812584
300.887466049
300.883422732
300.915769267
300.883422732
300.919812584
300.919812584
301.781039071
301.764865804
300.899596
300.903639317
300.426527929
300.903639317
300.899596
300.899596

Average distance is : 300.985 cm
Average deviation is : 0.459 cm
Block: 10
======================================
301.344360852
301.376707387
301.340317535
300.919812584
300.479091048
301.340317535
301.785082388
301.328187585
302.61396234
300.475047731
303.054683876
302.189414072
300.479091048
300.919812584
301.340317535
301.344360852
301.36053412
302.646308875
300.475047731
302.189414072
300.479091048
300.479091048
300.462917781
300.458874464
301.344360852
300.475047731
301.340317535
301.36053412
300.935985851
301.36053412
301.344360852
300.931942534
301.797212338
300.935985851
300.935985851
300.458874464
301.36053412
301.36053412
301.376707387
300.458874464
301.344360852
301.356490803
300.495264316
301.376707387
300.475047731
300.899596
300.511437583
302.209630656
301.376707387
300.935985851

Average distance is : 301.193 cm
Average deviation is : 0.633 cm