
Block: 1
======================================
100.437611938
100.470651984
100.400441885
100.813442469
100.87126255
100.404571891
100.887782574
101.251223087
100.834092498
101.251223087
100.834092498
101.717913747
100.383921862
99.5496606827
100.383921862
100.367401838
100.801052451
100.003961325
100.383921862
100.850612521
101.284263134
100.037001371
100.020481348
100.421091914
100.416961908
100.834092498
100.454131961
99.9502712488
100.834092498
100.817572474
100.400441885
99.9833112955
99.5372706652
100.400441885
100.796922445
100.817572474
100.367401838
99.9337512255
99.5537906885
100.838222504
99.5537906885
99.9502712488
100.834092498
100.383921862
100.817572474
100.404571891
100.383921862
100.801052451
99.9337512255
99.5537906885

Block: 2
======================================
100.867132545
101.234703064
101.697263718
99.9667912722
100.470651984
101.717913747
100.421091914
101.267743111
100.454131961
99.5372706652
100.003961325
99.5496606827
100.834092498
100.87126255
100.854742527
100.817572474
100.817572474
100.400441885
99.9667912722
100.834092498
99.5331406593
99.9502712488
99.5703107119
100.363271832
100.400441885
100.470651984
100.834092498
100.367401838
100.834092498
99.9667912722
100.346751809
100.400441885
99.9544012547
100.383921862
100.383921862
99.9502712488
99.9667912722
100.834092498
99.9502712488
99.5703107119
100.383921862
100.400441885
100.817572474
99.970921278
99.5537906885
100.383921862
99.5703107119
100.801052451
99.5496606827
99.516620636

Block: 3
======================================
100.817572474
100.363271832
100.454131961
103.382306099
100.020481348
100.834092498
100.834092498
100.437611938
100.433481932
100.801052451
101.251223087
100.834092498
100.421091914
100.834092498
99.9502712488
100.801052451
100.834092498
101.251223087
99.9874413013
100.400441885
100.813442469
100.813442469
99.9502712488
99.9502712488
100.383921862
99.5207506418
100.367401838
100.383921862
100.350881815
100.838222504
100.400441885
100.383921862
101.234703064
101.267743111
100.817572474
99.9337512255
100.796922445
99.9544012547
99.5496606827
100.817572474
99.9337512255
100.383921862
100.383921862
99.9502712488
100.383921862
100.834092498
99.9667912722
100.801052451
99.5331406593
100.383921862

Block: 4
======================================
100.854742527
100.850612521
100.421091914
100.383921862
101.284263134
100.416961908
101.251223087
100.887782574
100.867132545
100.470651984
100.834092498
100.883652568
101.284263134
101.234703064
100.850612521
100.383921862
99.970921278
100.367401838
99.970921278
100.367401838
99.5703107119
99.8965811729
99.5207506418
99.5331406593
99.9667912722
99.9337512255
100.400441885
99.9667912722
99.9667912722
99.9337512255
99.9874413013
99.9502712488
100.817572474
100.383921862
100.817572474
99.9874413013
100.400441885
100.383921862
100.383921862
99.9667912722
99.5537906885
99.5331406593
100.367401838
99.9667912722
99.5331406593
100.383921862
99.9337512255
99.9337512255
100.400441885
99.9337512255

Block: 5
======================================
100.834092498
100.016351342
100.421091914
100.053521395
100.817572474
100.433481932
100.834092498
100.433481932
100.383921862
100.450001955
100.850612521
100.867132545
100.817572474
100.813442469
99.9502712488
99.9667912722
99.9337512255
100.404571891
99.9337512255
99.566180706
101.230573058
99.9502712488
99.516620636
99.5537906885
99.9337512255
100.383921862
100.817572474
100.421091914
99.516620636
100.400441885
99.970921278
100.404571891
100.817572474
100.834092498
99.9502712488
100.421091914
99.516620636
99.9502712488
99.9502712488
99.5331406593
100.817572474
100.834092498
99.5331406593
99.5372706652
99.5703107119
99.5331406593
100.383921862
100.400441885
100.854742527
100.817572474

Block: 6
======================================
100.454131961
100.003961325
101.284263134
100.850612521
100.003961325
100.020481348
100.400441885
101.284263134
100.454131961
99.9502712488
100.367401838
100.834092498
100.817572474
99.5703107119
100.796922445
100.400441885
99.9502712488
100.834092498
100.383921862
99.5537906885
100.383921862
99.9502712488
100.383921862
100.817572474
101.251223087
100.350881815
100.817572474
100.850612521
101.251223087
100.834092498
99.9502712488
100.817572474
100.850612521
99.9502712488
100.834092498
100.817572474
99.9667912722
100.817572474
99.5703107119
100.367401838
100.834092498
100.404571891
99.9667912722
100.817572474
99.9502712488
99.9667912722
101.284263134
100.850612521
101.701393723
100.404571891

Block: 7
======================================
100.433481932
100.854742527
101.267743111
101.251223087
99.9874413013
100.003961325
99.5868307352
101.284263134
100.850612521
100.400441885
100.887782574
101.267743111
100.784532428
99.516620636
99.516620636
99.9337512255
99.9502712488
99.9667912722
100.817572474
99.9502712488
100.400441885
100.400441885
99.9337512255
99.5372706652
101.230573058
99.970921278
100.817572474
100.400441885
100.383921862
99.5537906885
99.9337512255
99.5537906885
100.383921862
99.9667912722
99.9502712488
100.834092498
101.267743111
100.817572474
101.234703064
100.801052451
100.383921862
100.817572474
99.9337512255
99.5331406593
99.5703107119
100.834092498
99.5331406593
100.400441885
100.383921862
100.801052451

Block: 8
======================================
100.850612521
100.834092498
100.400441885
100.404571891
100.020481348
100.416961908
100.470651984
100.92082262
100.020481348
100.867132545
99.516620636
100.367401838
99.9337512255
99.9502712488
100.383921862
99.9337512255
100.850612521
101.267743111
100.796922445
100.383921862
100.400441885
99.9502712488
100.817572474
100.383921862
100.367401838
99.5703107119
100.780402422
100.817572474
100.421091914
100.834092498
99.970921278
100.367401838
99.9502712488
100.834092498
100.400441885
99.9667912722
99.5868307352
101.234703064
100.834092498
99.9502712488
99.1160100698
99.9502712488
99.5496606827
100.834092498
100.383921862
100.817572474
101.230573058
100.834092498
101.234703064
100.813442469

Block: 9
======================================
101.717913747
101.267743111
101.697263718
100.003961325
100.421091914
100.850612521
101.284263134
101.284263134
100.677152276
100.421091914
101.247093081
99.9502712488
100.363271832
99.9337512255
99.9172312021
100.400441885
100.817572474
99.9502712488
100.817572474
100.416961908
99.9502712488
100.400441885
99.516620636
100.801052451
100.400441885
101.251223087
101.251223087
100.400441885
99.9502712488
100.400441885
99.9502712488
99.5331406593
99.5001006126
100.421091914
100.367401838
99.9337512255
99.970921278
99.970921278
100.834092498
100.817572474
99.5372706652
99.9502712488
101.251223087
100.404571891
99.9502712488
100.383921862
100.834092498
99.5001006126
99.9874413013
100.817572474

Block: 10
======================================
100.834092498
100.796922445
100.817572474
100.383921862
100.421091914
100.834092498
100.850612521
99.9833112955
101.267743111
100.416961908
101.664223671
100.400441885
101.247093081
101.230573058
100.363271832
100.367401838
99.5331406593
101.230573058
100.834092498
100.834092498
100.801052451
99.9667912722
100.383921862
100.383921862
100.367401838
99.9544012547
100.383921862
100.400441885
100.801052451
99.5537906885
100.367401838
99.970921278
100.363271832
99.9502712488
99.9502712488
99.9667912722
100.801052451
100.817572474
99.9502712488
99.5001006126
100.817572474
99.9502712488
100.383921862
100.796922445
99.970921278
100.817572474
99.9544012547
100.834092498
99.9667912722
99.9337512255
