
Block: 1
======================================
401.501362324
401.060640788
401.501362324
401.517535591
401.517535591
401.994646978
401.10916059
401.533708858
403.248075199
401.113203907

Average distance is : 401.610 cm
Average deviation is : 0.639 cm
Block: 2
======================================
401.145550442
402.787137079
401.553925443
401.994646978
401.113203907
401.10916059
403.268291783
401.549882126
401.10916059
402.398978662

Average distance is : 401.803 cm
Average deviation is : 0.782 cm
Block: 3
======================================
402.435368514
401.165767026
401.145550442
401.57009871
401.129377174
400.688655639
401.129377174
402.398978662
402.859916782
401.125333858

Average distance is : 401.565 cm
Average deviation is : 0.731 cm
Block: 4
======================================
402.823526931
401.553925443
401.537752175
401.974430394
401.537752175
401.553925443
401.521578908
401.09703064
401.113203907
401.549882126

Average distance is : 401.626 cm
Average deviation is : 0.488 cm
Block: 5
======================================
402.403021979
401.553925443
401.990603662
402.435368514
401.994646978
400.672482371
402.859916782
400.704828906
400.721002173
400.704828906

Average distance is : 401.604 cm
Average deviation is : 0.848 cm
Block: 6
======================================
400.741218758
401.145550442
400.737175441
402.892263317
400.704828906
401.622661829
400.737175441
400.737175441
401.177896976
401.618618512

Average distance is : 401.211 cm
Average deviation is : 0.693 cm
Block: 7
======================================
400.769521976
402.855873466
400.721002173
401.606488562
401.194070244
400.753348708
400.753348708
400.769521976
400.753348708
402.026993513

Average distance is : 401.220 cm
Average deviation is : 0.729 cm
Block: 8
======================================
400.757392025
402.455585098
402.026993513
401.181940293
402.026993513
401.602445245
400.737175441
401.177896976
400.741218758
401.161723709

Average distance is : 401.387 cm
Average deviation is : 0.613 cm
Block: 9
======================================
400.741218758
402.010820246
400.753348708
401.161723709
400.741218758
402.467715049
401.161723709
401.161723709
401.990603662
402.03103683

Average distance is : 401.422 cm
Average deviation is : 0.642 cm
Block: 10
======================================
402.010820246
400.704828906
402.010820246
400.737175441
401.145550442
400.741218758
400.721002173
400.721002173
401.145550442
401.602445245

Average distance is : 401.154 cm
Average deviation is : 0.536 cm