
Block: 1
======================================
100.297191739
99.9502712488
100.317841768
99.9007111788
101.181012988

Average distance is : 100.329 cm
Average deviation is : 0.513 cm
Block: 2
======================================
100.313711762
100.350881815
100.763882399
100.730842352
100.346751809

Average distance is : 100.501 cm
Average deviation is : 0.225 cm
Block: 3
======================================
100.334361792
100.801052451
100.317841768
100.297191739
100.330231786

Average distance is : 100.416 cm
Average deviation is : 0.216 cm
Block: 4
======================================
100.317841768
100.317841768
100.313711762
100.334361792
100.801052451

Average distance is : 100.417 cm
Average deviation is : 0.215 cm
Block: 5
======================================
100.367401838
100.367401838
100.297191739
100.346751809
101.147972941

Average distance is : 100.505 cm
Average deviation is : 0.360 cm
Block: 6
======================================
100.313711762
99.9007111788
100.330231786
100.350881815
101.197533011

Average distance is : 100.419 cm
Average deviation is : 0.474 cm
Block: 7
======================================
100.317841768
99.8965811729
99.8965811729
100.367401838
99.8965811729

Average distance is : 100.075 cm
Average deviation is : 0.245 cm
Block: 8
======================================
100.346751809
100.714322329
100.297191739
100.367401838
100.330231786

Average distance is : 100.411 cm
Average deviation is : 0.171 cm
Block: 9
======================================
100.350881815
99.8965811729
100.367401838
100.330231786
100.297191739

Average distance is : 100.248 cm
Average deviation is : 0.198 cm
Block: 10
======================================
100.313711762
100.317841768
100.297191739
99.9172312021
99.9337512255

Average distance is : 100.156 cm
Average deviation is : 0.211 cm
Average distance for 10x5 is : 100.348 cm
Average deviation for 10x5 is : 0.283 cm
 Percentage of values that failed: 0.000