
Block: 1
======================================
300.57342329
300.536838388
302.772582388
300.589683247
301.016507101
301.459590912
300.57342329
301.475850868
301.028702068
300.553098345
300.585618258
300.553098345
301.032767057
300.589683247
300.585618258
301.049027014
300.569358301
301.032767057
300.589683247
301.032767057
300.585618258
300.569358301
301.032767057
301.882349777
300.569358301
301.032767057
301.012442112
301.016507101
301.032767057
301.028702068
300.57342329
300.589683247
300.569358301
300.622203159
300.601878214
301.475850868
301.882349777
300.57342329
301.012442112
300.605943203
301.459590912
301.049027014
301.028702068
300.601878214
301.443330956
300.569358301
300.585618258
300.569358301
300.589683247
300.996182156
300.589683247
301.902674723
300.569358301
300.622203159
300.569358301
302.341693544
300.569358301
301.049027014
300.585618258
300.585618258
301.049027014
301.032767057
300.605943203
301.032767057
300.569358301
301.028702068
301.044962025
301.032767057
302.341693544
300.605943203
301.455525923
300.569358301
301.032767057
300.569358301
301.049027014

Block: 2
======================================
300.622203159
300.605943203
301.455525923
301.012442112
300.585618258
301.012442112
301.049027014
300.57342329
300.589683247
301.032767057
300.605943203
301.032767057
301.032767057
301.918934679
301.475850868
300.569358301
301.492110825
300.589683247
301.475850868
300.146599436
301.439265966
300.585618258
301.049027014
301.032767057
300.589683247
301.016507101
300.569358301
301.012442112
301.028702068
300.622203159
301.028702068
301.492110825
301.012442112
301.032767057
301.032767057
300.605943203
301.475850868
300.589683247
301.455525923
300.585618258
301.016507101
301.459590912
301.439265966
300.585618258
301.459590912
302.752257442
300.996182156
300.569358301
301.016507101
300.601878214
300.57342329
300.569358301
301.439265966
300.569358301
300.589683247
300.589683247
300.557163334
301.508370781
300.12627449
301.016507101
300.569358301
300.996182156
301.459590912
300.589683247
300.605943203
300.585618258
300.57342329
300.589683247
300.569358301
301.459590912
300.585618258
301.032767057
301.032767057
301.459590912
300.585618258

Block: 3
======================================
300.589683247
301.902674723
301.898609734
301.439265966
300.589683247
300.589683247
301.866089821
301.492110825
300.589683247
300.589683247
301.012442112
302.309173632
301.012442112
301.032767057
300.57342329
301.443330956
301.000247145
300.589683247
300.589683247
300.585618258
301.032767057
301.439265966
301.032767057
300.605943203
300.57342329
301.898609734
300.57342329
301.443330956
300.605943203
301.012442112
300.569358301
301.866089821
300.569358301
301.032767057
301.475850868
301.016507101
300.589683247
301.898609734
300.414888716
301.471785879
300.57342329
301.471785879
301.459590912
300.142534447
300.557163334
301.016507101
300.996182156
300.57342329
300.569358301
300.57342329
301.032767057
300.553098345
300.585618258
300.12627449
300.585618258
301.032767057
300.601878214
301.475850868
300.589683247
300.589683247
301.049027014
300.585618258
301.475850868
301.012442112
300.589683247
301.475850868
301.455525923
300.589683247
301.032767057
300.589683247
300.57342329
300.996182156
301.049027014
300.996182156
300.605943203

Block: 4
======================================
301.044962025
300.557163334
301.012442112
301.866089821
301.439265966
300.569358301
300.569358301
300.553098345
300.12627449
301.012442112
301.012442112
300.569358301
300.979922199
301.016507101
301.000247145
301.032767057
300.557163334
300.553098345
300.553098345
300.569358301
301.459590912
300.553098345
301.459590912
301.000247145
300.553098345
301.016507101
301.918934679
300.569358301
300.996182156
301.016507101
301.032767057
300.979922199
301.439265966
301.012442112
301.455525923
300.569358301
301.000247145
300.57342329
300.57342329
300.569358301
301.882349777
300.57342329
301.455525923
300.996182156
300.979922199
300.996182156
301.455525923
300.585618258
300.996182156
300.585618258
301.016507101
301.016507101
301.455525923
300.569358301
300.536838388
300.979922199
300.553098345
301.459590912
300.996182156
301.455525923
301.016507101
300.996182156
300.996182156
300.569358301
301.032767057
301.443330956
301.012442112
300.536838388
300.57342329
300.553098345
301.012442112
300.589683247
300.569358301
300.557163334
301.012442112

Block: 5
======================================
301.459590912
300.557163334
301.455525923
301.000247145
301.012442112
301.42300601
300.557163334
300.557163334
300.557163334
301.459590912
301.012442112
300.569358301
301.443330956
301.443330956
300.589683247
300.569358301
300.979922199
300.569358301
301.471785879
300.536838388
300.589683247
300.57342329
301.455525923
301.000247145
302.752257442
300.536838388
300.57342329
301.459590912
301.028702068
301.459590912
300.589683247
300.585618258
300.589683247
300.57342329
301.012442112
301.012442112
300.979922199
300.57342329
301.032767057
300.569358301
301.012442112
301.455525923
301.016507101
301.016507101
301.471785879
301.028702068
301.459590912
302.329498577
301.902674723
301.028702068
300.585618258
300.589683247
300.557163334
301.000247145
302.292913675
300.569358301
301.459590912
300.569358301
300.57342329
300.553098345
300.57342329
300.589683247
301.012442112
301.459590912
301.443330956
300.553098345
301.016507101
300.569358301
300.536838388
300.57342329
302.325433588
300.57342329
301.459590912
301.012442112
301.000247145

Block: 6
======================================
300.520578432
301.012442112
301.028702068
300.557163334
300.557163334
300.553098345
301.443330956
300.983987188
301.455525923
300.569358301
300.553098345
301.000247145
301.016507101
300.553098345
301.443330956
300.569358301
300.569358301
301.016507101
301.439265966
301.016507101
300.557163334
300.553098345
300.996182156
300.979922199
301.443330956
301.866089821
301.032767057
300.979922199
301.000247145
300.553098345
300.979922199
301.443330956
300.553098345
300.57342329
301.000247145
300.569358301
300.996182156
300.553098345
300.553098345
300.569358301
300.57342329
300.536838388
301.439265966
300.536838388
300.553098345
301.886414766
300.996182156
301.42300601
301.032767057
301.42300601
300.57342329
301.016507101
301.42300601
301.000247145
300.536838388
301.471785879
300.553098345
301.459590912
301.012442112
301.000247145
302.325433588
300.553098345
301.016507101
301.439265966
300.569358301
300.557163334
301.439265966
300.569358301
300.553098345
301.849829865
301.012442112
301.459590912
300.142534447
300.589683247
300.996182156

Block: 7
======================================
300.557163334
300.536838388
300.996182156
300.589683247
300.963662243
301.439265966
300.569358301
300.553098345
301.016507101
300.569358301
301.439265966
300.569358301
300.553098345
301.439265966
301.866089821
300.553098345
300.57342329
300.996182156
300.553098345
301.849829865
301.012442112
300.569358301
300.569358301
302.71973753
301.000247145
300.979922199
300.979922199
301.455525923
300.536838388
300.569358301
300.57342329
300.536838388
301.016507101
300.996182156
300.553098345
301.87015481
302.276653719
301.000247145
300.996182156
300.553098345
300.553098345
300.536838388
301.012442112
300.996182156
300.569358301
301.443330956
300.536838388
301.459590912
300.553098345
300.569358301
301.439265966
300.553098345
302.329498577
301.012442112
300.553098345
300.553098345
300.553098345
301.849829865
301.016507101
300.57342329
301.42300601
301.443330956
300.979922199
301.439265966
301.000247145
300.569358301
300.57342329
300.996182156
300.553098345
300.979922199
300.996182156
300.557163334
300.553098345
300.57342329
300.979922199

Block: 8
======================================
300.553098345
301.439265966
301.42300601
300.589683247
301.427070999
301.032767057
301.459590912
301.455525923
300.536838388
300.569358301
300.979922199
300.996182156
300.996182156
300.553098345
301.012442112
301.866089821
300.553098345
300.553098345
300.553098345
300.569358301
301.439265966
300.553098345
300.996182156
300.996182156
301.42300601
300.57342329
300.979922199
300.553098345
300.569358301
300.12627449
301.000247145
300.569358301
300.569358301
300.553098345
300.569358301
300.979922199
301.439265966
301.42300601
301.866089821
301.443330956
301.000247145
301.000247145
300.520578432
301.028702068
300.996182156
300.569358301
302.313238621
301.42300601
301.016507101
301.42300601
300.520578432
300.589683247
300.536838388
300.57342329
300.979922199
300.996182156
300.57342329
300.979922199
301.012442112
300.996182156
300.569358301
301.032767057
300.451473618
301.000247145
301.439265966
300.569358301
301.000247145
300.569358301
300.569358301
300.536838388
300.569358301
301.443330956
300.536838388
300.536838388
301.000247145

Block: 9
======================================
300.504318476
301.455525923
301.42300601
300.553098345
301.42300601
300.553098345
300.569358301
300.536838388
301.032767057
300.553098345
301.439265966
301.866089821
300.996182156
300.996182156
301.42300601
300.569358301
300.979922199
302.735997486
300.996182156
300.536838388
300.979922199
301.455525923
300.996182156
300.996182156
300.979922199
300.979922199
301.42300601
300.569358301
302.292913675
302.71973753
300.979922199
300.979922199
301.443330956
300.996182156
300.536838388
300.569358301
300.553098345
300.553098345
300.553098345
300.536838388
301.000247145
301.42300601
301.42300601
302.71973753
301.439265966
300.979922199
300.57342329
300.520578432
301.42300601
301.42300601
301.012442112
301.439265966
301.427070999
300.553098345
300.553098345
301.849829865
300.536838388
300.553098345
301.42300601
300.979922199
300.996182156
300.536838388
300.996182156
300.553098345
300.536838388
300.536838388
300.536838388
301.866089821
301.459590912
300.553098345
301.455525923
300.979922199
300.996182156
300.996182156
300.57342329

Block: 10
======================================
300.553098345
302.27258873
300.601878214
300.520578432
300.553098345
300.996182156
300.553098345
300.996182156
300.979922199
300.553098345
301.032767057
300.569358301
301.443330956
301.443330956
300.57342329
300.996182156
300.57342329
301.455525923
300.979922199
301.049027014
301.012442112
300.585618258
301.016507101
300.57342329
300.57342329
301.455525923
302.325433588
300.569358301
301.455525923
300.57342329
300.57342329
300.553098345
300.569358301
301.012442112
301.016507101
301.882349777
301.016507101
301.032767057
300.605943203
300.569358301
301.475850868
300.57342329
301.012442112
301.032767057
300.996182156
300.557163334
301.475850868
301.471785879
301.012442112
300.553098345
300.569358301
300.569358301
300.569358301
301.016507101
300.996182156
301.475850868
300.589683247
300.57342329
301.459590912
300.57342329
302.329498577
300.605943203
300.585618258
301.455525923
300.589683247
300.589683247
300.605943203
301.471785879
300.585618258
301.455525923
300.57342329
300.569358301
300.996182156
301.459590912
300.601878214
