
Block: 1
======================================
301.032767057
301.028702068
301.488045835
300.557163334
301.028702068
300.553098345
300.57342329
301.012442112
301.012442112
300.589683247
300.996182156
301.471785879
301.459590912
300.569358301
300.553098345
301.016507101
300.553098345
301.016507101
300.569358301
300.585618258
300.553098345
300.569358301
300.553098345
301.459590912
300.585618258
300.57342329
301.000247145
301.016507101
300.569358301
300.557163334
300.996182156
301.016507101
301.87015481
300.553098345
300.57342329
301.012442112
300.585618258
301.032767057
301.459590912
301.455525923
301.455525923
300.569358301
300.589683247
301.455525923
302.345758533
300.569358301
300.585618258
301.443330956
300.569358301
300.589683247
301.459590912
301.012442112
301.000247145
300.553098345
301.475850868
300.605943203
300.589683247
300.536838388
301.028702068
300.585618258
300.553098345
301.032767057
301.012442112
301.866089821
300.589683247
300.569358301
300.569358301
301.459590912
301.42300601
301.012442112
301.845764875
300.996182156
300.589683247
300.585618258
300.996182156
301.459590912
301.475850868
300.569358301
301.032767057
300.553098345
300.57342329
300.569358301
300.557163334
302.329498577
301.016507101
301.032767057
300.589683247
300.996182156
300.569358301
300.553098345
301.032767057
300.996182156
301.028702068
301.012442112
301.032767057
301.012442112
300.585618258
300.553098345
300.57342329
300.996182156

Average distance is : 300.925 cm
Average deviation is : 0.416 cm
Block: 2
======================================
300.996182156
300.553098345
300.536838388
301.016507101
301.886414766
300.57342329
301.049027014
301.898609734
300.569358301
300.57342329
301.012442112
301.443330956
300.996182156
301.016507101
300.585618258
300.553098345
301.443330956
300.996182156
300.57342329
300.553098345
301.028702068
300.57342329
300.57342329
300.57342329
301.012442112
302.313238621
300.57342329
300.553098345
301.866089821
301.012442112
301.012442112
300.57342329
301.032767057
301.475850868
300.553098345
300.589683247
300.142534447
301.866089821
300.57342329
301.459590912
300.569358301
301.016507101
300.553098345
300.57342329
301.012442112
300.996182156
301.439265966
300.57342329
301.439265966
300.589683247
301.016507101
300.57342329
300.996182156
300.996182156
301.866089821
301.459590912
300.589683247
301.439265966
300.57342329
300.57342329
300.569358301
301.028702068
301.459590912
300.605943203
300.569358301
300.589683247
301.898609734
301.882349777
300.996182156
300.553098345
301.471785879
300.553098345
300.569358301
300.996182156
300.57342329
300.57342329
301.016507101
300.553098345
301.012442112
300.569358301
300.557163334
301.455525923
301.016507101
300.553098345
300.996182156
301.012442112
300.569358301
300.996182156
301.028702068
300.589683247
300.996182156
301.028702068
300.589683247
300.553098345
301.459590912
301.032767057
301.016507101
301.455525923
301.016507101
300.589683247

Average distance is : 300.936 cm
Average deviation is : 0.432 cm
Block: 3
======================================
301.012442112
300.601878214
301.049027014
301.439265966
301.012442112
300.585618258
301.012442112
300.601878214
300.589683247
301.049027014
300.569358301
301.918934679
301.475850868
301.455525923
301.032767057
300.585618258
300.589683247
301.471785879
300.589683247
300.57342329
301.455525923
301.882349777
300.589683247
301.028702068
300.569358301
300.585618258
300.57342329
301.455525923
300.589683247
301.016507101
300.162859392
300.605943203
300.589683247
300.605943203
301.028702068
301.032767057
301.028702068
300.589683247
300.589683247
300.557163334
300.569358301
300.589683247
301.882349777
300.589683247
300.57342329
301.455525923
300.569358301
300.605943203
301.866089821
301.049027014
301.439265966
301.012442112
300.569358301
300.569358301
301.028702068
301.886414766
300.57342329
300.996182156
300.601878214
301.012442112
300.589683247
301.459590912
301.016507101
300.585618258
300.585618258
300.585618258
300.996182156
301.016507101
300.553098345
301.455525923
300.996182156
301.475850868
301.866089821
301.016507101
301.439265966
301.032767057
301.475850868
300.585618258
300.589683247
301.012442112
301.882349777
301.016507101
300.57342329
300.12627449
301.459590912
300.585618258
301.012442112
300.569358301
300.57342329
301.016507101
301.000247145
300.569358301
300.57342329
301.455525923
301.886414766
301.459590912
300.569358301
300.996182156
300.553098345
300.569358301

Average distance is : 300.940 cm
Average deviation is : 0.436 cm
Block: 4
======================================
300.569358301
300.569358301
300.553098345
300.996182156
300.569358301
301.049027014
300.589683247
301.455525923
301.455525923
300.553098345
301.459590912
301.459590912
301.016507101
301.016507101
300.569358301
300.57342329
301.87015481
300.585618258
300.553098345
300.553098345
301.012442112
301.898609734
300.589683247
301.459590912
300.979922199
301.016507101
301.866089821
300.57342329
301.016507101
300.585618258
301.439265966
301.866089821
300.589683247
300.57342329
301.016507101
300.57342329
300.589683247
301.012442112
301.000247145
301.475850868
301.475850868
300.57342329
301.455525923
300.57342329
301.016507101
300.569358301
301.012442112
301.455525923
300.996182156
300.996182156
300.585618258
300.57342329
301.455525923
300.57342329
301.012442112
300.569358301
301.439265966
300.569358301
300.569358301
301.049027014
301.455525923
301.459590912
301.012442112
300.585618258
300.569358301
300.57342329
301.012442112
301.016507101
300.622203159
301.016507101
301.439265966
300.569358301
301.475850868
300.553098345
301.455525923
300.569358301
301.016507101
301.012442112
300.553098345
300.557163334
301.016507101
300.585618258
300.569358301
301.000247145
301.898609734
300.589683247
300.996182156
300.553098345
301.459590912
301.459590912
301.012442112
301.012442112
300.585618258
301.032767057
300.57342329
301.882349777
300.569358301
301.455525923
300.589683247
301.032767057

Average distance is : 300.961 cm
Average deviation is : 0.411 cm
Block: 5
======================================
300.569358301
300.553098345
301.028702068
300.569358301
300.57342329
301.016507101
300.57342329
300.792932701
300.553098345
301.000247145
300.557163334
300.585618258
301.000247145
302.325433588
301.471785879
300.996182156
301.443330956
301.012442112
301.012442112
300.553098345
300.553098345
301.459590912
300.553098345
301.849829865
301.032767057
301.016507101
300.12627449
301.016507101
300.569358301
300.979922199
301.032767057
300.536838388
300.601878214
301.032767057
301.439265966
301.012442112
300.553098345
300.589683247
300.585618258
301.016507101
300.996182156
300.557163334
300.569358301
300.553098345
300.557163334
300.569358301
301.016507101
300.569358301
300.569358301
301.012442112
300.589683247
301.439265966
300.569358301
301.012442112
301.439265966
300.553098345
300.589683247
301.016507101
300.57342329
300.553098345
301.455525923
300.569358301
300.996182156
300.569358301
301.028702068
301.455525923
301.459590912
300.57342329
301.455525923
300.996182156
301.902674723
301.032767057
301.012442112
300.57342329
300.12627449
300.569358301
301.012442112
300.57342329
300.589683247
301.012442112
301.032767057
301.032767057
300.569358301
300.569358301
300.110014534
300.146599436
300.996182156
301.012442112
301.032767057
300.110014534
300.996182156
300.553098345
300.605943203
300.589683247
300.605943203
300.585618258
301.012442112
300.996182156
301.918934679
300.57342329

Average distance is : 300.851 cm
Average deviation is : 0.404 cm
Block: 6
======================================
300.979922199
300.57342329
301.475850868
301.028702068
300.569358301
300.57342329
300.585618258
300.569358301
300.57342329
300.585618258
301.016507101
300.553098345
301.016507101
301.439265966
300.57342329
300.536838388
300.996182156
301.016507101
301.455525923
300.569358301
301.443330956
300.553098345
301.455525923
300.589683247
302.325433588
300.569358301
301.016507101
300.996182156
302.313238621
300.569358301
301.439265966
300.553098345
300.553098345
300.536838388
300.589683247
300.996182156
300.996182156
300.553098345
300.996182156
301.439265966
301.455525923
300.553098345
301.443330956
300.553098345
300.57342329
300.601878214
301.012442112
301.000247145
301.439265966
301.032767057
301.016507101
301.012442112
301.000247145
301.032767057
301.443330956
300.553098345
301.455525923
300.585618258
300.569358301
300.569358301
302.325433588
300.569358301
300.57342329
300.569358301
301.439265966
300.553098345
301.455525923
300.553098345
300.57342329
300.585618258
300.585618258
301.016507101
301.439265966
301.902674723
301.475850868
300.553098345
301.028702068
300.553098345
300.569358301
300.569358301
301.012442112
301.439265966
300.57342329
301.012442112
300.585618258
301.439265966
300.569358301
302.735997486
300.585618258
300.996182156
300.569358301
300.553098345
301.459590912
301.012442112
300.553098345
300.553098345
300.569358301
300.57342329
300.557163334
300.553098345

Average distance is : 300.929 cm
Average deviation is : 0.473 cm
Block: 7
======================================
301.016507101
300.996182156
300.996182156
301.012442112
300.979922199
300.536838388
302.329498577
301.000247145
300.589683247
300.553098345
300.557163334
300.553098345
300.553098345
300.996182156
301.427070999
300.589683247
301.012442112
301.012442112
300.557163334
301.012442112
300.557163334
300.553098345
300.57342329
301.016507101
301.439265966
300.536838388
300.569358301
300.553098345
300.589683247
300.605943203
301.443330956
300.996182156
300.996182156
300.996182156
301.000247145
301.012442112
301.866089821
301.032767057
300.57342329
300.585618258
300.569358301
301.016507101
300.996182156
301.016507101
300.553098345
300.553098345
301.012442112
300.569358301
301.459590912
301.000247145
300.57342329
301.439265966
301.012442112
301.000247145
300.996182156
300.536838388
300.585618258
300.569358301
300.569358301
300.569358301
300.569358301
300.553098345
300.589683247
300.536838388
300.57342329
300.569358301
300.996182156
300.57342329
300.569358301
301.443330956
301.012442112
301.886414766
300.57342329
301.032767057
300.553098345
300.553098345
300.553098345
302.345758533
300.569358301
300.553098345
300.585618258
300.553098345
300.996182156
301.032767057
300.553098345
300.589683247
300.553098345
301.000247145
301.000247145
300.553098345
300.569358301
301.443330956
300.569358301
300.557163334
300.569358301
300.979922199
300.553098345
300.979922199
300.585618258
300.569358301

Average distance is : 300.838 cm
Average deviation is : 0.380 cm
Block: 8
======================================
300.979922199
300.569358301
300.57342329
302.325433588
300.557163334
301.439265966
300.536838388
300.557163334
300.569358301
300.996182156
300.500253487
300.569358301
301.016507101
300.553098345
301.459590912
300.996182156
300.979922199
300.569358301
300.57342329
300.585618258
301.012442112
300.57342329
300.536838388
301.439265966
301.000247145
300.57342329
300.979922199
300.788867712
301.012442112
300.569358301
301.459590912
300.569358301
301.898609734
300.553098345
301.459590912
300.569358301
301.439265966
300.601878214
301.012442112
300.536838388
300.569358301
300.589683247
301.012442112
301.016507101
300.553098345
300.585618258
300.57342329
300.996182156
301.028702068
301.459590912
300.605943203
301.459590912
300.57342329
301.032767057
301.849829865
301.000247145
301.439265966
301.012442112
300.536838388
300.979922199
301.016507101
300.57342329
300.585618258
301.032767057
301.459590912
301.012442112
301.028702068
300.589683247
301.016507101
301.475850868
301.459590912
300.557163334
300.569358301
300.589683247
301.439265966
301.455525923
300.589683247
300.569358301
301.455525923
301.866089821
300.996182156
300.996182156
301.016507101
302.325433588
300.589683247
301.475850868
300.57342329
300.57342329
300.569358301
300.569358301
300.553098345
300.569358301
301.016507101
300.601878214
300.553098345
301.016507101
300.569358301
300.589683247
300.605943203
301.455525923

Average distance is : 300.919 cm
Average deviation is : 0.424 cm
Block: 9
======================================
300.585618258
300.589683247
300.553098345
301.016507101
301.032767057
300.569358301
300.585618258
301.016507101
300.589683247
300.57342329
301.012442112
300.57342329
300.589683247
300.569358301
300.12627449
301.032767057
300.585618258
301.049027014
301.471785879
300.605943203
300.569358301
300.585618258
301.032767057
300.553098345
300.589683247
300.146599436
300.605943203
301.471785879
300.569358301
300.162859392
301.044962025
301.471785879
301.902674723
300.130339479
301.475850868
300.589683247
301.882349777
300.605943203
300.589683247
301.032767057
301.049027014
300.585618258
300.605943203
300.589683247
301.049027014
300.142534447
301.016507101
301.028702068
301.898609734
300.605943203
301.044962025
301.049027014
300.57342329
301.455525923
301.06528697
301.882349777
301.044962025
301.902674723
300.601878214
300.605943203
300.57342329
300.142534447
301.918934679
301.475850868
301.028702068
301.032767057
301.012442112
300.589683247
300.585618258
301.049027014
301.475850868
300.605943203
301.032767057
300.585618258
300.142534447
300.605943203
300.179119349
300.162859392
301.492110825
301.016507101
300.589683247
300.569358301
300.589683247
301.032767057
301.459590912
301.049027014
301.455525923
300.585618258
301.882349777
300.605943203
301.032767057
301.475850868
301.475850868
300.605943203
300.589683247
301.016507101
300.585618258
301.028702068
300.585618258
301.049027014

Average distance is : 300.875 cm
Average deviation is : 0.456 cm
Block: 10
======================================
300.589683247
300.605943203
301.049027014
300.638463116
301.028702068
301.049027014
300.585618258
301.081546926
300.622203159
300.605943203
300.158794403
300.589683247
300.158794403
300.601878214
301.492110825
300.638463116
300.589683247
300.605943203
300.605943203
300.589683247
300.605943203
300.605943203
300.601878214
301.016507101
301.032767057
301.049027014
300.605943203
300.622203159
301.044962025
301.028702068
300.605943203
300.585618258
300.605943203
300.569358301
301.049027014
301.475850868
300.585618258
300.585618258
301.492110825
300.146599436
301.492110825
301.459590912
301.471785879
301.06528697
300.57342329
300.601878214
300.589683247
300.605943203
300.162859392
301.032767057
301.032767057
301.032767057
301.049027014
301.032767057
300.605943203
301.049027014
300.601878214
300.585618258
301.028702068
300.162859392
300.142534447
300.142534447
300.605943203
300.622203159
301.028702068
301.016507101
301.902674723
301.032767057
300.605943203
301.049027014
301.032767057
301.06528697
300.569358301
301.032767057
302.341693544
301.032767057
300.146599436
300.605943203
301.032767057
300.585618258
300.589683247
300.605943203
300.589683247
300.601878214
300.569358301
300.569358301
301.492110825
302.752257442
300.585618258
301.032767057
300.622203159
301.032767057
301.471785879
300.605943203
301.459590912
301.028702068
301.012442112
301.049027014
300.569358301
301.028702068

Average distance is : 300.839 cm
Average deviation is : 0.433 cm