
Block: 1
======================================
100.784532428
100.400441885
100.817572474
100.834092498
100.416961908
101.680743694
100.416961908
100.421091914
100.433481932
101.28839314
100.796922445
100.850612521
100.817572474
101.230573058
100.834092498
100.796922445
101.701393723
100.400441885
100.416961908
100.416961908
100.834092498
100.400441885
100.400441885
100.383921862
100.784532428
100.400441885
100.383921862
100.834092498
100.400441885
100.437611938
100.817572474
100.817572474
100.400441885
100.416961908
100.454131961
101.6848737
101.284263134
100.763882399
100.817572474
100.404571891
100.421091914
100.801052451
100.817572474
100.416961908
100.834092498
101.717913747
101.284263134
101.680743694
100.367401838
100.817572474

Average distance is : 100.761 cm
Average deviation is : 0.409 cm
Block: 2
======================================
101.28839314
101.28839314
100.850612521
100.416961908
100.416961908
100.400441885
100.817572474
100.383921862
100.834092498
101.680743694
100.817572474
101.218183041
101.701393723
100.834092498
100.421091914
100.454131961
100.817572474
100.867132545
100.817572474
100.421091914
100.813442469
100.834092498
100.817572474
100.400441885
100.796922445
101.680743694
101.267743111
101.251223087
100.817572474
100.817572474
100.801052451
100.817572474
100.433481932
100.433481932
100.850612521
100.817572474
100.834092498
100.817572474
100.400441885
100.383921862
100.404571891
100.070041418
100.400441885
100.400441885
100.416961908
100.801052451
100.834092498
101.680743694
100.421091914
100.383921862

Average distance is : 100.773 cm
Average deviation is : 0.390 cm
Block: 3
======================================
100.850612521
100.850612521
101.267743111
100.450001955
101.701393723
100.834092498
100.400441885
100.400441885
101.251223087
101.6848737
100.416961908
101.6848737
100.416961908
100.834092498
100.801052451
100.801052451
101.717913747
101.6848737
100.421091914
100.433481932
100.400441885
100.416961908
100.784532428
100.780402422
100.780402422
101.6848737
101.218183041
100.421091914
101.680743694
100.796922445
100.437611938
101.680743694
100.437611938
100.796922445
101.251223087
100.416961908
100.433481932
100.383921862
100.817572474
101.234703064
100.817572474
100.817572474
100.780402422
100.834092498
100.784532428
100.796922445
100.421091914
100.433481932
100.383921862
100.850612521

Average distance is : 100.854 cm
Average deviation is : 0.448 cm
Block: 4
======================================
100.867132545
101.6848737
100.404571891
100.867132545
100.400441885
100.383921862
101.214053035
100.834092498
100.817572474
100.416961908
100.421091914
100.421091914
100.796922445
101.267743111
100.834092498
100.437611938
100.400441885
100.404571891
100.834092498
100.801052451
100.421091914
100.817572474
100.796922445
100.433481932
101.697263718
100.416961908
100.834092498
100.421091914
101.664223671
101.6848737
100.433481932
100.433481932
100.416961908
100.834092498
100.817572474
100.437611938
100.400441885
100.416961908
100.416961908
100.383921862
100.416961908
101.701393723
100.817572474
100.454131961
100.421091914
100.416961908
100.801052451
100.817572474
101.701393723
100.416961908

Average distance is : 100.733 cm
Average deviation is : 0.422 cm
Block: 5
======================================
100.834092498
100.87126255
101.197533011
100.834092498
100.817572474
100.350881815
100.437611938
101.214053035
100.801052451
100.801052451
100.801052451
100.850612521
101.664223671
100.813442469
100.817572474
100.850612521
101.680743694
100.437611938
100.433481932
101.701393723
100.834092498
100.854742527
101.267743111
100.416961908
100.801052451
100.379791856
100.834092498
100.383921862
100.784532428
100.834092498
100.801052451
100.834092498
100.416961908
100.801052451
101.701393723
100.437611938
100.867132545
100.834092498
100.416961908
100.834092498
100.834092498
100.437611938
100.801052451
100.850612521
100.416961908
101.234703064
100.400441885
100.421091914
100.400441885
101.251223087

Average distance is : 100.812 cm
Average deviation is : 0.361 cm
Block: 6
======================================
100.801052451
100.801052451
101.647703648
100.784532428
101.284263134
100.834092498
100.400441885
101.267743111
100.817572474
100.383921862
100.850612521
100.834092498
100.437611938
100.838222504
100.817572474
100.834092498
101.214053035
100.817572474
100.421091914
100.850612521
100.850612521
100.416961908
100.834092498
100.834092498
100.404571891
100.817572474
100.796922445
100.817572474
100.796922445
100.817572474
101.267743111
100.421091914
101.214053035
100.817572474
100.437611938
100.421091914
100.801052451
101.680743694
100.400441885
101.284263134
100.834092498
100.421091914
100.400441885
100.817572474
100.813442469
100.817572474
100.400441885
100.383921862
100.404571891
100.87126255

Average distance is : 100.785 cm
Average deviation is : 0.321 cm
Block: 7
======================================
100.454131961
101.181012988
100.400441885
100.854742527
100.834092498
100.27654171
101.247093081
100.400441885
100.813442469
101.668353677
100.834092498
101.197533011
100.400441885
100.817572474
100.416961908
100.834092498
100.383921862
100.383921862
100.834092498
101.024072766
100.400441885
100.834092498
100.834092498
100.400441885
100.817572474
100.784532428
101.701393723
100.813442469
100.796922445
101.251223087
100.817572474
101.701393723
100.834092498
101.251223087
101.234703064
101.664223671
101.680743694
101.218183041
101.251223087
100.817572474
100.437611938
100.817572474
100.850612521
100.400441885
101.284263134
100.817572474
100.768012404
100.416961908
101.218183041
100.817572474

Average distance is : 100.884 cm
Average deviation is : 0.395 cm
Block: 8
======================================
100.854742527
100.850612521
100.400441885
101.234703064
100.780402422
101.267743111
100.817572474
100.834092498
100.834092498
100.421091914
100.817572474
100.817572474
101.701393723
100.400441885
101.6848737
101.664223671
100.834092498
100.780402422
101.717913747
100.834092498
101.251223087
101.284263134
100.421091914
100.796922445
100.780402422
100.801052451
100.834092498
100.796922445
100.404571891
100.867132545
100.454131961
100.796922445
100.850612521
100.400441885
100.400441885
100.416961908
100.400441885
100.838222504
100.421091914
100.850612521
100.433481932
100.404571891
100.801052451
100.801052451
100.834092498
100.421091914
100.834092498
101.234703064
100.817572474
101.701393723

Average distance is : 100.838 cm
Average deviation is : 0.380 cm
Block: 9
======================================
100.850612521
100.817572474
101.251223087
101.230573058
101.181012988
100.450001955
100.400441885
100.817572474
100.400441885
100.416961908
100.416961908
100.400441885
100.416961908
100.383921862
100.433481932
101.251223087
100.817572474
100.834092498
100.834092498
100.416961908
100.801052451
100.433481932
100.454131961
101.6848737
100.817572474
100.644112229
100.834092498
100.834092498
100.433481932
100.433481932
100.813442469
100.867132545
101.680743694
100.817572474
100.867132545
100.801052451
100.416961908
100.801052451
100.817572474
100.400441885
101.924414039
100.416961908
100.817572474
100.400441885
100.421091914
100.416961908
100.87126255
100.416961908
101.247093081
100.817572474

Average distance is : 100.749 cm
Average deviation is : 0.371 cm
Block: 10
======================================
100.813442469
101.6848737
100.817572474
101.717913747
100.801052451
100.383921862
100.400441885
100.433481932
100.454131961
101.6848737
101.267743111
100.433481932
101.6848737
101.214053035
100.817572474
100.817572474
100.817572474
100.400441885
100.817572474
100.854742527
100.813442469
100.834092498
100.400441885
100.416961908
100.801052451
100.454131961
100.107211471
100.801052451
101.197533011
100.834092498
100.433481932
100.421091914
100.817572474
100.421091914
100.834092498
100.834092498
101.717913747
100.404571891
100.796922445
100.433481932
100.400441885
100.801052451
100.813442469
100.383921862
100.454131961
100.404571891
100.416961908
100.416961908
100.817572474
100.416961908

Average distance is : 100.748 cm
Average deviation is : 0.404 cm
Average distance for 10x50 is : 100.794 cm
Average deviation for 10x50 is : 0.390 cm
 Percentage of values that failed: 0.000