
Block: 1
======================================
99.0829700232
99.136660099
99.1201400757
99.136660099
99.0664499998
99.1036200523
99.1036200523
99.1201400757
99.1201400757
99.0829700232
99.0994900465
99.1201400757
99.0829700232
99.1036200523
99.0994900465
99.1201400757
99.5331406593
99.5372706652
99.1036200523
99.0994900465
99.0994900465
99.087100029
99.1201400757
99.0994900465
99.5537906885

Block: 2
======================================
99.136660099
99.1201400757
99.1201400757
99.087100029
99.1036200523
99.1201400757
99.1201400757
99.1201400757
99.136660099
99.1201400757
99.1036200523
99.1036200523
99.1201400757
99.0829700232
99.1036200523
99.1036200523
99.5537906885
99.1036200523
99.1201400757
99.5207506418
99.0994900465
99.0994900465
99.516620636
99.1201400757
99.1201400757

Block: 3
======================================
99.136660099
99.1160100698
99.1036200523
99.0829700232
99.0829700232
99.5372706652
99.1036200523
99.5207506418
99.516620636
99.1201400757
99.0994900465
99.5703107119
99.0994900465
99.0994900465
99.5372706652
99.1160100698
99.136660099
99.0994900465
99.0829700232
99.136660099
99.1201400757
99.1036200523
99.5207506418
99.5496606827
99.5496606827

Block: 4
======================================
99.1160100698
99.5331406593
99.1201400757
99.516620636
99.0994900465
99.136660099
99.5496606827
99.516620636
99.1201400757
99.1201400757
99.0664499998
99.1201400757
99.566180706
99.1201400757
99.1201400757
99.1201400757
99.1201400757
99.136660099
99.1036200523
99.5331406593
99.0829700232
99.1201400757
99.1036200523
99.1036200523
99.0994900465

Block: 5
======================================
99.087100029
99.1036200523
99.1036200523
99.5703107119
99.136660099
99.5537906885
99.0829700232
99.1036200523
99.5331406593
99.5372706652
99.0664499998
99.1036200523
99.1036200523
99.136660099
99.1036200523
99.5331406593
99.136660099
99.1036200523
99.1160100698
99.1036200523
99.0994900465
99.516620636
99.516620636
99.5207506418
99.0994900465

Block: 6
======================================
99.5331406593
99.1036200523
99.516620636
99.5331406593
99.0829700232
99.0994900465
99.136660099
99.5331406593
99.5372706652
99.1160100698
99.1201400757
99.1201400757
99.5537906885
99.5703107119
99.1201400757
99.1201400757
99.087100029
99.1036200523
99.1036200523
99.1036200523
99.136660099
99.0829700232
99.0994900465
99.0829700232
99.0994900465

Block: 7
======================================
99.1201400757
99.516620636
99.5001006126
99.136660099
99.1201400757
99.4835805893
99.136660099
99.1160100698
99.5001006126
99.1531801224
99.5703107119
99.5001006126
99.516620636
99.5331406593
99.5001006126
99.5001006126
99.136660099
99.5703107119
99.566180706
99.136660099
99.5001006126
99.1201400757
99.5703107119
99.5496606827
99.136660099

Block: 8
======================================
99.1201400757
99.1160100698
99.5703107119
99.1201400757
99.5537906885
99.1201400757
99.5703107119
99.5703107119
99.136660099
99.1201400757
99.1531801224
99.0829700232
99.1160100698
99.1201400757
99.1160100698
99.0994900465
99.0705800056
99.1201400757
99.1201400757
99.1201400757
99.0829700232
99.1201400757
99.0829700232
99.5537906885
99.1201400757

Block: 9
======================================
99.087100029
99.0829700232
99.136660099
99.5496606827
99.1201400757
99.5372706652
99.1201400757
99.1201400757
99.136660099
99.0994900465
99.087100029
99.1036200523
99.1036200523
99.1160100698
99.5372706652
99.1201400757
99.136660099
99.1201400757
99.5537906885
99.1036200523
99.0829700232
99.087100029
99.5331406593
99.5331406593
99.1036200523

Block: 10
======================================
99.1036200523
99.5331406593
99.0994900465
99.5331406593
99.1201400757
99.0994900465
99.1036200523
99.0994900465
99.1160100698
99.516620636
99.5001006126
99.5331406593
99.5703107119
99.136660099
99.136660099
99.1036200523
99.1201400757
99.1201400757
99.1160100698
99.136660099
99.1531801224
99.5331406593
99.1036200523
99.5703107119
99.5703107119
