
Block: 1
======================================
50.6954393864
50.7160171747
50.30034585
50.3168080807
50.3044614077
50.30034585
50.2838836193
50.2838836193
50.3209236383
50.2838836193
50.30034585
50.7324794054
50.30034585
50.3168080807
50.3168080807
50.2838836193
50.3209236383
50.2838836193
50.2838836193
50.2674213886
50.2674213886
50.30034585
50.3209236383
50.30034585
50.2838836193
50.30034585
50.30034585
50.3209236383
50.2468436003
50.2838836193
50.2838836193
50.2674213886
50.2674213886
50.2838836193
50.3168080807
50.2838836193
50.3044614077
50.2674213886
50.3044614077
50.3168080807
50.337385869
50.3209236383
50.2838836193
50.3044614077
50.3168080807
50.2838836193
50.30034585
50.30034585
50.2838836193
50.2674213886
50.337385869
50.3168080807
50.2838836193
50.2838836193
50.30034585
50.3168080807
50.3209236383
50.3209236383
50.2838836193
50.2838836193
50.30034585
50.2838836193
50.30034585
50.2838836193
50.3168080807
50.337385869
50.2838836193
50.2838836193
50.30034585
50.2838836193
50.30034585
50.2674213886
50.287999177
50.30034585
50.5061237335
50.30034585
50.30034585
50.2674213886
50.3044614077
50.7160171747
50.2838836193
50.30034585
50.7324794054
50.3168080807
50.2468436003
50.3168080807
50.2674213886
50.30034585
50.30034585
50.3209236383
50.3044614077
50.3168080807
50.2838836193
50.2674213886
50.30034585
50.30034585
50.2838836193
50.263305831
50.30034585
50.2838836193

Average distance is : 50.319 cm
Average deviation is : 0.096 cm
Block: 2
======================================
50.30034585
50.30034585
50.6830927134
50.30034585
50.3044614077
50.2838836193
50.2838836193
50.2674213886
50.3332703114
50.3044614077
50.3044614077
50.3168080807
50.2838836193
50.3209236383
50.2838836193
50.2838836193
50.2838836193
50.30034585
50.30034585
50.2674213886
50.2838836193
50.2674213886
50.2838836193
50.3044614077
50.30034585
50.3044614077
50.30034585
50.2838836193
50.2838836193
50.3168080807
50.30034585
50.30034585
50.2838836193
50.2838836193
50.3209236383
50.2674213886
50.2838836193
50.3168080807
50.3044614077
50.30034585
50.2674213886
50.30034585
50.30034585
50.2674213886
50.2838836193
50.2838836193
50.30034585
50.30034585
50.2838836193
50.3168080807
50.3044614077
50.30034585
50.3168080807
50.2838836193
50.3044614077
50.3168080807
50.30034585
50.3044614077
50.2838836193
50.3168080807
50.3044614077
50.2838836193
50.337385869
50.3209236383
50.7324794054
50.7160171747
50.30034585
50.3168080807
50.30034585
50.337385869
50.2674213886
50.3044614077
50.3209236383
50.2674213886
50.7324794054
50.3168080807
50.3209236383
50.3044614077
50.30034585
50.30034585
50.3168080807
50.2838836193
50.2838836193
50.2838836193
50.3044614077
50.2838836193
50.2674213886
50.2838836193
50.2509591579
50.3209236383
50.2838836193
50.30034585
50.7160171747
50.7160171747
50.30034585
50.3168080807
50.30034585
50.30034585
50.2674213886
50.2838836193

Average distance is : 50.322 cm
Average deviation is : 0.102 cm
Block: 3
======================================
50.6789771557
50.2674213886
50.2838836193
50.3209236383
50.2838836193
50.30034585
50.699554944
50.3168080807
50.263305831
50.2838836193
50.2838836193
50.2838836193
50.7489416361
50.7160171747
50.3209236383
50.2838836193
50.2838836193
50.2838836193
50.4238125801
50.30034585
50.3209236383
50.2838836193
50.3209236383
50.2838836193
50.2674213886
50.3209236383
50.2838836193
50.2838836193
50.30034585
50.2674213886
50.30034585
50.2509591579
50.3168080807
50.2838836193
50.2674213886
50.7489416361
50.2838836193
50.2674213886
50.2838836193
50.2838836193
50.30034585
50.7160171747
50.2838836193
50.7324794054
50.2838836193
50.30034585
50.2838836193
50.2674213886
50.3209236383
50.30034585
50.3044614077
50.7530571938
50.30034585
50.3168080807
50.7324794054
50.337385869
50.6954393864
50.7489416361
50.30034585
50.30034585
50.6954393864
50.30034585
50.287999177
50.30034585
50.3044614077
50.7530571938
50.7489416361
50.2838836193
50.7530571938
50.2674213886
50.3209236383
50.30034585
50.30034585
50.2674213886
50.30034585
50.2838836193
50.2674213886
50.2838836193
50.3209236383
50.2838836193
50.3044614077
50.30034585
50.3538480997
50.2674213886
50.3209236383
50.3168080807
50.30034585
50.2838836193
50.30034585
50.2674213886
50.3168080807
50.2838836193
50.2838836193
50.3332703114
50.30034585
50.3168080807
50.3209236383
50.2838836193
50.3168080807
50.2838836193

Average distance is : 50.361 cm
Average deviation is : 0.157 cm
Block: 4
======================================
50.2838836193
50.30034585
50.2468436003
50.2468436003
50.30034585
50.2838836193
50.30034585
50.2509591579
50.7489416361
50.2838836193
50.3168080807
50.2674213886
50.30034585
50.3044614077
50.2509591579
50.7160171747
50.2674213886
50.30034585
50.2674213886
50.263305831
50.2838836193
50.263305831
50.2509591579
50.30034585
50.263305831
50.30034585
50.30034585
50.30034585
50.2509591579
50.2509591579
50.2838836193
50.2674213886
50.30034585
50.7160171747
50.2674213886
50.30034585
50.3332703114
50.3332703114
50.3168080807
50.3044614077
50.2838836193
50.2838836193
50.3168080807
50.3168080807
50.3168080807
50.3168080807
50.2838836193
50.3044614077
50.5760882139
50.3332703114
50.2838836193
50.2674213886
50.2674213886
50.3168080807
50.2674213886
50.2838836193
50.2674213886
50.2674213886
50.2838836193
50.3168080807
50.30034585
50.2838836193
50.30034585
50.3044614077
50.2674213886
50.3168080807
50.2674213886
50.2509591579
50.2468436003
50.6789771557
50.2838836193
50.263305831
50.2838836193
50.2674213886
50.2838836193
50.263305831
50.2838836193
50.2674213886
50.2674213886
50.3044614077
50.30034585
49.975216794
50.2674213886
50.30034585
50.2674213886
50.2838836193
50.2838836193
50.2838836193
50.3168080807
50.3168080807
50.2838836193
50.2838836193
50.30034585
50.30034585
50.2838836193
50.2674213886
50.2838836193
50.2674213886
50.2838836193
50.2838836193

Average distance is : 50.303 cm
Average deviation is : 0.097 cm
Block: 5
======================================
50.2674213886
50.2509591579
50.3168080807
50.2838836193
50.2838836193
50.30034585
50.2674213886
50.2674213886
50.2509591579
50.2674213886
50.2674213886
50.30034585
50.2674213886
50.30034585
50.2838836193
50.2838836193
50.2674213886
50.2838836193
50.2838836193
50.30034585
50.30034585
50.3209236383
50.7324794054
50.30034585
50.2838836193
50.3044614077
50.30034585
50.2674213886
50.2838836193
50.2838836193
50.2468436003
50.2674213886
50.7324794054
50.2838836193
50.2674213886
50.2838836193
50.2674213886
50.2838836193
50.2674213886
50.30034585
50.30034585
50.5061237335
50.2838836193
50.2838836193
50.6789771557
50.2509591579
50.3209236383
50.2674213886
50.2838836193
50.263305831
50.2838836193
50.2838836193
50.3168080807
50.30034585
50.2838836193
50.2509591579
50.30034585
50.2674213886
50.3168080807
50.2509591579
50.2838836193
50.3044614077
50.3168080807
50.30034585
50.30034585
50.2838836193
50.2674213886
50.30034585
50.30034585
50.2838836193
50.3044614077
50.2838836193
50.263305831
50.2838836193
50.2674213886
50.30034585
50.30034585
50.2838836193
50.2674213886
50.30034585
50.2838836193
50.2838836193
50.30034585
50.3044614077
50.2838836193
50.30034585
50.2838836193
50.2838836193
50.30034585
50.2838836193
50.2838836193
50.3209236383
50.30034585
50.2838836193
50.3332703114
50.2838836193
50.30034585
50.2838836193
50.2674213886
50.3168080807

Average distance is : 50.301 cm
Average deviation is : 0.078 cm
Block: 6
======================================
50.2674213886
50.337385869
50.2838836193
50.2674213886
50.2838836193
50.3332703114
50.30034585
50.2838836193
50.337385869
50.3168080807
50.2838836193
50.2674213886
50.2838836193
50.2838836193
50.2674213886
50.30034585
50.2838836193
50.30034585
50.30034585
50.30034585
50.263305831
50.263305831
50.2838836193
50.2674213886
50.2674213886
50.30034585
50.3044614077
50.2674213886
50.2838836193
50.2674213886
50.2838836193
50.2838836193
50.2674213886
50.30034585
50.2838836193
50.2509591579
50.2838836193
50.2674213886
50.3209236383
50.2674213886
50.30034585
50.2838836193
50.3044614077
50.2838836193
50.30034585
50.2838836193
50.30034585
50.337385869
50.3168080807
50.2674213886
50.3044614077
50.2838836193
50.30034585
50.2838836193
50.30034585
50.2674213886
50.2838836193
50.2838836193
50.2674213886
50.2838836193
50.30034585
50.30034585
50.2674213886
50.7160171747
50.2674213886
50.2674213886
50.2468436003
50.2838836193
50.2838836193
50.2468436003
50.2344969273
50.30034585
50.2838836193
50.2838836193
50.2674213886
50.30034585
50.2838836193
50.2674213886
50.2838836193
50.2674213886
50.30034585
50.2674213886
50.2509591579
50.3044614077
50.2838836193
50.3209236383
50.263305831
50.2509591579
50.2674213886
50.30034585
50.2674213886
50.2838836193
50.2838836193
50.3044614077
50.2838836193
50.2674213886
50.30034585
50.2509591579
50.30034585
50.3168080807

Average distance is : 50.289 cm
Average deviation is : 0.048 cm
Block: 7
======================================
50.3168080807
50.2509591579
50.3168080807
50.30034585
50.30034585
50.2838836193
50.2468436003
50.3209236383
50.30034585
50.2838836193
50.2838836193
50.3209236383
50.3044614077
50.2838836193
50.2838836193
50.2674213886
50.3044614077
50.3168080807
50.30034585
50.2838836193
50.2509591579
50.2838836193
50.3044614077
50.30034585
50.30034585
50.2838836193
50.2674213886
50.3044614077
50.2674213886
50.30034585
50.263305831
50.3168080807
50.30034585
50.7324794054
50.2838836193
50.2838836193
50.2838836193
50.2838836193
50.3168080807
50.2674213886
50.2838836193
50.2838836193
50.3168080807
50.3168080807
50.2674213886
50.30034585
50.3209236383
50.30034585
50.2838836193
50.2468436003
50.2674213886
50.3209236383
50.3209236383
50.30034585
50.30034585
50.30034585
50.2509591579
50.30034585
50.30034585
50.2838836193
50.2838836193
50.7324794054
50.30034585
50.2838836193
50.2838836193
50.3168080807
50.30034585
50.2674213886
50.2838836193
50.2674213886
50.263305831
50.2468436003
50.2838836193
50.2674213886
50.3168080807
50.337385869
50.263305831
50.30034585
50.2838836193
50.3044614077
50.2838836193
50.30034585
50.30034585
50.2838836193
50.3168080807
50.2838836193
50.2838836193
50.2838836193
50.3168080807
50.263305831
50.30034585
50.2468436003
50.30034585
50.3044614077
50.2838836193
50.2838836193
50.2468436003
50.2674213886
50.7119016171
50.2674213886

Average distance is : 50.303 cm
Average deviation is : 0.078 cm
Block: 8
======================================
50.7489416361
50.2674213886
50.2468436003
50.263305831
50.2838836193
50.2838836193
50.2674213886
50.2838836193
50.2674213886
50.2838836193
50.30034585
50.2674213886
50.2838836193
50.30034585
50.2838836193
50.3044614077
50.30034585
50.2674213886
50.30034585
50.2838836193
50.2838836193
50.2838836193
50.30034585
50.263305831
50.2838836193
50.30034585
50.2674213886
50.2674213886
50.2838836193
50.2674213886
50.2838836193
50.263305831
50.3209236383
50.2838836193
50.30034585
50.30034585
50.2838836193
50.2674213886
50.30034585
50.7530571938
50.30034585
50.3209236383
50.3044614077
50.2838836193
50.3044614077
50.3168080807
50.2838836193
50.2674213886
50.3168080807
50.3044614077
50.2838836193
50.3044614077
50.2838836193
50.2838836193
50.2674213886
50.30034585
50.2674213886
50.2468436003
50.30034585
50.30034585
50.30034585
50.2674213886
50.2674213886
50.2838836193
50.2838836193
50.2468436003
50.2838836193
50.3168080807
50.2674213886
50.2509591579
50.2468436003
50.3209236383
50.2838836193
50.7160171747
50.30034585
50.2509591579
50.2838836193
50.30034585
50.263305831
50.3168080807
50.2674213886
50.6666304827
50.3044614077
50.2838836193
50.30034585
50.2838836193
50.2838836193
50.2838836193
50.2838836193
50.2838836193
50.2468436003
50.30034585
50.30034585
50.2838836193
50.2838836193
50.30034585
50.30034585
50.2838836193
50.2674213886
50.30034585

Average distance is : 50.303 cm
Average deviation is : 0.088 cm
Block: 9
======================================
50.2674213886
50.30034585
50.2674213886
50.2838836193
50.2838836193
50.2674213886
50.337385869
50.30034585
50.2674213886
50.30034585
50.30034585
50.3168080807
50.2674213886
50.30034585
50.30034585
50.2838836193
50.2838836193
50.3209236383
50.30034585
50.30034585
50.7324794054
50.3168080807
50.2838836193
50.2838836193
50.2674213886
50.2674213886
50.2674213886
50.2674213886
50.2674213886
50.3044614077
50.3332703114
50.2838836193
50.263305831
50.2838836193
50.30034585
50.3209236383
50.2838836193
50.3209236383
50.2838836193
50.2509591579
50.2674213886
50.30034585
50.30034585
50.2674213886
50.30034585
50.699554944
50.263305831
50.30034585
50.30034585
50.30034585
50.3168080807
50.2674213886
50.30034585
50.6830927134
50.2838836193
50.2838836193
50.30034585
50.2838836193
50.2838836193
50.30034585
50.2468436003
50.2509591579
50.2674213886
50.2838836193
50.2838836193
50.2674213886
50.2674213886
50.2509591579
50.30034585
50.2838836193
50.2509591579
50.2674213886
50.2674213886
50.30034585
50.30034585
50.263305831
50.2674213886
50.2674213886
50.3168080807
50.2838836193
50.337385869
50.263305831
50.2838836193
50.2674213886
50.30034585
50.30034585
50.3044614077
50.2838836193
50.2674213886
50.2674213886
50.2838836193
50.2674213886
50.2838836193
50.2838836193
50.3044614077
50.337385869
50.30034585
50.7160171747
50.7324794054
50.2838836193

Average distance is : 50.308 cm
Average deviation is : 0.096 cm
Block: 10
======================================
50.3044614077
50.2509591579
50.7324794054
50.2838836193
50.2674213886
50.2838836193
50.30034585
50.2838836193
50.30034585
50.30034585
50.30034585
50.30034585
50.2838836193
50.2838836193
50.2674213886
50.2674213886
50.3044614077
50.2838836193
50.2838836193
50.7324794054
50.2674213886
50.2674213886
50.662514925
50.2674213886
50.2838836193
50.2838836193
50.6789771557
50.7530571938
50.30034585
50.2838836193
50.30034585
50.263305831
50.30034585
50.30034585
50.7160171747
50.30034585
50.2674213886
50.2674213886
50.30034585
50.2838836193
50.2674213886
50.30034585
50.2838836193
50.2838836193
50.2838836193
50.2838836193
50.7695194244
50.2674213886
50.7324794054
50.2674213886
50.2838836193
50.2509591579
50.2509591579
50.3044614077
50.3168080807
50.7324794054
50.2674213886
50.2674213886
50.662514925
50.2838836193
50.3332703114
50.2674213886
50.2838836193
50.2674213886
50.30034585
50.3209236383
50.2468436003
50.7324794054
50.2674213886
50.263305831
50.7160171747
50.2838836193
50.3168080807
50.2674213886
50.699554944
50.3209236383
50.2674213886
50.3209236383
50.2838836193
50.7489416361
50.30034585
50.6954393864
50.7160171747
50.7489416361
50.7324794054
50.3332703114
50.2674213886
50.7324794054
50.7160171747
50.3044614077
50.2838836193
50.2838836193
50.2838836193
50.2838836193
50.3209236383
50.7489416361
50.3044614077
50.2838836193
50.699554944
50.2838836193

Average distance is : 50.382 cm
Average deviation is : 0.182 cm