
Block: 1
======================================
100.801052451
100.383921862
102.378714681
100.817572474
100.400441885
100.383921862
100.817572474
100.383921862
100.611072183
100.383921862
100.421091914
100.404571891
100.801052451
100.383921862
100.813442469
100.817572474
100.780402422
100.784532428
100.404571891
100.383921862
100.421091914
100.421091914
100.400441885
100.367401838
100.383921862

Block: 2
======================================
100.416961908
100.400441885
100.801052451
100.416961908
100.834092498
100.383921862
100.437611938
100.400441885
100.850612521
100.421091914
100.416961908
100.437611938
100.416961908
100.383921862
100.433481932
100.400441885
100.416961908
100.817572474
100.383921862
100.400441885
100.813442469
100.421091914
100.416961908
100.433481932
100.383921862

Block: 3
======================================
100.421091914
100.416961908
100.383921862
100.383921862
100.416961908
100.433481932
100.383921862
100.400441885
100.834092498
100.400441885
100.383921862
100.383921862
100.400441885
100.834092498
100.416961908
100.416961908
100.383921862
100.400441885
100.416961908
100.383921862
100.421091914
100.400441885
100.383921862
100.421091914
100.400441885

Block: 4
======================================
100.404571891
100.454131961
100.780402422
100.400441885
100.416961908
100.383921862
100.383921862
100.416961908
100.416961908
100.813442469
100.400441885
100.400441885
100.400441885
100.383921862
100.400441885
100.400441885
100.416961908
100.400441885
100.363271832
100.383921862
100.400441885
100.400441885
100.400441885
100.421091914
100.400441885

Block: 5
======================================
100.838222504
101.214053035
100.404571891
100.383921862
100.383921862
100.421091914
100.437611938
101.267743111
100.416961908
100.416961908
100.400441885
100.404571891
100.367401838
100.404571891
100.383921862
100.400441885
100.404571891
100.416961908
100.400441885
101.247093081
100.400441885
100.416961908
100.400441885
100.416961908
100.416961908

Block: 6
======================================
101.647703648
100.400441885
100.400441885
100.437611938
100.363271832
100.784532428
100.400441885
100.404571891
100.383921862
100.383921862
100.416961908
100.817572474
100.383921862
100.400441885
100.433481932
100.421091914
100.383921862
100.383921862
100.421091914
100.400441885
100.421091914
100.416961908
100.416961908
100.400441885
100.379791856

Block: 7
======================================
100.400441885
100.404571891
100.817572474
100.383921862
100.817572474
100.383921862
100.400441885
100.383921862
100.433481932
100.383921862
100.780402422
100.400441885
100.383921862
100.404571891
100.437611938
100.383921862
100.421091914
100.801052451
100.400441885
100.416961908
100.400441885
100.400441885
100.421091914
100.416961908
100.400441885

Block: 8
======================================
100.416961908
100.421091914
100.383921862
100.400441885
100.400441885
100.400441885
100.404571891
100.383921862
100.437611938
100.416961908
100.400441885
100.433481932
100.421091914
99.9502712488
100.400441885
100.437611938
100.383921862
100.433481932
100.400441885
100.383921862
100.383921862
100.780402422
100.400441885
100.834092498
100.416961908

Block: 9
======================================
100.400441885
100.400441885
100.854742527
100.437611938
100.400441885
100.421091914
100.404571891
100.421091914
100.400441885
100.383921862
100.383921862
100.400441885
100.437611938
100.421091914
100.416961908
100.416961908
100.383921862
100.404571891
100.400441885
100.437611938
100.383921862
100.421091914
100.437611938
100.416961908
100.400441885

Block: 10
======================================
101.230573058
101.218183041
100.433481932
100.383921862
100.383921862
100.383921862
100.400441885
101.284263134
101.251223087
100.383921862
100.400441885
100.400441885
100.400441885
100.400441885
100.400441885
100.383921862
100.416961908
100.450001955
101.234703064
101.251223087
101.267743111
100.416961908
101.234703064
100.400441885
101.247093081
