
Block: 1
======================================
49.2961497784
49.300265336
49.3208431244
49.3167275667
49.3331897974
49.3661142588
49.3331897974
49.3866920471
49.3167275667
49.3702298164
49.3702298164
49.3331897974
49.3866920471
49.4895809889
49.3702298164
49.3661142588
49.3208431244
49.3866920471
49.3866920471
49.300265336
49.4031542778
49.3866920471
49.4031542778
49.3661142588
49.3661142588
49.3373053551
49.3331897974
49.3825764894
49.3331897974
49.3373053551
49.4031542778
49.3866920471
49.3866920471
49.300265336
49.3866920471
49.3167275667
49.3167275667
49.300265336
49.3702298164
49.3167275667
49.3537675858
49.300265336
49.3702298164
49.3496520281
49.3702298164
49.300265336
49.3167275667
49.3866920471
49.3661142588
49.3702298164

Average distance is : 49.353 cm
Average deviation is : 0.038 cm
Block: 2
======================================
49.3496520281
49.4031542778
49.3208431244
49.3702298164
49.3167275667
49.2838031054
49.3167275667
49.3496520281
49.300265336
49.3167275667
49.3702298164
49.3702298164
49.3537675858
49.3825764894
49.3331897974
49.3537675858
49.3661142588
49.3331897974
49.3331897974
49.3702298164
49.300265336
49.3167275667
49.3702298164
49.3702298164
49.3661142588
49.3167275667
49.3331897974
49.3167275667
49.3331897974
49.3373053551
49.3167275667
49.3702298164
49.3331897974
49.300265336
49.3702298164
49.3208431244
49.3866920471
49.3496520281
49.300265336
49.3208431244
49.3373053551
49.3331897974
49.3331897974
49.3167275667
49.3167275667
49.3167275667
49.2961497784
49.3167275667
49.3167275667
49.3331897974

Average distance is : 49.337 cm
Average deviation is : 0.027 cm
Block: 3
======================================
49.3537675858
49.300265336
49.3373053551
49.300265336
49.2838031054
49.2838031054
49.300265336
49.2838031054
49.3537675858
49.300265336
49.3167275667
49.300265336
49.300265336
49.3167275667
49.3208431244
49.3331897974
49.3167275667
49.3496520281
49.2838031054
49.3167275667
49.3331897974
49.300265336
49.300265336
49.3373053551
49.300265336
49.3331897974
49.300265336
49.3167275667
49.3167275667
49.2961497784
49.300265336
49.300265336
49.3167275667
49.3331897974
49.3496520281
49.3167275667
49.3167275667
49.3208431244
49.3167275667
49.3331897974
49.3496520281
49.3167275667
49.300265336
49.3331897974
49.3167275667
49.3331897974
49.300265336
49.3167275667
49.300265336
49.3496520281

Average distance is : 49.316 cm
Average deviation is : 0.020 cm
Block: 4
======================================
49.300265336
49.2796875477
49.3167275667
49.3331897974
49.2838031054
49.3537675858
49.3331897974
49.300265336
49.3167275667
49.3167275667
49.3167275667
49.300265336
49.2961497784
49.300265336
49.3373053551
49.3331897974
49.2961497784
49.2796875477
49.3167275667
49.3331897974
49.300265336
49.3167275667
49.300265336
49.3167275667
49.3496520281
49.300265336
49.3167275667
49.3373053551
49.3167275667
49.300265336
49.300265336
49.3208431244
49.3496520281
49.3496520281
49.3208431244
49.3208431244
49.3167275667
49.300265336
49.3373053551
49.3167275667
49.3167275667
49.3373053551
49.3373053551
49.300265336
49.3331897974
49.2961497784
49.3167275667
49.3331897974
49.3167275667
49.3167275667

Average distance is : 49.317 cm
Average deviation is : 0.018 cm
Block: 5
======================================
49.300265336
49.2673408747
49.3373053551
49.2796875477
49.2838031054
49.300265336
48.938096261
49.2961497784
49.3167275667
49.3373053551
49.3167275667
49.300265336
49.300265336
49.3331897974
49.300265336
49.300265336
49.3373053551
49.3208431244
49.3167275667
49.3167275667
49.3167275667
49.3167275667
49.3167275667
49.300265336
49.3167275667
49.3331897974
49.3208431244
49.3331897974
49.3167275667
49.3331897974
49.3331897974
49.3373053551
49.3331897974
49.300265336
49.3373053551
49.3167275667
49.300265336
49.3331897974
49.300265336
49.3167275667
49.3167275667
49.3167275667
49.3537675858
49.3167275667
49.3331897974
49.300265336
49.3208431244
49.300265336
49.3702298164
49.3331897974

Average distance is : 49.309 cm
Average deviation is : 0.057 cm
Block: 6
======================================
49.3537675858
49.3208431244
49.3496520281
49.3373053551
49.300265336
49.3167275667
49.300265336
49.300265336
49.3331897974
49.3331897974
49.3167275667
49.300265336
49.3373053551
49.3167275667
49.3373053551
49.3167275667
49.3167275667
49.3331897974
49.3702298164
49.3167275667
49.3167275667
49.3373053551
49.3373053551
49.4031542778
49.3167275667
49.3331897974
49.3702298164
49.3167275667
49.3167275667
49.3702298164
49.3208431244
49.4072698355
49.3537675858
49.3167275667
49.3167275667
49.3537675858
49.3331897974
49.3702298164
49.4031542778
49.3331897974
49.3373053551
49.3167275667
49.3866920471
49.3661142588
49.3331897974
49.3167275667
49.3496520281
49.3167275667
49.3167275667
49.3167275667

Average distance is : 49.336 cm
Average deviation is : 0.027 cm
Block: 7
======================================
49.2961497784
49.3702298164
49.3167275667
49.300265336
49.3331897974
49.300265336
49.2838031054
49.2838031054
49.3167275667
49.3496520281
49.3373053551
49.3167275667
49.300265336
49.300265336
49.3167275667
49.3331897974
49.3331897974
49.3208431244
49.3167275667
49.3373053551
49.300265336
49.2838031054
49.3167275667
49.300265336
49.3373053551
49.3167275667
49.2838031054
49.2961497784
49.3537675858
49.3331897974
49.3208431244
49.3373053551
49.3373053551
49.3331897974
49.3373053551
49.3167275667
49.3167275667
49.3331897974
49.3167275667
49.300265336
49.300265336
49.3496520281
49.3167275667
49.3331897974
49.3331897974
49.3373053551
49.3331897974
49.3167275667
49.3331897974
49.3331897974

Average distance is : 49.320 cm
Average deviation is : 0.020 cm
Block: 8
======================================
49.3331897974
49.3167275667
49.3496520281
49.3537675858
49.3167275667
49.3167275667
49.3866920471
49.3331897974
49.3331897974
49.3331897974
49.300265336
49.3373053551
49.3167275667
49.3331897974
49.300265336
49.3167275667
49.3331897974
49.3167275667
49.3373053551
49.300265336
49.3167275667
49.3167275667
49.3208431244
49.3331897974
49.3331897974
49.3167275667
49.3167275667
49.3167275667
49.3373053551
49.3331897974
49.3331897974
49.3167275667
49.3866920471
49.3496520281
49.3496520281
49.3866920471
49.3167275667
49.2838031054
49.3167275667
49.3373053551
49.3331897974
49.3373053551
49.3167275667
49.300265336
49.3167275667
49.300265336
49.300265336
49.3167275667
49.3373053551
49.3331897974

Average distance is : 49.328 cm
Average deviation is : 0.021 cm
Block: 9
======================================
49.3702298164
49.300265336
49.300265336
49.3167275667
49.3167275667
49.2796875477
49.2961497784
49.3167275667
49.300265336
49.3331897974
49.300265336
49.3373053551
49.3167275667
49.3373053551
49.3331897974
49.300265336
49.3373053551
49.300265336
49.3496520281
49.3331897974
49.3167275667
49.2961497784
49.3331897974
49.300265336
49.3373053551
49.300265336
49.3167275667
49.3331897974
49.3373053551
49.3167275667
49.3331897974
49.3537675858
49.3167275667
49.3167275667
49.3208431244
49.300265336
49.3331897974
49.3373053551
49.3167275667
49.3167275667
49.3537675858
49.3331897974
49.3537675858
49.3537675858
49.3537675858
49.3537675858
49.3331897974
49.3537675858
49.3167275667
49.3167275667

Average distance is : 49.325 cm
Average deviation is : 0.020 cm
Block: 10
======================================
49.300265336
49.3373053551
49.300265336
49.3537675858
49.3167275667
49.3373053551
49.300265336
49.3496520281
49.3331897974
49.3331897974
49.3331897974
49.3167275667
49.3167275667
49.3373053551
49.300265336
49.300265336
49.300265336
49.3167275667
49.3167275667
49.3208431244
49.3702298164
49.3331897974
49.3167275667
49.3167275667
49.3537675858
49.3373053551
49.3167275667
49.3208431244
49.3331897974
49.3167275667
49.3167275667
49.300265336
49.3331897974
49.3537675858
49.3167275667
49.2838031054
49.3373053551
49.3167275667
49.3167275667
49.3331897974
49.300265336
49.3331897974
49.3167275667
49.300265336
49.300265336
49.3331897974
49.3167275667
49.3167275667
49.3373053551
49.300265336

Average distance is : 49.322 cm
Average deviation is : 0.018 cm