
Block: 1
======================================
301.540890694
301.101871872
300.691307974
300.654723072
300.638463116
300.654723072
300.979922199
300.622203159
300.638463116
300.622203159
300.622203159
300.622203159
300.70756793
300.670983028
301.114066839
300.642528105
301.081546926
301.085611916
301.097806883
301.06528697
301.085611916
301.081546926
301.085611916
300.622203159
300.622203159
301.150651741
300.622203159
301.081546926
300.622203159
300.61813817
301.081546926
301.524630737
301.540890694
300.70756793
301.097806883
301.101871872
301.097806883
301.101871872
301.544955683
301.540890694
300.622203159
301.097806883
300.723827887
301.081546926
301.081546926
301.118131828
301.097806883
301.081546926
301.101871872
300.740087843

Block: 2
======================================
301.06528697
300.638463116
301.51243577
300.638463116
300.622203159
300.638463116
300.622203159
301.097806883
301.097806883
300.638463116
301.097806883
301.081546926
301.085611916
301.528695726
301.097806883
301.081546926
300.622203159
301.085611916
301.06528697
301.118131828
300.622203159
300.670983028
300.727892876
301.081546926
300.670983028
301.544955683
301.150651741
301.524630737
300.658788061
300.654723072
300.638463116
300.622203159
300.638463116
300.70756793
300.638463116
301.166911697
301.081546926
300.691307974
300.658788061
301.544955683
300.70756793
301.097806883
300.622203159
301.540890694
301.085611916
301.097806883
300.638463116
301.544955683
301.081546926
301.081546926

Block: 3
======================================
300.622203159
301.573410606
301.508370781
300.670983028
300.675048018
300.622203159
300.70756793
301.150651741
300.638463116
301.081546926
301.101871872
301.097806883
301.081546926
301.085611916
300.622203159
301.085611916
301.081546926
301.081546926
300.638463116
301.081546926
301.085611916
301.085611916
300.622203159
300.61813817
300.638463116
300.601878214
301.081546926
300.622203159
301.081546926
301.081546926
301.528695726
301.081546926
301.085611916
301.150651741
301.06528697
300.638463116
300.622203159
301.150651741
300.622203159
300.642528105
300.638463116
300.638463116
300.638463116
300.605943203
300.622203159
300.622203159
301.081546926
300.622203159
300.605943203
300.605943203

Block: 4
======================================
300.638463116
300.622203159
300.605943203
300.654723072
300.605943203
301.081546926
301.524630737
300.605943203
300.622203159
300.622203159
300.638463116
301.528695726
300.622203159
301.081546926
300.601878214
300.622203159
300.675048018
300.638463116
301.508370781
301.06528697
301.935194635
300.622203159
301.06528697
301.492110825
301.134391785
300.605943203
300.605943203
300.622203159
300.622203159
300.642528105
300.638463116
301.508370781
300.589683247
300.622203159
300.622203159
300.605943203
301.085611916
301.06528697
300.622203159
300.605943203
301.06528697
300.622203159
301.524630737
301.492110825
300.654723072
301.101871872
300.638463116
300.70756793
300.622203159
301.134391785

Block: 5
======================================
300.642528105
300.70756793
301.51243577
301.508370781
301.049027014
301.508370781
301.508370781
300.622203159
300.675048018
301.524630737
301.51243577
301.508370781
300.691307974
300.670983028
301.044962025
300.622203159
300.622203159
300.622203159
300.642528105
301.508370781
300.638463116
300.638463116
300.638463116
300.622203159
301.524630737
300.638463116
301.06528697
300.675048018
300.605943203
300.622203159
301.06528697
300.601878214
300.691307974
300.605943203
300.622203159
300.638463116
300.622203159
300.642528105
300.622203159
300.605943203
300.622203159
300.605943203
300.638463116
300.622203159
300.622203159
300.622203159
300.670983028
301.150651741
300.638463116
300.691307974

Block: 6
======================================
300.622203159
300.654723072
301.524630737
300.670983028
301.049027014
300.638463116
301.130326796
300.605943203
300.622203159
300.622203159
300.622203159
300.605943203
300.622203159
300.622203159
301.06528697
300.622203159
300.654723072
300.687242985
300.605943203
300.638463116
301.06528697
300.638463116
300.638463116
300.638463116
300.675048018
300.638463116
300.622203159
300.638463116
300.622203159
300.622203159
300.622203159
300.691307974
300.622203159
301.081546926
300.622203159
300.622203159
300.622203159
300.670983028
301.06528697
300.622203159
300.622203159
300.691307974
301.06528697
300.622203159
300.605943203
301.971779537
300.638463116
300.638463116
301.06528697
301.06528697

Block: 7
======================================
300.622203159
300.622203159
300.70756793
301.540890694
301.06528697
300.642528105
300.691307974
301.049027014
301.028702068
300.687242985
300.585618258
301.51243577
301.06528697
301.081546926
300.638463116
301.130326796
300.622203159
301.06528697
300.605943203
300.622203159
300.605943203
300.622203159
300.601878214
300.601878214
300.605943203
300.605943203
301.049027014
300.605943203
301.06528697
301.06528697
301.081546926
300.658788061
300.638463116
301.508370781
300.601878214
301.130326796
300.638463116
300.687242985
300.601878214
300.605943203
300.601878214
300.622203159
300.605943203
300.622203159
301.06528697
300.605943203
300.605943203
300.622203159
301.06528697
300.622203159

Block: 8
======================================
301.130326796
300.642528105
301.150651741
300.622203159
301.081546926
300.622203159
300.605943203
300.601878214
300.622203159
300.622203159
300.622203159
300.622203159
300.622203159
300.605943203
300.622203159
301.06528697
300.622203159
300.622203159
301.134391785
300.658788061
300.622203159
300.601878214
300.638463116
301.06528697
300.605943203
300.622203159
301.508370781
301.06528697
300.601878214
300.622203159
300.622203159
300.638463116
300.638463116
301.097806883
301.06528697
301.097806883
300.622203159
300.675048018
300.622203159
300.670983028
300.601878214
300.622203159
300.622203159
301.508370781
300.605943203
301.06528697
300.622203159
301.118131828
300.622203159
301.492110825

Block: 9
======================================
301.032767057
301.508370781
300.605943203
301.508370781
300.605943203
300.638463116
301.492110825
301.118131828
301.06528697
300.585618258
300.605943203
301.118131828
300.605943203
300.601878214
300.585618258
300.585618258
300.605943203
300.589683247
300.585618258
301.06528697
301.06528697
300.605943203
300.622203159
300.589683247
301.081546926
300.622203159
300.605943203
300.605943203
300.622203159
300.585618258
300.675048018
300.638463116
300.589683247
300.589683247
301.06528697
301.51243577
301.06528697
300.605943203
300.601878214
301.06528697
300.585618258
301.06528697
300.622203159
300.585618258
301.114066839
300.601878214
301.955519581
301.049027014
300.605943203
300.585618258

Block: 10
======================================
301.028702068
300.536838388
301.028702068
301.032767057
300.601878214
300.605943203
300.605943203
301.508370781
300.622203159
301.508370781
300.691307974
301.508370781
301.097806883
300.605943203
301.114066839
300.601878214
300.601878214
301.049027014
301.134391785
300.638463116
301.118131828
300.605943203
300.622203159
301.06528697
300.622203159
301.049027014
301.049027014
300.601878214
301.134391785
301.508370781
300.622203159
301.134391785
301.492110825
300.638463116
300.605943203
301.049027014
300.670983028
300.601878214
300.622203159
301.492110825
300.585618258
300.585618258
300.601878214
301.114066839
300.601878214
301.114066839
300.622203159
300.622203159
301.508370781
301.492110825
