
Block: 1
======================================
99.8965811729
99.8800611496
100.317841768
99.9172312021
99.9502712488

Block: 2
======================================
99.9337512255
99.9337512255
100.350881815
99.9172312021
100.350881815

Block: 3
======================================
99.8841911554
99.9131011963
99.8635411263
99.9131011963
99.8841911554

Block: 4
======================================
99.9502712488
99.8800611496
100.346751809
99.9007111788
99.8635411263

Block: 5
======================================
99.9337512255
99.8841911554
99.8635411263
99.8676711321
99.8635411263

Block: 6
======================================
99.9007111788
99.8470211029
99.8635411263
99.8800611496
99.8841911554

Block: 7
======================================
99.8841911554
100.280671716
99.8965811729
99.8841911554
100.280671716

Block: 8
======================================
99.8635411263
99.9007111788
99.9007111788
99.9172312021
99.9007111788

Block: 9
======================================
99.8800611496
100.317841768
99.8635411263
99.9131011963
99.8635411263

Block: 10
======================================
99.9172312021
100.330231786
99.8635411263
99.9337512255
99.8470211029
