
Block: 1
======================================
399.520137072
320.950404215
399.977031875
399.568656874
399.520137072
399.552483606
320.14982748
399.144108605
320.659285402
399.127935338

Block: 2
======================================
399.95681529
399.568656874
399.960858607
399.95681529
321.132353473
399.536310339
399.503963804
399.95681529
399.993205142
323.218704963

Block: 3
======================================
399.95681529
399.972988558
399.940642023
399.972988558
399.972988558
400.365190291
399.94468534
399.95681529
400.401580143
399.993205142

Block: 4
======================================
400.365190291
399.977031875
400.41775341
400.397536826
400.401580143
400.349017024
400.349017024
400.385406876
399.924468756
400.365190291

Block: 5
======================================
400.349017024
400.349017024
320.000224757
400.721002173
400.349017024
319.401813865
399.95681529
400.381363559
319.911271787
399.924468756

Block: 6
======================================
399.892122221
399.908295488
399.940642023
400.401580143
400.381363559
399.924468756
400.401580143
400.365190291
400.365190291
399.499920487

Block: 7
======================================
399.977031875
399.48374722
399.48374722
399.95681529
399.94468534
399.924468756
320.711848521
399.467573953
399.928512073
321.589248276

Block: 8
======================================
399.924468756
399.977031875
400.381363559
169.791004109
399.940642023
399.940642023
399.908295488
399.924468756
399.924468756
399.960858607

Block: 9
======================================
399.94468534
399.95681529
399.48374722
399.940642023
399.95681529
399.960858607
399.960858607
399.924468756
399.940642023
399.94468534

Block: 10
======================================
400.381363559
399.908295488
399.908295488
399.924468756
399.940642023
399.94468534
399.95681529
399.503963804
399.95681529
399.904252172
