
Block: 1
======================================
399.94468534
399.075372219
399.95681529
399.960858607
399.924468756
399.043025684
399.940642023
399.940642023
399.0228091
399.48374722
399.924468756
399.924468756
399.940642023
399.924468756
399.908295488
399.908295488
399.940642023
399.908295488
399.48374722
399.499920487
399.892122221
399.940642023
399.924468756
320.796758175
398.586130881

Average distance is : 396.552 cm
Average deviation is : 15.787 cm
Block: 2
======================================
399.892122221
399.960858607
399.516093755
399.977031875
399.977031875
399.960858607
399.993205142
399.532267022
399.924468756
320.760368323
399.552483606
399.940642023
197.435161352
399.977031875
399.940642023
399.503963804
399.960858607
399.95681529
399.48374722
400.381363559
399.940642023
399.940642023
399.972988558
399.503963804
399.940642023

Average distance is : 388.597 cm
Average deviation is : 42.848 cm
Block: 3
======================================
400.365190291
400.344973707
399.520137072
400.397536826
399.95681529
400.401580143
400.397536826
399.928512073
400.381363559
400.349017024
400.365190291
400.397536826
399.908295488
400.385406876
400.381363559
400.381363559
400.397536826
400.349017024
319.927445054
400.381363559
400.381363559
400.78973856
400.349017024
400.381363559
400.397536826

Average distance is : 397.089 cm
Average deviation is : 16.077 cm
Block: 4
======================================
400.312627172
400.365190291
400.365190291
400.365190291
400.78973856
400.78973856
400.332843757
400.349017024
400.332843757
400.344973707
400.349017024
400.773565292
400.838258362
400.805911827
400.365190291
400.805911827
400.401580143
400.822085094
400.401580143
400.381363559
399.940642023
400.842301679
399.940642023
400.41775341
400.365190291

Average distance is : 400.472 cm
Average deviation is : 0.263 cm
Block: 5
======================================
400.41775341
319.268384409
400.041724944
320.218563867
399.977031875
320.67545867
399.532267022
399.532267022
399.993205142
322.862893081
398.278838801
400.381363559
321.132353473
399.111762071
399.977031875
321.997623277
399.568656874
400.397536826
399.977031875
400.413710093
399.977031875
399.993205142
399.95681529
399.499920487
400.009378409

Average distance is : 380.928 cm
Average deviation is : 34.364 cm
Block: 6
======================================
400.025551677
320.048744559
400.349017024
320.048744559
353.357588696
366.158729815
353.677010727
368.346164227
399.940642023
321.662027979
399.059198952
399.520137072
322.08253293
399.095588803
400.41775341
400.397536826
320.339863372
399.95681529
320.744195056
399.111762071
322.899282932
397.348875928
324.205274272
398.666997218
400.413710093

Average distance is : 368.315 cm
Average deviation is : 35.760 cm
Block: 7
======================================
400.381363559
400.332843757
399.95681529
399.95681529
399.924468756
319.83040545
399.516093755
321.556901741
398.687213802
321.981450009
398.687213802
399.960858607
399.503963804
399.908295488
399.940642023
399.924468756
399.043025684
399.940642023
399.908295488
399.095588803
399.499920487
399.520137072
399.516093755
399.48374722
399.940642023

Average distance is : 390.240 cm
Average deviation is : 26.055 cm
Block: 8
======================================
399.924468756
399.95681529
399.924468756
399.924468756
399.467573953
399.940642023
399.924468756
399.467573953
399.467573953
399.95681529
400.312627172
399.888078904
400.312627172
400.332843757
400.349017024
400.349017024
399.892122221
400.349017024
400.332843757
400.369233608
400.32880044
399.888078904
399.924468756
399.924468756
400.369233608

Average distance is : 400.035 cm
Average deviation is : 0.293 cm
Block: 9
======================================
399.904252172
399.924468756
399.940642023
399.924468756
399.892122221
399.467573953
399.892122221
399.48374722
399.940642023
399.94468534
399.908295488
399.972988558
399.960858607
399.908295488
399.924468756
399.993205142
399.95681529
399.94468534
399.993205142
399.95681529
399.993205142
399.924468756
399.960858607
400.013421726
399.940642023

Average distance is : 399.907 cm
Average deviation is : 0.134 cm
Block: 10
======================================
399.95681529
399.989161825
399.977031875
400.009378409
399.520137072
400.009378409
399.993205142
400.009378409
399.95681529
399.960858607
399.977031875
400.041724944
399.977031875
399.94468534
400.009378409
399.993205142
399.552483606
399.977031875
399.989161825
399.552483606
399.552483606
399.993205142
400.009378409
399.977031875
399.977031875

Average distance is : 399.916 cm
Average deviation is : 0.167 cm