
Block: 1
======================================
299.410836411
299.431161356
299.362056541
298.971817589
299.410836411
298.951492643
299.427096367
298.935232687
299.463681269
299.410836411
298.984012556
299.431161356
299.410836411
299.410836411
298.935232687
299.431161356
299.004337502
299.431161356
299.410836411
299.4149014
299.394576454
298.984012556
299.427096367
298.971817589
299.410836411

Block: 2
======================================
299.394576454
299.431161356
299.394576454
299.410836411
299.378316498
299.394576454
299.410836411
299.4149014
298.951492643
298.9677526
299.378316498
299.378316498
299.394576454
299.378316498
299.410836411
299.427096367
299.394576454
298.935232687
299.427096367
299.378316498
298.898647785
299.394576454
299.394576454
299.378316498
299.394576454

Block: 3
======================================
298.951492643
299.394576454
298.9677526
299.394576454
299.378316498
299.410836411
299.427096367
299.394576454
299.410836411
299.394576454
299.410836411
299.410836411
299.410836411
298.931167698
299.410836411
299.394576454
299.410836411
298.931167698
298.951492643
299.431161356
299.410836411
299.357991552
298.951492643
299.394576454
299.394576454

Block: 4
======================================
299.410836411
299.410836411
298.984012556
299.394576454
299.357991552
299.362056541
298.918972731
299.394576454
298.914907742
299.394576454
299.378316498
299.378316498
299.378316498
299.394576454
299.345796585
299.362056541
299.357991552
299.357991552
299.431161356
299.357991552
299.378316498
299.431161356
299.357991552
298.902712774
299.410836411

Block: 5
======================================
299.394576454
298.935232687
299.427096367
299.410836411
299.410836411
298.935232687
299.410836411
299.427096367
299.394576454
298.918972731
299.4149014
299.410836411
299.378316498
298.935232687
299.410836411
298.935232687
298.947427654
299.394576454
298.951492643
299.394576454
299.378316498
299.427096367
299.394576454
298.951492643
299.427096367

Block: 6
======================================
299.378316498
299.4149014
298.951492643
299.374251509
299.357991552
299.410836411
299.394576454
299.394576454
299.410836411
299.394576454
299.427096367
298.918972731
299.004337502
298.951492643
299.410836411
299.394576454
299.378316498
299.394576454
299.378316498
299.394576454
298.918972731
298.935232687
298.971817589
299.427096367
298.898647785

Block: 7
======================================
299.378316498
298.918972731
299.378316498
299.410836411
299.374251509
299.410836411
299.394576454
299.394576454
299.394576454
299.394576454
299.394576454
299.394576454
299.357991552
299.410836411
299.374251509
299.410836411
299.394576454
299.394576454
299.394576454
298.951492643
299.378316498
299.410836411
299.394576454
299.362056541
299.378316498

Block: 8
======================================
299.394576454
299.394576454
299.410836411
299.374251509
299.256366825
299.410836411
299.427096367
299.394576454
298.931167698
299.394576454
299.427096367
299.4149014
299.378316498
299.394576454
299.427096367
299.394576454
299.394576454
299.410836411
299.427096367
298.9677526
298.947427654
298.9677526
298.951492643
299.427096367
299.447421312

Block: 9
======================================
298.935232687
299.410836411
299.410836411
299.427096367
299.394576454
299.390511465
299.410836411
299.394576454
299.410836411
299.394576454
298.914907742
299.431161356
299.394576454
299.410836411
299.410836411
299.394576454
299.362056541
298.935232687
298.951492643
299.378316498
299.378316498
299.394576454
299.378316498
298.971817589
299.357991552

Block: 10
======================================
299.394576454
299.4149014
298.9677526
299.357991552
299.431161356
298.9677526
299.378316498
299.357991552
299.410836411
298.971817589
299.447421312
299.431161356
299.4149014
299.427096367
299.378316498
299.394576454
299.410836411
299.410836411
298.951492643
298.951492643
299.378316498
299.410836411
299.431161356
299.394576454
299.410836411
