
Block: 1
======================================
99.9172312021
99.8841911554
99.8841911554
99.8800611496
99.8965811729
99.8635411263
100.313711762
99.8635411263
99.9337512255
99.8800611496
99.9007111788
99.9007111788
99.8965811729
99.9007111788
99.8800611496
99.9172312021
100.280671716
99.8635411263
99.9007111788
99.8800611496
99.8635411263
100.280671716
99.8635411263
99.8800611496
99.8841911554

Average distance is : 99.936 cm
Average deviation is : 0.135 cm
Block: 2
======================================
99.9337512255
99.9172312021
100.313711762
99.9007111788
99.8841911554
99.9007111788
99.8965811729
99.9172312021
99.8965811729
99.9172312021
99.8635411263
99.8676711321
99.9172312021
99.8965811729
99.9172312021
99.8635411263
99.8635411263
99.9007111788
99.8635411263
100.334361792
99.9007111788
99.8800611496
99.9007111788
99.9007111788
99.8635411263

Average distance is : 99.928 cm
Average deviation is : 0.121 cm
Block: 3
======================================
99.9172312021
100.280671716
99.8800611496
99.8841911554
99.8965811729
99.9172312021
99.8841911554
99.8800611496
99.8635411263
99.9007111788
99.9007111788
99.9337512255
100.27654171
99.8635411263
99.8470211029
99.8800611496
99.8800611496
99.8470211029
99.8635411263
99.8635411263
99.8676711321
99.8841911554
100.27654171
99.8965811729
99.8841911554

Average distance is : 99.931 cm
Average deviation is : 0.132 cm
Block: 4
======================================
99.9007111788
99.8965811729
99.9172312021
99.8263710737
99.8841911554
99.8800611496
99.8800611496
99.9007111788
99.9172312021
99.9172312021
99.8635411263
99.8965811729
99.8841911554
99.9007111788
99.8800611496
99.8841911554
100.280671716
99.8800611496
99.8800611496
99.8635411263
99.9007111788
99.8635411263
99.8800611496
99.9007111788
99.8800611496

Average distance is : 99.902 cm
Average deviation is : 0.081 cm
Block: 5
======================================
99.9007111788
99.8841911554
99.8635411263
100.264151692
99.8841911554
99.9337512255
99.8800611496
99.8965811729
99.9007111788
99.9337512255
99.8635411263
99.9502712488
99.9337512255
99.9337512255
99.8635411263
100.363271832
99.8800611496
99.8841911554
99.9007111788
99.8965811729
99.9007111788
99.8800611496
99.8841911554
99.9007111788
99.9172312021

Average distance is : 99.932 cm
Average deviation is : 0.118 cm
Block: 6
======================================
99.9337512255
99.9172312021
99.8800611496
99.8965811729
99.8841911554
99.9337512255
99.8635411263
99.8470211029
99.8800611496
99.8635411263
99.8841911554
99.9172312021
99.8800611496
99.8800611496
99.8635411263
99.9172312021
99.8965811729
99.8800611496
99.8841911554
99.9131011963
99.8841911554
99.9007111788
99.8635411263
99.8841911554
99.8800611496

Average distance is : 99.889 cm
Average deviation is : 0.023 cm
Block: 7
======================================
99.9007111788
99.9172312021
99.9172312021
99.9502712488
99.8800611496
100.350881815
99.8635411263
99.8841911554
99.8635411263
99.8965811729
99.9007111788
99.8635411263
99.9172312021
99.9172312021
99.8800611496
99.8800611496
99.8635411263
99.8635411263
99.8800611496
100.313711762
100.297191739
99.8800611496
99.9337512255
99.8800611496
99.9007111788

Average distance is : 99.944 cm
Average deviation is : 0.144 cm
Block: 8
======================================
99.9007111788
99.8635411263
99.9337512255
99.9172312021
99.8841911554
99.8841911554
99.9007111788
99.8635411263
99.9337512255
99.8800611496
99.9337512255
99.9337512255
99.8841911554
99.9337512255
99.9337512255
99.8470211029
99.9502712488
99.8676711321
99.9544012547
99.8841911554
99.8800611496
99.8841911554
99.8800611496
99.8800611496
100.297191739

Average distance is : 99.916 cm
Average deviation is : 0.085 cm
Block: 9
======================================
99.9007111788
99.9502712488
99.8965811729
100.280671716
99.9172312021
99.9172312021
99.9337512255
99.8800611496
99.9007111788
99.9337512255
99.9337512255
99.8635411263
99.9337512255
100.297191739
99.8800611496
99.9337512255
99.9337512255
99.9007111788
99.9007111788
100.330231786
99.8965811729
99.8965811729
99.8965811729
99.8800611496
99.9007111788

Average distance is : 99.956 cm
Average deviation is : 0.133 cm
Block: 10
======================================
99.8635411263
99.8841911554
99.8800611496
99.8841911554
99.9007111788
99.8800611496
99.9172312021
99.8841911554
99.8635411263
99.8635411263
99.8635411263
99.8841911554
99.9007111788
99.8841911554
99.8800611496
99.8965811729
99.8965811729
99.8841911554
99.9007111788
99.8635411263
99.8470211029
99.8470211029
99.8635411263
99.8635411263
99.8800611496

Average distance is : 99.879 cm
Average deviation is : 0.018 cm
Average distance for 10x25 is : 99.921 cm
Average deviation for 10x25 is : 0.099 cm
 Percentage of values that failed: 0.000
