
Block: 1
======================================
99.9007111788
99.8800611496
99.9172312021
99.8800611496
99.8635411263
99.8800611496
99.8635411263
99.8635411263
99.8470211029
99.8635411263
99.8800611496
99.8965811729
99.9172312021
99.8800611496
99.8800611496
99.9007111788
99.8470211029
99.8965811729
99.8800611496
99.8841911554
99.9007111788
99.8841911554
99.8635411263
99.8800611496
99.9007111788
99.8800611496
99.8635411263
99.8800611496
99.8470211029
99.8470211029
99.8800611496
99.8470211029
99.8470211029
99.8965811729
99.9337512255
99.8305010796
99.8470211029
100.297191739
99.8470211029
99.8470211029
99.8470211029
99.8635411263
99.8841911554
99.8841911554
99.9007111788
99.8676711321
99.0994900465
100.297191739
100.27654171
99.8841911554
100.297191739
99.8635411263
99.8470211029
99.8841911554
99.8635411263
99.8841911554
99.8470211029
99.8676711321
99.8800611496
99.8841911554
99.8635411263
99.8965811729
99.8428910971
99.8800611496
99.9007111788
99.8635411263
99.8965811729
99.8635411263
99.8841911554
99.9007111788
99.8470211029
99.8635411263
99.9172312021
99.8841911554
99.8965811729

Block: 2
======================================
99.8965811729
99.8965811729
99.8098510504
99.8635411263
99.8635411263
99.8635411263
99.8635411263
99.8800611496
99.8635411263
99.8635411263
99.8800611496
99.9007111788
99.9007111788
99.8841911554
99.8635411263
99.8428910971
99.8470211029
99.8800611496
100.313711762
99.8800611496
99.8800611496
99.8635411263
99.8800611496
99.8800611496
99.8841911554
99.8635411263
99.9007111788
99.8965811729
99.9007111788
99.8635411263
99.9007111788
99.8965811729
99.8800611496
99.9007111788
99.8841911554
99.8841911554
99.8676711321
99.8470211029
99.8635411263
99.8470211029
99.8676711321
99.8635411263
99.8800611496
99.8800611496
99.9007111788
99.8635411263
99.8635411263
99.9172312021
99.8635411263
99.8800611496
99.8800611496
99.8841911554
99.9007111788
99.9007111788
99.8676711321
99.8470211029
99.9007111788
99.9007111788
99.8470211029
99.8635411263
99.8800611496
99.8470211029
99.8470211029
99.8635411263
99.8800611496
99.8470211029
100.313711762
99.8800611496
99.8635411263
99.8635411263
99.8635411263
99.8470211029
99.8470211029
99.8841911554
99.8470211029

Block: 3
======================================
99.8676711321
99.9172312021
99.8470211029
99.8470211029
99.8800611496
99.9007111788
99.8800611496
99.9007111788
99.8635411263
99.9007111788
99.9337512255
99.9007111788
99.8800611496
99.8635411263
99.9007111788
99.9007111788
99.8965811729
99.8635411263
99.8635411263
99.8635411263
99.8841911554
99.8470211029
99.8635411263
99.8470211029
99.8470211029
99.9007111788
99.8635411263
99.8676711321
99.8635411263
99.8635411263
100.313711762
100.297191739
99.8841911554
100.247631669
99.8676711321
99.8965811729
100.264151692
99.8800611496
99.8635411263
99.8470211029
99.9007111788
99.8841911554
99.8841911554
99.8635411263
99.8470211029
99.8470211029
99.8635411263
99.8800611496
99.8470211029
99.9172312021
99.9172312021
99.8139810562
99.9337512255
99.8470211029
99.8635411263
99.8800611496
99.8800611496
100.297191739
99.8841911554
99.8841911554
99.8800611496
99.8635411263
99.8676711321
99.8965811729
99.8470211029
99.8841911554
99.8800611496
99.8635411263
99.8800611496
99.8800611496
99.8800611496
99.8635411263
99.8800611496
99.9172312021
99.8470211029

Block: 4
======================================
99.8841911554
99.8841911554
99.8800611496
99.8965811729
99.9007111788
99.8841911554
99.9007111788
99.8800611496
99.8841911554
99.8841911554
99.8676711321
99.8470211029
99.8841911554
99.9007111788
99.8800611496
99.8635411263
99.8800611496
99.8470211029
99.8800611496
99.8965811729
99.8965811729
99.8800611496
99.8635411263
99.8841911554
99.8635411263
99.8800611496
99.8635411263
99.8635411263
99.8800611496
99.8635411263
99.8635411263
99.9007111788
99.8800611496
99.8965811729
99.8800611496
99.8800611496
99.8965811729
99.8676711321
99.9007111788
99.8800611496
99.8800611496
99.8800611496
99.9007111788
99.8841911554
99.8800611496
99.8676711321
99.8841911554
99.9007111788
99.8635411263
99.9007111788
99.8965811729
99.9007111788
99.8635411263
99.8635411263
99.8800611496
99.8635411263
99.8635411263
99.8676711321
99.8965811729
99.9007111788
99.8965811729
99.8841911554
99.8841911554
99.8676711321
99.8800611496
99.8470211029
99.8305010796
99.9007111788
99.8965811729
99.8635411263
99.8470211029
99.8800611496
99.8965811729
99.8305010796
99.8800611496

Block: 5
======================================
99.9131011963
100.317841768
99.9131011963
99.8470211029
99.8841911554
99.8800611496
99.9007111788
99.8841911554
99.8470211029
99.8800611496
99.8965811729
99.8800611496
99.8635411263
99.8800611496
99.9007111788
99.8800611496
100.297191739
99.9172312021
99.8965811729
99.8800611496
99.8470211029
99.9172312021
99.9007111788
99.8470211029
99.8635411263
99.9172312021
99.9007111788
99.8965811729
99.9172312021
99.8800611496
99.8841911554
99.8635411263
99.9172312021
99.8635411263
99.8965811729
99.8635411263
99.8635411263
99.8965811729
99.8635411263
99.8965811729
99.8965811729
99.8800611496
99.8965811729
99.6405208111
99.8635411263
99.8800611496
99.8841911554
99.8965811729
99.8800611496
99.8470211029
99.8470211029
99.8470211029
99.8676711321
99.8800611496
99.8965811729
99.9007111788
99.9172312021
99.8841911554
99.8263710737
99.8800611496
99.9007111788
99.8635411263
99.8635411263
100.297191739
99.8965811729
99.8800611496
99.8676711321
99.8635411263
99.8800611496
99.8841911554
99.8676711321
99.8635411263
99.8800611496
99.8470211029
99.8800611496

Block: 6
======================================
99.8676711321
99.9172312021
99.8635411263
99.3266403675
99.9007111788
99.8470211029
99.8965811729
99.9007111788
99.8800611496
99.8965811729
99.9007111788
99.8965811729
99.8841911554
99.8800611496
99.8305010796
99.8841911554
99.8800611496
99.8800611496
99.9007111788
99.9007111788
99.8635411263
99.9007111788
99.8635411263
99.9172312021
99.8841911554
99.8841911554
99.8800611496
99.8635411263
99.8965811729
99.8263710737
99.8635411263
99.8965811729
99.8635411263
99.9007111788
99.8635411263
99.9007111788
99.8470211029
99.8841911554
99.8635411263
99.8841911554
99.8841911554
99.8841911554
99.9007111788
99.8841911554
99.9007111788
99.8800611496
99.9007111788
99.8800611496
100.280671716
99.8800611496
99.5703107119
99.8965811729
99.8800611496
99.8635411263
99.8676711321
99.8635411263
99.8800611496
99.8965811729
99.8800611496
99.8635411263
99.8635411263
99.8965811729
99.9007111788
99.8470211029
99.8965811729
99.8800611496
99.9172312021
99.8470211029
99.8965811729
99.8470211029
99.8635411263
99.8965811729
99.8635411263
99.8800611496
99.8800611496

Block: 7
======================================
99.9172312021
99.8965811729
99.8305010796
99.8470211029
99.8635411263
99.8800611496
99.8800611496
99.9007111788
99.8800611496
99.8635411263
99.8841911554
99.8635411263
99.8841911554
99.8841911554
99.8965811729
99.8470211029
99.8635411263
99.9007111788
99.8470211029
99.8841911554
99.8470211029
99.8470211029
99.8841911554
99.9007111788
99.8965811729
99.8676711321
99.8470211029
99.8800611496
99.8965811729
99.9007111788
99.8800611496
99.8800611496
99.8800611496
99.9172312021
99.8965811729
99.8800611496
99.9007111788
99.8470211029
99.8841911554
99.8800611496
99.8800611496
99.8635411263
99.8841911554
99.8965811729
99.8676711321
99.8470211029
99.8965811729
99.8635411263
99.8800611496
99.8800611496
99.8635411263
99.8635411263
99.8800611496
99.8676711321
99.8800611496
99.8635411263
99.9007111788
99.8635411263
99.8635411263
99.9172312021
99.8635411263
99.9172312021
99.9172312021
99.8800611496
99.8800611496
99.8635411263
99.8800611496
99.9007111788
99.9007111788
99.8800611496
100.264151692
100.260021687
99.8841911554
99.9172312021
99.8841911554

Block: 8
======================================
99.8635411263
99.9337512255
99.9172312021
99.8965811729
99.8800611496
99.8965811729
99.9172312021
99.8965811729
99.8965811729
99.8676711321
99.8965811729
99.9131011963
99.8965811729
99.8470211029
99.9007111788
99.8635411263
99.8305010796
99.9007111788
99.8841911554
99.9172312021
99.9172312021
99.8965811729
99.8965811729
100.280671716
99.8676711321
99.8965811729
99.8800611496
99.8635411263
99.8841911554
99.8635411263
99.8841911554
99.9007111788
99.9131011963
99.8635411263
99.8800611496
100.280671716
99.8470211029
99.9007111788
99.8635411263
99.8800611496
99.9337512255
99.8841911554
99.9007111788
99.8635411263
99.8800611496
99.8800611496
99.8841911554
99.8635411263
100.280671716
99.8800611496
99.8305010796
100.313711762
99.8965811729
99.9007111788
99.9007111788
99.9007111788
99.9337512255
99.8965811729
99.8965811729
99.9007111788
99.8635411263
99.8470211029
99.8635411263
99.8635411263
100.264151692
99.6198707819
99.8800611496
99.9007111788
99.8635411263
99.9172312021
99.9007111788
100.264151692
99.8305010796
100.243501663
99.9007111788

Block: 9
======================================
100.27654171
99.8635411263
99.9172312021
99.8635411263
99.8800611496
99.9172312021
99.8965811729
99.8841911554
100.313711762
99.8841911554
99.8635411263
99.9007111788
99.9007111788
99.8635411263
100.297191739
99.8635411263
99.9131011963
99.8470211029
99.8841911554
99.8841911554
99.8965811729
99.8635411263
99.9007111788
99.8635411263
99.8965811729
99.9007111788
99.9172312021
99.8965811729
99.8305010796
99.8841911554
99.9007111788
99.8635411263
99.8841911554
99.8635411263
99.8800611496
99.9172312021
99.8470211029
99.9007111788
99.8470211029
99.8800611496
100.297191739
99.8800611496
99.8841911554
99.8800611496
99.8965811729
99.8965811729
99.8965811729
99.9172312021
99.9007111788
99.8841911554
99.8800611496
99.8841911554
99.8800611496
99.9131011963
99.9007111788
99.9007111788
99.9007111788
99.8635411263
99.8965811729
99.8305010796
99.8470211029
99.8800611496
99.8841911554
99.8800611496
99.8635411263
99.8841911554
99.8800611496
99.8841911554
99.8800611496
99.8965811729
99.9007111788
99.8800611496
99.8841911554
99.8800611496
99.8800611496

Block: 10
======================================
99.8965811729
99.8965811729
99.8841911554
99.9007111788
99.9007111788
99.9172312021
99.8800611496
99.9172312021
99.8800611496
99.8841911554
99.8800611496
99.8635411263
100.297191739
99.8305010796
99.8800611496
99.8965811729
99.9131011963
99.8800611496
99.8965811729
99.8635411263
99.9007111788
99.8800611496
99.8800611496
100.297191739
99.8635411263
99.9007111788
99.8676711321
99.8800611496
99.8800611496
99.8635411263
99.8635411263
99.8635411263
99.8635411263
99.9007111788
99.8800611496
99.8965811729
99.8841911554
99.8635411263
99.8470211029
99.8800611496
99.8305010796
99.8470211029
99.8263710737
99.8635411263
99.8635411263
99.8800611496
99.8470211029
99.8800611496
99.8635411263
99.8841911554
99.8965811729
99.8841911554
99.8800611496
99.8800611496
99.8635411263
99.8841911554
99.8800611496
99.9007111788
99.8635411263
99.8635411263
99.8470211029
99.8841911554
99.8800611496
99.8800611496
99.8965811729
99.8800611496
99.8635411263
99.8841911554
99.8635411263
99.8676711321
99.8800611496
100.247631669
99.8635411263
99.8841911554
99.8800611496
