
Block: 1
======================================
99.9172312021
99.9172312021
99.8800611496
99.9007111788
99.8635411263
100.697802305
99.9172312021
100.243501663
99.8470211029
99.8841911554
99.8800611496
99.8470211029
99.8305010796
99.8965811729
99.8800611496
99.8800611496
99.8263710737
99.9007111788
99.8965811729
99.8841911554
99.8800611496
99.8676711321
99.8841911554
99.8965811729
99.8635411263
99.8676711321
99.8470211029
99.9337512255
99.8841911554
99.8965811729
99.8800611496
99.8635411263
99.8800611496
99.8635411263
99.8470211029
99.9172312021
100.27654171
99.8470211029
99.8841911554
99.8635411263
99.8470211029
99.8635411263
99.8800611496
99.8635411263
100.330231786
99.8635411263
99.8635411263
99.8965811729
99.8800611496
99.8676711321

Block: 2
======================================
99.8965811729
99.8139810562
99.8635411263
99.8635411263
99.8635411263
99.8841911554
99.8635411263
99.8635411263
99.8965811729
100.297191739
99.9007111788
99.8635411263
100.297191739
99.8635411263
99.8800611496
99.8965811729
99.8470211029
99.8635411263
99.8635411263
99.8841911554
99.8800611496
99.8635411263
99.8470211029
99.8635411263
99.8635411263
99.8635411263
99.8635411263
99.9172312021
99.8635411263
99.8470211029
99.8635411263
99.8635411263
99.8635411263
99.8800611496
99.8470211029
99.8635411263
99.8676711321
99.8635411263
99.8800611496
99.8841911554
99.8635411263
100.260021687
99.8470211029
99.9131011963
99.8800611496
99.8800611496
99.8635411263
99.8635411263
99.8800611496
99.9337512255

Block: 3
======================================
100.297191739
99.8470211029
99.9007111788
99.8635411263
99.8470211029
99.8635411263
99.8800611496
99.8800611496
99.9172312021
99.8635411263
99.8965811729
99.8635411263
99.8800611496
99.8635411263
99.8470211029
99.8965811729
99.8635411263
99.8965811729
99.8635411263
99.8470211029
99.8800611496
99.9007111788
99.8841911554
99.8841911554
99.8635411263
99.9172312021
99.8635411263
99.8635411263
99.8800611496
99.8635411263
99.9007111788
99.8635411263
99.8676711321
99.8800611496
99.9007111788
99.8676711321
99.8635411263
99.8305010796
99.8841911554
99.9007111788
99.8635411263
99.8635411263
99.8800611496
99.8470211029
99.8800611496
99.8800611496
99.8676711321
99.8800611496
99.8635411263
99.8470211029

Block: 4
======================================
99.8841911554
100.247631669
100.313711762
99.8800611496
99.8635411263
99.8965811729
100.297191739
99.9172312021
99.9007111788
99.9172312021
99.8965811729
99.8800611496
100.280671716
99.8635411263
100.450001955
100.317841768
99.9007111788
99.8635411263
99.8965811729
99.8800611496
99.8635411263
99.8800611496
99.9172312021
99.9007111788
99.8635411263
99.8635411263
99.8676711321
99.9172312021
99.8800611496
99.8635411263
99.8800611496
99.8635411263
99.8965811729
99.9172312021
99.8965811729
99.8635411263
99.8800611496
99.8800611496
99.8800611496
99.8470211029
99.8800611496
99.9007111788
99.8965811729
99.8965811729
99.8470211029
99.8676711321
99.8635411263
99.8635411263
99.8635411263
99.9007111788

Block: 5
======================================
99.8800611496
100.297191739
99.8635411263
99.8965811729
99.8800611496
99.8635411263
99.8800611496
99.8800611496
99.8635411263
99.8800611496
99.8841911554
99.8965811729
99.9007111788
100.22698164
99.8470211029
99.9007111788
99.9172312021
99.8635411263
99.8635411263
99.8635411263
99.8635411263
99.8470211029
99.8841911554
99.8635411263
99.8635411263
99.8800611496
99.8965811729
99.8635411263
99.8635411263
99.8800611496
99.8965811729
99.8841911554
99.8470211029
99.8841911554
99.8305010796
99.8800611496
99.8965811729
99.8676711321
99.8800611496
99.8635411263
99.8841911554
99.8470211029
99.8470211029
99.8470211029
99.8800611496
99.8841911554
99.8470211029
99.8470211029
99.8800611496
99.8635411263

Block: 6
======================================
99.9007111788
99.9007111788
99.9172312021
99.8841911554
99.8965811729
99.8635411263
99.8841911554
99.8635411263
99.8800611496
99.8841911554
99.8841911554
99.8800611496
99.8965811729
99.8965811729
99.8635411263
99.9007111788
99.8635411263
99.9172312021
100.334361792
99.8676711321
99.8841911554
99.8800611496
99.8800611496
99.8965811729
99.8635411263
99.8965811729
99.8635411263
99.8800611496
99.8841911554
99.8800611496
99.8470211029
99.8635411263
99.8800611496
99.8305010796
99.8470211029
99.8841911554
99.8965811729
99.9007111788
99.8800611496
99.9007111788
99.8635411263
99.8635411263
99.8800611496
99.8800611496
99.8635411263
99.8635411263
99.8965811729
99.8800611496
99.8841911554
99.8800611496

Block: 7
======================================
99.8635411263
99.8800611496
99.8800611496
99.8800611496
99.8470211029
99.8841911554
99.8676711321
99.8635411263
99.9337512255
99.8635411263
99.8676711321
99.8841911554
99.8965811729
99.8635411263
99.8841911554
99.8800611496
99.8635411263
99.8800611496
99.8635411263
99.8841911554
100.313711762
99.8470211029
99.9172312021
99.8841911554
99.8470211029
99.8800611496
99.8635411263
99.8800611496
99.8470211029
99.8635411263
99.8635411263
99.8800611496
99.9172312021
99.8676711321
99.9007111788
99.8470211029
99.8470211029
99.8800611496
99.8965811729
99.9007111788
99.8800611496
99.8800611496
99.8800611496
99.8841911554
99.8800611496
99.9131011963
99.8841911554
99.8800611496
99.8800611496
99.8263710737

Block: 8
======================================
99.8800611496
99.8800611496
100.301321745
99.8676711321
99.8635411263
99.8635411263
99.8800611496
99.8800611496
99.9172312021
99.9007111788
100.280671716
99.8635411263
99.8841911554
99.8263710737
99.9007111788
99.8470211029
99.8800611496
99.9007111788
99.9007111788
99.8965811729
99.9007111788
99.8965811729
99.8800611496
99.8635411263
99.8841911554
99.8635411263
99.8470211029
99.8635411263
99.8800611496
99.8635411263
99.9007111788
99.8635411263
99.8635411263
99.8841911554
99.8635411263
99.8635411263
99.9172312021
99.8635411263
99.8635411263
99.9172312021
99.9007111788
99.8841911554
99.8841911554
99.8800611496
99.8841911554
99.9007111788
99.8965811729
99.8800611496
99.8965811729
99.8470211029

Block: 9
======================================
99.8965811729
99.8800611496
99.8800611496
99.8800611496
99.8800611496
99.8800611496
99.9172312021
99.9007111788
99.9007111788
100.313711762
99.8676711321
99.8800611496
99.8841911554
99.9007111788
99.9007111788
99.8635411263
99.8965811729
99.9007111788
99.9172312021
99.9007111788
99.8635411263
99.8800611496
99.8470211029
99.9172312021
99.8965811729
99.9007111788
99.9007111788
99.9172312021
99.8800611496
99.9337512255
99.9007111788
99.8965811729
99.9172312021
99.9007111788
99.9007111788
99.8965811729
99.8800611496
99.9172312021
99.8800611496
99.8635411263
99.8841911554
99.8965811729
99.9502712488
99.8635411263
99.8635411263
99.8470211029
99.8841911554
99.8470211029
100.330231786
99.8800611496

Block: 10
======================================
99.8841911554
99.8635411263
99.8800611496
99.8635411263
99.8470211029
99.8635411263
99.8635411263
99.9007111788
99.9007111788
99.9131011963
99.8800611496
99.9131011963
99.8965811729
99.8635411263
99.9172312021
99.8800611496
99.9007111788
99.8635411263
99.8800611496
100.260021687
100.317841768
99.9007111788
99.8965811729
99.8800611496
99.8635411263
99.8635411263
99.8470211029
100.297191739
99.8800611496
100.313711762
99.8470211029
99.9007111788
99.8965811729
99.8800611496
99.8800611496
99.9007111788
100.264151692
100.297191739
99.8965811729
99.8470211029
99.8635411263
99.8965811729
100.313711762
99.9337512255
99.8800611496
99.8841911554
99.8635411263
99.9007111788
99.8841911554
99.9172312021
