
Block: 1
======================================
200.898564672
199.990461135
200.88227582
200.434332371
200.450621223
199.974172282
201.289497137
200.418043518
200.898564672
200.02303884
200.434332371
200.454693437
199.990461135
199.990461135
200.434332371
199.990461135
199.974172282
199.990461135
200.454693437
199.974172282
200.450621223
199.974172282
200.450621223
200.434332371
199.974172282
200.898564672
200.438404584
200.010822201
199.990461135
200.434332371
199.974172282
200.898564672
199.990461135
200.450621223
199.974172282
199.990461135
200.434332371
200.010822201
199.583239818
200.914853525
200.470982289
200.898564672
200.466910076
199.990461135
200.910781312
200.894492459
201.30578599
200.450621223
200.894492459
200.450621223

Average distance is : 200.379 cm
Average deviation is : 0.404 cm
Block: 2
======================================
200.006749988
200.010822201
199.990461135
200.470982289
200.027111053
200.914853525
200.914853525
200.898564672
200.470982289
200.006749988
200.914853525
200.006749988
200.027111053
200.027111053
200.910781312
200.466910076
200.910781312
200.947431231
200.470982289
200.043399906
200.503559995
200.039327693
200.02303884
200.503559995
200.027111053
200.898564672
200.931142378
200.010822201
200.027111053
200.039327693
200.02303884
200.487271142
200.010822201
200.010822201
200.470982289
200.487271142
200.470982289
200.02303884
200.487271142
200.027111053
200.470982289
200.027111053
200.470982289
200.043399906
200.454693437
200.487271142
200.006749988
200.02303884
200.487271142
200.027111053

Average distance is : 200.329 cm
Average deviation is : 0.345 cm
Block: 3
======================================
200.006749988
200.487271142
200.454693437
200.039327693
200.02303884
200.487271142
200.914853525
200.487271142
200.898564672
200.914853525
200.043399906
200.027111053
200.503559995
200.043399906
200.043399906
200.039327693
200.931142378
200.043399906
200.02303884
200.931142378
200.963720083
200.931142378
200.02303884
200.043399906
200.02303884
200.450621223
200.043399906
200.043399906
200.503559995
200.043399906
200.02303884
200.487271142
200.043399906
200.039327693
200.931142378
200.503559995
200.059688759
200.503559995
200.027111053
200.02303884
200.043399906
200.027111053
200.027111053
200.043399906
200.02303884
200.027111053
200.039327693
200.02303884
200.02303884
200.059688759

Average distance is : 200.268 cm
Average deviation is : 0.341 cm
Block: 4
======================================
200.194071794
200.02303884
200.027111053
200.043399906
200.466910076
200.910781312
200.470982289
200.931142378
200.931142378
200.059688759
200.059688759
200.470982289
200.039327693
200.02303884
200.02303884
200.043399906
200.043399906
200.043399906
200.039327693
200.043399906
200.059688759
200.059688759
200.039327693
200.043399906
200.039327693
200.043399906
200.043399906
200.039327693
200.043399906
200.043399906
200.059688759
200.043399906
200.02303884
200.043399906
200.059688759
200.039327693
200.043399906
200.043399906
200.483198929
200.027111053
201.391302466
200.059688759
200.02303884
200.519848847
200.503559995
200.039327693
200.059688759
200.637943029
200.043399906
200.043399906

Average distance is : 200.191 cm
Average deviation is : 0.307 cm
Block: 5
======================================
200.043399906
200.043399906
200.910781312
200.931142378
200.947431231
200.027111053
200.02303884
200.450621223
200.02303884
200.931142378
200.910781312
200.059688759
200.466910076
200.931142378
200.910781312
200.043399906
200.499487782
200.043399906
200.043399906
200.914853525
200.927070165
200.027111053
200.503559995
200.02303884
200.914853525
200.910781312
200.931142378
200.947431231
200.927070165
200.931142378
200.450621223
200.039327693
200.914853525
200.931142378
200.519848847
200.914853525
200.043399906
200.910781312
200.450621223
200.470982289
200.910781312
200.914853525
200.931142378
200.927070165
200.470982289
200.010822201
200.006749988
200.02303884
200.027111053
200.931142378

Average distance is : 200.540 cm
Average deviation is : 0.403 cm
Block: 6
======================================
200.466910076
200.487271142
200.010822201
199.990461135
200.470982289
200.02303884
200.02303884
200.910781312
200.043399906
200.914853525
200.438404584
200.454693437
200.450621223
200.894492459
200.931142378
200.027111053
200.466910076
200.894492459
200.910781312
200.027111053
200.027111053
200.006749988
200.898564672
200.454693437
200.454693437
200.450621223
200.006749988
200.434332371
200.450621223
200.894492459
200.450621223
200.006749988
200.910781312
200.910781312
200.454693437
200.027111053
200.914853525
200.450621223
200.898564672
200.02303884
200.914853525
200.487271142
200.914853525
200.894492459
200.910781312
200.914853525
200.043399906
200.894492459
200.454693437
200.434332371

Average distance is : 200.497 cm
Average deviation is : 0.357 cm
Block: 7
======================================
200.487271142
200.02303884
200.470982289
199.970100069
200.466910076
200.027111053
200.006749988
200.503559995
200.914853525
200.043399906
200.027111053
200.503559995
200.931142378
200.910781312
200.470982289
200.503559995
200.006749988
200.894492459
200.910781312
200.914853525
200.914853525
200.914853525
200.894492459
200.910781312
200.503559995
200.006749988
199.990461135
200.450621223
200.02303884
200.434332371
200.910781312
200.450621223
199.546589899
200.02303884
200.914853525
200.898564672
200.470982289
200.470982289
200.898564672
200.039327693
200.006749988
200.006749988
200.454693437
200.454693437
200.454693437
200.894492459
200.910781312
200.914853525
200.043399906
200.434332371

Average distance is : 200.465 cm
Average deviation is : 0.384 cm
Block: 8
======================================
200.006749988
200.470982289
200.010822201
200.027111053
200.470982289
200.910781312
200.931142378
200.454693437
200.454693437
200.910781312
200.470982289
200.006749988
199.974172282
200.434332371
200.914853525
199.990461135
199.994533348
200.010822201
200.010822201
199.990461135
200.010822201
199.990461135
200.454693437
200.910781312
200.914853525
200.470982289
200.438404584
200.470982289
200.454693437
200.454693437
200.438404584
200.454693437
200.470982289
199.994533348
200.454693437
199.994533348
200.470982289
200.434332371
200.947431231
199.990461135
200.006749988
200.454693437
200.470982289
200.010822201
199.990461135
199.990461135
200.914853525
200.927070165
200.931142378
200.914853525

Average distance is : 200.386 cm
Average deviation is : 0.352 cm
Block: 9
======================================
199.990461135
200.02303884
201.358724761
200.503559995
200.454693437
200.910781312
200.898564672
200.010822201
200.914853525
200.450621223
199.990461135
200.470982289
199.990461135
200.027111053
200.470982289
200.466910076
199.974172282
200.466910076
200.914853525
200.010822201
200.010822201
200.914853525
200.894492459
200.894492459
200.914853525
200.487271142
200.450621223
200.450621223
200.027111053
200.914853525
200.894492459
200.910781312
200.470982289
200.914853525
200.466910076
200.006749988
200.894492459
200.914853525
200.027111053
200.039327693
200.043399906
200.02303884
200.910781312
200.503559995
200.931142378
200.894492459
200.503559995
200.487271142
200.466910076
200.487271142

Average distance is : 200.501 cm
Average deviation is : 0.382 cm
Block: 10
======================================
200.043399906
200.043399906
200.043399906
200.487271142
200.947431231
200.039327693
200.039327693
200.470982289
200.503559995
200.487271142
200.503559995
200.483198929
200.027111053
200.043399906
200.027111053
200.487271142
200.02303884
200.483198929
200.006749988
200.006749988
200.043399906
200.043399906
200.039327693
200.039327693
200.027111053
200.059688759
200.02303884
200.466910076
200.02303884
200.02303884
200.006749988
200.519848847
200.503559995
200.02303884
200.02303884
200.043399906
200.027111053
200.039327693
200.027111053
200.059688759
200.487271142
200.043399906
200.027111053
200.483198929
200.02303884
200.027111053
200.470982289
200.02303884
200.927070165
200.043399906

Average distance is : 200.196 cm
Average deviation is : 0.256 cm