
Block: 1
======================================
199.579167604
200.914853525
200.059688759
200.963720083
200.043399906
200.039327693
200.483198929
200.931142378
200.487271142
200.043399906
200.02303884
200.519848847
200.043399906
200.483198929
200.487271142
200.027111053
200.039327693
200.043399906
200.027111053
200.027111053
200.043399906
200.039327693
200.043399906
200.487271142
200.043399906
200.02303884
200.02303884
200.02303884
200.006749988
200.02303884
200.043399906
200.02303884
200.02303884
200.027111053
200.010822201
200.039327693
200.039327693
200.02303884
200.059688759
200.931142378
200.02303884
200.519848847
200.043399906
200.043399906
200.02303884
200.039327693
200.02303884
200.027111053
200.027111053
200.503559995
200.914853525
200.027111053
200.503559995
200.027111053
200.043399906
200.931142378
200.027111053
200.039327693
200.043399906
200.027111053
200.931142378
200.039327693
200.027111053
200.006749988
200.931142378
200.914853525
200.898564672
200.027111053
200.02303884
200.483198929
200.898564672
200.043399906
200.043399906
200.487271142
200.02303884

Average distance is : 200.225 cm
Average deviation is : 0.339 cm
Block: 2
======================================
200.503559995
200.059688759
200.450621223
200.503559995
200.503559995
200.454693437
200.006749988
200.503559995
200.931142378
200.466910076
200.927070165
200.039327693
200.466910076
200.02303884
200.039327693
200.02303884
200.043399906
200.02303884
200.006749988
200.043399906
200.027111053
201.358724761
200.02303884
200.043399906
200.039327693
200.470982289
200.503559995
200.039327693
200.043399906
200.503559995
200.039327693
200.027111053
200.487271142
200.523921061
200.503559995
200.027111053
200.027111053
200.039327693
200.043399906
200.043399906
200.947431231
200.039327693
200.503559995
200.043399906
200.02303884
200.02303884
199.990461135
200.027111053
200.043399906
200.039327693
200.503559995
200.043399906
200.466910076
200.487271142
200.503559995
200.466910076
200.027111053
200.487271142
200.466910076
200.027111053
200.927070165
200.027111053
200.027111053
200.503559995
200.059688759
200.027111053
200.039327693
200.043399906
200.02303884
200.503559995
200.059688759
200.043399906
200.027111053
201.802595997
200.043399906

Average distance is : 200.269 cm
Average deviation is : 0.348 cm
Block: 3
======================================
200.027111053
200.02303884
200.039327693
200.043399906
200.039327693
200.487271142
200.931142378
200.947431231
200.910781312
200.039327693
200.043399906
200.02303884
200.483198929
200.010822201
200.027111053
200.039327693
200.059688759
200.043399906
200.02303884
200.02303884
200.503559995
200.470982289
200.059688759
200.898564672
200.059688759
200.043399906
200.947431231
200.503559995
200.02303884
200.027111053
200.503559995
200.043399906
200.027111053
200.027111053
200.027111053
200.927070165
200.02303884
200.043399906
201.358724761
200.947431231
200.503559995
200.043399906
200.519848847
200.039327693
200.027111053
200.039327693
200.043399906
200.027111053
200.503559995
200.487271142
200.006749988
200.043399906
200.043399906
200.027111053
200.02303884
200.043399906
200.059688759
200.043399906
200.043399906
200.503559995
200.043399906
200.466910076
200.039327693
200.02303884
200.043399906
200.02303884
200.487271142
200.487271142
200.02303884
200.027111053
199.59952867
201.370941401
200.043399906
200.02303884
200.039327693

Average distance is : 200.234 cm
Average deviation is : 0.355 cm
Block: 4
======================================
200.503559995
200.043399906
200.487271142
200.487271142
200.039327693
199.615817523
200.043399906
200.043399906
200.487271142
200.02303884
200.519848847
200.043399906
200.02303884
200.487271142
200.02303884
200.947431231
200.470982289
200.043399906
200.039327693
200.059688759
200.043399906
200.466910076
200.503559995
200.519848847
200.039327693
200.503559995
200.043399906
200.503559995
200.503559995
200.043399906
200.503559995
200.963720083
200.503559995
200.043399906
200.027111053
200.039327693
200.043399906
200.487271142
200.039327693
200.043399906
200.483198929
200.043399906
200.080049825
200.043399906
200.010822201
200.006749988
200.483198929
200.487271142
200.059688759
200.503559995
200.503559995
200.02303884
200.947431231
200.059688759
200.055616546
199.59952867
200.466910076
200.043399906
200.039327693
200.519848847
200.931142378
200.947431231
200.027111053
200.487271142
200.466910076
200.466910076
200.043399906
200.450621223
200.454693437
200.931142378
200.931142378
200.947431231
200.055616546
200.931142378
200.910781312

Average distance is : 200.317 cm
Average deviation is : 0.337 cm
Block: 5
======================================
200.043399906
200.914853525
200.914853525
200.027111053
200.487271142
200.483198929
200.454693437
200.503559995
200.947431231
200.059688759
200.947431231
200.927070165
200.487271142
200.043399906
200.931142378
200.450621223
200.039327693
200.914853525
200.503559995
200.931142378
200.927070165
200.043399906
200.043399906
200.039327693
200.043399906
199.566950965
200.931142378
200.910781312
200.043399906
200.043399906
200.914853525
200.027111053
200.927070165
200.931142378
200.039327693
200.503559995
200.910781312
200.931142378
200.931142378
200.931142378
200.02303884
200.470982289
200.483198929
200.931142378
200.931142378
200.487271142
200.466910076
200.487271142
200.043399906
200.931142378
200.006749988
200.02303884
200.043399906
200.927070165
200.043399906
200.519848847
199.579167604
200.027111053
200.043399906
200.931142378
200.059688759
200.927070165
200.027111053
200.027111053
200.910781312
200.027111053
200.043399906
200.043399906
200.039327693
200.043399906
200.914853525
200.927070165
200.931142378
200.947431231
200.043399906

Average distance is : 200.453 cm
Average deviation is : 0.423 cm
Block: 6
======================================
200.039327693
199.579167604
200.503559995
200.043399906
200.010822201
200.02303884
200.927070165
200.470982289
200.027111053
200.043399906
200.466910076
200.466910076
199.990461135
200.487271142
200.043399906
199.562878752
200.006749988
200.02303884
200.02303884
200.027111053
200.02303884
200.043399906
200.487271142
200.006749988
200.02303884
200.470982289
200.006749988
200.006749988
200.043399906
200.043399906
200.503559995
200.487271142
200.02303884
200.039327693
200.027111053
200.010822201
200.487271142
200.027111053
200.043399906
200.02303884
200.027111053
200.043399906
200.039327693
200.470982289
200.02303884
199.562878752
200.02303884
200.027111053
200.027111053
199.566950965
200.02303884
200.039327693
200.043399906
200.043399906
200.039327693
200.02303884
200.027111053
200.027111053
200.027111053
200.010822201
200.043399906
200.487271142
200.466910076
200.02303884
200.02303884
200.006749988
200.02303884
200.02303884
200.027111053
200.027111053
200.043399906
200.027111053
200.487271142
200.487271142
200.470982289

Average distance is : 200.112 cm
Average deviation is : 0.245 cm
Block: 7
======================================
200.043399906
200.470982289
199.562878752
200.027111053
201.375013614
200.043399906
200.059688759
200.055616546
200.914853525
200.039327693
200.027111053
200.043399906
200.010822201
200.027111053
200.927070165
200.043399906
200.027111053
200.02303884
199.990461135
199.579167604
200.466910076
200.914853525
200.503559995
200.499487782
200.027111053
200.519848847
200.519848847
200.02303884
200.02303884
200.519848847
200.043399906
200.059688759
200.043399906
200.027111053
200.503559995
200.02303884
200.027111053
200.02303884
200.02303884
200.043399906
200.043399906
200.454693437
200.483198929
200.039327693
200.027111053
200.043399906
200.039327693
200.02303884
200.043399906
200.503559995
200.503559995
201.375013614
200.006749988
200.043399906
200.059688759
200.470982289
201.391302466
200.02303884
200.039327693
200.027111053
200.503559995
200.027111053
200.02303884
200.02303884
200.027111053
200.503559995
200.02303884
200.02303884
200.947431231
200.503559995
200.503559995
200.487271142
200.503559995
200.947431231
200.963720083

Average distance is : 200.264 cm
Average deviation is : 0.383 cm
Block: 8
======================================
200.963720083
200.963720083
200.499487782
200.075977612
200.059688759
200.059688759
200.02303884
200.470982289
200.503559995
200.043399906
200.503559995
200.503559995
200.503559995
200.947431231
200.503559995
200.059688759
200.483198929
200.963720083
200.503559995
200.519848847
200.483198929
200.503559995
200.059688759
200.947431231
200.059688759
200.487271142
200.947431231
200.947431231
200.519848847
200.487271142
200.980008936
200.503559995
200.947431231
200.487271142
200.503559995
200.963720083
200.947431231
200.075977612
200.059688759
200.963720083
200.947431231
200.963720083
200.963720083
200.963720083
200.039327693
200.039327693
200.043399906
200.947431231
200.947431231
200.075977612
200.483198929
200.503559995
200.5361377
200.483198929
200.963720083
200.963720083
200.5361377
201.391302466
200.043399906
200.043399906
200.043399906
200.947431231
200.963720083
200.980008936
200.947431231
200.5361377
200.080049825
200.947431231
200.947431231
200.059688759
200.963720083
200.963720083
200.947431231
200.075977612
200.556498766

Average distance is : 200.572 cm
Average deviation is : 0.375 cm
Block: 9
======================================
200.055616546
200.059688759
200.963720083
200.075977612
200.075977612
200.984081149
200.059688759
200.075977612
200.059688759
201.000370002
200.470982289
200.967792296
200.963720083
200.043399906
200.059688759
200.963720083
200.947431231
200.947431231
200.963720083
200.075977612
200.963720083
200.059688759
200.980008936
200.519848847
200.947431231
200.963720083
200.980008936
200.980008936
200.519848847
200.096338677
200.092266464
200.5361377
200.963720083
200.487271142
200.075977612
200.092266464
200.075977612
200.519848847
200.967792296
200.5361377
200.963720083
200.499487782
200.503559995
200.963720083
200.947431231
200.947431231
200.075977612
200.075977612
200.963720083
200.487271142
200.092266464
200.963720083
200.075977612
200.967792296
200.075977612
200.540209913
200.075977612
200.963720083
200.963720083
200.947431231
200.503559995
200.947431231
200.967792296
200.519848847
200.503559995
200.503559995
200.075977612
200.963720083
200.096338677
200.487271142
200.984081149
200.039327693
200.503559995
200.947431231
200.963720083

Average distance is : 200.564 cm
Average deviation is : 0.392 cm
Block: 10
======================================
200.059688759
200.080049825
200.039327693
200.043399906
200.043399906
200.043399906
200.963720083
200.5361377
200.092266464
200.963720083
200.947431231
200.963720083
200.980008936
200.499487782
200.503559995
200.519848847
200.059688759
200.963720083
200.947431231
200.984081149
200.487271142
200.963720083
200.503559995
200.967792296
200.947431231
200.963720083
200.947431231
200.947431231
200.947431231
200.947431231
200.503559995
200.947431231
200.963720083
200.963720083
200.483198929
200.503559995
200.027111053
200.466910076
200.503559995
200.027111053
200.483198929
200.963720083
200.947431231
200.503559995
200.503559995
200.487271142
200.043399906
200.503559995
200.02303884
200.503559995
200.466910076
200.487271142
200.967792296
200.963720083
200.947431231
200.043399906
200.931142378
200.503559995
200.027111053
200.963720083
200.043399906
200.039327693
200.043399906
200.02303884
200.02303884
200.043399906
200.519848847
200.043399906
200.043399906
200.483198929
200.043399906
200.487271142
200.483198929
200.039327693
200.487271142

Average distance is : 200.511 cm
Average deviation is : 0.376 cm