
Block: 1
======================================
99.7768110037
100.22698164
100.243501663
100.280671716
100.243501663
99.7602909803
99.7974610329
100.247631669
100.22698164
100.693672299
100.210461617
100.697802305
100.247631669
100.243501663
100.210461617
100.22698164
100.210461617
100.280671716
100.22698164
100.714322329
100.22698164
100.107211471
100.264151692
100.714322329
100.264151692
99.8470211029
99.8098510504
100.210461617
100.210461617
100.260021687
100.264151692
100.280671716
100.210461617
99.8098510504
100.247631669
99.3596804142
100.210461617
99.8470211029
100.243501663
100.243501663
100.247631669
100.231111646
100.247631669
100.210461617
99.7768110037
100.214591622
100.210461617
100.210461617
100.247631669
100.243501663

Average distance is : 100.185 cm
Average deviation is : 0.250 cm
Block: 2
======================================
100.243501663
100.22698164
101.127322912
100.260021687
100.22698164
100.697802305
100.730842352
100.243501663
100.247631669
100.714322329
100.22698164
100.677152276
100.247631669
100.264151692
99.793331027
100.714322329
99.793331027
100.210461617
100.243501663
100.22698164
100.247631669
99.7768110037
100.260021687
100.243501663
99.7602909803
100.22698164
100.210461617
100.27654171
100.264151692
100.243501663
100.243501663
100.210461617
100.247631669
100.247631669
100.243501663
100.264151692
100.22698164
100.22698164
100.210461617
100.553252101
100.231111646
100.247631669
100.243501663
99.7768110037
100.214591622
99.7768110037
99.7602909803
100.264151692
100.22698164
100.243501663

Average distance is : 100.246 cm
Average deviation is : 0.267 cm
Block: 3
======================================
99.7396409512
100.264151692
100.210461617
100.264151692
99.4670605659
100.243501663
100.247631669
99.8098510504
99.743770957
100.243501663
100.247631669
100.22698164
100.264151692
99.7974610329
99.7602909803
100.260021687
100.22698164
100.22698164
100.243501663
100.243501663
100.243501663
100.22698164
100.247631669
101.131452918
100.260021687
100.243501663
100.210461617
100.243501663
100.22698164
100.260021687
100.247631669
100.231111646
101.147972941
100.264151692
100.22698164
100.264151692
100.210461617
100.231111646
100.22698164
100.714322329
100.247631669
99.7809410095
99.7809410095
100.231111646
99.7602909803
100.243501663
99.7768110037
100.264151692
99.7768110037
100.681282282

Average distance is : 100.187 cm
Average deviation is : 0.309 cm
Block: 4
======================================
99.7768110037
99.793331027
99.7768110037
99.793331027
99.7809410095
100.280671716
99.7809410095
100.280671716
99.7768110037
99.7974610329
100.243501663
99.7602909803
100.280671716
100.260021687
99.7602909803
99.743770957
100.22698164
100.243501663
100.264151692
100.247631669
100.22698164
99.7809410095
99.7809410095
100.247631669
100.22698164
99.7768110037
99.7602909803
100.260021687
100.243501663
100.243501663
101.110802889
99.743770957
100.243501663
100.247631669
100.231111646
100.22698164
100.210461617
99.7768110037
99.3266403675
100.22698164
99.7768110037
100.231111646
100.247631669
100.243501663
99.7768110037
100.247631669
100.247631669
100.264151692
99.7602909803
100.243501663

Average distance is : 100.056 cm
Average deviation is : 0.295 cm
Block: 5
======================================
99.7974610329
100.247631669
99.7768110037
100.280671716
100.22698164
100.22698164
100.264151692
100.264151692
100.22698164
100.243501663
100.247631669
100.697802305
100.247631669
100.243501663
100.243501663
99.8263710737
100.664762259
100.693672299
100.693672299
100.264151692
100.231111646
100.243501663
99.7974610329
100.243501663
99.7768110037
100.247631669
100.260021687
100.210461617
100.247631669
100.22698164
100.22698164
100.247631669
100.243501663
100.247631669
100.264151692
100.247631669
100.247631669
99.793331027
100.264151692
100.264151692
100.22698164
100.243501663
100.243501663
100.210461617
100.231111646
101.110802889
100.247631669
100.243501663
100.210461617
100.22698164

Average distance is : 100.242 cm
Average deviation is : 0.237 cm
Block: 6
======================================
99.793331027
100.264151692
99.7768110037
100.22698164
100.22698164
99.7768110037
100.243501663
100.22698164
99.7602909803
99.8098510504
100.22698164
99.3266403675
101.127322912
99.8263710737
100.260021687
100.243501663
99.7768110037
99.7768110037
100.247631669
100.247631669
100.247631669
99.7602909803
100.22698164
100.22698164
100.22698164
100.247631669
100.264151692
100.247631669
99.7768110037
100.210461617
100.264151692
100.247631669
100.264151692
100.243501663
99.7768110037
100.210461617
100.260021687
100.243501663
100.22698164
100.243501663
100.520212054
100.264151692
100.243501663
99.7768110037
99.743770957
100.280671716
99.3431603909
100.22698164
100.210461617
100.22698164

Average distance is : 100.108 cm
Average deviation is : 0.300 cm
Block: 7
======================================
100.297191739
99.7768110037
99.7974610329
100.264151692
100.231111646
100.210461617
101.147972941
100.264151692
100.247631669
100.22698164
100.243501663
100.210461617
100.247631669
100.243501663
99.7768110037
100.681282282
100.22698164
100.22698164
100.243501663
100.260021687
100.693672299
100.243501663
100.260021687
100.730842352
100.243501663
100.210461617
100.280671716
100.231111646
100.231111646
100.677152276
100.260021687
100.264151692
100.22698164
100.210461617
100.210461617
100.22698164
100.714322329
100.730842352
99.8098510504
100.210461617
100.247631669
100.243501663
100.210461617
99.8139810562
99.793331027
100.677152276
100.677152276
100.243501663
100.22698164
100.264151692

Average distance is : 100.278 cm
Average deviation is : 0.273 cm
Block: 8
======================================
99.7809410095
100.214591622
100.22698164
100.280671716
100.210461617
100.210461617
100.243501663
100.260021687
100.243501663
100.243501663
100.260021687
100.280671716
100.264151692
100.260021687
100.22698164
100.503692031
100.260021687
99.793331027
99.7974610329
99.793331027
100.231111646
100.260021687
100.730842352
99.793331027
100.243501663
100.264151692
100.22698164
100.231111646
100.264151692
100.260021687
100.247631669
100.27654171
100.210461617
100.243501663
100.280671716
99.7768110037
100.22698164
100.22698164
100.247631669
99.8305010796
100.243501663
100.264151692
100.243501663
99.7602909803
100.264151692
100.280671716
100.264151692
99.7768110037
100.22698164
101.143842936

Average distance is : 100.198 cm
Average deviation is : 0.243 cm
Block: 9
======================================
100.264151692
100.260021687
100.264151692
100.297191739
100.247631669
100.280671716
100.243501663
100.264151692
100.264151692
100.264151692
100.231111646
100.247631669
100.280671716
100.247631669
100.280671716
99.793331027
100.280671716
100.693672299
99.7974610329
100.243501663
100.677152276
100.710192323
100.730842352
99.8098510504
100.677152276
100.677152276
99.8139810562
100.710192323
100.697802305
100.697802305
100.714322329
100.264151692
100.693672299
100.693672299
100.22698164
99.3431603909
100.887782574
101.164492965
100.264151692
100.714322329
100.264151692
101.127322912
100.243501663
100.243501663
100.210461617
100.27654171
100.260021687
100.247631669
100.210461617
100.260021687

Average distance is : 100.365 cm
Average deviation is : 0.338 cm
Block: 10
======================================
99.793331027
100.280671716
100.280671716
100.264151692
100.210461617
100.247631669
100.247631669
100.280671716
100.260021687
100.243501663
100.231111646
100.22698164
100.210461617
100.243501663
100.264151692
99.8098510504
100.264151692
100.22698164
100.247631669
100.297191739
99.7768110037
100.247631669
100.243501663
100.247631669
100.264151692
100.697802305
100.210461617
100.22698164
100.264151692
100.243501663
100.231111646
100.710192323
100.22698164
100.210461617
100.243501663
99.8139810562
100.693672299
100.22698164
100.693672299
100.677152276
100.677152276
100.710192323
100.22698164
99.7974610329
100.260021687
100.210461617
99.8263710737
99.9544012547
100.210461617
100.243501663

Average distance is : 100.248 cm
Average deviation is : 0.234 cm
Average distance for 10x50 is : 100.211 cm
Average deviation for 10x50 is : 0.275 cm
 Percentage of values that failed: 0.000