
Block: 1
======================================
198.16203742
198.178326273
198.214976192
198.198687339
198.178326273
198.198687339
198.210903978
198.214976192
198.178326273
198.214976192
198.178326273
198.182398486
198.198687339
197.73852725
197.75074389
197.734455037
198.16203742
198.178326273
198.178326273
198.231265044
198.214976192
197.754816103
197.722238398
198.198687339
198.214976192

Average distance is : 198.104 cm
Average deviation is : 0.186 cm
Block: 2
======================================
198.198687339
197.75074389
197.754816103
198.16203742
198.198687339
198.231265044
198.178326273
198.182398486
197.771104956
197.73852725
198.194615126
198.178326273
198.198687339
198.198687339
198.178326273
198.198687339
198.16203742
198.182398486
197.754816103
197.754816103
198.198687339
198.198687339
198.214976192
198.182398486
198.182398486

Average distance is : 198.086 cm
Average deviation is : 0.191 cm
Block: 3
======================================
198.214976192
198.194615126
197.754816103
198.182398486
198.214976192
198.16203742
198.182398486
197.734455037
198.194615126
198.198687339
198.194615126
198.182398486
198.198687339
198.198687339
197.771104956
198.198687339
197.787393808
197.734455037
198.198687339
198.194615126
198.235337257
198.178326273
198.182398486
198.16203742
198.210903978

Average distance is : 198.106 cm
Average deviation is : 0.180 cm
Block: 4
======================================
198.145748568
198.198687339
198.231265044
198.16203742
198.210903978
198.166109633
198.214976192
198.194615126
197.767032743
198.16203742
197.754816103
198.182398486
198.16203742
198.198687339
198.198687339
198.231265044
198.166109633
197.73852725
198.198687339
198.214976192
198.231265044
197.734455037
198.166109633
198.194615126
197.718166184

Average distance is : 198.102 cm
Average deviation is : 0.185 cm
Block: 5
======================================
198.16203742
198.166109633
198.16203742
197.701877332
198.198687339
198.198687339
197.75074389
198.194615126
198.214976192
198.166109633
198.214976192
197.787393808
198.214976192
198.178326273
197.73852725
198.214976192
198.166109633
198.178326273
198.198687339
198.214976192
197.722238398
197.767032743
197.722238398
198.182398486
197.754816103

Average distance is : 198.047 cm
Average deviation is : 0.214 cm
Block: 6
======================================
198.198687339
198.210903978
198.198687339
198.247553897
198.210903978
197.73852725
198.194615126
198.198687339
198.182398486
198.214976192
198.182398486
198.166109633
198.149820781
198.182398486
198.198687339
198.182398486
198.166109633
197.754816103
198.194615126
198.214976192
197.73852725
198.198687339
198.214976192
198.166109633
197.75074389

Average distance is : 198.122 cm
Average deviation is : 0.169 cm
Block: 7
======================================
197.722238398
198.214976192
198.182398486
198.145748568
197.754816103
197.754816103
198.214976192
197.754816103
197.771104956
198.214976192
198.247553897
197.754816103
198.214976192
198.247553897
197.73852725
197.754816103
197.75074389
197.771104956
198.214976192
198.214976192
198.231265044
198.231265044
198.25162611
198.25162611
198.182398486

Average distance is : 198.032 cm
Average deviation is : 0.234 cm
Block: 8
======================================
198.231265044
198.231265044
198.214976192
197.701877332
198.214976192
198.198687339
197.754816103
197.787393808
198.231265044
197.771104956
198.210903978
198.214976192
197.754816103
197.754816103
198.16203742
197.75074389
198.198687339
198.182398486
198.247553897
197.771104956
198.214976192
198.231265044
197.771104956
198.194615126
198.178326273

Average distance is : 198.047 cm
Average deviation is : 0.223 cm
Block: 9
======================================
197.734455037
198.194615126
198.178326273
197.771104956
198.194615126
197.734455037
198.214976192
198.194615126
198.231265044
198.247553897
198.166109633
197.754816103
198.214976192
197.754816103
198.198687339
197.771104956
198.16203742
198.178326273
198.231265044
198.194615126
198.178326273
197.734455037
198.198687339
197.718166184
198.198687339

Average distance is : 198.054 cm
Average deviation is : 0.216 cm
Block: 10
======================================
197.734455037
198.214976192
197.73852725
198.182398486
198.214976192
198.25162611
197.771104956
198.214976192
198.194615126
197.734455037
197.718166184
197.754816103
198.214976192
198.198687339
197.718166184
198.198687339
198.231265044
198.198687339
198.16203742
198.166109633
198.182398486
197.754816103
198.214976192
198.214976192
198.214976192

Average distance is : 198.056 cm
Average deviation is : 0.222 cm