
Block: 1
======================================
99.8635411263
90.6660181284
98.5997593403
92.2230303288
98.682359457
93.3340018988
98.632799387
93.9906728268
97.7696281672
93.6644023657

Block: 2
======================================
99.8470211029
96.9725370407
96.4149862528
102.064834237
93.9411127567
100.247631669
94.7877639532
99.0334099531
95.221414566
99.0168899298

Block: 3
======================================
100.313711762
92.5534307957
97.2492474318
93.7841725349
99.8800611496
90.4760378599
100.247631669
92.2602003813
99.8470211029
93.4372520447

Block: 4
======================================
100.330231786
100.297191739
85.573720932
98.3395689726
100.313711762
89.8854470253
99.4464105368
94.0939229727
97.6457279921
95.2585846186

Block: 5
======================================
99.8470211029
94.8208039999
98.4262990952
95.8987355232
98.7236595154
95.3577047586
100.297191739
95.2709746361
99.4794505835
96.5388864279

Block: 6
======================================
100.796922445
91.2731289864
98.3395689726
94.2178231478
98.7030094862
92.8673112392
99.7974610329
93.8172125816
99.4298905134
93.3340018988

Block: 7
======================================
100.330231786
91.8430697918
95.9648156166
95.0686043501
97.0427471399
93.7304824591
98.3023989201
94.7877639532
97.0220971107
95.6220251322

Block: 8
======================================
100.350881815
94.8414540291
99.3266403675
96.8321168423
97.8893983364
96.5760564804
98.025688529
97.1459972858
98.0463385582
98.0298185349

Block: 9
======================================
100.346751809
99.4505405426
88.9355456829
99.4133704901
100.317841768
88.8281655312
99.8635411263
93.2101017237
100.280671716
94.7547239065

Block: 10
======================================
99.8635411263
95.4155248404
97.521827817
96.7288666964
97.6085579395
97.1996873617
97.7159380913
97.8191882372
98.2321888208
98.1826287508
