
Block: 1
======================================
99.8635411263
99.8841911554
100.317841768
100.313711762
99.9172312021
100.280671716
99.8965811729
99.8800611496
99.8676711321
99.8800611496
100.27654171
99.8841911554
100.330231786
100.313711762
100.297191739
100.313711762
100.297191739
99.9007111788
100.317841768
100.317841768
100.317841768
100.313711762
100.280671716
99.8841911554
100.297191739
100.280671716
100.280671716
100.297191739
100.297191739
100.313711762
100.313711762
100.297191739
100.313711762
100.280671716
100.297191739
99.8305010796
100.313711762
100.313711762
100.297191739
99.8635411263
99.8635411263
100.280671716
99.8800611496
100.297191739
100.297191739
100.280671716
100.313711762
100.313711762
100.313711762
99.8800611496
100.297191739
99.9007111788
100.313711762
100.297191739
100.297191739
100.313711762
100.301321745
100.297191739
100.317841768
100.334361792
100.280671716
100.297191739
100.297191739
100.313711762
100.330231786
100.280671716
100.313711762
100.313711762
100.313711762
100.297191739
100.297191739
100.317841768
100.297191739
100.297191739
100.297191739
99.8635411263
100.297191739
99.8635411263
100.317841768
99.8841911554
99.9007111788
99.9172312021
100.297191739
100.313711762
100.297191739
99.8800611496
100.346751809
100.330231786
100.297191739
100.297191739
100.297191739
100.313711762
99.8470211029
99.9007111788
100.313711762
100.313711762
100.280671716
100.313711762
100.313711762
99.8841911554

Block: 2
======================================
99.8841911554
99.8800611496
100.313711762
100.317841768
99.8841911554
99.8263710737
99.8635411263
100.280671716
99.8841911554
99.8470211029
99.9172312021
99.9172312021
99.8800611496
99.9007111788
99.8800611496
99.8965811729
99.8800611496
99.8800611496
99.8800611496
99.8305010796
99.8470211029
100.334361792
100.297191739
100.297191739
100.317841768
100.317841768
100.313711762
100.297191739
100.297191739
99.8470211029
99.8800611496
100.280671716
100.297191739
100.297191739
100.313711762
100.313711762
100.313711762
100.27654171
100.330231786
100.317841768
100.334361792
100.317841768
100.330231786
100.297191739
100.334361792
100.297191739
100.330231786
100.334361792
100.317841768
100.317841768
99.8305010796
99.8470211029
99.8305010796
99.8800611496
99.8470211029
99.8800611496
100.297191739
100.280671716
99.8635411263
100.313711762
100.317841768
100.280671716
100.313711762
100.313711762
100.317841768
100.297191739
100.297191739
100.313711762
100.313711762
100.264151692
99.8800611496
100.313711762
100.334361792
99.9007111788
100.330231786
100.330231786
100.313711762
100.297191739
100.260021687
99.8305010796
99.8139810562
99.8470211029
99.8800611496
100.297191739
100.313711762
100.317841768
100.313711762
100.330231786
100.27654171
100.297191739
100.313711762
100.330231786
100.313711762
100.260021687
100.317841768
100.317841768
100.297191739
99.8635411263
100.317841768
100.317841768

Block: 3
======================================
99.9007111788
99.8841911554
100.330231786
99.8841911554
99.8800611496
99.8800611496
100.334361792
100.313711762
100.334361792
100.297191739
99.8800611496
99.9007111788
99.9172312021
100.280671716
99.9007111788
99.8635411263
99.9007111788
99.8635411263
99.8800611496
100.297191739
99.8800611496
99.8635411263
100.313711762
99.8800611496
100.297191739
100.313711762
100.313711762
100.297191739
100.317841768
100.317841768
100.317841768
100.297191739
100.313711762
99.9172312021
100.330231786
100.297191739
100.330231786
99.8965811729
100.350881815
100.313711762
100.330231786
100.297191739
100.313711762
100.330231786
100.297191739
100.313711762
100.313711762
100.334361792
100.280671716
100.330231786
100.330231786
99.8800611496
100.313711762
100.330231786
100.313711762
100.297191739
100.330231786
100.334361792
100.330231786
100.313711762
100.330231786
100.313711762
100.313711762
100.330231786
100.313711762
100.330231786
100.334361792
100.313711762
100.313711762
100.330231786
100.330231786
100.313711762
100.297191739
100.313711762
100.317841768
100.297191739
100.313711762
100.313711762
100.297191739
100.313711762
100.334361792
100.350881815
100.330231786
99.9007111788
100.334361792
100.313711762
100.317841768
99.8635411263
99.8841911554
100.317841768
100.297191739
100.334361792
100.334361792
100.317841768
100.280671716
100.313711762
100.297191739
99.8305010796
100.330231786
100.330231786

Block: 4
======================================
99.9007111788
100.280671716
100.280671716
100.297191739
100.334361792
100.280671716
100.297191739
100.317841768
99.8676711321
100.313711762
100.297191739
100.280671716
100.297191739
100.297191739
100.313711762
99.8800611496
99.8965811729
100.297191739
99.8841911554
99.9172312021
99.8841911554
99.8800611496
99.8841911554
99.9007111788
99.9172312021
100.346751809
100.280671716
99.8800611496
99.8800611496
99.8470211029
100.317841768
100.317841768
100.317841768
100.313711762
100.330231786
100.297191739
100.297191739
100.313711762
100.313711762
100.297191739
100.313711762
100.297191739
100.317841768
99.8470211029
99.8800611496
100.330231786
100.297191739
100.297191739
99.8470211029
99.8470211029
99.8635411263
100.313711762
100.297191739
99.8800611496
99.8635411263
100.297191739
100.301321745
99.8841911554
100.280671716
100.297191739
99.9007111788
100.264151692
99.8635411263
100.264151692
99.8841911554
99.8635411263
100.280671716
100.297191739
100.280671716
99.8635411263
100.280671716
99.8635411263
100.297191739
100.297191739
99.8305010796
99.8635411263
99.8470211029
100.280671716
99.8635411263
99.8676711321
100.280671716
99.8800611496
99.8470211029
99.8470211029
99.8965811729
100.297191739
100.297191739
99.8800611496
100.280671716
101.494893432
100.297191739
99.8635411263
99.8800611496
99.8635411263
100.280671716
99.8470211029
99.8800611496
100.301321745
100.280671716
100.27654171

Block: 5
======================================
99.8800611496
99.8635411263
100.297191739
100.297191739
100.297191739
100.313711762
100.313711762
99.8635411263
100.301321745
99.9172312021
99.8635411263
99.8800611496
99.8470211029
100.260021687
100.280671716
100.27654171
99.8470211029
99.8470211029
100.297191739
100.280671716
99.8800611496
100.313711762
100.297191739
99.8635411263
99.9007111788
99.8470211029
99.8676711321
99.8635411263
100.317841768
99.8470211029
99.8305010796
99.8635411263
100.313711762
100.297191739
100.280671716
100.27654171
99.8800611496
100.297191739
99.8470211029
100.317841768
100.280671716
99.8676711321
99.8841911554
100.280671716
99.8841911554
99.8635411263
100.297191739
100.297191739
100.297191739
99.8635411263
100.297191739
100.297191739
100.297191739
100.297191739
99.8635411263
99.8676711321
100.280671716
99.8470211029
100.330231786
99.8635411263
99.8841911554
100.313711762
100.297191739
100.297191739
99.8635411263
99.8470211029
99.8841911554
99.8305010796
99.8635411263
99.8635411263
99.8470211029
99.8635411263
100.280671716
99.8470211029
99.8470211029
100.297191739
100.297191739
100.280671716
99.8635411263
100.280671716
100.297191739
99.8470211029
99.8470211029
100.297191739
100.297191739
99.8470211029
99.8800611496
99.8635411263
100.280671716
100.280671716
99.8841911554
99.9172312021
99.8470211029
100.313711762
100.297191739
100.297191739
100.280671716
99.8470211029
99.8800611496
100.313711762

Block: 6
======================================
99.8800611496
99.8841911554
99.8841911554
99.9131011963
100.334361792
100.330231786
100.317841768
100.297191739
100.313711762
99.8635411263
99.8800611496
100.297191739
100.313711762
100.297191739
100.313711762
100.313711762
100.297191739
100.27654171
100.313711762
100.297191739
100.297191739
100.313711762
100.313711762
100.243501663
99.8800611496
99.8635411263
99.8800611496
99.8841911554
100.317841768
99.8965811729
100.297191739
100.297191739
99.9172312021
100.317841768
99.8800611496
99.8635411263
99.8635411263
99.8676711321
99.8676711321
100.297191739
100.280671716
100.297191739
100.313711762
100.313711762
100.297191739
100.297191739
100.313711762
100.313711762
99.9007111788
100.280671716
100.297191739
99.8841911554
100.297191739
100.280671716
100.280671716
100.313711762
100.313711762
100.264151692
99.8676711321
99.8470211029
99.8841911554
100.280671716
99.8635411263
100.313711762
100.334361792
100.280671716
100.313711762
100.297191739
100.313711762
100.27654171
100.247631669
99.8635411263
100.280671716
100.334361792
100.297191739
100.297191739
100.297191739
100.280671716
100.297191739
100.297191739
100.317841768
99.8841911554
100.317841768
100.313711762
100.313711762
100.297191739
100.313711762
100.297191739
99.8635411263
100.297191739
100.297191739
99.8800611496
99.8470211029
100.297191739
100.317841768
100.313711762
100.313711762
100.317841768
100.297191739
99.8800611496

Block: 7
======================================
100.280671716
99.8965811729
100.297191739
100.280671716
100.297191739
100.297191739
100.313711762
100.280671716
100.313711762
100.297191739
100.297191739
100.313711762
100.297191739
100.280671716
99.8841911554
100.280671716
100.313711762
100.317841768
100.280671716
99.8635411263
100.297191739
100.297191739
100.297191739
100.297191739
99.8470211029
99.8635411263
99.8800611496
99.8676711321
100.297191739
100.297191739
99.8470211029
99.9296212196
99.8965811729
99.8841911554
99.8635411263
99.8635411263
100.297191739
99.8841911554
99.8470211029
99.8470211029
99.8470211029
99.8841911554
100.297191739
99.8470211029
100.297191739
100.297191739
100.313711762
100.297191739
100.313711762
100.297191739
100.297191739
100.297191739
99.8470211029
99.8841911554
100.297191739
99.9007111788
100.280671716
100.297191739
99.8676711321
99.8841911554
100.280671716
93.1977117062
99.8635411263
99.8635411263
99.8470211029
100.313711762
100.297191739
99.8635411263
99.8676711321
99.8635411263
100.313711762
100.297191739
99.8635411263
100.297191739
100.280671716
99.8635411263
100.297191739
100.330231786
100.330231786
100.280671716
100.280671716
99.8841911554
100.297191739
100.280671716
100.280671716
99.8841911554
100.280671716
100.297191739
99.8470211029
100.27654171
100.297191739
99.8470211029
99.8676711321
99.8635411263
99.8470211029
99.8800611496
100.280671716
99.8470211029
99.8635411263
99.8676711321

Block: 8
======================================
100.27654171
99.8635411263
99.8965811729
100.297191739
100.297191739
100.313711762
100.313711762
100.313711762
100.297191739
100.317841768
100.330231786
100.297191739
100.297191739
100.297191739
100.297191739
100.317841768
100.297191739
100.330231786
100.313711762
100.264151692
100.334361792
100.317841768
100.330231786
100.280671716
99.8470211029
100.313711762
99.8305010796
99.8470211029
99.8800611496
99.9131011963
100.313711762
100.27654171
99.8305010796
99.8635411263
100.350881815
100.334361792
100.334361792
100.280671716
100.313711762
99.8305010796
99.8470211029
99.8965811729
100.280671716
99.8305010796
99.8841911554
99.8305010796
99.9172312021
100.264151692
100.334361792
99.8800611496
100.313711762
100.297191739
100.297191739
99.8470211029
99.8800611496
100.297191739
100.313711762
100.330231786
100.313711762
100.313711762
100.280671716
99.8841911554
100.313711762
100.313711762
100.313711762
100.260021687
99.8965811729
100.313711762
100.313711762
99.8470211029
100.297191739
100.264151692
99.8800611496
100.313711762
100.264151692
99.8470211029
99.8635411263
100.297191739
100.317841768
100.350881815
100.317841768
100.313711762
100.297191739
100.264151692
99.8098510504
99.9007111788
100.313711762
99.8635411263
100.280671716
100.330231786
100.330231786
100.330231786
99.8470211029
99.9007111788
99.9007111788
100.330231786
100.330231786
100.313711762
100.260021687
99.8965811729

Block: 9
======================================
99.8800611496
99.9172312021
100.330231786
100.330231786
99.8800611496
99.9007111788
99.9007111788
100.334361792
100.330231786
99.8800611496
99.9131011963
99.9172312021
100.313711762
100.27654171
100.297191739
100.317841768
100.280671716
100.297191739
100.313711762
100.334361792
100.280671716
100.330231786
100.330231786
100.297191739
100.313711762
100.330231786
99.8841911554
99.8800611496
100.330231786
100.313711762
100.313711762
99.8800611496
100.313711762
100.313711762
100.330231786
99.8800611496
99.9007111788
99.8635411263
100.317841768
100.317841768
100.334361792
100.330231786
100.313711762
100.297191739
100.313711762
100.297191739
100.297191739
100.330231786
100.334361792
100.27654171
100.297191739
100.317841768
100.317841768
100.313711762
100.317841768
100.317841768
100.330231786
100.313711762
100.297191739
99.8635411263
100.334361792
100.297191739
100.297191739
100.313711762
100.297191739
100.313711762
100.280671716
100.297191739
100.297191739
99.8470211029
99.9007111788
100.297191739
100.313711762
100.317841768
100.313711762
100.297191739
100.313711762
100.313711762
100.330231786
100.313711762
100.297191739
100.297191739
100.297191739
100.317841768
100.313711762
100.313711762
100.334361792
100.313711762
100.334361792
99.8676711321
100.313711762
99.8841911554
99.9007111788
100.313711762
100.334361792
100.297191739
100.313711762
100.264151692
99.8635411263
100.313711762

Block: 10
======================================
99.9337512255
100.313711762
100.313711762
99.8098510504
99.8800611496
100.297191739
100.297191739
99.8965811729
99.9007111788
100.330231786
99.9172312021
100.334361792
100.313711762
100.313711762
100.317841768
100.317841768
100.297191739
100.330231786
100.330231786
100.297191739
100.297191739
100.313711762
100.313711762
100.297191739
100.334361792
100.334361792
100.297191739
100.297191739
100.280671716
99.8139810562
99.8305010796
99.8635411263
99.8635411263
100.280671716
100.297191739
100.297191739
100.313711762
100.313711762
100.297191739
100.280671716
100.297191739
100.313711762
100.297191739
100.330231786
100.313711762
100.334361792
100.317841768
100.297191739
100.297191739
100.313711762
100.297191739
100.317841768
100.280671716
100.297191739
100.317841768
100.297191739
100.280671716
99.8841911554
100.280671716
99.8800611496
100.297191739
100.313711762
100.313711762
99.9007111788
100.297191739
100.297191739
100.313711762
100.297191739
100.297191739
100.297191739
100.317841768
100.297191739
99.8800611496
100.297191739
100.317841768
100.313711762
100.313711762
100.297191739
100.313711762
100.313711762
100.280671716
100.297191739
100.317841768
99.4629305601
99.8841911554
100.313711762
100.313711762
100.317841768
100.280671716
100.313711762
100.297191739
100.297191739
100.297191739
100.487172008
99.8635411263
99.8841911554
99.8676711321
100.317841768
100.297191739
99.8635411263
