
Block: 1
======================================
399.516093755
399.993205142
201.353135371
73.7703157663
200.556601954
74.263600421
197.738410115
75.6545014143
195.858267784
77.1950051308
195.470109367
78.0643182516
195.284116793
79.8069878101
194.53205986
80.623737812
193.691049957
81.4728343487
192.825780153
82.35427742
191.960510349
83.1993306398
191.12758708
84.0484271765
189.837769008

Average distance is : 160.408 cm
Average deviation is : 91.715 cm
Block: 2
======================================
399.940642023
399.516093755
399.960858607
399.520137072
399.536310339
399.977031875
399.977031875
399.960858607
399.552483606
399.977031875
399.993205142
399.977031875
399.960858607
399.516093755
399.972988558
399.993205142
399.977031875
399.95681529
400.009378409
399.977031875
399.536310339
399.960858607
399.993205142
399.972988558
399.977031875

Average distance is : 399.868 cm
Average deviation is : 0.195 cm
Block: 3
======================================
399.977031875
399.95681529
399.977031875
399.972988558
399.552483606
399.977031875
400.41775341
399.536310339
399.989161825
400.41775341
400.413710093
399.972988558
292.388414049
156.630007792
118.149761415
155.817301106
118.946294832
155.376579571
119.391059685
154.988421154
119.799434686
154.106978083
120.648531222
153.714776349
121.117555976

Average distance is : 269.649 cm
Average deviation is : 131.995 cm
Block: 4
======================================
400.009378409
400.009378409
399.532267022
399.552483606
400.025551677
400.009378409
399.091545486
400.009378409
400.009378409
400.029594994
399.568656874
400.029594994
400.009378409
400.009378409
399.532267022
400.025551677
399.111762071
399.111762071
399.977031875
400.025551677
399.584830141
399.148151922
399.144108605
399.605046725
399.552483606

Average distance is : 399.709 cm
Average deviation is : 0.359 cm
Block: 5
======================================
399.144108605
399.568656874
399.584830141
399.568656874
399.584830141
399.568656874
399.621219993
399.993205142
399.588873458
399.621219993
400.041724944
399.568656874
399.16432519
399.180498457
399.144108605
399.617176676
400.025551677
400.041724944
400.045768261
399.584830141
399.605046725
399.144108605
399.621219993
399.584830141
399.621219993

Average distance is : 399.593 cm
Average deviation is : 0.283 cm
Block: 6
======================================
399.617176676
399.685913062
399.601003408
399.584830141
399.621219993
399.621219993
399.633349943
399.196671724
399.621219993
399.633349943
399.63739326
399.601003408
399.601003408
398.739776921
399.621219993
399.63739326
399.617176676
399.17645514
399.160281873
399.160281873
399.63739326
399.601003408
399.180498457
399.180498457
399.617176676

Average distance is : 399.479 cm
Average deviation is : 0.248 cm
Block: 7
======================================
399.621219993
399.621219993
399.653566527
400.009378409
399.584830141
399.588873458
399.621219993
399.621219993
399.601003408
400.057898211
400.061941528
399.601003408
399.617176676
400.041724944
399.144108605
399.148151922
319.183474755
399.588873458
399.993205142
399.63739326
400.025551677
399.568656874
399.605046725
400.009378409
400.009378409

Average distance is : 396.489 cm
Average deviation is : 16.107 cm
Block: 8
======================================
400.057898211
399.144108605
400.025551677
399.989161825
400.009378409
399.568656874
399.989161825
399.989161825
399.977031875
399.588873458
400.009378409
399.977031875
400.029594994
399.568656874
399.532267022
399.993205142
400.009378409
399.972988558
400.025551677
399.972988558
400.009378409
400.025551677
400.009378409
399.993205142
400.025551677

Average distance is : 399.900 cm
Average deviation is : 0.228 cm
Block: 9
======================================
399.977031875
399.993205142
399.568656874
400.433926678
400.41775341
399.977031875
400.009378409
399.536310339
400.413710093
400.433926678
400.009378409
400.381363559
400.450099945
400.433926678
400.025551677
400.029594994
399.993205142
399.552483606
400.029594994
399.111762071
399.568656874
400.009378409
399.617176676
399.993205142
399.568656874

Average distance is : 399.981 cm
Average deviation is : 0.363 cm
Block: 10
======================================
399.568656874
399.568656874
399.536310339
399.516093755
399.568656874
399.536310339
399.552483606
399.568656874
399.584830141
398.687213802
399.548440289
399.568656874
398.654867268
399.568656874
399.95681529
399.552483606
399.079415536
399.536310339
399.548440289
399.095588803
399.095588803
399.568656874
399.548440289
399.127935338
399.079415536

Average distance is : 399.409 cm
Average deviation is : 0.306 cm