
Block: 1
======================================
401.09703064
400.737175441
400.63609252
400.672482371
401.080857372
401.618618512
401.210243511
401.092987323
401.10916059
400.672482371
401.161723709
400.640135837
400.652265787
401.092987323
401.080857372
402.026993513
400.672482371
401.113203907
400.672482371
401.145550442
401.092987323
400.656309104
400.619919252
401.076814055
400.63609252
401.092987323
401.080857372
401.57009871
401.962300444
401.974430394
400.672482371
401.618618512
400.737175441
400.688655639
400.672482371
400.63609252
400.721002173
400.684612322
400.704828906
400.721002173
400.672482371
401.09703064
401.076814055
400.652265787
401.09703064
401.080857372
401.113203907
401.092987323
401.113203907
401.09703064
401.602445245
401.113203907
401.622661829
401.10916059
401.942083859
401.946127176
401.958257127
401.092987323
400.721002173
400.619919252
401.09703064
401.060640788
400.656309104
400.63609252
400.619919252
401.092987323
401.145550442
401.533708858
400.63609252
401.092987323
400.652265787
400.721002173
400.721002173
400.652265787
401.092987323

Block: 2
======================================
401.076814055
401.586271977
400.619919252
401.060640788
401.517535591
401.57009871
401.537752175
400.656309104
401.060640788
401.080857372
400.640135837
401.060640788
400.640135837
401.149593759
400.599702668
401.076814055
401.080857372
400.619919252
401.517535591
401.925910592
400.63609252
401.064684105
401.57009871
401.537752175
401.09703064
401.080857372
401.080857372
401.060640788
401.092987323
400.619919252
400.619919252
401.501362324
400.619919252
400.656309104
400.63609252
401.09703064
401.517535591
401.09703064
401.064684105
401.946127176
401.080857372
400.656309104
401.076814055
400.63609252
401.060640788
401.092987323
401.501362324
400.652265787
401.586271977
400.619919252
401.517535591
401.517535591
401.076814055
401.076814055
400.704828906
401.517535591
401.092987323
400.640135837
401.125333858
400.668439054
400.63609252
401.978473711
400.668439054
400.721002173
400.668439054
401.113203907
401.092987323
401.09703064
401.092987323
400.741218758
400.721002173
400.656309104
401.10916059
401.181940293
400.668439054

Block: 3
======================================
401.586271977
401.129377174
400.704828906
401.553925443
401.129377174
401.586271977
402.010820246
401.586271977
401.129377174
401.129377174
400.688655639
402.010820246
400.688655639
401.129377174
401.161723709
401.161723709
401.145550442
401.149593759
401.214286828
400.704828906
401.230460095
400.721002173
400.773565292
401.57009871
400.704828906
401.586271977
400.721002173
400.721002173
400.684612322
400.704828906
401.129377174
400.688655639
401.57009871
401.129377174
401.129377174
401.129377174
401.145550442
401.129377174
401.129377174
401.145550442
401.655008364
401.145550442
401.586271977
401.606488562
401.149593759
401.586271977
401.145550442
401.145550442
401.145550442
400.721002173
401.650965047
401.129377174
401.448799205
401.129377174
401.145550442
401.129377174
401.113203907
401.129377174
401.994646978
401.586271977
402.451541781
402.431325197
401.149593759
402.455585098
401.145550442
401.57009871
400.704828906
401.214286828
401.145550442
400.704828906
401.161723709
401.618618512
401.57009871
401.618618512
400.704828906

Block: 4
======================================
400.78973856
401.181940293
400.721002173
400.737175441
401.622661829
400.741218758
400.296453905
401.181940293
400.737175441
401.181940293
400.78973856
400.78973856
400.741218758
401.63479178
400.757392025
401.198113561
400.769521976
400.737175441
401.606488562
400.822085094
400.296453905
402.04316678
400.753348708
400.741218758
400.280280638
400.284323955
400.753348708
401.177896976
400.757392025
400.757392025
400.838258362
400.753348708
400.805911827
400.757392025
401.214286828
400.741218758
400.757392025
400.757392025
400.737175441
400.805911827
400.349017024
400.737175441
400.721002173
400.296453905
400.32880044
400.757392025
400.753348708
400.316670489
400.757392025
400.773565292
400.753348708
400.773565292
400.721002173
400.741218758
401.618618512
401.230460095
401.177896976
401.25067668
400.757392025
400.312627172
400.822085094
401.618618512
400.741218758
400.78973856
400.753348708
400.737175441
400.757392025
400.805911827
400.721002173
400.721002173
400.741218758
400.721002173
400.737175441
400.316670489
400.737175441

Block: 5
======================================
400.296453905
400.704828906
400.247934103
400.721002173
400.704828906
400.721002173
401.214286828
401.214286828
400.704828906
400.805911827
401.145550442
400.78973856
400.78973856
400.72504549
400.72504549
400.741218758
401.638835096
401.161723709
400.280280638
401.177896976
400.26410737
400.260064054
401.230460095
400.280280638
400.26410737
400.672482371
400.26410737
401.149593759
400.26410737
400.26410737
400.688655639
400.704828906
400.704828906
400.704828906
400.704828906
401.145550442
400.684612322
400.721002173
401.129377174
400.668439054
401.145550442
400.26410737
400.688655639
400.757392025
400.721002173
400.688655639
400.243890786
401.622661829
401.129377174
400.753348708
400.704828906
401.129377174
400.704828906
400.773565292
400.757392025
401.129377174
401.978473711
400.688655639
400.757392025
401.974430394
400.688655639
400.741218758
400.668439054
400.688655639
400.741218758
401.10916059
400.704828906
401.113203907
401.092987323
401.978473711
400.668439054
400.688655639
400.652265787
401.09703064
400.672482371

Block: 6
======================================
400.231760836
400.63609252
401.553925443
401.076814055
400.652265787
401.129377174
401.092987323
401.537752175
401.549882126
401.092987323
400.652265787
401.10916059
401.113203907
401.10916059
401.09703064
400.63609252
400.741218758
401.602445245
400.684612322
401.622661829
401.586271977
401.533708858
401.113203907
401.10916059
400.672482371
401.10916059
400.672482371
400.688655639
400.688655639
401.09703064
401.57009871
400.668439054
400.721002173
400.668439054
400.672482371
400.668439054
400.688655639
400.684612322
400.721002173
400.668439054
401.129377174
400.753348708
400.688655639
402.403021979
400.652265787
400.688655639
400.652265787
400.668439054
400.688655639
400.684612322
400.688655639
400.668439054
400.672482371
400.737175441
401.113203907
401.09703064
400.672482371
401.09703064
401.092987323
401.113203907
401.958257127
401.092987323
401.09703064
401.586271977
401.537752175
400.656309104
401.076814055
402.010820246
401.129377174
401.517535591
401.521578908
403.252118516
401.129377174
401.09703064
401.060640788

Block: 7
======================================
401.962300444
401.09703064
401.10916059
401.521578908
401.092987323
401.113203907
401.076814055
402.827570248
401.586271977
401.537752175
401.09703064
401.10916059
401.129377174
401.177896976
401.09703064
401.113203907
401.553925443
401.177896976
400.688655639
400.688655639
400.688655639
401.129377174
400.672482371
400.688655639
400.652265787
400.688655639
400.672482371
401.125333858
401.145550442
401.181940293
401.113203907
401.113203907
401.113203907
401.09703064
400.656309104
401.177896976
400.672482371
401.092987323
401.181940293
401.092987323
401.553925443
400.668439054
402.063383365
402.047210097
401.517535591
402.010820246
402.382805395
401.060640788
401.076814055
401.974430394
401.044467521
401.501362324
401.501362324
401.501362324
401.517535591
401.57009871
401.145550442
402.791180396
401.942083859
401.060640788
401.505405641
401.521578908
401.517535591
401.076814055
401.485189056
401.521578908
401.590315294
401.521578908
401.533708858
401.080857372
401.521578908
401.517535591
401.958257127
401.962300444
401.517535591

Block: 8
======================================
401.553925443
401.076814055
401.501362324
401.521578908
402.366632128
402.026993513
401.092987323
401.537752175
401.092987323
401.517535591
401.602445245
401.586271977
401.537752175
401.962300444
400.672482371
401.092987323
401.076814055
401.978473711
401.076814055
401.060640788
401.076814055
401.092987323
401.533708858
401.113203907
401.586271977
401.974430394
401.092987323
401.161723709
401.09703064
401.537752175
401.10916059
401.586271977
401.113203907
401.521578908
401.537752175
401.602445245
401.521578908
401.113203907
401.092987323
401.092987323
401.553925443
401.145550442
401.129377174
401.092987323
401.113203907
401.517535591
401.145550442
402.382805395
401.517535591
401.958257127
401.09703064
401.161723709
401.092987323
401.618618512
401.076814055
401.942083859
401.165767026
401.521578908
401.145550442
401.537752175
401.485189056
401.962300444
401.485189056
401.161723709
401.076814055
401.485189056
401.113203907
401.129377174
401.485189056
401.485189056
401.501362324
401.080857372
401.946127176
401.925910592
401.064684105

Block: 9
======================================
401.501362324
401.962300444
402.366632128
401.024250937
401.060640788
401.57009871
401.060640788
401.505405641
401.060640788
401.076814055
401.501362324
401.521578908
401.092987323
401.501362324
401.505405641
401.942083859
401.080857372
401.48114574
401.080857372
401.044467521
401.505405641
401.517535591
401.501362324
401.145550442
401.537752175
401.517535591
401.57009871
401.521578908
402.010820246
401.129377174
401.113203907
401.129377174
401.060640788
401.925910592
401.501362324
401.517535591
401.485189056
401.501362324
401.469015789
401.962300444
401.113203907
401.040424204
401.501362324
401.942083859
401.060640788
401.485189056
401.505405641
401.113203907
401.044467521
401.505405641
401.485189056
401.485189056
401.044467521
401.064684105
402.010820246
401.549882126
400.603745985
400.619919252
401.485189056
400.619919252
401.537752175
400.619919252
400.603745985
400.603745985
400.63609252
401.485189056
401.113203907
401.485189056
400.599702668
401.501362324
400.63609252
401.485189056
401.485189056
401.113203907
400.603745985

Block: 10
======================================
401.09703064
400.583529401
401.080857372
400.603745985
401.028294253
401.113203907
400.603745985
401.978473711
400.619919252
400.619919252
401.553925443
401.040424204
401.028294253
401.469015789
400.599702668
401.485189056
401.044467521
401.10916059
400.603745985
401.113203907
401.485189056
401.909737325
401.028294253
401.485189056
401.501362324
401.044467521
401.925910592
401.044467521
401.024250937
401.485189056
401.469015789
401.044467521
401.464972472
402.314069009
401.012120986
402.318112326
401.012120986
401.48114574
401.452842522
402.314069009
401.448799205
401.436669254
401.008077669
401.893564057
401.028294253
402.754790545
401.537752175
401.432625937
401.448799205
401.024250937
402.398978662
401.012120986
402.314069009
401.537752175
401.485189056
401.485189056
401.517535591
401.024250937
401.09703064
401.044467521
401.533708858
401.485189056
401.008077669
401.008077669
401.028294253
401.024250937
401.044467521
401.024250937
401.080857372
401.060640788
401.113203907
401.517535591
401.044467521
401.044467521
401.044467521
