
Block: 1
======================================
402.148293018
402.148293018
402.180639553
403.943525696
402.19681282
403.523020744
401.788437819
402.637534356
401.772264552
401.772264552
401.776307869
403.082299209
401.772264552
401.756091285
402.233202672
401.331543016
401.808654404
402.265549207
403.114645743
401.788437819
401.788437819
402.212986088
401.808654404
401.315369749
401.772264552

Average distance is : 402.158 cm
Average deviation is : 0.646 cm
Block: 2
======================================
401.756091285
403.50280416
401.739918017
404.792622232
403.50280416
403.927352428
401.772264552
400.906994748
402.653707623
403.130819011
402.669880891
401.804611087
403.927352428
402.229159355
403.094429159
402.249375939
402.706270742
401.792481136
402.706270742
402.265549207
403.959698963
402.229159355
402.245332623
402.249375939
402.249375939

Average distance is : 402.643 cm
Average deviation is : 0.901 cm
Block: 3
======================================
403.130819011
402.706270742
401.384106135
401.841000938
400.959557867
401.400279403
401.400279403
402.281722474
400.9433846
400.959557867
403.555367279
400.995947719
401.873347473
402.281722474
401.384106135
400.975731134
400.939341283
401.436669254
400.975731134
401.436669254
402.301939058
401.41645267
401.841000938
400.975731134
400.975731134

Average distance is : 401.615 cm
Average deviation is : 0.732 cm
Block: 4
======================================
401.861217523
401.824827671
401.824827671
400.9433846
401.400279403
401.41645267
401.841000938
401.420495987
401.420495987
402.265549207
401.41645267
401.857174206
401.420495987
402.281722474
400.939341283
400.959557867
401.824827671
401.400279403
401.41645267
400.555226183
401.400279403
400.959557867
400.551182866
401.41645267
400.518836331

Average distance is : 401.405 cm
Average deviation is : 0.488 cm
Block: 5
======================================
401.873347473
401.432625937
400.551182866
400.959557867
400.95551455
400.959557867
400.979774451
401.824827671
400.959557867
401.824827671
400.959557867
401.400279403
400.9433846
401.41645267
401.824827671
401.841000938
400.959557867
401.41645267
400.975731134
400.959557867
402.706270742
401.41645267
400.991904402
400.975731134
400.979774451

Average distance is : 401.284 cm
Average deviation is : 0.479 cm
Block: 6
======================================
400.486489797
401.384106135
400.486489797
400.9433846
400.502663064
400.95551455
400.9433846
400.9433846
401.792481136
401.367932868
400.498619747
401.384106135
401.283023214
400.906994748
401.820784354
400.906994748
401.808654404
403.062082624
401.808654404
403.486630893
401.772264552
403.078255892
403.078255892
401.315369749
401.756091285

Average distance is : 401.511 cm
Average deviation is : 0.866 cm
Block: 7
======================================
401.367932868
401.351759601
403.486630893
401.315369749
402.217029405
403.470457625
401.315369749
402.180639553
401.772264552
401.347716284
402.19681282
403.486630893
402.19681282
401.756091285
401.756091285
401.756091285
402.160422969
401.315369749
401.739918017
401.756091285
402.65775094
401.331543016
401.347716284
401.772264552
402.669880891

Average distance is : 401.989 cm
Average deviation is : 0.695 cm
Block: 8
======================================
401.347716284
400.911038065
401.772264552
401.331543016
401.384106135
401.788437819
401.788437819
401.788437819
401.808654404
401.351759601
400.927211332
401.788437819
402.249375939
402.212986088
401.772264552
401.347716284
401.384106135
401.804611087
400.939341283
401.824827671
400.9433846
400.9433846
400.939341283
401.400279403
401.380062819

Average distance is : 401.485 cm
Average deviation is : 0.404 cm
Block: 9
======================================
400.975731134
400.555226183
400.959557867
401.012120986
400.535009599
401.41645267
402.72244401
400.518836331
400.975731134
400.975731134
401.41645267
400.975731134
400.975731134
400.551182866
401.41645267
400.535009599
401.008077669
401.857174206
400.991904402
400.979774451
400.975731134
400.518836331
400.995947719
400.959557867
401.41645267

Average distance is : 401.049 cm
Average deviation is : 0.485 cm
Block: 10
======================================
401.363889551
400.959557867
400.959557867
401.363889551
400.9433846
400.48244648
400.9433846
400.927211332
400.9433846
401.380062819
401.384106135
400.9433846
400.95551455
400.9433846
400.95551455
400.906994748
401.367932868
401.384106135
402.233202672
400.927211332
403.098472476
400.923168015
401.380062819
401.367932868
401.367932868

Average distance is : 401.216 cm
Average deviation is : 0.513 cm