
Block: 1
======================================
401.363889551
402.265549207
402.706270742
401.824827671
401.384106135
402.281722474
401.841000938
401.804611087
401.841000938
401.41645267
402.265549207
401.41645267
401.400279403
402.690097475
400.975731134
400.9433846
401.861217523
401.41645267
400.959557867
401.420495987
401.41645267
401.400279403
401.87739079
400.959557867
401.857174206
401.41645267
400.975731134
401.857174206
400.959557867
403.571540546
400.975731134
401.400279403
401.841000938
401.400279403
401.420495987
401.400279403
401.824827671
401.841000938
401.824827671
401.824827671
401.857174206
401.841000938
402.706270742
402.285765791
402.281722474
401.841000938
401.400279403
401.857174206
401.41645267
401.841000938
401.432625937
401.857174206
401.841000938
401.824827671
401.841000938
403.571540546
401.420495987
401.432625937
401.41645267
401.41645267
401.432625937
401.857174206
400.975731134
403.571540546
401.396236086
401.841000938
401.841000938
402.285765791
402.301939058
401.432625937
402.297895741
401.857174206
401.841000938
401.857174206
401.841000938

Average distance is : 401.762 cm
Average deviation is : 0.556 cm
Block: 2
======================================
400.959557867
402.686054158
400.9433846
400.975731134
400.906994748
401.841000938
402.690097475
401.400279403
400.927211332
400.975731134
400.9433846
400.9433846
401.820784354
402.265549207
401.384106135
401.384106135
401.824827671
401.400279403
402.245332623
400.959557867
400.939341283
401.804611087
401.380062819
403.539194012
401.367932868
401.380062819
400.959557867
401.824827671
401.347716284
400.9433846
400.927211332
401.367932868
402.65775094
402.212986088
401.347716284
401.315369749
401.315369749
402.637534356
401.315369749
401.315369749
403.454284358
402.637534356
403.045909357
401.719701433
403.062082624
402.621361089
403.470457625
405.148434114
401.739918017
402.180639553
401.772264552
402.180639553
403.045909357
402.605187821
403.062082624
402.605187821
402.601144505
403.890962577
404.331684113
403.890962577
404.319554162
403.486630893
403.486630893
402.621361089
402.144249701
403.482587576
402.589014554
404.299337578
403.045909357
402.164466286
402.180639553
402.584971237
402.621361089
402.180639553
402.637534356

Average distance is : 402.191 cm
Average deviation is : 1.011 cm
Block: 3
======================================
402.997389555
403.911179161
403.890962577
402.993346238
406.810237336
403.466414309
404.723885846
403.470457625
403.466414309
402.617317772
403.466414309
403.486630893
402.621361089
403.045909357
402.621361089
403.890962577
401.719701433
402.605187821
403.078255892
402.621361089
402.19681282
402.19681282
402.200856137
404.760275698
403.062082624
402.621361089
403.045909357
402.19681282
402.212986088
402.641577673
402.19681282
404.351900697
402.621361089
401.735874701
402.180639553
401.739918017
403.927352428
401.739918017
403.045909357
401.739918017
402.19681282
402.180639553
403.482587576
402.621361089
403.927352428
401.72374475
404.723885846
402.180639553
402.164466286
401.278979897
401.739918017
404.315510845
403.911179161
401.756091285
403.045909357
403.062082624
402.180639553
402.176596236
402.180639553
401.72374475
401.735874701
401.760134602
403.486630893
402.180639553
402.217029405
402.19681282
402.621361089
401.756091285
402.180639553
401.772264552
402.160422969
401.735874701
402.621361089
402.164466286
402.605187821

Average distance is : 402.742 cm
Average deviation is : 0.964 cm
Block: 4
======================================
403.486630893
403.50280416
402.19681282
403.082299209
403.02973609
404.760275698
403.045909357
403.062082624
402.180639553
403.062082624
402.621361089
402.164466286
402.148293018
402.180639553
401.756091285
402.180639553
401.278979897
404.319554162
402.605187821
401.299196482
402.621361089
401.299196482
400.870604897
401.278979897
400.858474946
400.842301679
401.315369749
401.772264552
402.605187821
401.295153165
402.180639553
401.739918017
401.266849947
401.739918017
401.719701433
401.315369749
401.283023214
401.72374475
401.299196482
402.160422969
402.605187821
405.977314067
402.621361089
401.739918017
401.72374475
403.890962577
402.164466286
402.176596236
402.164466286
401.72374475
401.72374475
402.621361089
403.858616042
401.299196482
402.180639553
401.72374475
401.278979897
401.707571483
401.719701433
402.164466286
401.283023214
401.283023214
401.707571483
403.450241041
402.19681282
402.19681282
401.719701433
401.756091285
401.739918017
401.739918017
401.739918017
401.739918017
401.756091285
401.72374475
402.19681282

Average distance is : 402.139 cm
Average deviation is : 0.917 cm
Block: 5
======================================
401.315369749
402.212986088
401.331543016
402.19681282
401.295153165
401.347716284
401.739918017
402.180639553
401.331543016
401.295153165
401.739918017
401.739918017
400.874648213
401.735874701
400.874648213
402.621361089
401.299196482
402.637534356
401.315369749
402.212986088
400.890821481
404.74410243
402.180639553
404.740059114
401.331543016
401.719701433
402.200856137
400.874648213
402.19681282
401.315369749
401.739918017
400.874648213
400.874648213
401.315369749
402.180639553
403.454284358
401.315369749
401.299196482
402.19681282
403.066125941
402.212986088
402.637534356
404.299337578
401.739918017
402.180639553
402.164466286
402.621361089
401.739918017
402.164466286
402.180639553
402.19681282
402.148293018
405.977314067
401.772264552
403.895005894
401.299196482
401.739918017
402.180639553
402.180639553
401.756091285
401.756091285
402.180639553
401.756091285
401.739918017
401.315369749
401.299196482
400.890821481
401.756091285
402.217029405
401.772264552
401.776307869
402.19681282
400.874648213
403.062082624
401.776307869

Average distance is : 401.990 cm
Average deviation is : 0.938 cm
Block: 6
======================================
403.895005894
401.760134602
401.756091285
401.772264552
401.315369749
402.229159355
401.792481136
403.482587576
402.233202672
402.217029405
402.212986088
401.824827671
401.772264552
402.212986088
402.212986088
401.347716284
401.808654404
401.808654404
401.804611087
401.804611087
402.653707623
400.9433846
401.367932868
401.792481136
401.804611087
401.351759601
400.906994748
401.824827671
400.9433846
400.959557867
401.804611087
401.824827671
400.9433846
400.95551455
401.808654404
401.804611087
401.808654404
401.400279403
400.9433846
400.923168015
401.384106135
400.923168015
400.927211332
400.9433846
400.9433846
400.9433846
401.820784354
402.217029405
401.804611087
401.384106135
401.384106135
401.788437819
401.792481136
400.923168015
401.808654404
401.347716284
401.384106135
401.347716284
402.229159355
400.923168015
400.939341283
401.347716284
401.367932868
402.233202672
402.621361089
400.874648213
400.906994748
401.331543016
401.792481136
400.890821481
400.890821481
400.927211332
401.331543016
400.911038065
401.788437819

Average distance is : 401.579 cm
Average deviation is : 0.596 cm
Block: 7
======================================
401.772264552
402.180639553
401.295153165
401.315369749
401.315369749
400.874648213
401.756091285
400.874648213
402.601144505
402.180639553
402.217029405
403.045909357
400.858474946
401.772264552
401.776307869
401.331543016
400.874648213
400.858474946
400.858474946
401.772264552
400.923168015
401.335586333
401.315369749
401.772264552
401.315369749
403.045909357
401.776307869
401.756091285
400.858474946
401.315369749
400.911038065
401.772264552
400.874648213
401.335586333
400.906994748
400.466273212
400.906994748
400.48244648
402.621361089
401.760134602
401.299196482
400.470316529
400.874648213
401.315369749
400.433926678
400.890821481
401.315369749
400.890821481
400.450099945
400.433926678
400.450099945
400.433926678
400.890821481
400.41775341
400.450099945
401.331543016
401.315369749
401.331543016
402.19681282
400.874648213
400.874648213
400.858474946
400.906994748
401.772264552
401.756091285
401.331543016
401.315369749
401.760134602
401.331543016
401.315369749
401.331543016
402.605187821
400.450099945
400.874648213
401.760134602

Average distance is : 401.297 cm
Average deviation is : 0.628 cm
Block: 8
======================================
401.367932868
400.927211332
401.347716284
401.792481136
400.923168015
400.927211332
401.347716284
400.890821481
400.927211332
401.384106135
401.351759601
400.48244648
400.486489797
400.927211332
400.923168015
400.466273212
400.450099945
400.927211332
401.788437819
401.347716284
401.351759601
400.450099945
401.351759601
401.347716284
401.351759601
401.804611087
400.450099945
401.792481136
401.315369749
401.772264552
401.792481136
403.50280416
400.890821481
400.874648213
403.062082624
400.890821481
400.890821481
400.890821481
400.433926678
400.894864798
400.890821481
403.082299209
401.347716284
400.890821481
400.890821481
400.450099945
400.927211332
401.756091285
402.212986088
400.874648213
400.450099945
402.621361089
400.433926678
401.756091285
400.450099945
400.890821481
400.838258362
401.756091285
400.874648213
401.315369749
401.347716284
402.229159355
400.890821481
403.907135844
401.331543016
401.331543016
400.906994748
401.756091285
401.772264552
401.772264552
401.347716284
401.739918017
401.756091285
401.756091285
401.331543016

Average distance is : 401.306 cm
Average deviation is : 0.702 cm
Block: 9
======================================
402.572841287
401.735874701
401.295153165
401.772264552
401.283023214
401.299196482
401.756091285
401.335586333
401.756091285
403.911179161
401.739918017
403.486630893
402.19681282
401.299196482
402.212986088
402.180639553
401.331543016
401.315369749
401.315369749
401.335586333
402.180639553
402.164466286
401.315369749
403.062082624
401.315369749
402.621361089
402.19681282
402.19681282
402.180639553
402.180639553
402.19681282
402.621361089
402.19681282
402.637534356
402.637534356
401.331543016
402.180639553
401.772264552
402.180639553
402.19681282
401.347716284
402.212986088
401.335586333
401.772264552
401.331543016
401.335586333
401.788437819
401.792481136
401.367932868
400.890821481
401.331543016
401.331543016
401.772264552
401.808654404
400.911038065
400.890821481
401.347716284
400.890821481
401.792481136
400.906994748
401.772264552
400.906994748
401.788437819
401.788437819
401.384106135
401.792481136
401.792481136
401.400279403
401.804611087
402.212986088
401.792481136
401.788437819
400.927211332
401.331543016
400.874648213

Average distance is : 401.760 cm
Average deviation is : 0.595 cm
Block: 10
======================================
402.621361089
401.772264552
401.363889551
401.772264552
400.906994748
402.233202672
401.772264552
401.347716284
400.890821481
401.351759601
400.906994748
400.911038065
401.788437819
400.906994748
401.367932868
400.927211332
402.212986088
402.653707623
401.772264552
401.367932868
400.927211332
402.637534356
400.906994748
401.331543016
403.062082624
401.792481136
400.911038065
401.347716284
401.772264552
402.621361089
401.129377174
401.347716284
401.776307869
401.363889551
402.19681282
402.229159355
401.804611087
401.776307869
401.331543016
401.363889551
400.894864798
401.347716284
401.772264552
400.911038065
401.347716284
400.894864798
401.772264552
402.212986088
401.351759601
401.315369749
401.776307869
401.315369749
401.776307869
402.180639553
402.653707623
402.229159355
403.470457625
402.217029405
400.890821481
400.906994748
401.772264552
401.351759601
402.621361089
401.315369749
401.331543016
401.772264552
402.19681282
401.788437819
401.347716284
400.890821481
400.906994748
400.890821481
401.351759601
401.776307869
400.906994748

Average distance is : 401.599 cm
Average deviation is : 0.596 cm