
Block: 1
======================================
400.874648213
403.482587576
403.470457625
402.621361089
402.621361089
401.315369749
401.772264552
401.756091285
401.772264552
400.874648213
401.315369749
400.906994748
400.911038065
401.772264552
401.756091285
400.890821481
400.927211332
401.351759601
401.347716284
400.890821481
400.906994748
400.890821481
401.347716284
401.351759601
400.906994748
400.466273212
400.874648213
400.874648213
401.315369749
401.756091285
401.772264552
402.19681282
400.874648213
400.874648213
403.466414309
401.331543016
401.331543016
401.331543016
401.772264552
401.788437819
400.911038065
401.331543016
401.351759601
400.466273212
401.331543016
401.351759601
400.890821481
400.911038065
401.331543016
401.351759601
401.347716284
403.062082624
401.788437819
401.331543016
402.653707623
401.363889551
400.890821481
400.498619747
400.466273212
400.927211332
400.502663064
400.923168015
400.959557867
400.959557867
400.518836331
402.65775094
400.486489797
400.923168015
400.923168015
400.502663064
400.486489797
400.923168015
400.927211332
402.212986088
403.062082624
401.367932868
400.906994748
401.335586333
401.347716284
401.788437819
401.351759601
400.890821481
403.078255892
401.347716284
400.923168015
401.804611087
401.824827671
400.9433846
401.808654404
401.367932868
400.927211332
400.906994748
400.911038065
401.363889551
401.347716284
401.363889551
400.923168015
402.212986088
403.486630893
401.367932868

Average distance is : 401.395 cm
Average deviation is : 0.722 cm
Block: 2
======================================
401.331543016
401.776307869
400.874648213
401.315369749
401.315369749
401.299196482
403.062082624
401.772264552
400.906994748
401.792481136
401.347716284
401.772264552
400.470316529
400.9433846
400.450099945
401.772264552
401.756091285
401.315369749
401.772264552
400.894864798
401.315369749
401.756091285
400.858474946
403.470457625
403.045909357
402.212986088
402.19681282
402.19681282
401.315369749
401.331543016
401.808654404
400.906994748
400.911038065
401.792481136
401.788437819
403.078255892
401.808654404
401.351759601
401.788437819
400.923168015
401.808654404
400.911038065
401.363889551
401.351759601
401.788437819
400.923168015
401.808654404
401.380062819
401.363889551
401.804611087
401.351759601
400.927211332
400.9433846
401.788437819
400.927211332
402.621361089
400.894864798
400.906994748
402.212986088
403.078255892
401.792481136
401.347716284
400.498619747
402.637534356
400.923168015
401.367932868
400.906994748
400.923168015
400.906994748
401.363889551
400.906994748
401.788437819
401.351759601
401.351759601
400.911038065
401.331543016
401.808654404
401.772264552
402.637534356
401.756091285
401.772264552
401.315369749
401.331543016
401.788437819
401.331543016
401.776307869
401.351759601
401.331543016
401.351759601
401.331543016
401.792481136
402.229159355
402.637534356
401.792481136
401.315369749
401.331543016
401.792481136
401.347716284
401.315369749
401.315369749

Average distance is : 401.538 cm
Average deviation is : 0.594 cm
Block: 3
======================================
403.486630893
402.19681282
403.895005894
403.082299209
401.772264552
402.19681282
401.776307869
401.756091285
401.739918017
401.315369749
403.911179161
402.19681282
402.200856137
402.180639553
401.299196482
401.315369749
402.19681282
402.637534356
401.315369749
401.315369749
402.621361089
402.180639553
401.315369749
401.315369749
401.315369749
401.299196482
400.854431629
401.72374475
401.283023214
401.72374475
401.26280663
402.160422969
403.02973609
402.56879797
402.180639553
401.278979897
401.72374475
403.02973609
402.584971237
404.28316431
403.013562822
402.56879797
402.589014554
403.025692773
401.703528166
401.687354898
403.02973609
402.56879797
401.25067668
401.707571483
402.56879797
401.26280663
401.687354898
401.26280663
401.246633363
403.826269507
401.703528166
402.128076434
401.266849947
402.111903167
401.687354898
401.687354898
402.128076434
402.115946484
403.842442775
402.589014554
401.687354898
402.148293018
402.111903167
402.148293018
402.148293018
403.013562822
403.417894506
401.691398215
402.997389555
402.111903167
402.552624702
401.246633363
402.552624702
403.009519506
401.687354898
402.56879797
402.556668019
402.556668019
402.132119751
402.128076434
402.56879797
402.56879797
402.601144505
402.584971237
401.72374475
402.144249701
401.719701433
402.148293018
404.266991043
402.128076434
401.278979897
402.128076434
402.584971237
401.278979897

Average distance is : 402.180 cm
Average deviation is : 0.744 cm
Block: 4
======================================
401.299196482
402.164466286
401.72374475
401.719701433
403.025692773
400.838258362
401.735874701
400.858474946
401.739918017
402.19681282
400.466273212
400.874648213
400.858474946
400.858474946
401.739918017
401.739918017
401.72374475
405.556809115
403.04186604
400.890821481
400.874648213
400.858474946
401.739918017
401.756091285
400.874648213
402.19681282
400.858474946
400.874648213
401.739918017
401.331543016
400.433926678
401.72374475
401.299196482
400.874648213
401.299196482
401.756091285
403.450241041
400.385406876
401.739918017
400.433926678
401.299196482
400.397536826
403.013562822
402.164466286
401.719701433
403.009519506
403.009519506
402.584971237
406.757674217
402.584971237
401.671181631
402.128076434
401.278979897
403.062082624
402.601144505
401.703528166
402.180639553
401.72374475
402.641577673
402.621361089
401.331543016
401.72374475
402.160422969
402.180639553
401.739918017
401.315369749
401.739918017
401.315369749
402.637534356
401.739918017
402.19681282
400.858474946
401.315369749
400.874648213
401.735874701
401.315369749
402.19681282
401.283023214
404.740059114
403.450241041
401.299196482
401.295153165
400.874648213
401.739918017
403.482587576
402.180639553
401.72374475
401.315369749
401.739918017
401.299196482
401.72374475
401.72374475
402.164466286
403.878832626
401.72374475
403.842442775
401.772264552
401.739918017
400.874648213
400.41775341

Average distance is : 401.844 cm
Average deviation is : 1.044 cm
Block: 5
======================================
402.128076434
400.826128411
401.198113561
400.385406876
2804.15748551
400.826128411
400.826128411
401.703528166
2781.12270947
404.335727429
400.78973856
406.810237336
400.826128411
404.723885846
404.740059114
402.601144505
403.045909357
403.045909357
403.890962577
402.180639553
403.045909357
402.19681282
403.078255892
401.739918017
402.19681282
402.653707623
401.331543016
401.299196482
401.315369749
401.335586333
401.299196482
401.315369749
401.315369749
401.776307869
403.062082624
401.335586333
401.335586333
401.808654404
401.351759601
401.351759601
402.19681282
401.315369749
400.874648213
401.808654404
402.212986088
401.315369749
402.200856137
402.19681282
401.331543016
401.756091285
402.605187821
401.756091285
401.739918017
402.601144505
401.299196482
402.584971237
400.858474946
400.858474946
401.739918017
401.739918017
401.26280663
401.299196482
401.756091285
401.299196482
402.180639553
400.858474946
401.719701433
400.858474946
400.874648213
401.739918017
401.739918017
402.605187821
401.295153165
400.874648213
401.756091285
400.874648213
402.19681282
401.335586333
401.739918017
400.874648213
401.315369749
401.788437819
401.335586333
401.739918017
402.605187821
401.756091285
400.858474946
401.739918017
401.283023214
400.874648213
400.858474946
401.735874701
401.299196482
401.72374475
402.164466286
401.283023214
401.299196482
402.148293018
401.266849947
401.26280663

Average distance is : 449.608 cm
Average deviation is : 336.411 cm
Block: 6
======================================
401.671181631
401.655008364
403.013562822
402.589014554
402.095729899
402.552624702
401.266849947
401.687354898
404.28316431
401.671181631
403.438111091
401.655008364
401.671181631
403.81009624
401.230460095
401.230460095
402.536451435
401.675224948
403.417894506
401.230460095
403.417894506
403.013562822
402.993346238
401.230460095
401.671181631
403.417894506
400.805911827
404.691539311
402.72244401
403.417894506
403.826269507
400.78973856
401.687354898
400.805911827
400.805911827
400.385406876
400.822085094
2807.76412413
401.671181631
401.675224948
401.671181631
2781.63216739
400.805911827
400.838258362
400.838258362
400.822085094
402.148293018
403.858616042
401.283023214
400.842301679
401.719701433
400.413710093
401.283023214
401.72374475
400.397536826
400.41775341
400.858474946
403.87478931
402.584971237
401.283023214
400.842301679
400.822085094
400.842301679
401.278979897
402.164466286
401.283023214
401.278979897
400.842301679
401.295153165
401.295153165
400.822085094
401.283023214
401.266849947
402.148293018
401.278979897
401.278979897
400.858474946
401.315369749
400.842301679
401.72374475
400.842301679
401.299196482
401.278979897
401.266849947
401.299196482
401.283023214
401.72374475
402.605187821
402.605187821
402.584971237
402.605187821
402.176596236
401.735874701
401.72374475
402.605187821
401.278979897
402.164466286
401.719701433
403.87478931
401.266849947

Average distance is : 449.640 cm
Average deviation is : 336.703 cm
Block: 7
======================================
403.895005894
403.04186604
401.72374475
403.062082624
401.72374475
402.180639553
401.315369749
402.19681282
402.164466286
402.128076434
400.842301679
401.719701433
402.148293018
401.26280663
401.735874701
401.739918017
401.72374475
402.200856137
402.164466286
402.176596236
402.164466286
402.164466286
400.874648213
401.295153165
401.719701433
401.72374475
401.739918017
401.72374475
401.739918017
404.727929163
402.19681282
402.180639553
402.621361089
402.621361089
402.19681282
402.19681282
404.756232381
402.621361089
402.160422969
401.735874701
402.621361089
402.605187821
402.605187821
402.180639553
402.164466286
402.19681282
402.621361089
401.739918017
401.26280663
401.739918017
402.164466286
400.874648213
401.72374475
400.854431629
400.874648213
401.283023214
401.735874701
401.72374475
402.176596236
402.19681282
401.299196482
401.315369749
401.315369749
400.874648213
401.315369749
401.315369749
401.331543016
400.838258362
401.315369749
401.299196482
401.739918017
402.572841287
400.858474946
402.180639553
400.870604897
401.299196482
401.315369749
400.894864798
401.756091285
400.429883361
400.433926678
401.299196482
401.315369749
400.450099945
400.429883361
401.299196482
400.874648213
400.450099945
401.756091285
401.299196482
401.315369749
400.41775341
401.299196482
401.295153165
400.429883361
400.450099945
401.299196482
400.450099945
401.299196482
400.858474946

Average distance is : 401.685 cm
Average deviation is : 0.811 cm
Block: 8
======================================
401.283023214
401.299196482
402.601144505
402.601144505
401.756091285
403.858616042
402.180639553
402.180639553
401.756091285
403.911179161
401.72374475
402.621361089
401.739918017
401.739918017
401.72374475
402.164466286
402.180639553
402.164466286
402.200856137
402.164466286
401.703528166
402.180639553
401.719701433
402.180639553
402.605187821
401.739918017
401.707571483
402.180639553
403.87478931
402.589014554
402.605187821
401.735874701
401.283023214
401.756091285
402.217029405
401.315369749
401.315369749
401.772264552
402.19681282
401.756091285
401.315369749
401.283023214
401.756091285
401.315369749
401.756091285
403.466414309
401.299196482
402.217029405
402.19681282
401.739918017
401.719701433
401.295153165
402.180639553
401.315369749
401.315369749
402.180639553
401.756091285
401.315369749
402.19681282
401.772264552
402.19681282
401.315369749
401.315369749
401.315369749
401.299196482
401.331543016
400.858474946
401.315369749
401.299196482
401.72374475
401.756091285
401.739918017
401.299196482
401.756091285
403.009519506
401.283023214
401.299196482
401.756091285
401.299196482
402.180639553
402.212986088
403.045909357
401.331543016
401.315369749
401.756091285
403.466414309
402.19681282
401.739918017
400.906994748
400.890821481
401.315369749
401.315369749
400.874648213
400.890821481
401.315369749
401.315369749
401.351759601
400.874648213
400.874648213
400.874648213

Average distance is : 401.809 cm
Average deviation is : 0.659 cm
Block: 9
======================================
401.776307869
400.822085094
401.72374475
402.164466286
401.756091285
402.164466286
403.87478931
402.128076434
401.719701433
401.687354898
402.621361089
403.045909357
401.283023214
402.144249701
401.230460095
401.703528166
402.144249701
401.278979897
400.822085094
400.826128411
401.283023214
403.858616042
401.299196482
401.719701433
401.739918017
401.299196482
401.331543016
402.176596236
400.890821481
400.450099945
401.331543016
400.433926678
400.874648213
400.890821481
401.315369749
400.433926678
401.776307869
400.450099945
400.466273212
400.874648213
403.045909357
400.466273212
400.397536826
400.874648213
402.601144505
401.299196482
400.854431629
400.858474946
400.842301679
401.299196482
402.19681282
401.299196482
403.878832626
401.283023214
400.858474946
400.842301679
401.315369749
402.584971237
400.838258362
401.72374475
400.858474946
401.299196482
403.454284358
400.874648213
401.315369749
400.401580143
400.838258362
401.739918017
401.719701433
403.450241041
401.278979897
400.838258362
403.858616042
401.739918017
400.874648213
401.299196482
400.413710093
400.842301679
400.838258362
400.858474946
400.858474946
400.433926678
400.874648213
400.858474946
400.874648213
401.739918017
401.719701433
401.72374475
2784.71721814
403.045909357
401.315369749
402.19681282
402.180639553
401.278979897
401.283023214
401.315369749
401.739918017
401.756091285
400.874648213
400.41775341

Average distance is : 425.312 cm
Average deviation is : 238.325 cm
Block: 10
======================================
401.299196482
401.315369749
401.315369749
401.347716284
400.874648213
401.776307869
401.739918017
401.739918017
402.212986088
400.874648213
403.062082624
401.772264552
401.335586333
401.756091285
402.180639553
401.772264552
401.756091285
401.315369749
402.212986088
402.621361089
401.776307869
402.212986088
401.772264552
401.315369749
402.212986088
401.315369749
404.368073964
402.212986088
401.772264552
401.331543016
401.792481136
401.335586333
401.351759601
401.347716284
401.331543016
403.943525696
401.792481136
401.331543016
402.233202672
401.335586333
401.331543016
401.331543016
400.890821481
401.772264552
401.772264552
401.756091285
401.772264552
401.331543016
401.315369749
401.331543016
401.331543016
400.874648213
401.772264552
400.890821481
401.335586333
401.756091285
403.466414309
401.776307869
401.756091285
402.212986088
402.621361089
401.295153165
401.315369749
402.164466286
403.470457625
402.19681282
401.756091285
402.164466286
401.315369749
401.776307869
401.315369749
401.772264552
401.756091285
401.756091285
400.890821481
400.890821481
401.756091285
400.874648213
400.890821481
400.450099945
400.470316529
400.894864798
401.772264552
400.890821481
402.621361089
400.890821481
400.874648213
401.315369749
400.890821481
401.756091285
401.756091285
400.41775341
401.315369749
400.858474946
400.874648213
400.874648213
401.315369749
401.756091285
401.739918017
400.874648213

Average distance is : 401.607 cm
Average deviation is : 0.679 cm