
Block: 1
======================================
399.180498457
399.621219993
399.601003408
399.16432519
399.588873458
399.621219993
322.523254466
398.755950189
399.196671724
399.180498457
399.601003408
399.180498457
399.180498457
399.111762071
399.17645514
398.751906872
399.160281873
399.17645514
399.605046725
399.584830141
399.601003408
399.144108605
399.16432519
399.617176676
400.061941528
399.584830141
399.621219993
399.548440289
400.025551677
399.584830141
399.588873458
399.601003408
400.041724944
400.045768261
399.584830141
400.009378409
400.025551677
400.029594994
399.993205142
400.025551677
400.013421726
399.95681529
399.532267022
400.009378409
399.993205142
400.013421726
399.568656874
399.972988558
399.127935338
399.993205142

Average distance is : 398.041 cm
Average deviation is : 10.904 cm
Block: 2
======================================
399.111762071
399.568656874
399.95681529
399.568656874
399.499920487
399.552483606
399.548440289
399.107718754
399.107718754
399.075372219
399.503963804
399.499920487
399.48374722
321.322389364
399.520137072
399.536310339
399.532267022
399.977031875
399.972988558
399.536310339
399.079415536
399.520137072
399.94468534
399.94468534
399.499920487
399.993205142
400.381363559
320.877624512
399.075372219
399.960858607
399.993205142
399.48374722
399.924468756
399.940642023
321.589248276
398.33140192
399.940642023
399.924468756
321.694374514
398.210102415
399.924468756
399.960858607
321.690331197
399.127935338
399.960858607
399.960858607
399.520137072
399.908295488
399.095588803
322.167442584

Average distance is : 390.212 cm
Average deviation is : 25.614 cm
Block: 3
======================================
399.584830141
399.520137072
399.972988558
399.568656874
399.977031875
399.095588803
399.095588803
399.059198952
399.552483606
399.536310339
399.516093755
399.095588803
323.000365853
398.214145732
399.536310339
399.532267022
399.079415536
399.536310339
399.532267022
399.552483606
321.742894316
399.091545486
399.520137072
399.516093755
399.536310339
399.552483606
322.575817585
398.755950189
322.571774268
397.838117266
325.644695067
394.769239783
399.993205142
399.568656874
321.7631109
397.381222463
324.32253046
396.127794242
325.220146799
396.09140439
324.799641848
395.242307854
324.795598531
396.055014539
323.962675261
396.483606124
324.864334917
393.871623445
325.745777988
394.296171713

Average distance is : 379.065 cm
Average deviation is : 33.059 cm
Block: 4
======================================
399.568656874
320.250910401
400.025551677
322.984192586
399.16432519
399.516093755
399.536310339
319.810188866
399.993205142
399.548440289
399.588873458
399.588873458
399.536310339
399.127935338
399.568656874
399.552483606
399.568656874
399.111762071
399.568656874
399.552483606
399.568656874
399.127935338
321.164700007
398.210102415
399.568656874
399.568656874
399.548440289
399.160281873
399.552483606
399.127935338
399.144108605
399.584830141
399.588873458
399.601003408
399.621219993
399.568656874
399.552483606
399.552483606
399.107718754
399.568656874
320.728021789
399.127935338
399.617176676
399.568656874
399.568656874
399.605046725
399.568656874
399.127935338
399.617176676
399.144108605

Average distance is : 391.606 cm
Average deviation is : 23.783 cm
Block: 5
======================================
399.588873458
399.568656874
399.584830141
399.160281873
399.144108605
399.568656874
399.127935338
399.180498457
399.584830141
399.144108605
399.584830141
399.601003408
399.605046725
399.601003408
399.144108605
399.148151922
399.568656874
399.588873458
399.16432519
399.584830141
399.095588803
399.617176676
399.568656874
399.617176676
399.601003408
399.148151922
399.601003408
399.63739326
399.601003408
399.621219993
399.621219993
399.160281873
399.601003408
399.605046725
399.621219993
399.617176676
399.633349943
400.029594994
321.674157929
398.772123456
400.045768261
400.041724944
400.025551677
399.584830141
322.559644318
399.16432519
322.963976002
398.262665534
324.32253046
396.786854887

Average distance is : 393.289 cm
Average deviation is : 20.981 cm
Block: 6
======================================
399.584830141
320.14982748
400.470316529
399.633349943
399.653566527
399.621219993
399.63739326
399.180498457
399.568656874
400.045768261
399.568656874
400.041724944
400.041724944
399.993205142
400.041724944
399.568656874
399.601003408
400.025551677
400.041724944
399.993205142
399.993205142
400.025551677
399.584830141
399.601003408
399.601003408
399.601003408
399.584830141
399.552483606
399.605046725
322.899282932
399.160281873
399.605046725
399.621219993
399.552483606
399.621219993
320.67545867
399.160281873
399.584830141
399.584830141
399.588873458
399.127935338
399.584830141
399.605046725
399.568656874
399.144108605
399.568656874
399.588873458
399.601003408
399.584830141
399.568656874

Average distance is : 394.952 cm
Average deviation is : 18.816 cm
Block: 7
======================================
399.532267022
356.204083753
399.127935338
399.993205142
399.548440289
399.588873458
323.202531695
399.107718754
399.993205142
399.977031875
320.639068818
398.226275682
322.385781693
398.246492267
399.977031875
321.100006938
399.568656874
399.111762071
399.552483606
399.516093755
399.516093755
399.977031875
322.438344812
399.148151922
399.552483606
400.009378409
319.794015598
399.127935338
399.960858607
399.568656874
400.009378409
322.38982501
399.180498457
399.552483606
320.048744559
400.009378409
399.95681529
399.503963804
399.532267022
399.532267022
399.532267022
399.536310339
399.079415536
399.552483606
399.536310339
399.520137072
399.532267022
399.584830141
399.95681529
399.989161825

Average distance is : 386.185 cm
Average deviation is : 29.172 cm
Block: 8
======================================
399.503963804
399.552483606
399.548440289
399.48374722
399.059198952
399.520137072
399.516093755
399.059198952
399.516093755
399.079415536
399.059198952
399.075372219
399.075372219
399.095588803
399.079415536
399.536310339
399.552483606
399.568656874
399.532267022
399.079415536
399.059198952
399.520137072
399.520137072
399.075372219
399.499920487
399.568656874
399.552483606
399.532267022
399.499920487
399.552483606
399.516093755
399.075372219
399.977031875
399.960858607
399.48374722
399.536310339
399.552483606
399.977031875
399.075372219
399.536310339
399.972988558
399.568656874
399.520137072
399.536310339
399.075372219
322.968019319
399.111762071
399.568656874
399.552483606
399.095588803

Average distance is : 397.891 cm
Average deviation is : 10.815 cm
Block: 9
======================================
399.552483606
399.127935338
399.063242269
399.605046725
399.605046725
399.552483606
399.568656874
399.605046725
400.009378409
399.989161825
400.009378409
400.041724944
400.009378409
399.605046725
400.009378409
399.977031875
399.95681529
400.009378409
400.41775341
399.993205142
399.993205142
400.009378409
400.454143262
400.454143262
399.977031875
400.025551677
400.009378409
400.025551677
321.201089859
399.605046725
400.41775341
400.009378409
320.825061393
399.127935338
400.433926678
400.025551677
400.450099945
400.433926678
399.972988558
399.989161825
399.972988558
399.520137072
399.568656874
400.025551677
400.433926678
400.433926678
400.045768261
400.429883361
400.450099945
400.413710093

Average distance is : 396.809 cm
Average deviation is : 15.633 cm
Block: 10
======================================
400.41775341
400.381363559
399.95681529
400.450099945
400.41775341
400.381363559
400.385406876
400.41775341
400.433926678
400.41775341
400.397536826
400.401580143
399.977031875
399.95681529
400.433926678
399.977031875
400.433926678
400.433926678
399.977031875
399.993205142
400.450099945
400.025551677
321.184916592
399.111762071
322.931629467
400.009378409
399.516093755
400.41775341
399.993205142
399.993205142
400.433926678
399.972988558
253.875821137
399.993205142
400.41775341
399.977031875
399.977031875
400.025551677
399.972988558
400.009378409
400.009378409
400.009378409
399.977031875
400.009378409
399.568656874
400.025551677
399.552483606
399.977031875
400.009378409
399.552483606

Average distance is : 394.052 cm
Average deviation is : 25.451 cm