
Block: 1
======================================
399.908295488
400.381363559
317.962393069
400.316670489
400.349017024

Average distance is : 383.784 cm
Average deviation is : 36.796 cm
Block: 2
======================================
400.365190291
400.397536826
321.896540356
400.349017024
320.166000748

Average distance is : 368.635 cm
Average deviation is : 43.460 cm
Block: 3
======================================
399.94468534
320.744195056
399.960858607
399.940642023
320.877624512

Average distance is : 368.294 cm
Average deviation is : 43.346 cm
Block: 4
======================================
399.516093755
399.940642023
399.536310339
399.503963804
321.726721048

Average distance is : 384.045 cm
Average deviation is : 34.837 cm
Block: 5
======================================
399.989161825
320.622895551
399.536310339
399.516093755
399.532267022

Average distance is : 383.839 cm
Average deviation is : 35.340 cm
Block: 6
======================================
399.536310339
399.584830141
399.536310339
399.516093755
399.536310339

Average distance is : 399.542 cm
Average deviation is : 0.026 cm
Block: 7
======================================
398.70338707
399.584830141
398.687213802
158.498020172
399.568656874

Average distance is : 351.008 cm
Average deviation is : 107.617 cm
Block: 8
======================================
399.552483606
399.552483606
399.568656874
399.552483606
399.532267022

Average distance is : 399.552 cm
Average deviation is : 0.013 cm
Block: 9
======================================
399.075372219
399.552483606
399.568656874
399.536310339
399.111762071

Average distance is : 399.369 cm
Average deviation is : 0.252 cm
Block: 10
======================================
399.552483606
399.584830141
399.536310339
399.568656874
399.107718754

Average distance is : 399.470 cm
Average deviation is : 0.203 cm