
Block: 1
======================================
300.536838388
300.553098345
301.443330956
300.553098345
300.57342329
301.849829865
300.996182156
301.406746054
300.553098345
301.866089821
301.455525923
301.016507101
301.439265966
300.536838388
301.016507101
301.455525923
301.439265966
300.959597254
300.979922199
301.42300601
300.536838388
301.866089821
300.996182156
301.000247145
300.996182156
301.455525923
301.42300601
300.536838388
300.553098345
300.983987188
300.536838388
300.569358301
300.979922199
301.439265966
300.536838388
300.536838388
300.536838388
300.557163334
301.012442112
300.996182156
301.42300601
301.000247145
300.979922199
300.979922199
300.979922199
300.57342329
301.439265966
300.996182156
301.032767057
301.000247145

Average distance is : 301.010 cm
Average deviation is : 0.398 cm
Block: 2
======================================
301.016507101
301.459590912
300.605943203
300.979922199
300.536838388
301.42300601
300.979922199
300.979922199
300.557163334
300.979922199
301.443330956
300.536838388
300.996182156
301.42300601
300.983987188
301.032767057
301.882349777
300.979922199
300.553098345
300.963662243
300.553098345
300.536838388
300.963662243
300.520578432
300.536838388
300.536838388
301.866089821
300.979922199
300.996182156
301.866089821
301.866089821
301.42300601
300.569358301
301.439265966
300.536838388
300.569358301
300.979922199
300.996182156
300.996182156
300.959597254
301.866089821
300.979922199
301.42300601
300.536838388
300.996182156
300.553098345
301.849829865
301.42300601
301.695360279
300.536838388

Average distance is : 301.037 cm
Average deviation is : 0.445 cm
Block: 3
======================================
300.979922199
300.979922199
300.996182156
300.557163334
301.866089821
301.42300601
301.000247145
300.520578432
300.536838388
300.963662243
300.996182156
301.386421108
300.979922199
300.553098345
300.553098345
300.996182156
300.553098345
300.536838388
300.569358301
301.42300601
300.536838388
302.313238621
300.979922199
300.963662243
300.557163334
300.536838388
300.569358301
301.439265966
300.536838388
300.996182156
300.553098345
300.536838388
301.42300601
300.557163334
301.42300601
300.996182156
300.536838388
300.536838388
301.000247145
301.000247145
300.979922199
300.536838388
300.979922199
301.42300601
301.000247145
300.557163334
300.963662243
301.028702068
301.439265966
300.553098345

Average distance is : 300.917 cm
Average deviation is : 0.401 cm
Block: 4
======================================
300.553098345
300.557163334
300.996182156
301.439265966
300.553098345
300.996182156
300.553098345
300.569358301
300.57342329
301.459590912
300.536838388
300.979922199
300.996182156
301.032767057
300.589683247
301.012442112
300.569358301
301.459590912
301.012442112
300.536838388
301.439265966
300.979922199
300.569358301
300.57342329
300.57342329
301.459590912
300.569358301
300.57342329
300.557163334
300.589683247
300.979922199
301.886414766
301.028702068
301.012442112
301.032767057
300.605943203
300.557163334
300.996182156
301.049027014
301.028702068
300.569358301
300.996182156
300.553098345
301.866089821
300.553098345
301.492110825
301.032767057
301.012442112
301.882349777
302.756322432

Average distance is : 300.955 cm
Average deviation is : 0.468 cm
Block: 5
======================================
301.000247145
301.016507101
301.455525923
301.42300601
300.520578432
300.979922199
300.536838388
301.443330956
300.553098345
300.589683247
301.455525923
300.553098345
300.979922199
301.012442112
300.553098345
301.455525923
301.459590912
300.996182156
300.553098345
302.313238621
301.439265966
300.57342329
301.012442112
300.996182156
300.569358301
301.012442112
302.292913675
300.996182156
300.996182156
300.553098345
300.553098345
302.309173632
300.536838388
300.963662243
300.569358301
300.996182156
300.57342329
301.443330956
301.439265966
300.996182156
300.979922199
300.979922199
301.455525923
300.979922199
300.553098345
300.57342329
300.979922199
301.000247145
300.536838388
301.016507101

Average distance is : 301.015 cm
Average deviation is : 0.462 cm
Block: 6
======================================
300.553098345
300.585618258
300.536838388
301.455525923
302.752257442
300.996182156
300.553098345
300.553098345
300.553098345
300.557163334
301.012442112
300.536838388
301.866089821
300.996182156
300.516513443
301.866089821
301.000247145
300.979922199
300.979922199
301.028702068
300.536838388
301.439265966
301.443330956
301.016507101
300.57342329
300.569358301
300.553098345
300.979922199
300.979922199
301.032767057
300.57342329
301.866089821
300.569358301
300.996182156
300.996182156
300.553098345
300.996182156
300.553098345
300.979922199
300.57342329
300.57342329
301.000247145
301.012442112
300.536838388
301.012442112
300.996182156
300.553098345
301.455525923
301.016507101
300.569358301

Average distance is : 300.928 cm
Average deviation is : 0.456 cm
Block: 7
======================================
301.000247145
300.589683247
301.049027014
300.536838388
301.439265966
301.882349777
300.553098345
300.569358301
301.455525923
300.569358301
301.016507101
300.553098345
300.57342329
300.57342329
301.016507101
300.553098345
300.569358301
300.569358301
301.000247145
301.012442112
300.553098345
300.979922199
301.439265966
301.898609734
300.57342329
300.569358301
302.309173632
300.536838388
300.996182156
301.439265966
301.032767057
301.012442112
300.569358301
300.553098345
300.589683247
301.012442112
301.443330956
301.012442112
300.536838388
301.439265966
301.475850868
301.012442112
301.866089821
300.557163334
300.569358301
301.439265966
300.569358301
300.996182156
300.979922199
300.589683247

Average distance is : 300.953 cm
Average deviation is : 0.450 cm
Block: 8
======================================
300.589683247
301.016507101
300.536838388
301.849829865
300.557163334
300.553098345
301.475850868
300.57342329
301.849829865
301.016507101
300.585618258
301.459590912
300.553098345
301.439265966
301.000247145
301.439265966
301.455525923
300.569358301
301.439265966
301.455525923
300.979922199
300.557163334
300.57342329
300.536838388
300.553098345
300.553098345
300.589683247
300.553098345
300.996182156
302.345758533
300.979922199
301.443330956
300.996182156
301.42300601
301.016507101
300.553098345
300.553098345
300.536838388
300.57342329
300.569358301
301.439265966
302.292913675
300.553098345
300.983987188
300.57342329
300.553098345
301.455525923
301.443330956
300.589683247
300.996182156

Average distance is : 300.984 cm
Average deviation is : 0.493 cm
Block: 9
======================================
301.439265966
300.557163334
300.963662243
300.569358301
301.459590912
300.569358301
300.536838388
300.996182156
300.589683247
300.569358301
300.553098345
300.996182156
301.016507101
300.553098345
300.569358301
301.882349777
302.309173632
300.979922199
300.553098345
300.553098345
300.589683247
301.032767057
300.57342329
300.996182156
301.000247145
300.569358301
300.536838388
301.439265966
301.016507101
301.439265966
300.536838388
300.553098345
300.996182156
301.032767057
300.996182156
301.000247145
300.996182156
300.553098345
301.012442112
300.520578432
300.57342329
300.553098345
300.536838388
300.996182156
300.979922199
300.553098345
300.557163334
302.292913675
301.42300601
300.979922199

Average distance is : 300.901 cm
Average deviation is : 0.437 cm
Block: 10
======================================
300.536838388
300.622203159
301.42300601
300.996182156
300.536838388
301.439265966
301.471785879
300.979922199
300.569358301
300.963662243
300.963662243
301.406746054
300.963662243
300.569358301
301.443330956
300.996182156
300.553098345
300.996182156
300.979922199
300.553098345
300.557163334
300.979922199
300.553098345
300.996182156
300.996182156
300.979922199
300.536838388
300.744152832
300.57342329
300.569358301
300.553098345
301.016507101
300.553098345
300.57342329
300.57342329
300.553098345
300.536838388
300.557163334
300.557163334
302.292913675
300.553098345
300.979922199
300.516513443
300.979922199
301.406746054
300.520578432
301.475850868
300.557163334
301.439265966
300.57342329

Average distance is : 300.864 cm
Average deviation is : 0.386 cm