
Block: 1
======================================
400.599702668
401.469015789
400.603745985
401.028294253
400.587572718
400.57139945
401.008077669
402.314069009
401.889520741
401.889520741
401.060640788
401.024250937
401.485189056
400.991904402
401.464972472
401.040424204
401.485189056
401.012120986
401.464972472
401.485189056
401.008077669
401.464972472
401.028294253
401.044467521
401.485189056
401.925910592
401.028294253
401.028294253
401.469015789
401.485189056
401.485189056
401.485189056
401.925910592
400.63609252
401.060640788
402.35045886
401.060640788
400.603745985
400.619919252
400.63609252
400.63609252
400.672482371
401.060640788
400.619919252
402.791180396
401.076814055
401.09703064
400.640135837
401.521578908
401.113203907
401.092987323
400.656309104
400.672482371
400.247934103
400.247934103
401.09703064
400.215587568
401.113203907
401.09703064
400.656309104
401.076814055
401.517535591
400.652265787
400.656309104
401.060640788
401.09703064
401.962300444
400.599702668
401.521578908
400.63609252
401.092987323
401.060640788
401.537752175
401.060640788
401.517535591

Average distance is : 401.129 cm
Average deviation is : 0.498 cm
Block: 2
======================================
401.521578908
401.10916059
401.076814055
402.382805395
401.517535591
401.517535591
401.537752175
401.076814055
401.978473711
401.533708858
401.092987323
402.403021979
401.553925443
401.553925443
401.974430394
401.129377174
401.129377174
400.688655639
401.129377174
401.586271977
401.145550442
400.688655639
401.145550442
401.129377174
400.721002173
401.145550442
400.704828906
401.145550442
400.704828906
400.704828906
403.741359854
401.994646978
400.72504549
401.165767026
400.704828906
400.704828906
401.145550442
401.165767026
400.688655639
401.177896976
402.87609005
401.145550442
401.602445245
401.161723709
400.721002173
400.721002173
401.161723709
401.586271977
401.194070244
402.026993513
401.161723709
401.161723709
401.57009871
401.618618512
401.161723709
400.737175441
400.704828906
401.602445245
401.586271977
401.145550442
400.721002173
400.741218758
403.284465051
400.741218758
400.704828906
401.161723709
401.586271977
401.161723709
401.161723709
401.602445245
400.721002173
400.741218758
402.04316678
401.198113561
402.04316678

Average distance is : 401.309 cm
Average deviation is : 0.598 cm
Block: 3
======================================
402.435368514
400.296453905
400.296453905
402.908436584
400.757392025
401.198113561
402.5041049
400.316670489
401.618618512
401.618618512
400.737175441
400.753348708
401.161723709
400.757392025
400.737175441
400.741218758
400.349017024
400.769521976
400.332843757
400.365190291
401.161723709
402.026993513
400.769521976
400.753348708
400.32880044
400.332843757
400.737175441
400.332843757
400.300497222
401.602445245
401.602445245
400.316670489
400.316670489
402.471758366
400.757392025
401.194070244
400.753348708
399.908295488
400.757392025
399.875948954
401.638835096
400.300497222
400.773565292
400.737175441
400.316670489
400.741218758
399.892122221
400.332843757
400.300497222
400.332843757
400.332843757
400.316670489
401.181940293
400.300497222
400.721002173
400.332843757
399.871905637
400.280280638
400.280280638
399.859775686
400.296453905
401.165767026
400.721002173
400.704828906
400.704828906
400.721002173
400.721002173
400.72504549
402.010820246
401.586271977
400.721002173
400.280280638
400.280280638
400.300497222
400.280280638

Average distance is : 400.760 cm
Average deviation is : 0.652 cm
Block: 4
======================================
400.280280638
400.247934103
400.247934103
400.668439054
400.231760836
400.243890786
400.704828906
400.684612322
400.231760836
401.129377174
401.962300444
400.247934103
400.672482371
400.656309104
400.211544251
400.26410737
401.113203907
400.227717519
400.195370984
400.668439054
400.215587568
401.076814055
400.211544251
402.366632128
400.231760836
402.791180396
401.076814055
401.942083859
401.060640788
400.63609252
400.619919252
400.179197717
402.366632128
400.619919252
401.044467521
401.060640788
400.619919252
400.619919252
400.619919252
401.925910592
401.044467521
401.485189056
401.028294253
401.044467521
400.619919252
400.603745985
401.040424204
401.469015789
401.044467521
401.909737325
401.028294253
401.469015789
401.044467521
401.485189056
401.044467521
401.909737325
401.044467521
401.469015789
401.060640788
401.008077669
401.028294253
401.485189056
401.909737325
401.452842522
401.469015789
401.028294253
401.469015789
400.619919252
401.464972472
401.028294253
400.587572718
401.028294253
401.469015789
401.909737325
401.469015789

Average distance is : 401.006 cm
Average deviation is : 0.600 cm
Block: 5
======================================
401.469015789
400.603745985
401.452842522
401.008077669
401.942083859
402.301939058
400.991904402
401.469015789
402.758833861
401.044467521
401.060640788
401.909737325
401.044467521
401.909737325
403.620060349
401.485189056
401.060640788
401.044467521
401.925910592
401.024250937
401.044467521
401.060640788
401.044467521
403.231901932
401.080857372
402.346415544
401.501362324
401.925910592
401.044467521
401.064684105
401.044467521
404.50150342
401.060640788
401.060640788
401.942083859
401.076814055
401.080857372
401.044467521
401.060640788
401.080857372
401.501362324
401.080857372
403.231901932
401.958257127
402.382805395
401.076814055
401.076814055
402.807353663
401.080857372
401.533708858
401.537752175
401.533708858
401.092987323
401.958257127
401.553925443
401.974430394
401.092987323
401.092987323
401.129377174
401.10916059
401.549882126
401.974430394
401.553925443
401.09703064
401.092987323
401.129377174
401.113203907
401.129377174
401.10916059
400.688655639
401.10916059
401.586271977
401.125333858
400.704828906
401.113203907

Average distance is : 401.484 cm
Average deviation is : 0.700 cm
Block: 6
======================================
401.129377174
400.688655639
401.113203907
401.10916059
400.672482371
400.684612322
400.688655639
400.672482371
400.672482371
400.688655639
401.129377174
401.125333858
400.652265787
401.553925443
400.672482371
402.843743515
400.688655639
400.672482371
400.688655639
401.537752175
400.26410737
400.688655639
400.247934103
401.113203907
400.688655639
400.704828906
400.247934103
401.129377174
400.688655639
400.280280638
401.974430394
401.129377174
400.688655639
400.284323955
400.280280638
400.280280638
400.684612322
401.09703064
400.280280638
400.26410737
401.533708858
400.284323955
400.704828906
400.688655639
400.26410737
400.247934103
400.721002173
400.26410737
400.721002173
401.145550442
400.247934103
399.839559102
400.280280638
401.553925443
400.684612322
400.672482371
400.243890786
400.247934103
402.382805395
400.26410737
400.688655639
400.243890786
400.26410737
400.26410737
400.26410737
400.704828906
400.280280638
400.688655639
401.145550442
400.300497222
400.704828906
400.688655639
400.672482371
401.974430394
400.721002173

Average distance is : 400.737 cm
Average deviation is : 0.529 cm
Block: 7
======================================
399.855732369
401.181940293
400.316670489
400.280280638
400.741218758
401.145550442
399.859775686
399.875948954
399.871905637
400.312627172
399.871905637
400.721002173
400.721002173
400.280280638
400.296453905
400.704828906
400.231760836
401.181940293
400.280280638
401.145550442
400.704828906
401.978473711
401.129377174
400.688655639
400.280280638
400.26410737
400.26410737
400.231760836
400.243890786
400.688655639
400.672482371
400.668439054
400.688655639
400.652265787
400.684612322
401.10916059
401.080857372
400.672482371
400.688655639
403.688796735
401.978473711
400.672482371
400.656309104
401.113203907
401.129377174
401.129377174
401.553925443
400.63609252
402.382805395
401.076814055
400.63609252
401.092987323
401.942083859
401.076814055
401.485189056
402.366632128
401.044467521
402.35045886
401.517535591
401.076814055
401.942083859
401.942083859
402.35045886
401.485189056
403.215728664
401.521578908
401.505405641
401.942083859
401.501362324
402.366632128
401.501362324
401.517535591
401.09703064
401.537752175
401.958257127

Average distance is : 401.070 cm
Average deviation is : 0.779 cm
Block: 8
======================================
400.688655639
402.823526931
403.672623467
401.129377174
402.382805395
401.129377174
400.668439054
401.129377174
401.113203907
401.113203907
401.113203907
401.092987323
401.586271977
401.113203907
401.113203907
401.57009871
400.704828906
401.129377174
401.533708858
401.10916059
401.553925443
400.688655639
401.978473711
401.09703064
401.113203907
400.652265787
401.092987323
401.129377174
401.076814055
400.652265787
400.656309104
401.537752175
400.688655639
401.092987323
400.672482371
401.533708858
400.688655639
400.672482371
400.656309104
400.672482371
401.962300444
400.672482371
400.672482371
401.076814055
401.942083859
400.672482371
402.370675445
401.09703064
400.227717519
400.652265787
401.080857372
400.656309104
400.652265787
401.09703064
402.403021979
400.640135837
401.060640788
401.09703064
400.652265787
401.076814055
400.640135837
400.672482371
400.603745985
400.63609252
401.044467521
401.501362324
400.603745985
402.366632128
400.619919252
400.603745985
400.656309104
400.652265787
401.076814055
401.505405641
400.619919252

Average distance is : 401.112 cm
Average deviation is : 0.602 cm
Block: 9
======================================
400.603745985
401.076814055
401.076814055
401.09703064
400.215587568
400.227717519
400.652265787
400.211544251
400.63609252
401.076814055
400.211544251
400.63609252
400.231760836
400.656309104
400.652265787
400.215587568
400.227717519
400.227717519
400.195370984
400.231760836
401.092987323
400.195370984
400.652265787
400.195370984
400.63609252
401.060640788
400.656309104
401.060640788
401.485189056
400.640135837
400.603745985
400.619919252
400.619919252
402.330242276
401.060640788
401.028294253
400.623962569
401.040424204
401.028294253
402.758833861
401.893564057
401.485189056
402.754790545
401.469015789
401.469015789
401.432625937
401.008077669
401.469015789
401.060640788
400.603745985
400.603745985
400.587572718
401.060640788
401.044467521
402.35045886
403.179338813
401.040424204
401.044467521
401.469015789
402.754790545
401.469015789
401.485189056
401.448799205
401.893564057
401.893564057
401.87739079
401.41645267
401.893564057
401.87739079
403.146992278
402.318112326
401.436669254
403.571540546
401.464972472
402.314069009

Average distance is : 401.187 cm
Average deviation is : 0.797 cm
Block: 10
======================================
401.432625937
401.008077669
401.028294253
401.028294253
401.448799205
401.012120986
402.334285593
401.87739079
401.485189056
403.603887081
401.469015789
401.889520741
403.19551208
401.452842522
401.469015789
401.905694008
402.334285593
403.624103665
401.485189056
401.485189056
401.469015789
401.909737325
401.501362324
401.469015789
402.758833861
401.028294253
403.624103665
401.501362324
401.452842522
401.501362324
401.044467521
401.485189056
403.215728664
401.080857372
401.501362324
402.791180396
400.656309104
401.517535591
401.533708858
400.63609252
400.672482371
400.63609252
401.10916059
401.521578908
401.521578908
401.09703064
401.909737325
401.533708858
401.501362324
401.060640788
401.044467521
401.925910592
401.060640788
401.942083859
402.35045886
401.501362324
403.6564502
402.334285593
401.909737325
403.231901932
401.925910592
401.501362324
401.501362324
402.366632128
401.517535591
401.501362324
401.505405641
401.485189056
403.6564502
401.501362324
401.517535591
402.366632128
401.942083859
401.946127176
401.517535591

Average distance is : 401.754 cm
Average deviation is : 0.750 cm