
Block: 1
======================================
401.469015789
401.008077669
401.080857372
401.925910592
401.012120986
401.946127176
401.044467521
401.485189056
401.905694008
403.603887081
402.758833861
401.008077669
401.889520741
401.469015789
402.35045886
401.942083859
401.909737325
402.791180396
402.35045886
402.346415544
401.469015789
401.501362324
401.485189056
401.464972472
403.620060349

Block: 2
======================================
401.09703064
401.517535591
401.533708858
401.076814055
401.060640788
401.09703064
401.942083859
401.958257127
401.076814055
403.231901932
401.076814055
401.501362324
402.366632128
401.501362324
401.09703064
402.366632128
401.076814055
401.942083859
401.517535591
401.974430394
401.060640788
400.63609252
401.517535591
401.958257127
401.521578908

Block: 3
======================================
401.978473711
402.791180396
401.521578908
401.076814055
401.553925443
403.248075199
400.668439054
401.076814055
401.10916059
400.656309104
400.672482371
400.656309104
400.668439054
401.113203907
401.533708858
401.537752175
401.10916059
401.942083859
401.064684105
401.537752175
401.080857372
401.076814055
401.092987323
401.501362324
401.09703064

Block: 4
======================================
401.080857372
403.672623467
402.366632128
401.958257127
401.501362324
400.656309104
400.672482371
400.688655639
400.668439054
402.382805395
400.688655639
401.958257127
401.962300444
401.517535591
400.652265787
401.113203907
400.668439054
401.076814055
400.652265787
401.092987323
401.533708858
401.925910592
401.092987323
400.668439054
401.962300444

Block: 5
======================================
401.537752175
402.839700198
402.839700198
401.113203907
400.672482371
400.688655639
401.57009871
400.684612322
400.26410737
400.704828906
400.247934103
400.688655639
401.994646978
400.704828906
401.974430394
400.280280638
400.260064054
400.247934103
400.721002173
400.26410737
400.26410737
400.668439054
400.26410737
400.247934103
401.57009871

Block: 6
======================================
399.80316925
400.247934103
401.113203907
401.533708858
401.10916059
401.521578908
400.652265787
400.652265787
400.243890786
400.26410737
400.227717519
400.247934103
401.537752175
401.537752175
400.672482371
400.652265787
400.688655639
400.247934103
401.962300444
400.668439054
402.382805395
402.807353663
402.403021979
401.113203907
401.517535591

Block: 7
======================================
400.656309104
400.652265787
402.386848712
402.382805395
401.925910592
400.656309104
400.672482371
401.501362324
400.672482371
400.652265787
401.092987323
401.113203907
401.09703064
401.09703064
400.211544251
400.211544251
400.656309104
401.978473711
400.215587568
400.688655639
400.672482371
401.09703064
401.076814055
400.63609252
401.09703064

Block: 8
======================================
400.652265787
401.533708858
400.656309104
400.672482371
400.652265787
400.656309104
401.962300444
401.09703064
402.386848712
401.076814055
402.791180396
402.35045886
402.81139698
400.640135837
401.501362324
401.09703064
400.652265787
401.517535591
401.076814055
401.942083859
401.076814055
401.060640788
401.076814055
401.044467521
401.060640788

Block: 9
======================================
401.080857372
401.533708858
401.076814055
400.63609252
401.060640788
401.958257127
401.942083859
400.619919252
401.501362324
401.485189056
401.909737325
401.060640788
401.044467521
401.501362324
401.517535591
401.044467521
401.028294253
401.040424204
401.060640788
401.044467521
401.505405641
401.485189056
401.909737325
401.905694008
401.469015789

Block: 10
======================================
401.501362324
401.485189056
401.076814055
401.485189056
401.028294253
401.076814055
402.330242276
401.925910592
401.909737325
401.485189056
401.060640788
401.485189056
401.060640788
401.485189056
401.925910592
401.485189056
401.040424204
401.076814055
401.501362324
401.060640788
401.060640788
402.386848712
401.076814055
401.060640788
401.501362324
