
Block: 1
======================================
200.043399906
200.059688759
200.059688759
200.059688759
200.043399906
200.043399906
200.931142378
200.027111053
200.519848847
200.043399906
200.914853525
200.466910076
201.375013614
200.470982289
200.931142378
200.503559995
200.043399906
200.043399906
200.931142378
200.910781312
200.487271142
200.059688759
200.043399906
200.927070165
200.927070165
200.043399906
200.931142378
200.043399906
200.059688759
200.914853525
200.043399906
200.931142378
200.910781312
200.039327693
200.931142378
200.059688759
200.947431231
200.059688759
200.043399906
200.910781312
200.914853525
200.043399906
200.027111053
200.910781312
200.043399906
199.59952867
199.579167604
200.059688759
200.027111053
200.027111053
200.039327693
200.02303884
200.059688759
200.503559995
200.931142378
200.043399906
200.043399906
200.043399906
200.039327693
200.02303884
200.039327693
200.02303884
200.931142378
200.043399906
199.583239818
200.931142378
199.59952867
200.027111053
200.931142378
200.503559995
200.914853525
200.043399906
200.487271142
199.595456457
200.947431231

Average distance is : 200.338 cm
Average deviation is : 0.451 cm
Block: 2
======================================
200.059688759
200.043399906
200.043399906
200.927070165
200.963720083
200.910781312
200.931142378
200.043399906
200.043399906
200.039327693
200.039327693
200.947431231
200.075977612
200.914853525
200.043399906
200.039327693
200.914853525
200.043399906
200.931142378
200.043399906
200.927070165
200.910781312
200.039327693
200.039327693
199.595456457
200.947431231
200.483198929
200.931142378
200.039327693
200.043399906
200.043399906
200.947431231
200.931142378
200.027111053
200.075977612
200.043399906
200.931142378
200.059688759
200.039327693
200.503559995
200.487271142
200.487271142
200.043399906
200.043399906
200.043399906
200.059688759
200.059688759
200.931142378
200.927070165
200.470982289
200.039327693
200.947431231
200.043399906
200.043399906
200.043399906
200.039327693
200.039327693
200.02303884
200.043399906
199.59952867
200.519848847
200.043399906
200.931142378
200.927070165
200.466910076
200.059688759
200.043399906
200.931142378
199.59952867
200.910781312
200.02303884
200.043399906
200.043399906
200.503559995
200.039327693

Average distance is : 200.334 cm
Average deviation is : 0.422 cm
Block: 3
======================================
200.503559995
200.043399906
200.931142378
200.927070165
200.039327693
200.02303884
200.059688759
200.927070165
200.059688759
200.487271142
200.059688759
200.5361377
200.059688759
200.075977612
200.039327693
200.059688759
200.043399906
200.039327693
201.375013614
200.059688759
200.059688759
200.039327693
200.059688759
200.059688759
200.059688759
200.039327693
200.519848847
200.055616546
200.059688759
200.055616546
200.059688759
200.059688759
200.043399906
200.503559995
200.059688759
200.039327693
200.519848847
200.043399906
200.043399906
200.059688759
200.043399906
200.043399906
200.027111053
200.043399906
201.391302466
200.059688759
200.043399906
199.59952867
200.075977612
200.059688759
200.043399906
200.043399906
200.043399906
200.059688759
200.059688759
200.039327693
200.043399906
200.075977612
200.027111053
200.055616546
201.391302466
200.059688759
200.059688759
201.391302466
200.043399906
199.615817523
200.075977612
200.075977612
200.967792296
200.059688759
200.059688759
200.059688759
200.055616546
200.039327693
200.055616546

Average distance is : 200.196 cm
Average deviation is : 0.375 cm
Block: 4
======================================
200.043399906
200.503559995
200.02303884
200.043399906
200.059688759
200.043399906
200.059688759
200.931142378
200.980008936
200.947431231
200.503559995
200.02303884
200.039327693
200.487271142
200.043399906
201.375013614
200.059688759
200.043399906
200.059688759
200.503559995
200.503559995
200.039327693
200.059688759
200.059688759
200.059688759
200.039327693
200.039327693
200.059688759
200.039327693
200.059688759
200.059688759
200.043399906
200.039327693
200.503559995
200.039327693
200.059688759
200.039327693
200.059688759
200.043399906
200.503559995
200.503559995
200.039327693
200.503559995
200.043399906
200.503559995
200.027111053
200.055616546
200.059688759
201.391302466
200.039327693
200.059688759
200.059688759
200.055616546
200.503559995
200.043399906
200.043399906
200.043399906
200.059688759
200.059688759
200.499487782
200.487271142
200.503559995
199.632106376
199.615817523
199.615817523
200.947431231
200.487271142
200.503559995
200.984081149
200.02303884
200.5361377
200.519848847
200.059688759
200.059688759
200.503559995

Average distance is : 200.243 cm
Average deviation is : 0.356 cm
Block: 5
======================================
200.039327693
200.043399906
200.963720083
200.503559995
200.503559995
200.503559995
200.059688759
200.059688759
199.61174531
200.523921061
200.043399906
200.043399906
200.075977612
200.059688759
200.519848847
200.059688759
200.519848847
200.519848847
200.503559995
200.059688759
200.059688759
200.059688759
200.039327693
200.059688759
200.059688759
200.059688759
200.055616546
200.519848847
200.059688759
200.503559995
200.503559995
200.503559995
200.039327693
200.043399906
200.503559995
199.59952867
200.523921061
200.039327693
200.503559995
200.519848847
200.503559995
200.503559995
200.499487782
200.059688759
200.503559995
200.043399906
201.407591319
200.523921061
200.039327693
200.043399906
200.043399906
200.499487782
200.059688759
200.043399906
200.059688759
200.02303884
200.059688759
200.043399906
200.043399906
200.055616546
200.059688759
200.059688759
200.059688759
200.059688759
200.059688759
199.595456457
200.043399906
200.059688759
200.075977612
200.947431231
199.632106376
199.632106376
200.043399906
200.059688759
200.059688759

Average distance is : 200.200 cm
Average deviation is : 0.316 cm
Block: 6
======================================
200.075977612
200.075977612
200.043399906
200.010822201
199.59952867
200.059688759
200.059688759
200.075977612
200.487271142
199.583239818
200.059688759
200.059688759
200.059688759
201.375013614
199.595456457
200.059688759
199.583239818
200.059688759
200.931142378
200.059688759
200.487271142
200.039327693
200.027111053
200.039327693
200.043399906
200.059688759
200.043399906
200.499487782
200.059688759
200.931142378
200.043399906
200.043399906
200.039327693
200.043399906
200.043399906
200.059688759
200.043399906
200.043399906
200.059688759
199.579167604
200.043399906
199.566950965
200.059688759
200.043399906
200.039327693
200.059688759
200.947431231
200.931142378
200.931142378
200.059688759
200.927070165
200.043399906
200.043399906
200.043399906
200.02303884
200.503559995
200.059688759
200.039327693
200.039327693
200.043399906
200.043399906
200.027111053
201.407591319
200.059688759
200.059688759
200.503559995
200.075977612
200.027111053
200.039327693
200.039327693
200.487271142
200.027111053
200.027111053
200.483198929
200.027111053

Average distance is : 200.159 cm
Average deviation is : 0.369 cm
Block: 7
======================================
200.043399906
200.503559995
200.931142378
200.043399906
200.519848847
200.963720083
200.947431231
200.059688759
200.947431231
200.947431231
200.927070165
200.02303884
200.519848847
200.523921061
200.039327693
200.059688759
200.02303884
200.02303884
200.043399906
200.487271142
200.503559995
200.055616546
200.043399906
200.519848847
200.947431231
200.059688759
200.039327693
200.043399906
200.039327693
200.947431231
199.579167604
200.043399906
200.039327693
200.02303884
200.039327693
200.059688759
200.039327693
200.059688759
200.059688759
200.039327693
200.043399906
200.947431231
200.059688759
200.503559995
200.055616546
200.947431231
200.043399906
200.931142378
200.075977612
200.059688759
200.043399906
200.055616546
200.02303884
200.059688759
200.519848847
200.519848847
200.503559995
200.503559995
200.503559995
200.043399906
200.487271142
200.027111053
200.075977612
200.519848847
200.503559995
200.519848847
200.039327693
200.503559995
200.503559995
200.075977612
200.043399906
200.503559995
200.043399906
200.039327693
200.487271142

Average distance is : 200.301 cm
Average deviation is : 0.343 cm
Block: 8
======================================
200.503559995
200.519848847
200.043399906
199.632106376
200.503559995
200.043399906
200.931142378
200.503559995
200.914853525
200.043399906
200.075977612
199.615817523
200.059688759
200.947431231
200.519848847
200.043399906
200.055616546
200.059688759
200.039327693
200.519848847
200.519848847
200.059688759
200.059688759
200.059688759
200.02303884
200.947431231
200.947431231
200.043399906
200.043399906
200.503559995
200.043399906
200.055616546
200.039327693
200.075977612
200.043399906
200.043399906
201.391302466
200.059688759
201.370941401
200.059688759
200.043399906
200.059688759
200.059688759
200.540209913
200.503559995
200.039327693
200.059688759
200.931142378
200.043399906
200.059688759
200.503559995
200.02303884
200.503559995
200.027111053
200.503559995
200.059688759
200.02303884
200.503559995
200.503559995
200.059688759
200.043399906
200.059688759
200.503559995
200.039327693
200.055616546
200.02303884
200.027111053
200.027111053
200.043399906
200.043399906
200.043399906
200.043399906
200.214432859
200.967792296
199.59952867

Average distance is : 200.250 cm
Average deviation is : 0.369 cm
Block: 9
======================================
200.523921061
200.039327693
200.487271142
200.927070165
200.043399906
200.487271142
200.503559995
200.487271142
200.02303884
200.043399906
200.059688759
200.914853525
200.503559995
200.039327693
200.043399906
200.503559995
200.483198929
200.027111053
199.61174531
200.947431231
200.487271142
200.039327693
200.059688759
200.487271142
200.043399906
200.947431231
200.059688759
200.503559995
200.043399906
200.039327693
200.059688759
200.059688759
200.02303884
200.055616546
200.02303884
200.503559995
200.043399906
200.499487782
200.487271142
199.615817523
200.043399906
200.080049825
200.523921061
200.523921061
200.075977612
200.075977612
200.043399906
200.043399906
200.075977612
200.059688759
200.519848847
200.039327693
200.039327693
200.055616546
200.963720083
199.632106376
200.043399906
200.059688759
200.043399906
200.503559995
200.967792296
200.503559995
200.980008936
200.487271142
200.963720083
200.043399906
200.519848847
200.503559995
200.503559995
200.059688759
200.043399906
200.075977612
200.503559995
200.487271142
200.039327693

Average distance is : 200.279 cm
Average deviation is : 0.334 cm
Block: 10
======================================
200.043399906
200.540209913
200.075977612
200.043399906
200.075977612
199.990461135
200.980008936
200.523921061
200.055616546
200.043399906
200.075977612
200.5361377
200.043399906
200.499487782
200.059688759
200.503559995
200.519848847
199.632106376
200.980008936
200.519848847
200.503559995
200.043399906
200.043399906
200.503559995
200.947431231
200.059688759
201.375013614
200.043399906
200.519848847
200.605365324
200.519848847
200.487271142
199.615817523
200.503559995
200.059688759
200.059688759
200.059688759
199.59952867
200.043399906
200.043399906
200.5361377
200.523921061
200.059688759
200.5361377
200.043399906
200.519848847
200.503559995
200.519848847
200.503559995
200.043399906
200.059688759
200.075977612
200.5361377
200.059688759
200.519848847
200.027111053
200.519848847
200.043399906
200.519848847
200.039327693
200.503559995
200.075977612
200.519848847
200.059688759
200.503559995
200.075977612
200.059688759
200.503559995
200.499487782
200.075977612
200.519848847
200.503559995
200.487271142
200.519848847
200.519848847

Average distance is : 200.307 cm
Average deviation is : 0.320 cm