
Block: 1
======================================
401.586271977
401.181940293
400.737175441
402.435368514
401.129377174
401.161723709
400.721002173
401.161723709
401.553925443
402.451541781
400.721002173
401.129377174
401.145550442
401.161723709
402.859916782
402.855873466
400.721002173
401.566055393
401.177896976
401.606488562
401.129377174
401.161723709
401.384106135
401.586271977
400.721002173
401.161723709
400.72504549
401.161723709
400.737175441
402.04316678
400.757392025
401.618618512
400.741218758
400.721002173
401.198113561
402.467715049
401.618618512
400.753348708
400.721002173
400.753348708
400.757392025
400.757392025
400.757392025
401.194070244
401.198113561
400.753348708
400.757392025
401.214286828
400.773565292
400.78973856

Block: 2
======================================
400.757392025
400.332843757
400.773565292
400.316670489
400.753348708
402.04316678
401.194070244
401.177896976
400.349017024
400.349017024
402.059340048
400.32880044
400.737175441
401.194070244
401.198113561
400.332843757
400.773565292
400.737175441
400.32880044
400.312627172
400.753348708
400.349017024
401.622661829
400.773565292
402.467715049
400.773565292
400.316670489
399.924468756
400.332843757
399.875948954
400.32880044
400.332843757
400.332843757
400.332843757
400.753348708
400.349017024
400.737175441
401.177896976
399.875948954
400.753348708
400.312627172
401.044467521
400.300497222
400.741218758
400.741218758
400.296453905
400.773565292
400.300497222
400.316670489
400.300497222

Block: 3
======================================
400.72504549
400.316670489
400.316670489
400.704828906
400.741218758
400.721002173
400.737175441
400.316670489
400.296453905
400.753348708
400.721002173
400.741218758
400.312627172
400.312627172
401.586271977
402.026993513
400.300497222
400.757392025
399.875948954
400.26410737
401.606488562
400.296453905
400.296453905
400.296453905
400.296453905
400.312627172
400.721002173
400.26410737
401.586271977
400.704828906
400.296453905
401.181940293
400.704828906
400.280280638
401.553925443
400.721002173
400.26410737
400.280280638
400.316670489
400.26410737
401.145550442
400.280280638
400.296453905
401.181940293
400.741218758
400.721002173
399.855732369
401.161723709
400.296453905
401.602445245

Block: 4
======================================
400.296453905
400.300497222
399.855732369
399.839559102
399.839559102
400.280280638
399.839559102
399.855732369
400.280280638
401.161723709
400.737175441
400.296453905
400.296453905
401.994646978
400.721002173
400.284323955
400.741218758
400.704828906
400.704828906
400.280280638
401.974430394
401.113203907
402.403021979
400.688655639
401.113203907
400.708872223
401.113203907
400.704828906
400.652265787
400.672482371
400.688655639
401.978473711
400.684612322
401.129377174
401.125333858
401.145550442
401.113203907
401.10916059
400.688655639
400.688655639
401.549882126
400.688655639
400.688655639
402.419195247
401.113203907
400.684612322
402.398978662
400.656309104
401.533708858
400.668439054

Block: 5
======================================
401.125333858
400.721002173
400.721002173
400.704828906
401.978473711
402.41515193
401.57009871
400.704828906
400.721002173
401.125333858
401.990603662
400.704828906
401.10916059
401.145550442
401.129377174
401.113203907
401.10916059
402.859916782
400.704828906
401.129377174
400.688655639
400.704828906
401.145550442
400.704828906
400.721002173
401.145550442
401.129377174
400.704828906
401.586271977
401.145550442
401.129377174
400.704828906
401.161723709
400.753348708
402.010820246
400.721002173
400.688655639
402.026993513
400.704828906
401.161723709
401.618618512
400.312627172
400.769521976
400.737175441
401.586271977
400.741218758
402.451541781
400.737175441
401.161723709
400.737175441

Block: 6
======================================
401.161723709
401.149593759
400.284323955
400.280280638
400.704828906
401.129377174
401.606488562
400.72504549
401.57009871
400.721002173
400.741218758
400.284323955
400.296453905
401.145550442
401.129377174
400.72504549
400.737175441
400.296453905
401.165767026
400.296453905
400.284323955
401.165767026
400.300497222
401.161723709
400.721002173
400.721002173
400.721002173
400.737175441
400.296453905
400.721002173
400.296453905
401.161723709
400.316670489
400.741218758
400.72504549
400.737175441
400.296453905
400.737175441
402.026993513
400.300497222
400.280280638
400.296453905
400.280280638
400.316670489
400.280280638
400.280280638
401.57009871
400.737175441
401.994646978
400.280280638

Block: 7
======================================
400.332843757
400.721002173
400.721002173
400.704828906
400.721002173
401.990603662
400.26410737
401.994646978
400.284323955
401.978473711
400.247934103
400.721002173
400.280280638
400.284323955
401.161723709
400.26410737
400.26410737
400.721002173
400.737175441
400.284323955
400.737175441
400.280280638
400.704828906
400.737175441
400.296453905
401.57009871
400.721002173
400.741218758
401.145550442
400.704828906
401.586271977
402.010820246
400.300497222
402.010820246
400.280280638
400.26410737
400.26410737
400.688655639
400.450099945
401.553925443
400.721002173
400.688655639
400.280280638
400.704828906
400.280280638
401.129377174
400.280280638
400.247934103
400.296453905
400.704828906

Block: 8
======================================
400.672482371
400.688655639
400.672482371
401.974430394
400.672482371
400.688655639
402.823526931
400.704828906
401.549882126
401.113203907
401.129377174
401.57009871
401.537752175
402.398978662
401.129377174
401.113203907
400.668439054
401.145550442
402.010820246
400.704828906
401.145550442
402.855873466
401.161723709
400.280280638
400.243890786
400.26410737
400.721002173
401.553925443
401.113203907
401.145550442
400.721002173
400.688655639
400.704828906
400.721002173
401.129377174
400.684612322
400.721002173
401.129377174
401.145550442
400.704828906
400.721002173
400.704828906
400.704828906
400.688655639
400.26410737
401.145550442
400.284323955
400.704828906
401.145550442
400.704828906

Block: 9
======================================
400.704828906
400.721002173
400.26410737
400.721002173
400.26410737
400.247934103
400.672482371
400.243890786
400.26410737
401.10916059
400.684612322
400.704828906
401.586271977
401.57009871
400.704828906
400.668439054
401.537752175
401.113203907
400.672482371
402.164466286
401.537752175
401.994646978
401.129377174
402.403021979
401.549882126
402.859916782
401.145550442
401.553925443
401.537752175
401.145550442
401.129377174
401.129377174
401.57009871
401.978473711
401.974430394
401.008077669
401.145550442
401.57009871
401.57009871
401.57009871
401.553925443
401.586271977
402.843743515
401.165767026
401.145550442
401.165767026
401.618618512
401.161723709
401.177896976
402.010820246

Block: 10
======================================
400.296453905
400.741218758
401.194070244
400.753348708
400.737175441
400.296453905
400.344973707
400.757392025
400.300497222
400.721002173
401.177896976
402.010820246
401.586271977
400.316670489
401.177896976
400.737175441
400.737175441
400.737175441
400.753348708
400.312627172
402.026993513
400.737175441
401.177896976
400.300497222
400.753348708
400.332843757
400.737175441
400.737175441
400.296453905
399.871905637
400.753348708
401.602445245
402.026993513
400.296453905
400.757392025
399.892122221
400.72504549
400.332843757
400.296453905
402.026993513
400.280280638
401.602445245
402.04316678
401.602445245
399.892122221
400.737175441
399.855732369
400.316670489
399.855732369
400.300497222
