
Block: 1
======================================
199.819428182
200.267371631
200.247010565
200.230721712
111.615290856
198.129459715
114.522851062
194.435962367
200.247010565
110.800848222
197.73852725
199.839789248
200.690881801
199.786850476
200.247010565
201.525685501
199.819428182
199.803139329
199.823500395
199.803139329
201.546046567
200.230721712
200.247010565
113.256392765
195.706492877
199.786850476
201.529757714
199.786850476
200.247010565
111.753746104
196.761196089
114.335529256
194.627356386
199.819428182
200.707170653
199.819428182
112.079523158
196.846712565
116.298336005
192.664549637
199.803139329
199.803139329
110.047488785
198.060232091
200.247010565
200.247010565
199.786850476
199.823500395
199.803139329
200.247010565
199.819428182
199.803139329
111.737457252
198.129459715
199.803139329
199.786850476
109.619906402
198.895035791
200.690881801
200.263299417
199.803139329
111.737457252
197.241717243
200.247010565
111.208069539
197.258006096
200.247010565
200.230721712
110.010838866
199.839789248
200.263299417
110.454710102
200.263299417
200.674592948
199.803139329

Block: 2
======================================
199.786850476
199.803139329
199.823500395
201.529757714
199.819428182
201.56233542
199.803139329
199.819428182
199.803139329
199.786850476
199.803139329
200.247010565
199.782778263
199.786850476
200.247010565
200.263299417
200.263299417
199.786850476
201.118464184
199.803139329
199.770561624
199.786850476
200.247010565
199.803139329
199.803139329
201.541974354
200.247010565
199.819428182
199.803139329
199.803139329
200.267371631
200.247010565
199.803139329
201.155114102
199.786850476
199.782778263
199.803139329
199.803139329
199.803139329
200.230721712
200.690881801
200.707170653
200.230721712
200.711242867
200.247010565
200.230721712
200.247010565
200.690881801
111.61936307
200.654231882
200.690881801
200.727531719
199.819428182
199.819428182
200.711242867
200.690881801
200.690881801
199.823500395
200.707170653
199.835717034
200.670520735
199.819428182
200.707170653
199.819428182
200.711242867
200.690881801
200.230721712
200.711242867
200.707170653
200.707170653
201.098103118
200.230721712
200.247010565
200.230721712
200.690881801

Block: 3
======================================
199.803139329
199.8560781
200.674592948
199.782778263
199.823500395
199.835717034
200.711242867
200.707170653
201.118464184
200.690881801
200.247010565
200.707170653
199.803139329
200.230721712
199.819428182
200.707170653
200.674592948
200.707170653
200.263299417
200.27958827
200.690881801
200.707170653
200.707170653
112.112100863
197.306872654
199.823500395
200.707170653
200.27958827
199.839789248
200.247010565
110.898581338
198.947974563
200.723459506
200.690881801
110.047488785
199.000913334
200.690881801
199.819428182
200.674592948
112.128389716
198.145748568
200.263299417
200.711242867
200.230721712
110.898581338
199.835717034
110.918942404
200.707170653
200.707170653
200.690881801
200.707170653
200.690881801
199.823500395
200.690881801
199.8560781
199.823500395
200.707170653
200.247010565
200.674592948
200.690881801
200.690881801
200.230721712
200.690881801
200.707170653
200.707170653
199.835717034
199.819428182
199.835717034
199.819428182
199.819428182
200.707170653
200.247010565
110.491360021
200.230721712
200.711242867

Block: 4
======================================
199.803139329
199.819428182
199.803139329
199.839789248
199.839789248
199.835717034
200.27958827
199.819428182
200.690881801
199.819428182
200.690881801
200.690881801
200.707170653
199.852005887
199.819428182
201.171402955
199.819428182
200.694954014
200.707170653
199.852005887
199.835717034
199.803139329
199.835717034
199.835717034
199.835717034
200.283660483
200.299949336
199.835717034
200.295877123
199.852005887
199.835717034
199.819428182
200.27958827
199.835717034
199.835717034
199.835717034
199.839789248
199.852005887
199.852005887
200.690881801
200.316238189
199.852005887
199.835717034
199.8560781
200.316238189
200.263299417
200.263299417
200.707170653
200.707170653
200.707170653
200.27958827
200.316238189
199.835717034
199.835717034
199.835717034
200.707170653
200.690881801
199.819428182
199.819428182
200.707170653
199.819428182
200.707170653
200.690881801
199.835717034
200.690881801
200.295877123
199.803139329
200.690881801
200.299949336
199.835717034
200.27958827
199.835717034
200.690881801
200.707170653
200.295877123

Block: 5
======================================
199.823500395
200.727531719
199.819428182
199.839789248
199.823500395
199.803139329
199.819428182
199.803139329
199.819428182
199.835717034
200.299949336
199.819428182
200.707170653
199.819428182
199.835717034
199.839789248
199.835717034
199.835717034
199.839789248
199.835717034
199.819428182
200.707170653
200.707170653
199.819428182
199.835717034
200.690881801
199.835717034
200.299949336
199.819428182
199.8560781
199.839789248
199.835717034
200.711242867
200.727531719
200.727531719
200.707170653
200.723459506
199.852005887
200.316238189
200.707170653
200.723459506
199.839789248
200.711242867
200.299949336
200.727531719
200.267371631
199.819428182
199.835717034
199.819428182
199.835717034
199.835717034
199.819428182
200.711242867
200.727531719
199.835717034
199.819428182
110.438421249
198.540753245
199.823500395
199.835717034
199.819428182
199.839789248
199.819428182
199.835717034
199.835717034
199.839789248
200.267371631
199.819428182
201.56233542
200.263299417
200.707170653
200.727531719
199.839789248
200.711242867
199.835717034

Block: 6
======================================
199.733911705
199.835717034
199.8560781
200.27958827
199.852005887
199.819428182
200.739748359
199.819428182
199.839789248
201.578624272
199.839789248
200.27958827
199.8560781
199.835717034
111.309874868
197.787393808
200.27958827
199.835717034
200.707170653
200.27958827
199.835717034
200.295877123
200.707170653
200.690881801
200.707170653
200.711242867
199.835717034
199.835717034
199.835717034
199.835717034
200.707170653
109.774650502
200.760109425
199.835717034
199.835717034
199.819428182
199.839789248
199.852005887
199.835717034
200.727531719
200.727531719
199.8560781
199.819428182
199.823500395
199.839789248
201.151041889
199.819428182
199.839789248
200.295877123
201.167330742
199.839789248
199.835717034
111.326163721
198.109098649
200.263299417
199.839789248
199.835717034
199.835717034
201.578624272
200.299949336
200.263299417
199.819428182
199.839789248
201.151041889
199.819428182
199.839789248
199.819428182
200.27958827
199.823500395
199.835717034
200.707170653
199.835717034
199.835717034
200.283660483
199.819428182

Block: 7
======================================
200.299949336
200.263299417
199.799067116
199.839789248
199.839789248
200.299949336
199.839789248
199.835717034
200.247010565
199.839789248
199.819428182
199.835717034
199.819428182
200.283660483
199.835717034
200.283660483
200.283660483
199.835717034
200.27958827
199.835717034
111.293586016
198.915396857
199.819428182
199.835717034
199.839789248
200.267371631
199.819428182
111.717096186
199.412206864
199.819428182
199.819428182
199.839789248
199.835717034
200.283660483
199.823500395
200.27958827
199.839789248
200.27958827
199.852005887
199.819428182
199.823500395
199.835717034
199.835717034
199.819428182
199.823500395
199.835717034
199.839789248
199.839789248
199.8560781
200.299949336
201.546046567
199.835717034
199.803139329
199.839789248
200.690881801
200.707170653
200.263299417
199.803139329
200.299949336
199.835717034
199.819428182
200.295877123
199.819428182
200.707170653
199.852005887
199.835717034
200.707170653
200.283660483
199.819428182
200.316238189
199.839789248
199.819428182
199.819428182
199.839789248
199.839789248

Block: 8
======================================
199.8560781
200.707170653
200.723459506
201.118464184
200.723459506
199.86829474
200.247010565
200.723459506
199.819428182
199.8560781
200.711242867
200.707170653
200.727531719
200.707170653
200.247010565
200.727531719
199.839789248
200.27958827
199.8560781
200.711242867
199.8560781
200.707170653
200.723459506
200.707170653
199.835717034
200.723459506
199.852005887
199.835717034
199.839789248
199.872366953
199.819428182
200.707170653
199.835717034
199.852005887
200.707170653
199.819428182
199.819428182
199.819428182
200.707170653
199.839789248
199.839789248
200.711242867
200.723459506
200.247010565
200.247010565
200.263299417
199.839789248
200.727531719
200.707170653
199.835717034
200.707170653
199.835717034
199.839789248
199.839789248
200.727531719
200.711242867
200.727531719
200.690881801
199.835717034
200.690881801
200.723459506
199.839789248
199.819428182
200.727531719
199.872366953
200.283660483
200.727531719
200.727531719
200.707170653
199.839789248
200.707170653
199.839789248
199.835717034
200.723459506
199.819428182

Block: 9
======================================
199.819428182
199.835717034
199.819428182
200.707170653
200.27958827
199.819428182
200.674592948
200.707170653
199.786850476
199.803139329
199.803139329
200.283660483
199.835717034
199.839789248
200.707170653
199.819428182
199.835717034
200.707170653
200.707170653
199.819428182
199.819428182
200.299949336
200.711242867
199.839789248
200.707170653
199.839789248
200.27958827
199.819428182
199.839789248
199.819428182
199.835717034
199.839789248
200.707170653
200.694954014
200.690881801
200.690881801
200.707170653
200.727531719
200.707170653
200.707170653
200.711242867
199.819428182
199.835717034
200.711242867
200.707170653
200.690881801
200.283660483
200.263299417
199.835717034
199.819428182
199.819428182
200.690881801
199.819428182
199.819428182
200.690881801
200.727531719
200.690881801
200.247010565
200.690881801
200.707170653
200.711242867
200.690881801
200.247010565
200.247010565
200.27958827
199.819428182
200.690881801
200.727531719
200.707170653
200.690881801
199.803139329
200.690881801
200.694954014
200.690881801
200.711242867

Block: 10
======================================
200.247010565
201.102175331
200.247010565
200.214432859
199.835717034
200.247010565
201.118464184
200.690881801
200.670520735
200.707170653
200.214432859
200.247010565
200.267371631
201.102175331
200.247010565
200.247010565
199.803139329
200.263299417
199.803139329
200.690881801
199.799067116
200.263299417
200.263299417
199.786850476
200.263299417
200.267371631
200.263299417
200.247010565
200.27958827
199.786850476
199.803139329
199.819428182
200.27958827
199.803139329
199.803139329
199.786850476
200.263299417
199.799067116
199.786850476
199.786850476
199.803139329
200.247010565
200.263299417
200.247010565
199.786850476
200.247010565
199.782778263
199.803139329
199.786850476
200.230721712
200.247010565
201.118464184
200.230721712
200.267371631
200.707170653
200.230721712
200.226649499
199.803139329
200.263299417
200.267371631
200.263299417
200.263299417
200.247010565
199.819428182
199.803139329
199.819428182
199.803139329
201.118464184
200.263299417
201.102175331
200.247010565
200.247010565
199.803139329
200.247010565
200.263299417
