
Block: 1
======================================
199.803139329
199.835717034
200.27958827
199.803139329
199.839789248
199.835717034
199.819428182
199.819428182
200.707170653
199.819428182
200.707170653
199.823500395
199.839789248
200.723459506
199.819428182
199.823500395
199.819428182
199.835717034
199.835717034
199.803139329
199.839789248
199.819428182
199.819428182
199.803139329
199.835717034
199.819428182
199.819428182
199.835717034
199.835717034
200.283660483
200.707170653
199.835717034
200.690881801
199.835717034
199.803139329
200.707170653
199.823500395
199.803139329
199.819428182
199.835717034
199.823500395
199.819428182
199.835717034
201.134753036
199.803139329
199.819428182
200.690881801
199.819428182
199.835717034
199.823500395
199.819428182
200.299949336
199.819428182
199.803139329
199.823500395
199.803139329
199.803139329
199.819428182
199.819428182
199.823500395
199.835717034
199.839789248
199.819428182
199.835717034
201.546046567
199.819428182
199.839789248
199.803139329
199.803139329
199.835717034
199.819428182
199.819428182
199.803139329
199.839789248
200.894492459
199.835717034
200.230721712
200.230721712
200.267371631
200.247010565
200.247010565
200.727531719
200.247010565
200.707170653
200.263299417
200.247010565
200.727531719
200.711242867
200.247010565
199.819428182
200.707170653
200.707170653
199.819428182
199.852005887
200.711242867
200.267371631
200.707170653
200.247010565
200.711242867
200.690881801

Block: 2
======================================
200.247010565
200.263299417
199.803139329
199.835717034
199.823500395
200.247010565
199.819428182
200.247010565
200.263299417
200.247010565
200.690881801
200.247010565
200.690881801
200.711242867
200.247010565
200.690881801
200.247010565
200.690881801
200.707170653
200.690881801
200.267371631
200.247010565
200.711242867
200.263299417
200.263299417
200.690881801
200.690881801
200.263299417
200.247010565
199.819428182
112.112100863
198.109098649
200.230721712
200.247010565
200.263299417
200.247010565
199.803139329
200.267371631
200.263299417
200.690881801
200.263299417
200.711242867
110.405843544
198.964263415
200.263299417
200.263299417
200.263299417
111.27322495
198.09688201
200.707170653
200.247010565
200.263299417
200.707170653
200.690881801
200.247010565
200.247010565
200.707170653
200.723459506
200.263299417
200.247010565
200.267371631
199.786850476
200.247010565
200.230721712
199.782778263
200.690881801
200.247010565
200.723459506
199.375556946
200.694954014
200.247010565
200.247010565
200.283660483
200.690881801
200.707170653
200.707170653
200.707170653
200.707170653
200.690881801
200.247010565
200.711242867
199.819428182
199.835717034
199.819428182
199.819428182
200.230721712
199.839789248
199.819428182
199.839789248
199.819428182
199.823500395
199.819428182
200.707170653
200.723459506
201.546046567
200.711242867
199.839789248
200.707170653
200.690881801
199.803139329

Block: 3
======================================
200.27958827
200.247010565
201.102175331
199.835717034
200.743820572
200.247010565
199.819428182
200.690881801
200.707170653
200.690881801
200.247010565
200.267371631
200.690881801
201.118464184
200.690881801
199.839789248
200.674592948
200.299949336
200.674592948
199.819428182
200.690881801
200.711242867
199.819428182
200.247010565
200.283660483
200.267371631
200.263299417
200.247010565
200.707170653
200.707170653
200.690881801
199.835717034
200.690881801
109.982333374
200.690881801
199.803139329
199.835717034
200.690881801
200.690881801
200.707170653
200.230721712
200.707170653
200.727531719
200.247010565
200.263299417
199.76648941
200.690881801
201.118464184
200.707170653
200.263299417
200.711242867
199.803139329
200.247010565
201.134753036
200.690881801
200.707170653
201.118464184
200.707170653
200.263299417
200.690881801
200.707170653
200.711242867
200.707170653
200.707170653
200.247010565
200.263299417
199.835717034
200.707170653
200.674592948
200.694954014
200.247010565
199.803139329
200.247010565
200.707170653
200.27958827
200.690881801
200.247010565
200.295877123
200.247010565
200.267371631
200.707170653
200.263299417
200.711242867
200.707170653
200.247010565
200.707170653
200.263299417
200.247010565
200.263299417
200.247010565
200.230721712
200.230721712
199.819428182
199.786850476
199.803139329
112.560044312
197.701877332
200.707170653
201.118464184
201.13882525

Block: 4
======================================
199.835717034
199.803139329
199.823500395
199.803139329
199.819428182
199.839789248
200.263299417
200.247010565
200.247010565
201.118464184
199.375556946
200.723459506
200.263299417
200.267371631
200.263299417
200.263299417
200.247010565
200.263299417
199.803139329
199.8560781
200.263299417
200.230721712
201.134753036
199.835717034
200.707170653
200.707170653
200.247010565
200.690881801
200.723459506
200.723459506
200.263299417
200.267371631
200.690881801
199.819428182
200.707170653
200.707170653
200.723459506
200.723459506
200.711242867
200.690881801
200.690881801
200.674592948
200.727531719
200.263299417
200.263299417
200.263299417
199.803139329
199.819428182
200.295877123
199.835717034
200.723459506
200.723459506
200.267371631
200.263299417
199.819428182
199.819428182
199.819428182
199.823500395
200.727531719
199.835717034
200.263299417
200.263299417
200.27958827
200.723459506
200.707170653
200.263299417
200.727531719
200.267371631
200.247010565
200.263299417
200.263299417
199.819428182
200.267371631
200.267371631
200.263299417
200.707170653
199.819428182
200.690881801
199.835717034
200.707170653
200.727531719
201.118464184
200.27958827
200.711242867
199.835717034
200.707170653
200.707170653
200.707170653
200.723459506
199.8560781
200.707170653
200.723459506
199.835717034
200.247010565
200.727531719
200.247010565
199.835717034
200.707170653
200.230721712
199.819428182

Block: 5
======================================
199.819428182
199.786850476
199.819428182
199.786850476
199.770561624
200.247010565
199.803139329
200.674592948
200.707170653
200.707170653
200.247010565
200.230721712
200.247010565
200.247010565
200.230721712
199.823500395
200.690881801
200.694954014
200.690881801
200.674592948
199.819428182
200.263299417
199.819428182
199.819428182
199.819428182
199.819428182
200.690881801
200.690881801
199.803139329
200.690881801
200.247010565
200.694954014
200.690881801
199.819428182
200.707170653
200.230721712
200.690881801
200.247010565
200.247010565
199.786850476
199.803139329
200.263299417
200.247010565
200.263299417
200.247010565
200.263299417
200.251082778
199.823500395
199.803139329
200.226649499
200.247010565
199.803139329
200.247010565
200.247010565
200.247010565
200.247010565
200.247010565
200.670520735
200.674592948
199.799067116
200.247010565
200.230721712
199.770561624
199.786850476
199.786850476
200.247010565
200.230721712
200.263299417
199.770561624
200.247010565
200.247010565
200.230721712
199.786850476
200.247010565
199.803139329
201.118464184
199.803139329
199.803139329
200.267371631
200.263299417
201.098103118
200.230721712
199.786850476
199.819428182
200.674592948
199.786850476
199.803139329
199.803139329
199.803139329
199.803139329
199.803139329
200.267371631
199.803139329
199.786850476
200.247010565
200.247010565
200.247010565
199.819428182
200.247010565
200.247010565

Block: 6
======================================
200.674592948
199.803139329
199.819428182
199.819428182
199.819428182
199.782778263
199.799067116
200.247010565
199.786850476
200.247010565
200.247010565
200.247010565
199.803139329
200.230721712
200.230721712
200.247010565
199.803139329
200.247010565
201.134753036
199.782778263
112.437877917
197.701877332
199.770561624
199.803139329
200.226649499
200.247010565
200.247010565
199.76648941
200.210360646
200.247010565
200.674592948
199.799067116
199.786850476
199.786850476
199.786850476
200.247010565
201.118464184
200.690881801
201.118464184
199.823500395
199.819428182
200.247010565
199.799067116
199.786850476
199.803139329
201.546046567
199.786850476
200.247010565
199.786850476
200.690881801
199.782778263
199.770561624
200.247010565
200.247010565
200.226649499
112.095812011
198.552969885
199.76648941
200.247010565
200.230721712
112.079523158
198.573330951
199.782778263
201.102175331
199.770561624
199.852005887
109.978261161
199.375556946
201.509396648
200.247010565
113.309331536
196.419130182
199.803139329
199.803139329
110.405843544
199.835717034
199.770561624
110.356976986
198.504103327
200.247010565
199.786850476
200.247010565
200.247010565
200.247010565
199.803139329
199.782778263
199.782778263
200.247010565
200.247010565
200.230721712
200.230721712
200.263299417
200.230721712
200.690881801
200.230721712
109.56696763
199.322618175
200.230721712
200.707170653
200.230721712

Block: 7
======================================
200.690881801
199.835717034
200.263299417
199.786850476
200.263299417
200.198144007
199.819428182
200.230721712
200.674592948
108.662936306
199.823500395
200.690881801
200.707170653
200.247010565
111.603074217
197.343522573
200.674592948
200.690881801
200.690881801
200.711242867
199.819428182
200.690881801
200.230721712
200.230721712
200.674592948
110.389554691
198.504103327
199.803139329
200.690881801
200.674592948
200.230721712
200.670520735
109.212685084
199.76648941
200.690881801
200.690881801
108.646647453
198.93168571
112.079523158
196.81413486
200.247010565
200.690881801
200.690881801
200.690881801
110.340688133
198.642558575
113.240103912
195.20968287
200.674592948
200.674592948
200.690881801
200.210360646
200.690881801
199.823500395
110.438421249
198.487814474
112.144678569
196.353974771
200.694954014
110.33661592
199.44478457
200.214432859
200.690881801
200.251082778
113.753202772
195.63319304
200.694954014
200.230721712
113.736913919
196.455780101
199.803139329
200.707170653
199.823500395
111.704879546
197.685588479
199.803139329
200.230721712
201.102175331
200.707170653
200.230721712
200.690881801
200.674592948
199.819428182
200.707170653
200.247010565
200.251082778
200.674592948
200.230721712
200.674592948
199.819428182
199.803139329
199.803139329
200.263299417
199.803139329
199.819428182
199.803139329
199.819428182
199.803139329
199.819428182
199.803139329

Block: 8
======================================
199.819428182
200.674592948
200.690881801
200.707170653
200.690881801
200.707170653
199.770561624
200.230721712
200.690881801
199.803139329
199.819428182
199.819428182
201.118464184
201.098103118
201.102175331
199.835717034
200.690881801
111.142914128
197.787393808
200.247010565
200.267371631
199.835717034
111.26100831
198.060232091
200.263299417
200.263299417
111.208069539
197.718166184
200.707170653
199.823500395
200.674592948
199.819428182
200.690881801
200.674592948
200.690881801
199.835717034
200.694954014
200.690881801
199.819428182
111.26100831
198.952046776
200.690881801
199.835717034
200.723459506
109.485523367
200.299949336
200.711242867
111.208069539
199.000913334
199.803139329
200.690881801
200.694954014
200.707170653
200.690881801
199.823500395
200.230721712
199.839789248
200.670520735
199.835717034
111.635651922
197.32723372
113.753202772
195.173032951
199.819428182
200.690881801
200.690881801
199.819428182
200.690881801
200.690881801
109.123096395
199.428495717
199.835717034
199.819428182
200.690881801
110.747909451
198.658847427
200.267371631
199.819428182
199.819428182
199.819428182
200.27958827
199.803139329
199.819428182
200.27958827
199.803139329
199.803139329
199.803139329
199.819428182
200.247010565
199.819428182
111.191780686
197.64893856
199.819428182
199.803139329
199.803139329
199.819428182
199.786850476
199.819428182
200.263299417
200.267371631

Block: 9
======================================
200.267371631
199.819428182
199.803139329
199.819428182
199.819428182
201.56233542
199.819428182
199.819428182
199.819428182
200.226649499
200.690881801
200.247010565
199.8560781
200.707170653
200.690881801
199.819428182
199.803139329
199.819428182
199.819428182
201.56233542
200.263299417
199.835717034
200.267371631
200.247010565
199.819428182
200.267371631
199.819428182
199.803139329
200.247010565
199.819428182
199.803139329
199.803139329
199.803139329
199.819428182
199.823500395
199.819428182
199.819428182
199.835717034
199.839789248
200.247010565
199.803139329
199.803139329
199.819428182
199.803139329
199.803139329
199.803139329
199.819428182
199.819428182
200.267371631
199.823500395
200.658304095
199.819428182
199.803139329
199.819428182
199.803139329
199.803139329
199.786850476
199.819428182
200.690881801
200.711242867
200.230721712
199.786850476
199.786850476
200.267371631
199.819428182
199.803139329
200.283660483
199.803139329
113.736913919
196.370263624
199.799067116
199.803139329
199.786850476
199.803139329
199.803139329
199.803139329
199.819428182
200.674592948
199.803139329
199.819428182
199.803139329
199.819428182
199.782778263
199.803139329
112.934687924
194.712872863
201.957340097
199.835717034
200.674592948
200.690881801
200.263299417
199.786850476
199.803139329
199.786850476
199.803139329
110.010838866
198.504103327
200.247010565
109.090518689
199.872366953

Block: 10
======================================
201.118464184
199.819428182
200.690881801
199.803139329
113.720625067
195.124166393
200.690881801
109.053868771
199.888655806
200.711242867
200.247010565
200.658304095
200.690881801
108.324942613
198.520392179
110.470998955
196.81413486
113.993463349
195.739070582
199.819428182
109.56696763
198.947974563
200.283660483
200.690881801
109.994550014
198.524464393
200.690881801
200.247010565
199.803139329
200.690881801
109.982333374
198.536681032
112.132461929
197.669299626
199.803139329
109.1556741
199.76648941
199.803139329
199.819428182
200.283660483
200.247010565
199.803139329
199.819428182
199.819428182
200.707170653
110.373265839
198.166109633
200.690881801
200.690881801
199.819428182
115.394304681
193.124709725
119.201823997
190.188644028
118.79460268
189.724411726
119.421723509
189.504512215
119.865594745
189.418995738
118.28150382
191.039736581
199.819428182
199.819428182
199.803139329
199.823500395
110.385482478
198.504103327
113.855008101
196.386552477
116.282047153
192.200317335
119.73121171
190.017611074
120.24431057
187.00824554
122.822021508
186.136791921
122.838310361
186.979740047
123.656825209
184.858116984
125.399732447
183.986663365
125.82731483
183.082632041
124.63415637
184.772600508
124.226935053
184.259501648
126.002419996
182.536955476
125.179832935
182.484016705
126.49515779
181.970917845
127.879710269
180.228010607
127.024545503
181.885401368
