
Block: 1
======================================
100.297191739
100.714322329
100.264151692
100.747362375
99.8470211029

Block: 2
======================================
100.260021687
100.730842352
100.22698164
99.8470211029
99.8139810562

Block: 3
======================================
100.27654171
100.768012404
100.243501663
100.714322329
99.8470211029

Block: 4
======================================
99.7974610329
100.280671716
100.243501663
100.297191739
100.714322329

Block: 5
======================================
100.260021687
100.297191739
100.280671716
100.714322329
99.8470211029

Block: 6
======================================
99.8305010796
100.297191739
100.280671716
100.264151692
100.260021687

Block: 7
======================================
100.280671716
100.280671716
100.297191739
100.264151692
100.27654171

Block: 8
======================================
100.243501663
100.27654171
100.297191739
100.264151692
100.747362375

Block: 9
======================================
100.280671716
100.280671716
100.313711762
100.243501663
100.243501663

Block: 10
======================================
99.7974610329
100.243501663
100.297191739
100.22698164
100.280671716
