
Block: 1
======================================
100.710192323
100.693672299
100.714322329
100.747362375
99.8470211029
100.280671716
99.8305010796
99.8305010796
100.330231786
100.747362375
99.8470211029
100.710192323
99.8470211029
100.714322329
99.8139810562
100.747362375
99.8470211029
99.8305010796
99.8263710737
99.8305010796
100.710192323
99.8470211029
99.8470211029
100.747362375
99.8305010796
100.714322329
99.8800611496
100.747362375
100.730842352
99.8841911554
100.313711762
99.8305010796
99.8470211029
99.8098510504
99.8428910971
99.8470211029
99.8305010796
99.8635411263
99.8635411263
99.8139810562
99.8305010796
99.8635411263
99.8098510504
100.297191739
99.8635411263
99.8470211029
100.697802305
99.8305010796
99.8139810562
99.8470211029
100.747362375
99.8305010796
99.8800611496
99.8470211029
99.8470211029
99.8470211029
100.747362375
99.8470211029
100.730842352
100.330231786
100.747362375
99.8841911554
99.793331027
100.280671716
99.8305010796
99.8263710737
100.297191739
99.8470211029
99.8470211029
99.8139810562
99.8305010796
99.8470211029
100.730842352
99.8635411263
99.8470211029

Block: 2
======================================
100.726712346
100.747362375
99.8470211029
99.8305010796
100.763882399
99.8470211029
99.8470211029
100.730842352
99.8470211029
100.747362375
99.8470211029
99.8470211029
99.8428910971
100.730842352
99.8470211029
99.8305010796
99.8635411263
100.714322329
99.8635411263
99.8470211029
99.8305010796
100.714322329
99.8098510504
99.8305010796
99.8305010796
100.710192323
99.8635411263
100.730842352
100.714322329
99.8305010796
100.763882399
99.8470211029
99.8470211029
99.8263710737
99.8635411263
100.714322329
100.730842352
99.8305010796
99.8305010796
100.730842352
99.8635411263
99.8305010796
100.747362375
99.8470211029
100.714322329
99.8470211029
100.714322329
100.730842352
99.8800611496
99.8263710737
100.747362375
99.8139810562
99.8139810562
99.8470211029
99.8305010796
99.8305010796
100.714322329
99.8263710737
99.8635411263
99.8676711321
100.730842352
99.8098510504
99.8305010796
99.8139810562
100.751492381
100.313711762
99.8305010796
100.730842352
100.697802305
99.8800611496
100.747362375
100.313711762
99.8470211029
99.8263710737
99.8305010796

Block: 3
======================================
100.710192323
99.8635411263
100.747362375
99.8305010796
99.8635411263
100.297191739
99.8305010796
99.8676711321
99.8305010796
99.8635411263
99.8470211029
100.280671716
99.8800611496
99.8470211029
99.8470211029
99.8470211029
100.297191739
100.297191739
99.8470211029
99.8470211029
99.8470211029
99.8263710737
99.8098510504
99.8470211029
99.8263710737
99.8841911554
100.297191739
99.8470211029
99.8139810562
99.8470211029
100.280671716
99.8098510504
99.8470211029
99.8263710737
99.8635411263
99.8263710737
99.8139810562
99.8470211029
99.8305010796
99.8470211029
99.8098510504
99.8470211029
99.8098510504
99.8635411263
99.8635411263
100.768012404
99.8470211029
99.8470211029
99.8305010796
99.8470211029
100.350881815
99.8305010796
100.297191739
99.8635411263
100.763882399
99.8470211029
99.8470211029
99.8470211029
100.297191739
99.8305010796
99.8139810562
99.8263710737
99.8470211029
99.8800611496
99.8305010796
99.8263710737
99.8305010796
99.8305010796
99.8470211029
99.8305010796
99.8635411263
99.8676711321
99.8139810562
99.8470211029
99.8635411263

Block: 4
======================================
99.8305010796
99.8635411263
99.8470211029
100.747362375
99.8470211029
99.8635411263
99.8635411263
99.8470211029
99.8635411263
99.8470211029
99.8635411263
99.793331027
99.8428910971
99.8635411263
100.313711762
99.8470211029
99.8305010796
99.8098510504
99.8139810562
99.8635411263
99.8139810562
99.8305010796
99.8305010796
99.8139810562
99.8305010796
99.8263710737
99.8139810562
99.8470211029
99.7974610329
99.8470211029
100.280671716
99.8305010796
100.346751809
99.8305010796
99.8305010796
99.8139810562
99.8263710737
99.8305010796
99.8635411263
99.8470211029
99.8470211029
99.8470211029
99.8635411263
99.8305010796
99.8635411263
99.8635411263
99.8305010796
99.8470211029
99.8305010796
99.8305010796
99.8470211029
99.8305010796
100.297191739
99.8470211029
99.8470211029
99.8470211029
100.297191739
99.8470211029
99.8635411263
99.8139810562
99.8263710737
99.8470211029
99.8470211029
99.7974610329
99.8635411263
100.313711762
100.313711762
99.8305010796
100.730842352
99.8470211029
99.8635411263
100.313711762
99.8470211029
99.8635411263
100.747362375

Block: 5
======================================
100.346751809
100.280671716
100.317841768
100.297191739
99.8305010796
99.8470211029
99.8098510504
99.8305010796
99.8305010796
99.8470211029
99.8470211029
99.8635411263
99.8470211029
100.714322329
99.8470211029
99.8635411263
100.346751809
100.280671716
99.8263710737
99.8305010796
99.8263710737
99.8635411263
100.330231786
99.8470211029
100.297191739
99.8635411263
99.8428910971
99.8098510504
99.8470211029
99.8470211029
99.8305010796
99.8470211029
99.8470211029
99.8470211029
99.8841911554
99.8635411263
99.8139810562
99.8470211029
99.8470211029
99.8635411263
100.334361792
99.8098510504
99.8470211029
99.8305010796
99.8305010796
100.330231786
100.280671716
99.8676711321
99.8800611496
99.8305010796
99.8470211029
99.8635411263
99.8305010796
100.330231786
99.8470211029
99.8635411263
99.8635411263
99.8305010796
99.8263710737
99.8470211029
99.793331027
99.8098510504
99.5496606827
99.8470211029
99.8305010796
99.8470211029
100.313711762
99.8470211029
99.8841911554
99.8470211029
99.8635411263
99.8635411263
99.8470211029
99.8305010796
99.8635411263

Block: 6
======================================
100.751492381
99.8841911554
100.363271832
99.8470211029
99.8635411263
99.8263710737
99.8305010796
100.730842352
99.9007111788
99.8635411263
99.8470211029
100.280671716
100.313711762
100.313711762
100.280671716
99.8470211029
100.297191739
99.8470211029
99.8470211029
99.8263710737
99.8470211029
99.8470211029
99.8635411263
100.346751809
99.8635411263
100.297191739
99.8470211029
99.8139810562
99.8305010796
99.8263710737
100.317841768
99.8635411263
100.330231786
99.8139810562
99.8635411263
99.8635411263
100.330231786
99.8305010796
99.8635411263
99.8470211029
99.8635411263
99.8470211029
99.8428910971
99.8470211029
99.8635411263
99.8635411263
99.8635411263
99.8470211029
99.8470211029
99.8470211029
99.8635411263
99.8305010796
99.8470211029
99.8635411263
100.297191739
99.8635411263
99.8470211029
99.8470211029
99.8305010796
99.8139810562
99.8470211029
100.313711762
100.747362375
100.280671716
99.8470211029
99.8428910971
99.8470211029
99.8635411263
100.330231786
99.8635411263
99.8470211029
99.8470211029
99.8098510504
99.8635411263
99.8470211029

Block: 7
======================================
100.768012404
99.8635411263
99.8470211029
99.8470211029
99.8139810562
99.8305010796
99.8470211029
99.8428910971
99.8635411263
99.8470211029
99.8139810562
99.8470211029
99.8305010796
99.8841911554
99.8800611496
99.8305010796
99.8470211029
99.8470211029
99.8470211029
100.763882399
99.8470211029
99.8305010796
100.317841768
100.301321745
99.8139810562
99.8635411263
99.8305010796
99.8305010796
99.8470211029
99.8263710737
99.8470211029
99.8635411263
99.8470211029
99.8635411263
100.317841768
100.297191739
99.8470211029
99.8305010796
99.8635411263
99.8470211029
99.8098510504
99.8098510504
99.8470211029
99.8098510504
99.8635411263
99.8470211029
99.8470211029
99.8305010796
99.8470211029
100.313711762
100.313711762
99.8305010796
99.8635411263
99.8263710737
100.334361792
99.8305010796
99.8305010796
99.8139810562
100.334361792
99.8470211029
100.313711762
99.8470211029
99.8635411263
100.280671716
99.8470211029
99.8139810562
100.317841768
99.8305010796
100.297191739
99.8635411263
99.8470211029
100.313711762
100.280671716
99.8305010796
99.8098510504

Block: 8
======================================
99.8470211029
99.8263710737
99.8800611496
99.8305010796
99.8470211029
100.313711762
100.334361792
99.8470211029
99.8470211029
100.313711762
99.8470211029
100.317841768
99.8470211029
100.280671716
99.8305010796
99.8470211029
99.8305010796
100.334361792
100.313711762
99.8635411263
99.8470211029
99.8305010796
99.8305010796
100.334361792
99.8470211029
99.8305010796
100.330231786
99.8635411263
100.297191739
99.8470211029
100.317841768
99.8139810562
100.780402422
100.280671716
100.297191739
99.8676711321
99.8635411263
99.8305010796
99.793331027
100.280671716
99.8635411263
99.8139810562
99.8470211029
99.8470211029
99.8635411263
99.8263710737
99.8305010796
100.334361792
99.8635411263
99.8470211029
99.8470211029
99.8841911554
99.8305010796
99.8676711321
99.8470211029
100.330231786
100.280671716
100.297191739
100.280671716
99.8139810562
100.297191739
99.8305010796
99.8470211029
99.8305010796
99.8470211029
100.470651984
99.8305010796
99.8263710737
99.8263710737
99.8305010796
99.8139810562
99.8098510504
99.8305010796
99.8139810562
99.8139810562

Block: 9
======================================
99.8305010796
99.8470211029
99.7974610329
99.8305010796
99.8305010796
99.8470211029
100.280671716
100.317841768
99.8635411263
100.297191739
99.8470211029
100.297191739
99.8635411263
99.8305010796
99.8305010796
100.313711762
100.280671716
100.330231786
99.8470211029
99.793331027
99.8635411263
99.8470211029
100.334361792
99.8263710737
99.8305010796
99.8470211029
99.8305010796
99.8635411263
100.297191739
100.313711762
100.730842352
99.8139810562
99.8800611496
99.8470211029
99.8263710737
99.8305010796
99.8263710737
99.8470211029
100.297191739
100.280671716
99.793331027
99.8470211029
99.8470211029
99.8635411263
99.8470211029
99.8305010796
99.8470211029
99.8305010796
99.8470211029
99.8635411263
99.8098510504
99.9007111788
100.297191739
99.8305010796
99.8305010796
99.8470211029
99.8635411263
99.8305010796
99.8263710737
99.8841911554
99.8305010796
99.8305010796
99.8470211029
99.8470211029
99.8305010796
99.8800611496
99.8841911554
100.330231786
100.297191739
100.313711762
100.264151692
99.8470211029
99.8470211029
100.313711762
99.8139810562

Block: 10
======================================
99.8635411263
101.701393723
99.8635411263
99.8470211029
99.8098510504
99.8676711321
99.8470211029
99.8470211029
99.8470211029
99.8470211029
99.8470211029
99.8470211029
99.8470211029
99.8470211029
99.8098510504
100.330231786
99.8263710737
100.297191739
99.8635411263
99.8470211029
99.8635411263
99.8305010796
99.8470211029
100.313711762
99.793331027
99.8635411263
99.8305010796
100.313711762
99.8676711321
99.8305010796
99.8139810562
99.8635411263
100.297191739
99.8470211029
99.8139810562
99.8470211029
99.8470211029
99.8305010796
99.8470211029
99.8305010796
99.8635411263
99.8305010796
99.8098510504
100.317841768
99.8470211029
99.8305010796
99.8635411263
99.8470211029
99.8305010796
100.780402422
100.297191739
99.8800611496
100.313711762
99.8635411263
99.8098510504
100.313711762
99.8470211029
100.297191739
99.8305010796
99.8635411263
99.8635411263
99.8098510504
100.297191739
99.8800611496
99.8305010796
99.8305010796
100.747362375
99.8470211029
100.297191739
99.8305010796
99.8305010796
99.8305010796
100.317841768
99.8305010796
100.330231786
