
Block: 1
======================================
50.8724083662
50.8682928085
50.8353683472
50.7818660975
50.8024438858
50.8682928085
50.9053328276
50.9053328276
50.8518305779
50.8353683472
50.8353683472
50.8518305779
50.8724083662
50.8847550392
50.8724083662
50.8888705969
50.8353683472
50.8559461355
50.8724083662
50.8724083662
50.8888705969
50.8682928085
50.8682928085
50.8559461355
50.8682928085
50.8518305779
50.8682928085
50.8888705969
50.8724083662
50.8682928085
50.8682928085
50.8724083662
50.8682928085
50.8518305779
50.8518305779
50.8559461355
50.8518305779
50.8682928085
50.8394839048
50.8518305779
50.8724083662
50.8682928085
50.8682928085
50.8518305779
50.8518305779
50.8353683472
50.8559461355
50.8559461355
50.8353683472
50.8724083662
49.9052523136
50.8724083662
50.8724083662
50.8394839048
50.8724083662
50.8682928085
50.8518305779
50.8518305779
50.8559461355
50.8353683472
50.8394839048
50.8518305779
50.8518305779
50.8353683472
50.8724083662
50.8559461355
50.8353683472
50.8518305779
50.8724083662
50.8724083662
50.8518305779
50.8888705969
50.4402748108
50.8888705969
50.8559461355
50.8518305779
50.8559461355
50.8724083662
50.8888705969
50.8518305779
50.8847550392
50.8682928085
50.8518305779
50.8559461355
51.4074308634
50.8724083662
50.8724083662
50.8682928085
50.8353683472
50.8888705969
50.8559461355
50.8353683472
50.8888705969
50.8559461355
50.8888705969
50.8724083662
50.8888705969
50.8724083662
50.8724083662
50.8724083662

Block: 2
======================================
50.8888705969
50.8682928085
50.8024438858
50.8682928085
50.9217950583
50.8024438858
50.8189061165
50.8518305779
50.8559461355
50.8353683472
50.8518305779
50.8888705969
50.8724083662
50.8024438858
50.8394839048
50.8724083662
50.8394839048
50.8888705969
50.8518305779
50.8518305779
50.8518305779
50.8353683472
50.8518305779
50.4567370415
50.8888705969
50.8518305779
50.8682928085
50.8682928085
50.8518305779
50.8518305779
50.8353683472
50.8888705969
50.8559461355
50.8559461355
50.4361592531
50.8888705969
50.8518305779
50.4567370415
50.8353683472
50.8847550392
50.8353683472
50.8682928085
50.8518305779
50.8353683472
50.8847550392
50.8847550392
50.8724083662
50.8559461355
50.8888705969
50.8353683472
50.8518305779
50.8559461355
50.8353683472
50.4567370415
50.8518305779
50.8888705969
50.8518305779
50.8518305779
50.8189061165
50.8518305779
50.8682928085
50.8518305779
50.8353683472
50.8518305779
50.8724083662
50.8353683472
50.4567370415
50.8024438858
50.8559461355
50.8559461355
50.8189061165
50.8724083662
50.8394839048
50.8724083662
50.8024438858
50.8682928085
50.8189061165
50.8353683472
50.7983283281
50.8189061165
50.8518305779
50.8518305779
50.8189061165
50.8024438858
50.8724083662
50.8559461355
50.8024438858
50.8189061165
50.8024438858
50.8682928085
50.8888705969
50.8353683472
50.8189061165
50.8353683472
50.8394839048
50.8353683472
50.8724083662
50.8518305779
50.8189061165
50.8353683472

Block: 3
======================================
50.4361592531
50.4402748108
50.4032347918
50.3703103304
50.4196970224
50.4073503494
50.3867725611
50.3908881187
50.8024438858
50.4032347918
50.7859816551
50.8189061165
50.8682928085
50.8189061165
50.3867725611
50.8189061165
50.8189061165
50.4238125801
50.4032347918
50.4073503494
50.8189061165
50.8189061165
50.7983283281
50.7859816551
50.4032347918
50.4402748108
50.4238125801
50.8353683472
50.3703103304
50.4073503494
50.3867725611
50.4032347918
50.4238125801
50.4032347918
50.3703103304
50.4238125801
50.4073503494
50.8024438858
50.3867725611
50.4238125801
50.4238125801
50.4073503494
50.4073503494
50.3867725611
50.4361592531
50.3867725611
50.8024438858
50.8024438858
50.4238125801
50.8559461355
50.8724083662
50.8724083662
50.8724083662
50.8559461355
50.8189061165
50.8024438858
50.8189061165
50.4196970224
50.4238125801
50.8189061165
50.3867725611
50.8353683472
50.8024438858
50.8024438858
50.8189061165
50.8024438858
50.7859816551
50.8189061165
50.8353683472
50.8024438858
50.8189061165
50.8024438858
50.8189061165
50.8353683472
50.7859816551
50.8353683472
50.8024438858
50.8353683472
50.8353683472
50.8724083662
50.8518305779
50.8189061165
50.4032347918
50.8559461355
50.8394839048
50.8024438858
50.9053328276
50.7859816551
50.3867725611
50.3867725611
50.4196970224
50.4032347918
50.7859816551
50.4032347918
50.3703103304
50.4032347918
50.4238125801
50.8189061165
50.7818660975
50.8189061165

Block: 4
======================================
50.4032347918
50.3867725611
50.4073503494
50.3867725611
50.3703103304
50.3867725611
50.4238125801
50.3867725611
50.3867725611
50.4032347918
50.4073503494
50.4402748108
50.3867725611
50.4238125801
50.4238125801
50.4032347918
50.4196970224
50.4238125801
50.4032347918
50.8559461355
50.8353683472
50.4238125801
50.3867725611
50.8518305779
50.4361592531
50.3867725611
50.8189061165
50.3867725611
50.3867725611
50.4238125801
50.3867725611
50.8353683472
50.4032347918
50.3908881187
50.4238125801
50.4238125801
50.3867725611
50.3867725611
50.4032347918
50.3867725611
50.3867725611
50.4032347918
50.8024438858
50.3908881187
50.8189061165
50.8189061165
50.8353683472
50.8024438858
50.8024438858
50.8189061165
50.7818660975
50.8353683472
50.8189061165
50.3867725611
50.8353683472
50.8189061165
50.8189061165
50.8024438858
50.3867725611
50.4073503494
50.8189061165
50.8189061165
50.7983283281
50.8189061165
50.8353683472
50.8353683472
50.7859816551
50.8189061165
50.3703103304
50.8189061165
50.8394839048
50.7859816551
50.8353683472
50.9053328276
50.7983283281
50.8189061165
50.7859816551
50.8189061165
50.8724083662
50.8189061165
50.7859816551
50.7983283281
50.8353683472
50.8682928085
50.8189061165
50.8353683472
50.7695194244
50.8189061165
50.7859816551
50.7983283281
50.8024438858
50.8518305779
50.3703103304
50.8394839048
50.8394839048
50.8353683472
50.8024438858
50.8024438858
50.8024438858
50.7983283281

Block: 5
======================================
50.8353683472
50.4196970224
50.4402748108
50.3703103304
50.4238125801
50.4238125801
50.4196970224
50.3867725611
50.7859816551
50.8189061165
50.8353683472
50.7859816551
50.8024438858
50.8189061165
50.3703103304
50.4073503494
50.3867725611
50.4073503494
50.8189061165
50.8189061165
50.3703103304
50.8559461355
50.8353683472
50.8189061165
50.8189061165
50.8189061165
50.8518305779
50.8353683472
50.8559461355
50.8559461355
50.8189061165
50.8189061165
50.8353683472
50.8353683472
50.8518305779
50.8518305779
50.8518305779
50.8024438858
50.8353683472
50.8888705969
50.8189061165
50.8518305779
50.9053328276
50.8724083662
50.8518305779
50.8682928085
50.8024438858
50.8888705969
50.8518305779
50.8189061165
50.8518305779
50.8189061165
50.3867725611
50.8724083662
50.7983283281
50.8024438858
50.8353683472
50.8559461355
50.8394839048
50.8024438858
50.8518305779
50.4196970224
50.7983283281
50.7818660975
50.8024438858
50.8353683472
50.8353683472
50.8353683472
50.8724083662
50.8518305779
50.8559461355
50.8353683472
50.8189061165
50.8189061165
50.8353683472
50.8189061165
50.8724083662
50.8024438858
50.8394839048
50.7859816551
50.8724083662
50.8353683472
50.4402748108
50.3908881187
50.7818660975
50.7818660975
50.8189061165
50.8682928085
50.8518305779
50.8189061165
50.8189061165
50.8518305779
50.8888705969
50.7983283281
50.8559461355
50.7983283281
50.8518305779
50.8024438858
50.8024438858
50.8189061165

Block: 6
======================================
50.8518305779
50.3867725611
50.4073503494
50.4073503494
50.4032347918
50.4073503494
50.4073503494
50.3703103304
50.7818660975
50.8024438858
50.7983283281
50.8024438858
50.8024438858
50.8189061165
50.7859816551
50.8189061165
50.9053328276
50.8024438858
50.8394839048
50.8888705969
50.8888705969
50.8559461355
50.8353683472
50.8682928085
50.8189061165
50.8888705969
50.8559461355
50.8847550392
50.8518305779
50.8394839048
50.8024438858
50.8024438858
50.8189061165
50.8189061165
50.8189061165
50.8189061165
50.8024438858
50.8559461355
50.8724083662
50.8189061165
50.8724083662
50.8724083662
50.8682928085
50.4567370415
50.4402748108
50.8353683472
50.4196970224
50.8559461355
50.4402748108
50.8024438858
50.8724083662
50.8847550392
50.8518305779
50.8518305779
50.8189061165
50.8518305779
50.8724083662
50.8353683472
50.8518305779
50.7859816551
50.8189061165
50.8024438858
50.8189061165
50.7818660975
50.8394839048
50.8189061165
50.8189061165
50.8394839048
50.8189061165
50.8353683472
50.8353683472
50.8024438858
50.8518305779
50.8394839048
50.8353683472
50.7859816551
50.8024438858
50.8189061165
50.8394839048
50.8682928085
50.8189061165
50.8847550392
50.8024438858
50.8189061165
50.8024438858
50.8189061165
50.8353683472
50.7859816551
50.8189061165
50.8518305779
50.7818660975
50.8189061165
50.7818660975
50.8847550392
50.8189061165
50.8682928085
50.7859816551
50.5760882139
50.8353683472
50.8353683472

Block: 7
======================================
50.8024438858
50.8024438858
51.2139996529
50.8024438858
50.7859816551
50.8189061165
50.7818660975
50.8024438858
50.8724083662
50.8353683472
50.8888705969
50.8518305779
50.7859816551
50.8888705969
50.8353683472
50.8518305779
50.8682928085
50.8189061165
50.8353683472
50.8189061165
50.8024438858
50.8024438858
50.8189061165
50.8189061165
50.7818660975
50.8353683472
50.3867725611
50.4073503494
50.7983283281
50.7818660975
50.8888705969
50.8189061165
50.8024438858
50.8189061165
50.8024438858
50.8189061165
50.8230216742
50.8518305779
50.8189061165
50.8024438858
50.8024438858
50.8353683472
50.8559461355
50.8353683472
50.8024438858
50.8353683472
50.8189061165
50.8518305779
50.8353683472
50.8189061165
50.7859816551
50.8024438858
50.7818660975
50.8559461355
50.8024438858
50.8024438858
50.8189061165
50.8189061165
50.8024438858
50.8518305779
50.8189061165
50.8518305779
50.8888705969
50.8724083662
50.8353683472
50.8518305779
50.8394839048
50.8024438858
50.7983283281
50.8724083662
50.8189061165
50.8189061165
50.8353683472
50.7983283281
50.4032347918
50.8189061165
50.7859816551
50.7983283281
50.8518305779
50.8518305779
50.8189061165
50.8518305779
50.8024438858
50.8024438858
50.8559461355
50.7983283281
50.8189061165
50.4196970224
50.4402748108
50.8847550392
50.8189061165
50.8559461355
50.8682928085
50.8189061165
50.8724083662
50.8559461355
50.8189061165
50.8682928085
50.8024438858
50.8518305779

Block: 8
======================================
50.4073503494
50.4238125801
50.3867725611
50.4073503494
50.3908881187
50.4238125801
50.4238125801
50.3867725611
50.8353683472
50.7818660975
50.4032347918
50.4238125801
50.3867725611
50.8189061165
50.8024438858
50.8724083662
50.3867725611
50.8353683472
50.8189061165
50.4238125801
50.4196970224
50.3908881187
50.8189061165
50.8189061165
50.7818660975
50.3538480997
50.3703103304
50.8189061165
50.7859816551
50.7859816551
50.8189061165
50.8724083662
50.8518305779
50.8888705969
50.8394839048
50.8724083662
50.8682928085
50.8682928085
50.8724083662
50.4402748108
50.4073503494
50.8518305779
50.8189061165
50.8189061165
50.8724083662
50.8189061165
50.8189061165
50.8559461355
50.8024438858
50.8353683472
50.8353683472
50.8394839048
50.8353683472
50.8518305779
50.8024438858
50.8394839048
50.8024438858
50.4073503494
50.8724083662
50.8682928085
50.4238125801
50.8024438858
50.8189061165
50.8189061165
50.8024438858
50.8024438858
50.8024438858
50.8189061165
50.4032347918
50.8353683472
50.8518305779
50.8189061165
50.8189061165
50.8559461355
50.8189061165
50.4032347918
50.8024438858
50.8724083662
50.8189061165
50.7983283281
50.8559461355
50.8024438858
50.8024438858
50.4073503494
50.7818660975
50.8518305779
50.8724083662
50.8024438858
50.7818660975
50.8189061165
50.8189061165
50.8189061165
50.8189061165
50.8189061165
50.8189061165
50.8518305779
50.8189061165
50.8847550392
50.8888705969
50.7859816551

Block: 9
======================================
50.8189061165
50.8724083662
50.8024438858
50.8189061165
50.8189061165
50.8518305779
50.8518305779
50.8724083662
50.8189061165
50.8559461355
50.8682928085
50.8394839048
50.8724083662
50.8682928085
50.8724083662
50.8189061165
50.8724083662
50.8724083662
50.8353683472
50.8682928085
50.8847550392
50.8559461355
50.8724083662
50.8724083662
50.8353683472
50.8353683472
50.7983283281
50.8518305779
50.8353683472
50.8353683472
50.8024438858
50.8024438858
50.8559461355
50.8024438858
50.8888705969
50.8353683472
50.4567370415
51.0781862497
50.8847550392
50.4361592531
50.4238125801
50.4238125801
50.8888705969
50.8394839048
50.8189061165
50.4238125801
50.8353683472
50.3867725611
50.7983283281
50.3867725611
50.8024438858
50.4196970224
50.8394839048
50.7859816551
50.8024438858
50.8189061165
50.8353683472
50.4238125801
50.8353683472
50.8024438858
50.3703103304
50.8024438858
50.8189061165
50.8189061165
50.3867725611
50.8353683472
50.8189061165
50.4032347918
50.8024438858
50.4032347918
50.7859816551
50.3867725611
50.8189061165
50.3908881187
50.8682928085
50.8353683472
50.7818660975
50.8559461355
50.4196970224
50.8353683472
50.8024438858
50.3867725611
50.3867725611
50.8024438858
50.4238125801
50.8189061165
50.8353683472
50.4032347918
50.4032347918
50.8353683472
50.8394839048
50.4032347918
50.8353683472
50.8189061165
50.8024438858
50.8024438858
50.8353683472
50.8518305779
50.7859816551
50.8888705969

Block: 10
======================================
50.8518305779
50.4073503494
50.3703103304
50.4567370415
50.4032347918
50.4073503494
50.8724083662
50.4238125801
50.8189061165
50.8024438858
50.8518305779
50.8888705969
50.8724083662
50.8559461355
50.8394839048
50.8518305779
50.9053328276
50.8024438858
50.8559461355
50.8724083662
50.8724083662
50.8559461355
50.8353683472
50.8559461355
50.8024438858
50.8682928085
50.9053328276
50.8353683472
50.8518305779
50.8189061165
50.8724083662
50.8394839048
50.8024438858
50.8724083662
50.8888705969
50.8189061165
50.8518305779
50.8888705969
50.8189061165
50.8682928085
50.8724083662
50.8559461355
50.8888705969
50.8682928085
50.8518305779
50.8394839048
50.8559461355
50.8518305779
50.8724083662
50.8724083662
50.8724083662
50.8682928085
50.8518305779
50.8353683472
50.4402748108
50.8724083662
50.8353683472
50.8682928085
50.8394839048
50.4567370415
50.8559461355
50.8518305779
50.8682928085
50.8682928085
50.8353683472
50.8518305779
50.8724083662
50.8559461355
50.4567370415
50.8189061165
50.8353683472
50.4361592531
50.8888705969
50.8682928085
50.8518305779
50.8518305779
50.8724083662
50.4196970224
50.8724083662
50.8394839048
50.8518305779
50.8682928085
50.8847550392
50.8847550392
50.8518305779
50.8724083662
50.8518305779
50.8682928085
50.8518305779
50.8682928085
50.8682928085
50.8024438858
50.8888705969
50.8724083662
50.8888705969
50.8724083662
50.8353683472
50.8559461355
50.8394839048
50.8724083662
