
Block: 1
======================================
50.8559461355
50.8847550392
50.8559461355
50.9053328276
50.8518305779
50.8559461355
50.7859816551
50.8847550392
50.8888705969
50.8518305779
50.8353683472
50.8888705969
50.8353683472
50.4361592531
50.4567370415
50.4402748108
50.8518305779
50.8682928085
50.8682928085
50.8518305779
50.8518305779
50.8353683472
50.8682928085
50.9053328276
50.8518305779
50.4896615028
50.8518305779
50.8559461355
50.4402748108
50.4402748108
50.4567370415
50.4402748108
50.4238125801
50.4032347918
50.8559461355
51.3045419216
50.8888705969
50.4238125801
50.8518305779
50.8724083662
50.4731992722
50.8682928085
50.4567370415
50.8353683472
50.4567370415
50.8518305779
50.9053328276
50.8518305779
50.8353683472
50.8518305779
50.8559461355
50.8353683472
50.8559461355
50.8682928085
50.9053328276
50.8518305779
50.8847550392
50.9053328276
50.8518305779
50.8353683472
50.8682928085
50.8518305779
50.8559461355
50.8724083662
50.8559461355
50.4402748108
50.8724083662
50.4361592531
50.8682928085
50.8394839048
50.8847550392
50.8682928085
50.8888705969
50.8353683472
50.8724083662

Average distance is : 50.779 cm
Average deviation is : 0.184 cm
Block: 2
======================================
50.8559461355
50.8559461355
50.8518305779
50.8888705969
50.8888705969
50.4567370415
50.4361592531
50.8518305779
50.8518305779
50.8518305779
50.8888705969
50.4567370415
50.4361592531
50.8682928085
50.8353683472
50.8888705969
50.8724083662
50.8724083662
50.8559461355
50.8559461355
50.8724083662
50.8518305779
50.8394839048
50.8353683472
50.8518305779
50.8518305779
50.8518305779
50.8518305779
50.8724083662
50.8559461355
50.8724083662
50.8518305779
50.1809946775
50.8518305779
50.8682928085
50.8518305779
50.8559461355
50.8724083662
50.8724083662
50.8724083662
50.8518305779
50.8394839048
50.8682928085
50.8724083662
50.8559461355
50.8189061165
50.8724083662
50.8682928085
50.8518305779
50.8682928085
50.8888705969
50.8888705969
50.8394839048
50.8353683472
50.8847550392
50.8559461355
50.8682928085
50.8559461355
50.8888705969
50.8724083662
50.8888705969
50.8888705969
50.9053328276
50.8518305779
50.8518305779
50.8682928085
50.8518305779
50.8682928085
50.8724083662
50.8682928085
50.8353683472
50.8724083662
50.8682928085
50.8724083662
50.8559461355

Average distance is : 50.832 cm
Average deviation is : 0.122 cm
Block: 3
======================================
50.8353683472
50.8189061165
50.8724083662
50.8518305779
50.8353683472
50.8559461355
50.4032347918
50.4567370415
50.4402748108
50.4402748108
50.4567370415
50.4567370415
50.8888705969
50.8888705969
50.8518305779
50.8189061165
50.8888705969
50.8559461355
50.4032347918
50.8518305779
50.8888705969
50.8559461355
50.8724083662
50.8353683472
50.8724083662
50.4402748108
50.4567370415
50.8724083662
50.8518305779
50.8518305779
50.8724083662
50.8724083662
50.8353683472
50.8847550392
50.8888705969
50.8888705969
50.8888705969
50.8724083662
50.8682928085
50.8888705969
50.8888705969
50.8353683472
50.8559461355
50.8724083662
50.8682928085
50.8518305779
50.8724083662
50.8353683472
50.8518305779
50.8518305779
50.8394839048
50.8559461355
50.8682928085
50.4238125801
50.8682928085
50.8888705969
50.8394839048
50.8888705969
50.8518305779
50.8888705969
50.4196970224
50.8682928085
50.4567370415
50.8559461355
50.4567370415
50.8518305779
50.8888705969
50.8353683472
50.8394839048
50.8353683472
50.9053328276
50.8724083662
50.8888705969
50.8518305779
50.8724083662

Average distance is : 50.790 cm
Average deviation is : 0.163 cm
Block: 4
======================================
50.8518305779
50.8682928085
50.8518305779
50.7818660975
50.8559461355
50.8394839048
50.8559461355
50.8189061165
50.8518305779
50.8724083662
50.8518305779
50.8353683472
50.8353683472
50.8724083662
50.8518305779
50.8724083662
50.8724083662
50.4567370415
50.8353683472
50.4731992722
50.4567370415
50.8682928085
50.8888705969
50.4731992722
50.4196970224
50.4402748108
50.8353683472
50.8518305779
50.8724083662
50.8888705969
50.4196970224
50.8888705969
50.4731992722
50.4402748108
50.4567370415
50.4402748108
50.8518305779
50.8888705969
50.8888705969
50.8888705969
50.4567370415
50.8559461355
50.8518305779
50.8518305779
50.8518305779
50.8518305779
50.8353683472
50.8724083662
50.8724083662
50.8888705969
50.8353683472
50.8724083662
50.8724083662
50.8353683472
50.8518305779
50.8888705969
50.8559461355
50.8724083662
50.8888705969
50.8559461355
50.8559461355
50.8682928085
50.8394839048
50.8847550392
50.8724083662
50.4567370415
50.8888705969
50.8518305779
50.8559461355
50.8888705969
50.8559461355
50.9053328276
50.8394839048
50.8518305779
50.8888705969

Average distance is : 50.790 cm
Average deviation is : 0.158 cm
Block: 5
======================================
50.8024438858
50.8353683472
50.7818660975
50.7859816551
50.7859816551
50.8024438858
50.8189061165
50.8724083662
50.8518305779
50.8518305779
50.8888705969
50.8559461355
50.8682928085
50.8353683472
50.8559461355
50.8353683472
50.8394839048
50.8682928085
50.8888705969
50.8888705969
50.8888705969
50.8682928085
50.8724083662
50.8724083662
50.8888705969
50.8559461355
50.8518305779
50.9053328276
50.8724083662
50.9053328276
50.8518305779
50.8518305779
50.8888705969
50.8888705969
50.8518305779
50.8724083662
50.8724083662
50.4402748108
50.4567370415
50.4731992722
50.4731992722
50.8682928085
50.8518305779
50.4402748108
50.4567370415
50.8559461355
50.8353683472
50.4238125801
50.8518305779
50.8518305779
50.8724083662
50.8518305779
50.8559461355
50.8724083662
50.8559461355
50.8682928085
50.8724083662
50.8888705969
50.4773148298
50.8559461355
50.8724083662
50.8353683472
50.8724083662
50.8847550392
50.8847550392
50.8518305779
50.8518305779
50.9053328276
50.8847550392
50.8518305779
50.8724083662
50.8518305779
50.8682928085
50.8724083662
50.8559461355

Average distance is : 50.817 cm
Average deviation is : 0.128 cm
Block: 6
======================================
50.8518305779
50.8353683472
50.8724083662
50.8724083662
50.8888705969
50.8847550392
50.8518305779
50.8682928085
50.4567370415
50.4402748108
50.4567370415
50.4567370415
50.8518305779
50.8888705969
50.4402748108
50.4567370415
49.8023633718
50.8518305779
50.4238125801
50.4402748108
50.4032347918
50.8518305779
50.8888705969
50.4402748108
50.8724083662
50.4731992722
50.8724083662
50.4567370415
50.4896615028
50.4361592531
50.4567370415
50.8888705969
50.4567370415
50.4731992722
50.4402748108
50.4567370415
50.4402748108
50.4402748108
50.4567370415
50.4567370415
50.4196970224
50.4773148298
50.4238125801
50.4402748108
50.4402748108
50.4567370415
50.4567370415
50.4402748108
50.4402748108
50.4567370415
50.8888705969
50.8682928085
50.4567370415
50.4567370415
50.4731992722
50.4896615028
50.4731992722
50.4402748108
50.4526214838
50.4238125801
50.4731992722
50.4731992722
50.4402748108
50.4567370415
50.4402748108
50.8724083662
50.4567370415
50.4238125801
50.8847550392
50.4731992722
50.8724083662
50.8682928085
50.8724083662
50.4567370415
50.4196970224

Average distance is : 50.571 cm
Average deviation is : 0.215 cm
Block: 7
======================================
50.8724083662
50.8189061165
50.8559461355
50.8682928085
50.7818660975
50.8394839048
50.8353683472
50.8353683472
50.8724083662
50.8518305779
50.8724083662
50.8724083662
50.8682928085
50.8888705969
50.8724083662
50.8724083662
50.8847550392
50.8353683472
50.8888705969
50.8559461355
50.8724083662
50.8682928085
50.8724083662
50.8559461355
50.8682928085
50.8518305779
50.8518305779
50.8353683472
50.8847550392
50.8353683472
50.8559461355
50.8682928085
50.8353683472
50.8888705969
50.8888705969
50.8682928085
50.8888705969
50.8724083662
50.8724083662
50.8888705969
50.8518305779
50.8394839048
50.8518305779
50.8888705969
50.8682928085
50.8518305779
50.8559461355
50.8353683472
50.8888705969
50.8024438858
50.8024438858
50.8682928085
50.8559461355
50.8518305779
50.8888705969
50.8394839048
50.8394839048
50.8518305779
50.7983283281
50.9053328276
50.8353683472
50.8189061165
50.9053328276
50.8189061165
50.8353683472
50.8724083662
50.7818660975
50.8353683472
50.8559461355
50.8353683472
50.8189061165
50.8189061165
50.8559461355
50.8394839048
50.4731992722

Average distance is : 50.849 cm
Average deviation is : 0.052 cm
Block: 8
======================================
50.8189061165
50.4073503494
50.3867725611
50.8559461355
50.8394839048
50.8518305779
50.8394839048
50.8189061165
50.8559461355
50.8888705969
50.8189061165
50.8559461355
50.8230216742
50.8724083662
50.8559461355
50.8518305779
50.8353683472
50.8518305779
50.8189061165
50.8847550392
50.8559461355
50.8888705969
50.8724083662
50.8353683472
50.8724083662
50.8024438858
50.8353683472
50.8189061165
50.8189061165
50.8353683472
50.8888705969
50.8353683472
50.8353683472
51.2304618835
50.8518305779
50.8353683472
50.8353683472
50.8847550392
50.8559461355
50.8024438858
50.8353683472
50.8353683472
50.8189061165
50.8189061165
50.8888705969
50.8189061165
50.8024438858
50.8189061165
50.8518305779
50.8724083662
50.8353683472
50.8353683472
50.8024438858
50.8682928085
50.8682928085
50.8888705969
50.4567370415
50.4238125801
50.4361592531
50.8724083662
50.8724083662
50.8724083662
50.8682928085
50.8724083662
50.8394839048
50.8682928085
50.8518305779
50.8518305779
50.8559461355
50.8353683472
50.8394839048
50.8724083662
50.8353683472
50.8024438858
50.8394839048

Average distance is : 50.823 cm
Average deviation is : 0.119 cm
Block: 9
======================================
50.8353683472
50.7695194244
50.8189061165
50.8724083662
50.7859816551
50.8888705969
50.8559461355
50.8724083662
50.8518305779
50.8353683472
50.8518305779
50.8724083662
50.8888705969
50.8518305779
50.8559461355
50.8724083662
50.8353683472
50.7983283281
50.8189061165
50.9053328276
50.8724083662
50.8518305779
50.8724083662
50.8724083662
50.8518305779
50.8724083662
50.8682928085
50.8518305779
50.8559461355
50.8518305779
50.8724083662
50.8189061165
50.8353683472
50.7983283281
50.8682928085
50.8724083662
50.8394839048
50.8394839048
50.8024438858
50.8888705969
50.8559461355
50.8353683472
50.8847550392
50.8559461355
50.8888705969
50.8518305779
50.8559461355
50.8353683472
50.8518305779
50.8724083662
50.8353683472
50.8024438858
50.8024438858
50.8518305779
50.7983283281
50.8724083662
50.8888705969
50.8682928085
50.8682928085
50.8682928085
50.8559461355
50.8518305779
50.8888705969
50.8888705969
50.8189061165
50.8518305779
50.8724083662
50.8724083662
50.8353683472
50.8518305779
50.8724083662
50.8724083662
50.8724083662
50.8724083662
50.8682928085

Average distance is : 50.853 cm
Average deviation is : 0.028 cm
Block: 10
======================================
50.8518305779
50.7818660975
50.8189061165
50.8518305779
50.8189061165
50.8353683472
50.4073503494
50.4073503494
50.8724083662
50.8518305779
50.8559461355
50.8847550392
50.8724083662
50.8724083662
50.8888705969
50.8724083662
50.8189061165
50.8353683472
50.8353683472
50.8353683472
50.8724083662
50.8189061165
50.8724083662
50.8518305779
50.8724083662
50.8888705969
50.8189061165
50.8888705969
50.8682928085
50.8353683472
50.8682928085
50.4402748108
50.4402748108
50.4731992722
50.4567370415
50.4731992722
50.8518305779
50.8724083662
50.8189061165
50.8518305779
50.8353683472
50.8559461355
50.9053328276
50.8189061165
50.8724083662
50.8559461355
50.8518305779
50.8682928085
50.8559461355
50.8353683472
50.8888705969
50.8559461355
50.8724083662
50.8724083662
50.8888705969
50.8724083662
50.8394839048
50.8724083662
50.8518305779
50.8724083662
50.8888705969
50.8394839048
50.8518305779
50.8518305779
50.8353683472
50.8847550392
50.8724083662
50.8518305779
50.8724083662
50.8724083662
50.8518305779
50.8888705969
50.8559461355
50.8888705969
49.6459721804

Average distance is : 50.803 cm
Average deviation is : 0.183 cm