
Block: 1
======================================
50.4773148298
50.9053328276
50.8888705969
50.8682928085
50.8724083662
50.8394839048
50.8724083662
50.4402748108
50.4731992722
50.4731992722

Average distance is : 50.711 cm
Average deviation is : 0.212 cm
Block: 2
======================================
50.9053328276
50.8724083662
50.8353683472
50.8518305779
50.8724083662
50.8724083662
50.8847550392
50.8559461355
50.8353683472
50.8559461355

Average distance is : 50.864 cm
Average deviation is : 0.022 cm
Block: 3
======================================
50.8888705969
50.8559461355
50.9053328276
50.8353683472
50.8353683472
50.8888705969
50.8888705969
50.7859816551
50.8888705969
50.8724083662

Average distance is : 50.865 cm
Average deviation is : 0.037 cm
Block: 4
======================================
50.8724083662
50.8888705969
50.8888705969
50.8559461355
50.8724083662
50.8888705969
50.8847550392
50.8724083662
50.8682928085
50.4731992722

Average distance is : 50.837 cm
Average deviation is : 0.128 cm
Block: 5
======================================
48.4895004749
50.8888705969
50.8888705969
50.8559461355
50.8518305779
50.9053328276
52.0288800716
50.8518305779
50.8888705969
50.9217950583

Average distance is : 50.757 cm
Average deviation is : 0.875 cm
Block: 6
======================================
50.8888705969
50.8518305779
50.8518305779
50.8888705969
50.9053328276
50.8353683472
50.9053328276
50.8888705969
50.8724083662
50.8518305779

Average distance is : 50.874 cm
Average deviation is : 0.025 cm
Block: 7
======================================
50.8847550392
50.8189061165
50.8189061165
50.8189061165
50.8353683472
50.8353683472
50.8353683472
50.8518305779
50.8724083662
50.8559461355

Average distance is : 50.843 cm
Average deviation is : 0.023 cm
Block: 8
======================================
50.8888705969
50.8518305779
50.8559461355
50.8682928085
50.4731992722
50.8682928085
50.8682928085
50.4361592531
50.8518305779
50.8682928085

Average distance is : 50.783 cm
Average deviation is : 0.174 cm
Block: 9
======================================
50.8518305779
50.8682928085
50.8189061165
50.8518305779
50.8394839048
50.8888705969
50.9053328276
50.9053328276
50.8559461355
50.8888705969

Average distance is : 50.867 cm
Average deviation is : 0.029 cm
Block: 10
======================================
50.8724083662
50.8682928085
50.4238125801
50.4567370415
50.4361592531
50.4567370415
50.4567370415
50.4567370415
50.8682928085
50.8559461355

Average distance is : 50.615 cm
Average deviation is : 0.216 cm