
Block: 1
======================================
200.128916383
200.177782941
199.717622852
200.161494088
199.717622852
199.697261786
200.589076471
200.161494088
200.605365324
200.161494088
200.161494088
200.145205235
199.717622852
200.145205235
200.145205235
199.733911705
200.177782941
201.032947707
200.145205235
200.161494088
199.290040469
199.733911705
199.273751616
199.701334
199.733911705
199.269679403
200.161494088
199.697261786
199.697261786
200.161494088
199.701334
200.145205235
200.145205235
200.161494088
199.697261786
199.310401535
199.237101698
199.717622852
200.572787619
199.737983918
199.717622852
199.717622852
199.737983918
200.161494088
199.701334
199.717622852
199.737983918
199.733911705
200.161494088
200.161494088
199.717622852
199.701334
199.273751616
200.165566301
199.717622852
199.273751616
200.161494088
200.161494088
199.701334
200.589076471
200.161494088
199.102718663
199.717622852
199.717622852
199.717622852
199.717622852
200.161494088
200.161494088
200.161494088
200.161494088
200.145205235
199.697261786
200.161494088
199.290040469
199.717622852
200.177782941
199.701334
201.016658854
199.733911705
200.145205235
199.737983918
199.717622852
200.145205235
200.145205235
199.701334
200.161494088
199.717622852
199.737983918
201.46053009
200.145205235
199.685045147
199.697261786
199.273751616
199.717622852
201.000370002
199.701334
201.016658854
199.290040469
199.717622852
200.589076471

Average distance is : 199.938 cm
Average deviation is : 0.427 cm
Block: 2
======================================
201.525685501
199.685045147
199.701334
200.177782941
200.161494088
199.273751616
200.145205235
200.145205235
200.589076471
200.141133022
199.701334
199.290040469
199.701334
200.161494088
199.750200558
200.145205235
200.128916383
199.717622852
199.697261786
200.141133022
199.253390551
199.750200558
199.733911705
200.128916383
200.177782941
199.701334
199.273751616
200.141133022
199.733911705
200.605365324
200.605365324
199.733911705
200.177782941
200.145205235
201.016658854
199.701334
200.145205235
199.717622852
200.145205235
201.423880172
200.605365324
199.701334
199.273751616
200.161494088
199.701334
199.697261786
199.685045147
200.161494088
200.605365324
201.032947707
201.032947707
199.701334
199.717622852
199.701334
200.145205235
199.701334
199.701334
201.032947707
200.128916383
201.46053009
200.128916383
199.717622852
199.701334
199.685045147
200.145205235
199.717622852
200.589076471
199.680972934
200.141133022
199.717622852
199.701334
200.589076471
199.701334
200.161494088
199.733911705
200.145205235
199.701334
200.589076471
199.717622852
199.717622852
199.697261786
200.589076471
199.273751616
200.128916383
200.161494088
199.701334
200.128916383
200.128916383
199.717622852
199.733911705
199.701334
199.680972934
199.717622852
200.145205235
200.145205235
199.717622852
199.701334
200.128916383
200.589076471
199.697261786

Average distance is : 200.017 cm
Average deviation is : 0.471 cm
Block: 3
======================================
200.552426553
199.664684081
199.737983918
199.664684081
200.572787619
200.145205235
199.717622852
201.016658854
199.220812845
199.717622852
199.701334
200.145205235
200.128916383
199.241173911
200.12484417
199.701334
199.273751616
200.145205235
200.145205235
200.161494088
199.717622852
199.717622852
199.685045147
200.128916383
199.717622852
200.12484417
199.717622852
200.589076471
199.717622852
199.253390551
199.701334
199.680972934
199.717622852
199.701334
199.701334
199.717622852
199.685045147
199.717622852
200.145205235
200.141133022
200.141133022
199.717622852
200.589076471
199.750200558
200.145205235
199.685045147
200.589076471
199.237101698
200.605365324
199.701334
200.141133022
200.128916383
199.701334
199.701334
200.145205235
200.568715405
200.589076471
200.145205235
200.128916383
200.572787619
199.717622852
199.241173911
200.128916383
200.12484417
199.697261786
199.717622852
200.128916383
199.697261786
200.572787619
199.701334
199.701334
199.717622852
200.141133022
199.697261786
199.701334
199.680972934
199.701334
200.572787619
200.145205235
199.701334
201.000370002
199.685045147
200.128916383
199.701334
199.717622852
199.701334
199.257462764
200.12484417
200.128916383
199.680972934
199.717622852
200.605365324
200.589076471
200.145205235
200.12484417
199.685045147
200.141133022
199.257462764
199.241173911
199.290040469

Average distance is : 199.925 cm
Average deviation is : 0.403 cm
Block: 4
======================================
199.685045147
199.664684081
199.717622852
200.552426553
199.668756294
199.697261786
199.697261786
199.701334
199.685045147
199.701334
199.717622852
201.440169024
200.145205235
199.701334
199.680972934
201.000370002
200.128916383
199.220812845
199.717622852
199.701334
199.717622852
199.701334
199.701334
199.685045147
199.273751616
199.697261786
199.701334
199.685045147
199.717622852
200.552426553
199.717622852
199.685045147
199.269679403
200.128916383
200.128916383
200.556498766
199.685045147
200.589076471
199.697261786
200.145205235
200.145205235
199.717622852
199.685045147
200.572787619
200.128916383
200.128916383
199.253390551
200.589076471
200.11262753
200.145205235
199.733911705
200.128916383
200.12484417
199.701334
200.145205235
199.664684081
200.141133022
200.128916383
199.241173911
200.128916383
199.701334
200.674592948
200.589076471
200.145205235
199.680972934
201.000370002
200.128916383
199.273751616
199.717622852
199.257462764
200.145205235
200.12484417
200.128916383
199.701334
200.12484417
199.664684081
200.128916383
200.145205235
199.701334
199.701334
199.717622852
200.145205235
199.717622852
199.701334
199.273751616
200.161494088
200.128916383
200.128916383
199.685045147
199.680972934
200.12484417
200.108555317
199.717622852
200.145205235
201.016658854
200.589076471
199.680972934
199.680972934
199.701334
199.701334

Average distance is : 199.934 cm
Average deviation is : 0.416 cm
Block: 5
======================================
200.128916383
199.717622852
200.572787619
200.108555317
199.685045147
200.11262753
199.273751616
200.128916383
199.717622852
199.685045147
200.589076471
200.145205235
199.717622852
200.108555317
199.273751616
199.685045147
200.572787619
199.717622852
199.680972934
199.701334
200.12484417
199.257462764
199.685045147
200.145205235
199.257462764
200.12484417
199.701334
200.12484417
199.680972934
199.697261786
199.733911705
201.440169024
199.273751616
200.128916383
200.589076471
199.701334
200.108555317
200.128916383
199.701334
200.161494088
199.701334
199.257462764
199.273751616
199.733911705
199.680972934
200.572787619
200.145205235
199.717622852
199.701334
200.128916383
200.145205235
199.237101698
199.701334
199.697261786
200.145205235
200.589076471
199.717622852
199.701334
199.237101698
199.680972934
199.257462764
199.241173911
200.556498766
199.701334
199.701334
199.237101698
199.701334
199.273751616
199.257462764
199.257462764
199.237101698
199.701334
200.145205235
199.717622852
199.237101698
200.128916383
199.685045147
199.701334
199.701334
199.685045147
199.241173911
199.685045147
200.108555317
199.680972934
199.701334
200.568715405
199.701334
199.733911705
199.701334
200.108555317
199.697261786
200.589076471
200.128916383
199.253390551
199.701334
199.257462764
199.664684081
199.701334
199.241173911
199.701334

Average distance is : 199.801 cm
Average deviation is : 0.419 cm
Block: 6
======================================
200.145205235
199.237101698
199.241173911
199.701334
200.589076471
199.224885058
199.701334
200.145205235
199.257462764
200.128916383
199.701334
200.161494088
199.241173911
200.128916383
200.12484417
199.664684081
199.717622852
200.128916383
200.145205235
200.128916383
199.273751616
200.552426553
200.128916383
200.572787619
199.237101698
200.145205235
199.253390551
199.701334
199.257462764
199.253390551
200.128916383
199.273751616
200.145205235
199.697261786
199.273751616
199.237101698
199.697261786
199.685045147
199.685045147
199.717622852
200.145205235
199.701334
199.241173911
199.241173911
199.717622852
199.680972934
200.572787619
200.12484417
200.145205235
199.685045147
199.697261786
200.145205235
199.685045147
199.237101698
200.141133022
201.411663532
200.145205235
199.257462764
199.257462764
199.237101698
199.701334
199.701334
200.145205235
199.273751616
199.253390551
199.685045147
199.697261786
199.697261786
200.572787619
199.237101698
199.257462764
199.241173911
200.145205235
199.685045147
199.685045147
199.237101698
200.12484417
199.717622852
200.145205235
199.685045147
201.016658854
199.680972934
200.108555317
200.128916383
200.128916383
200.128916383
200.145205235
200.145205235
199.701334
199.701334
199.680972934
200.128916383
200.145205235
199.680972934
200.589076471
199.717622852
199.701334
199.685045147
200.556498766
200.128916383

Average distance is : 199.817 cm
Average deviation is : 0.447 cm
Block: 7
======================================
199.664684081
199.664684081
199.664684081
200.572787619
200.108555317
199.701334
200.108555317
200.572787619
199.680972934
200.589076471
199.701334
200.572787619
200.572787619
199.241173911
200.572787619
200.128916383
200.108555317
199.652467442
200.556498766
200.128916383
200.128916383
199.680972934
200.572787619
200.568715405
104.66402297
200.572787619
199.237101698
199.241173911
199.685045147
199.680972934
199.701334
199.701334
199.664684081
199.664684081
200.128916383
131.634290814
200.572787619
199.685045147
200.145205235
199.717622852
200.568715405
199.701334
200.572787619
199.257462764
200.141133022
199.697261786
199.257462764
199.701334
200.12484417
199.253390551
199.257462764
200.12484417
200.141133022
200.12484417
199.685045147
199.701334
199.685045147
59.0959575653
199.701334
200.12484417
200.589076471
200.963720083
199.701334
200.128916383
200.145205235
199.701334
200.165566301
199.290040469
144.583928704
199.680972934
199.664684081
200.108555317
199.717622852
199.701334
199.685045147
200.572787619
199.680972934
199.224885058
199.680972934
200.145205235
200.984081149
200.145205235
200.128916383
199.680972934
199.680972934
199.664684081
199.257462764
199.668756294
199.648395228
200.552426553
200.108555317
199.701334
199.685045147
199.253390551
199.701334
199.680972934
199.668756294
199.668756294
199.697261786
199.664684081

Average distance is : 196.315 cm
Average deviation is : 18.896 cm
Block: 8
======================================
200.589076471
200.128916383
199.701334
200.108555317
136.451718998
199.701334
199.664684081
199.241173911
200.145205235
201.423880172
200.11262753
200.108555317
199.680972934
199.685045147
200.108555317
199.685045147
199.717622852
200.145205235
199.668756294
200.108555317
200.11262753
200.11262753
199.685045147
199.680972934
200.11262753
200.108555317
200.11262753
200.568715405
200.572787619
199.652467442
199.680972934
200.12484417
200.11262753
201.000370002
199.701334
200.128916383
200.11262753
199.680972934
200.12484417
200.108555317
199.685045147
199.685045147
199.685045147
199.685045147
199.664684081
200.568715405
199.685045147
199.237101698
200.11262753
200.128916383
199.701334
200.11262753
199.664684081
200.145205235
199.685045147
200.096338677
200.145205235
199.701334
199.717622852
200.572787619
199.685045147
200.589076471
199.668756294
199.680972934
200.128916383
200.145205235
200.11262753
200.161494088
200.572787619
199.224885058
199.701334
199.685045147
199.701334
199.701334
199.701334
199.701334
199.685045147
200.145205235
200.556498766
199.685045147
200.589076471
200.11262753
199.697261786
200.145205235
200.141133022
199.685045147
199.697261786
199.685045147
199.680972934
199.220812845
199.241173911
199.685045147
199.701334
200.128916383
200.128916383
200.108555317
199.685045147
200.128916383
200.568715405
201.423880172

Average distance is : 199.330 cm
Average deviation is : 6.364 cm
Block: 9
======================================
200.141133022
199.697261786
199.685045147
199.701334
199.701334
200.108555317
199.680972934
199.685045147
199.685045147
200.141133022
200.128916383
199.701334
200.12484417
201.000370002
199.685045147
199.680972934
199.664684081
199.680972934
200.128916383
200.108555317
199.664684081
199.685045147
199.652467442
200.145205235
199.220812845
200.128916383
200.572787619
199.697261786
199.680972934
199.685045147
199.701334
199.701334
199.241173911
199.701334
199.257462764
199.680972934
199.685045147
200.11262753
200.128916383
200.572787619
199.717622852
200.984081149
200.572787619
200.572787619
200.108555317
199.680972934
199.685045147
200.092266464
199.668756294
199.664684081
200.12484417
200.108555317
199.701334
199.685045147
200.572787619
200.128916383
199.701334
200.108555317
200.12484417
200.108555317
200.11262753
200.128916383
199.685045147
200.12484417
199.237101698
199.668756294
199.701334
199.648395228
199.685045147
200.11262753
199.220812845
199.237101698
199.668756294
200.128916383
199.664684081
200.589076471
199.664684081
199.680972934
199.257462764
199.685045147
200.552426553
200.12484417
199.685045147
199.717622852
199.224885058
199.685045147
200.568715405
199.701334
199.701334
199.241173911
199.701334
199.701334
200.128916383
201.000370002
199.697261786
199.204523993
200.128916383
200.11262753
199.648395228
200.12484417

Average distance is : 199.877 cm
Average deviation is : 0.394 cm
Block: 10
======================================
200.145205235
199.241173911
199.664684081
200.181855154
199.685045147
200.108555317
199.701334
199.697261786
199.717622852
199.680972934
199.680972934
199.680972934
199.664684081
199.701334
199.701334
199.697261786
199.220812845
199.273751616
199.664684081
199.668756294
200.589076471
200.980008936
199.664684081
199.680972934
201.407591319
199.701334
199.697261786
200.145205235
200.589076471
199.701334
199.257462764
199.685045147
200.11262753
199.680972934
200.12484417
200.5361377
200.128916383
199.680972934
200.556498766
200.12484417
200.572787619
199.253390551
200.12484417
199.257462764
199.241173911
200.12484417
199.685045147
199.701334
200.128916383
199.685045147
199.697261786
200.128916383
199.697261786
199.701334
199.685045147
200.11262753
199.680972934
200.145205235
199.701334
199.668756294
199.685045147
199.697261786
200.572787619
199.241173911
199.680972934
199.253390551
199.680972934
199.685045147
200.141133022
200.128916383
200.589076471
200.568715405
200.12484417
199.701334
199.717622852
199.685045147
199.257462764
199.685045147
200.572787619
199.685045147
199.668756294
199.680972934
200.145205235
199.680972934
200.12484417
199.701334
200.108555317
200.128916383
199.697261786
199.237101698
200.145205235
199.237101698
200.11262753
199.717622852
199.685045147
200.12484417
200.556498766
200.589076471
199.237101698
200.11262753

Average distance is : 199.869 cm
Average deviation is : 0.419 cm