
Block: 1
======================================
400.668439054
400.672482371
400.688655639
400.284323955
401.129377174
401.113203907
400.652265787
400.704828906
400.688655639
400.672482371
400.741218758
400.757392025
400.688655639
400.757392025
400.688655639
400.684612322
400.688655639
401.214286828
401.145550442
401.129377174
401.129377174
401.194070244
401.129377174
401.129377174
400.704828906
401.602445245
400.688655639
400.688655639
400.769521976
400.26410737
400.672482371
400.668439054
400.704828906
400.704828906
400.704828906
400.721002173
400.704828906
400.721002173
400.704828906
400.721002173
401.145550442
400.26410737
401.161723709
400.26410737
400.704828906
400.280280638
400.300497222
400.280280638
400.721002173
401.586271977

Average distance is : 400.776 cm
Average deviation is : 0.313 cm
Block: 2
======================================
400.78973856
400.668439054
401.655008364
401.149593759
400.704828906
400.280280638
401.145550442
401.198113561
401.145550442
400.688655639
400.773565292
400.672482371
401.149593759
400.688655639
400.704828906
400.72504549
401.586271977
401.638835096
400.704828906
400.688655639
400.737175441
401.57009871
400.704828906
400.684612322
400.704828906
400.773565292
401.129377174
400.688655639
400.280280638
400.753348708
400.684612322
401.161723709
401.145550442
400.284323955
400.280280638
400.721002173
400.721002173
400.280280638
401.57009871
401.177896976
400.280280638
400.284323955
400.26410737
400.284323955
401.145550442
400.26410737
400.773565292
400.26410737
400.280280638
400.26410737

Average distance is : 400.778 cm
Average deviation is : 0.410 cm
Block: 3
======================================
400.243890786
400.26410737
401.145550442
401.129377174
400.741218758
400.672482371
400.684612322
401.129377174
400.688655639
400.753348708
400.668439054
400.688655639
400.753348708
400.672482371
400.243890786
401.129377174
401.129377174
400.721002173
401.129377174
401.994646978
401.537752175
401.113203907
401.113203907
401.113203907
400.26410737
401.09703064
400.688655639
401.129377174
401.129377174
400.688655639
400.688655639
400.688655639
400.668439054
400.757392025
400.652265787
401.181940293
400.26410737
400.247934103
401.145550442
400.704828906
400.773565292
400.243890786
401.145550442
401.129377174
400.227717519
401.129377174
400.231760836
400.672482371
400.688655639
400.684612322

Average distance is : 400.808 cm
Average deviation is : 0.373 cm
Block: 4
======================================
401.113203907
401.537752175
401.129377174
400.672482371
401.113203907
400.227717519
401.113203907
400.227717519
400.215587568
400.231760836
400.721002173
400.227717519
401.113203907
400.231760836
400.247934103
400.721002173
401.129377174
400.243890786
400.672482371
401.113203907
400.672482371
401.113203907
400.668439054
400.656309104
401.129377174
400.640135837
400.672482371
400.652265787
401.09703064
401.113203907
401.092987323
400.215587568
400.215587568
401.942083859
401.149593759
400.656309104
400.211544251
401.080857372
400.668439054
400.243890786
400.668439054
400.247934103
401.602445245
401.09703064
401.113203907
400.227717519
401.549882126
400.668439054
400.652265787
401.533708858

Average distance is : 400.785 cm
Average deviation is : 0.451 cm
Block: 5
======================================
401.113203907
400.688655639
400.688655639
401.113203907
400.672482371
400.656309104
400.231760836
400.652265787
400.668439054
400.668439054
401.553925443
401.161723709
400.737175441
400.652265787
400.551182866
400.672482371
400.672482371
400.704828906
400.668439054
400.668439054
400.688655639
400.737175441
400.243890786
401.076814055
401.161723709
401.113203907
400.741218758
401.10916059
400.215587568
401.537752175
400.672482371
400.652265787
401.113203907
401.177896976
400.672482371
400.672482371
400.741218758
400.737175441
401.602445245
401.09703064
401.590315294
401.080857372
400.668439054
401.092987323
401.113203907
401.10916059
401.092987323
401.129377174
400.668439054
400.672482371

Average distance is : 400.864 cm
Average deviation is : 0.326 cm
Block: 6
======================================
401.602445245
401.161723709
400.652265787
401.125333858
400.672482371
400.757392025
400.672482371
400.672482371
400.757392025
400.688655639
400.737175441
400.688655639
400.668439054
400.684612322
400.688655639
400.672482371
400.652265787
400.684612322
401.113203907
400.672482371
400.737175441
400.737175441
400.737175441
400.672482371
401.533708858
401.553925443
401.092987323
400.672482371
401.125333858
401.10916059
401.113203907
401.10916059
401.553925443
401.602445245
401.09703064
401.586271977
400.652265787
400.704828906
401.533708858
400.668439054
400.672482371
400.672482371
400.656309104
401.553925443
400.656309104
401.10916059
401.177896976
401.602445245
401.080857372
401.602445245

Average distance is : 400.968 cm
Average deviation is : 0.355 cm
Block: 7
======================================
401.092987323
400.672482371
401.09703064
401.09703064
401.092987323
401.57009871
401.09703064
401.602445245
400.721002173
401.09703064
401.113203907
401.113203907
401.076814055
401.549882126
401.10916059
400.652265787
400.688655639
401.092987323
400.668439054
401.177896976
400.668439054
401.537752175
401.606488562
401.09703064
401.09703064
401.161723709
401.076814055
401.092987323
401.076814055
400.652265787
401.517535591
400.640135837
400.656309104
400.63609252
400.656309104
400.63609252
401.092987323
401.09703064
401.517535591
400.656309104
401.092987323
401.501362324
400.63609252
401.517535591
401.092987323
401.076814055
400.619919252
400.619919252
400.619919252
400.640135837

Average distance is : 401.019 cm
Average deviation is : 0.323 cm
Block: 8
======================================
401.092987323
400.668439054
401.485189056
401.060640788
400.619919252
400.619919252
400.688655639
400.619919252
400.619919252
401.501362324
400.619919252
400.603745985
401.064684105
400.63609252
401.060640788
400.603745985
401.064684105
401.925910592
401.044467521
401.044467521
400.619919252
401.060640788
401.044467521
401.060640788
401.044467521
401.129377174
400.640135837
400.619919252
400.688655639
400.63609252
400.63609252
400.652265787
400.619919252
400.704828906
401.09703064
401.161723709
400.72504549
401.092987323
401.161723709
401.521578908
401.129377174
400.211544251
400.215587568
400.640135837
401.076814055
401.076814055
400.640135837
400.195370984
400.684612322
401.586271977

Average distance is : 400.880 cm
Average deviation is : 0.356 cm
Block: 9
======================================
400.195370984
400.227717519
400.215587568
400.63609252
400.63609252
400.179197717
400.63609252
400.195370984
400.619919252
400.623962569
401.060640788
400.619919252
400.163024449
400.688655639
400.619919252
400.551182866
401.024250937
400.619919252
400.163024449
400.603745985
401.044467521
400.688655639
401.044467521
400.567356133
401.008077669
401.028294253
401.044467521
400.163024449
400.603745985
401.028294253
400.163024449
401.028294253
400.652265787
400.603745985
400.587572718
400.619919252
400.619919252
401.501362324
400.603745985
401.024250937
400.668439054
401.028294253
401.028294253
401.028294253
401.060640788
401.028294253
401.028294253
400.619919252
400.63609252
401.060640788

Average distance is : 400.702 cm
Average deviation is : 0.323 cm
Block: 10
======================================
401.080857372
400.619919252
400.704828906
401.076814055
400.652265787
400.652265787
400.672482371
400.721002173
400.688655639
400.652265787
400.672482371
401.125333858
400.688655639
400.688655639
400.688655639
400.684612322
400.227717519
400.721002173
401.129377174
401.125333858
400.26410737
400.247934103
400.753348708
400.26410737
400.721002173
400.704828906
400.773565292
400.708872223
401.586271977
400.247934103
401.161723709
400.757392025
400.704828906
400.708872223
400.688655639
401.129377174
401.145550442
401.586271977
401.57009871
400.704828906
401.129377174
400.688655639
401.57009871
400.688655639
401.113203907
401.57009871
401.113203907
401.145550442
401.129377174
401.57009871

Average distance is : 400.868 cm
Average deviation is : 0.366 cm