
Block: 1
======================================
99.087100029
99.1036200523
99.0829700232
99.1531801224
99.1531801224
99.1201400757
99.1036200523
99.136660099
99.1160100698
99.136660099
99.1531801224
99.5868307352
99.136660099
99.136660099
99.5868307352
99.1201400757
99.136660099
99.136660099
99.1160100698
99.0994900465
99.136660099
99.136660099
99.136660099
99.136660099
99.1201400757
99.136660099
99.136660099
99.136660099
99.136660099
99.136660099
99.1160100698
99.136660099
99.136660099
99.136660099
99.136660099
99.1573101282
99.566180706
99.1201400757
99.1201400757
99.1160100698
99.136660099
99.136660099
99.1531801224
99.1201400757
99.136660099
99.1036200523
99.1201400757
99.1573101282
99.136660099
99.136660099

Block: 2
======================================
99.5331406593
99.0829700232
99.0994900465
99.1201400757
99.1201400757
99.5372706652
99.5001006126
99.1160100698
99.1036200523
99.1036200523
99.136660099
99.1201400757
99.1036200523
99.1531801224
99.136660099
99.1201400757
99.136660099
99.136660099
99.1160100698
99.1201400757
99.1201400757
99.136660099
99.5372706652
99.1201400757
99.1201400757
99.1531801224
99.1201400757
99.1201400757
99.1862201691
99.0829700232
99.087100029
99.1036200523
99.136660099
99.1160100698
99.1201400757
99.1738301516
99.1201400757
99.1862201691
99.136660099
99.1036200523
99.1201400757
99.1036200523
99.0994900465
99.1903501749
99.1738301516
99.1531801224
99.1201400757
99.1201400757
99.1201400757
99.1903501749

Block: 3
======================================
99.136660099
99.0829700232
99.5331406593
99.516620636
99.5868307352
99.516620636
99.5207506418
99.0994900465
99.136660099
99.1573101282
99.136660099
99.1201400757
99.136660099
99.1160100698
99.136660099
99.1201400757
99.0994900465
99.136660099
99.136660099
99.1201400757
99.1201400757
99.1201400757
99.1201400757
99.1036200523
99.1201400757
99.136660099
99.136660099
99.1160100698
99.1036200523
99.136660099
99.1573101282
99.136660099
99.136660099
99.5331406593
99.5372706652
99.0994900465
99.5537906885
99.1160100698
99.5537906885
99.1531801224
99.1036200523
99.1201400757
99.0994900465
99.136660099
99.1201400757
99.136660099
99.1201400757
99.1201400757
99.1903501749
99.1697001457

Block: 4
======================================
99.1036200523
99.1201400757
99.516620636
99.4835805893
99.136660099
99.1531801224
99.5331406593
99.136660099
99.1697001457
99.1036200523
99.1201400757
99.5703107119
99.1201400757
99.1738301516
99.1201400757
99.1036200523
99.1903501749
99.0994900465
99.0994900465
99.1531801224
99.1862201691
99.136660099
99.1036200523
99.2027401924
99.1160100698
99.1531801224
99.1201400757
99.1201400757
99.5372706652
99.1697001457
99.1573101282
99.136660099
99.1160100698
99.0994900465
99.1036200523
99.5703107119
99.0829700232
99.566180706
99.0994900465
99.1201400757
99.1862201691
99.1036200523
99.1862201691
99.1201400757
99.1697001457
99.136660099
99.516620636
99.0994900465
99.1036200523
99.1531801224

Block: 5
======================================
99.516620636
99.136660099
99.516620636
99.5868307352
99.1160100698
99.136660099
99.1201400757
99.1201400757
99.1201400757
99.1201400757
99.136660099
99.1201400757
99.1201400757
99.136660099
99.1201400757
99.1201400757
99.1036200523
99.1160100698
99.136660099
99.136660099
99.5703107119
99.0994900465
99.136660099
99.0994900465
99.1903501749
99.1531801224
99.1036200523
99.1201400757
99.136660099
99.0994900465
99.1201400757
99.1201400757
99.1201400757
99.1160100698
99.1201400757
99.0994900465
99.0994900465
99.0994900465
99.1201400757
99.1201400757
99.1531801224
99.136660099
99.1036200523
99.1201400757
99.0994900465
99.1201400757
99.1201400757
99.087100029
99.0829700232
99.1036200523

Block: 6
======================================
99.5372706652
99.1201400757
99.136660099
99.5207506418
99.136660099
99.1036200523
99.1160100698
99.0994900465
99.136660099
99.5372706652
99.136660099
99.5537906885
99.1201400757
99.1160100698
99.1201400757
99.136660099
99.1160100698
99.1201400757
99.1903501749
99.1201400757
99.136660099
99.5331406593
99.2068701982
99.136660099
99.136660099
99.136660099
99.136660099
99.1201400757
99.1160100698
99.136660099
99.1201400757
99.136660099
99.0829700232
99.1201400757
99.1862201691
99.1201400757
99.1531801224
99.516620636
99.5207506418
99.136660099
99.136660099
99.136660099
99.1738301516
99.1697001457
99.1903501749
99.5537906885
99.5331406593
99.1531801224
99.1201400757
99.0994900465

Block: 7
======================================
99.2068701982
99.136660099
99.1573101282
99.1036200523
99.1036200523
99.1201400757
99.516620636
99.1036200523
99.516620636
99.1201400757
99.1036200523
99.136660099
99.1201400757
99.0994900465
99.136660099
99.1201400757
99.1036200523
99.1697001457
99.136660099
99.136660099
99.1160100698
99.1531801224
99.1201400757
99.136660099
99.1036200523
99.1160100698
99.0994900465
99.5703107119
99.1531801224
99.087100029
99.1201400757
99.1201400757
99.1903501749
99.1697001457
99.1160100698
99.1201400757
99.1036200523
99.1036200523
99.136660099
99.1160100698
99.136660099
99.136660099
99.1160100698
99.1201400757
99.1738301516
99.1903501749
99.1531801224
99.1531801224
99.1201400757
99.5496606827

Block: 8
======================================
99.1036200523
99.1201400757
99.5001006126
99.1036200523
99.1201400757
99.1160100698
99.1201400757
99.087100029
99.1036200523
99.1160100698
99.1036200523
99.516620636
99.1201400757
99.1201400757
99.087100029
99.1697001457
99.5001006126
99.1160100698
99.1738301516
99.1697001457
99.5496606827
99.1531801224
99.1201400757
99.1697001457
99.1862201691
99.1201400757
99.516620636
99.1160100698
99.1201400757
99.136660099
99.0994900465
99.1036200523
99.136660099
99.1036200523
99.5331406593
99.2027401924
99.1573101282
99.0994900465
99.1903501749
99.136660099
99.1573101282
99.1531801224
99.1036200523
99.1201400757
99.5331406593
99.0994900465
99.1903501749
99.1531801224
99.1697001457
99.2027401924

Block: 9
======================================
99.5001006126
99.136660099
99.1531801224
99.0994900465
99.1201400757
99.1573101282
99.516620636
99.136660099
99.0994900465
99.1160100698
99.1201400757
99.0994900465
99.1201400757
99.136660099
99.1201400757
99.1201400757
99.1160100698
99.1531801224
99.1201400757
99.1201400757
99.1036200523
99.136660099
99.0994900465
99.1036200523
99.1201400757
99.136660099
99.0994900465
99.1903501749
99.1531801224
99.087100029
99.1201400757
99.1573101282
99.1160100698
99.5372706652
99.0829700232
99.1201400757
99.136660099
99.1738301516
99.1160100698
99.5703107119
99.0994900465
99.1201400757
99.1697001457
99.1531801224
99.0994900465
99.1697001457
99.5331406593
99.1036200523
99.5372706652
99.516620636

Block: 10
======================================
99.6074807644
99.7231209278
99.5331406593
99.5496606827
99.136660099
99.1201400757
99.5703107119
99.1201400757
99.1531801224
99.1531801224
99.1531801224
99.136660099
99.1201400757
99.1531801224
99.136660099
99.136660099
99.1160100698
99.136660099
99.1201400757
99.136660099
99.1531801224
99.1531801224
99.136660099
99.136660099
99.5703107119
99.1531801224
99.1160100698
99.1160100698
99.5537906885
99.136660099
99.1201400757
99.0994900465
99.1201400757
99.5331406593
99.0994900465
99.1160100698
99.1201400757
99.5331406593
99.1697001457
99.1738301516
99.0994900465
99.1201400757
99.1036200523
99.5537906885
99.0994900465
99.5331406593
99.5372706652
99.136660099
99.5331406593
99.1201400757
