
Block: 1
======================================
99.5331406593
99.5703107119
99.5496606827
99.1738301516
99.6033507586
99.0994900465
99.136660099
99.0829700232
99.0994900465
99.1531801224
99.1201400757
99.136660099
99.5331406593
99.136660099
99.136660099
99.1201400757
99.1531801224
99.5537906885
99.5001006126
99.1160100698
99.1201400757
99.5496606827
99.136660099
99.0994900465
99.516620636

Average distance is : 99.277 cm
Average deviation is : 0.207 cm
Block: 2
======================================
99.1697001457
99.5537906885
99.5331406593
99.5703107119
99.5331406593
99.0994900465
99.1531801224
99.516620636
99.1036200523
99.136660099
99.136660099
99.136660099
99.1160100698
99.136660099
99.1036200523
99.0994900465
99.136660099
99.1531801224
99.1201400757
99.136660099
99.5537906885
99.5207506418
99.5331406593
99.5372706652
99.1201400757

Average distance is : 99.276 cm
Average deviation is : 0.202 cm
Block: 3
======================================
99.1201400757
99.1201400757
99.0994900465
99.1531801224
99.1738301516
99.087100029
99.136660099
98.430429101
99.136660099
99.1201400757
99.136660099
99.1201400757
99.5703107119
99.1036200523
99.5537906885
99.1160100698
99.1160100698
99.0994900465
99.1697001457
99.1201400757
99.0994900465
99.1903501749
99.1697001457
99.1160100698
99.1036200523

Average distance is : 99.135 cm
Average deviation is : 0.191 cm
Block: 4
======================================
99.1201400757
99.516620636
99.5496606827
99.1201400757
99.136660099
99.1531801224
99.136660099
99.1160100698
99.1201400757
99.1531801224
99.5868307352
99.1201400757
99.1738301516
99.1201400757
99.0994900465
99.136660099
99.5372706652
99.0994900465
99.1201400757
99.1697001457
99.1036200523
99.1160100698
99.1201400757
99.1201400757
99.516620636

Average distance is : 99.211 cm
Average deviation is : 0.170 cm
Block: 5
======================================
99.1697001457
99.0994900465
99.1201400757
99.1201400757
99.5331406593
99.516620636
99.5537906885
99.5372706652
99.1201400757
99.1036200523
99.0994900465
99.5703107119
99.1531801224
99.1201400757
99.516620636
99.1862201691
99.1903501749
99.5331406593
99.0994900465
99.1036200523
99.1738301516
99.136660099
99.136660099
99.1036200523
99.5331406593

Average distance is : 99.261 cm
Average deviation is : 0.195 cm
Block: 6
======================================
99.136660099
99.1531801224
99.5001006126
99.1036200523
99.1201400757
99.1531801224
99.1201400757
99.1201400757
99.0829700232
99.136660099
99.136660099
99.1201400757
99.1697001457
99.1201400757
99.1036200523
99.1036200523
99.5537906885
99.1201400757
99.1201400757
99.1201400757
99.1036200523
99.1697001457
99.136660099
99.0994900465
99.1036200523

Average distance is : 99.156 cm
Average deviation is : 0.114 cm
Block: 7
======================================
99.5001006126
99.9667912722
99.1531801224
99.087100029
99.0994900465
99.5537906885
99.0994900465
99.5331406593
99.1036200523
99.1201400757
99.5703107119
99.1201400757
99.1201400757
99.1036200523
99.136660099
99.136660099
99.1201400757
99.1201400757
99.5331406593
99.1201400757
99.1036200523
99.1036200523
99.1201400757
99.1160100698
99.5496606827

Average distance is : 99.252 cm
Average deviation is : 0.237 cm
Block: 8
======================================
99.1036200523
99.1160100698
99.136660099
99.136660099
99.136660099
99.516620636
99.087100029
99.1160100698
99.1036200523
99.4794505835
99.0003699064
99.1036200523
99.0994900465
99.136660099
99.1201400757
99.136660099
99.136660099
99.136660099
99.1201400757
99.1201400757
99.1903501749
99.1201400757
99.1862201691
99.1201400757
99.1201400757

Average distance is : 99.151 cm
Average deviation is : 0.110 cm
Block: 9
======================================
99.0829700232
99.1531801224
99.5703107119
99.5703107119
99.1201400757
99.1531801224
99.5331406593
99.5372706652
99.1201400757
99.136660099
99.1036200523
99.1738301516
99.136660099
99.1160100698
99.136660099
99.1201400757
99.1201400757
99.1201400757
99.5372706652
99.1201400757
99.136660099
99.1160100698
99.136660099
99.1201400757
99.1201400757

Average distance is : 99.212 cm
Average deviation is : 0.174 cm
Block: 10
======================================
99.0829700232
99.0994900465
99.0829700232
99.136660099
99.0829700232
99.5537906885
99.136660099
99.1201400757
99.136660099
99.5331406593
99.1201400757
99.5496606827
99.1201400757
99.1036200523
99.1697001457
99.1036200523
99.1036200523
99.516620636
99.1201400757
99.1201400757
99.1036200523
99.136660099
99.136660099
99.1201400757
99.1201400757

Average distance is : 99.184 cm
Average deviation is : 0.159 cm
Average distance for 10x25 is : 99.212 cm
Average deviation for 10x25 is : 0.176 cm
 Percentage of values that failed: 0.000