
Block: 1
======================================
50.4361592531
50.4238125801
50.4402748108
50.4402748108
50.4196970224

Block: 2
======================================
50.4073503494
50.4402748108
50.4196970224
50.4032347918
50.3867725611

Block: 3
======================================
50.3867725611
50.4238125801
50.4032347918
50.4402748108
50.4567370415

Block: 4
======================================
50.4032347918
50.8024438858
50.8353683472
50.4073503494
50.8518305779

Block: 5
======================================
50.4361592531
50.8189061165
50.8189061165
50.8353683472
50.4196970224

Block: 6
======================================
50.4032347918
50.4402748108
50.3867725611
50.3867725611
50.4073503494

Block: 7
======================================
50.8024438858
50.8189061165
50.8353683472
50.8189061165
50.4196970224

Block: 8
======================================
50.4073503494
50.4238125801
50.4196970224
50.4567370415
50.3867725611

Block: 9
======================================
50.4196970224
50.8189061165
50.4032347918
50.4238125801
50.4238125801

Block: 10
======================================
50.4032347918
50.4238125801
50.4361592531
50.4567370415
50.4032347918
