
Block: 1
======================================
50.4032347918
50.4073503494
50.4567370415
50.4402748108
50.4032347918
50.4238125801
50.4073503494
50.8189061165
50.3867725611
50.4032347918

Average distance is : 50.455 cm
Average deviation is : 0.129 cm
Block: 2
======================================
50.7818660975
50.4032347918
50.3867725611
50.3867725611
50.8189061165
50.4032347918
50.4238125801
50.4196970224
50.8353683472
50.8353683472

Average distance is : 50.570 cm
Average deviation is : 0.215 cm
Block: 3
======================================
50.4196970224
50.4402748108
50.4238125801
50.3867725611
50.3867725611
50.4238125801
50.4032347918
50.4238125801
50.7818660975
50.3703103304

Average distance is : 50.446 cm
Average deviation is : 0.120 cm
Block: 4
======================================
50.4032347918
50.7983283281
50.4032347918
50.8353683472
50.4032347918
50.4073503494
50.3867725611
50.3867725611
50.3867725611
50.4238125801

Average distance is : 50.483 cm
Average deviation is : 0.176 cm
Block: 5
======================================
50.4196970224
50.4032347918
50.4196970224
50.4238125801
50.4402748108
50.4032347918
50.4196970224
50.4196970224
50.7859816551
50.8189061165

Average distance is : 50.495 cm
Average deviation is : 0.162 cm
Block: 6
======================================
50.3703103304
50.4032347918
50.3867725611
50.4402748108
50.4361592531
50.4073503494
50.4402748108
50.4238125801
50.4196970224
50.4073503494

Average distance is : 50.414 cm
Average deviation is : 0.023 cm
Block: 7
======================================
50.4032347918
50.4567370415
50.4238125801
50.4567370415
50.4073503494
50.4073503494
50.4402748108
50.4032347918
50.4361592531
50.4238125801

Average distance is : 50.426 cm
Average deviation is : 0.021 cm
Block: 8
======================================
50.4196970224
50.4032347918
50.4402748108
50.3867725611
50.3867725611
50.4032347918
50.4402748108
50.4073503494
50.4196970224
50.4238125801

Average distance is : 50.413 cm
Average deviation is : 0.019 cm
Block: 9
======================================
50.4361592531
50.4238125801
50.4567370415
50.4032347918
50.3867725611
50.3703103304
50.4238125801
50.3908881187
50.4032347918
50.3703103304

Average distance is : 50.407 cm
Average deviation is : 0.028 cm
Block: 10
======================================
50.8353683472
50.4196970224
50.4567370415
50.4567370415
50.4238125801
50.4402748108
50.4032347918
50.4032347918
50.4238125801
50.4032347918

Average distance is : 50.467 cm
Average deviation is : 0.131 cm