
Block: 1
======================================
50.4073503494
50.4402748108
50.4032347918
50.3867725611
50.3867725611
50.4196970224
50.3703103304
50.4196970224
50.3867725611
50.4402748108
50.8559461355
50.3867725611
50.8394839048
50.4402748108
50.7859816551
50.8189061165
50.8024438858
50.3867725611
50.8189061165
50.3908881187
50.3908881187
50.4402748108
50.4073503494
50.4073503494
50.3867725611
50.4238125801
50.4032347918
50.4032347918
50.3867725611
50.4032347918
50.8189061165
50.8394839048
50.8189061165
50.4032347918
50.8394839048
50.8189061165
50.8189061165
50.3867725611
50.4073503494
50.8682928085
50.8724083662
50.8559461355
50.8682928085
50.8724083662
50.8189061165
50.7983283281
50.8353683472
50.8189061165
50.8518305779
50.8189061165

Average distance is : 50.601 cm
Average deviation is : 0.217 cm
Block: 2
======================================
50.8353683472
50.4238125801
50.4073503494
50.4361592531
50.4032347918
50.4402748108
50.4032347918
50.4196970224
50.8189061165
50.8189061165
50.7983283281
50.7859816551
50.4032347918
50.4073503494
50.4196970224
50.3867725611
50.3867725611
50.8518305779
50.8189061165
50.8189061165
50.7859816551
50.8024438858
50.8394839048
50.8189061165
50.7983283281
50.4032347918
50.4238125801
50.4361592531
50.7818660975
50.8189061165
50.8394839048
50.8353683472
50.8353683472
50.8353683472
50.8189061165
50.4238125801
50.4032347918
50.3867725611
50.3703103304
50.4238125801
50.4361592531
50.3867725611
50.4196970224
50.4032347918
50.4073503494
50.3867725611
50.4196970224
50.4032347918
50.4073503494
50.3867725611

Average distance is : 50.572 cm
Average deviation is : 0.203 cm
Block: 3
======================================
50.4032347918
50.4402748108
50.4196970224
50.3867725611
50.3908881187
50.4361592531
50.4032347918
50.3867725611
50.4238125801
50.3867725611
50.4032347918
50.7983283281
50.8189061165
50.7818660975
50.4402748108
50.8024438858
50.4032347918
50.3867725611
50.7859816551
50.8024438858
50.4402748108
50.4402748108
50.4238125801
50.4073503494
50.8189061165
50.4196970224
50.8353683472
50.7983283281
50.8518305779
50.4196970224
50.8189061165
50.8353683472
50.8024438858
50.3867725611
50.4032347918
50.8189061165
50.8230216742
50.8189061165
50.8394839048
50.3703103304
50.4402748108
50.7859816551
50.8189061165
50.8189061165
50.8189061165
50.8559461355
50.7859816551
50.8024438858
50.8024438858
50.8353683472

Average distance is : 50.621 cm
Average deviation is : 0.205 cm
Block: 4
======================================
50.4402748108
50.4402748108
50.4402748108
50.4032347918
50.4032347918
50.4196970224
50.8189061165
50.4402748108
50.4196970224
50.4196970224
50.8189061165
50.4238125801
50.8353683472
50.4238125801
50.4238125801
50.4402748108
50.3867725611
50.3867725611
50.4402748108
50.3703103304
50.4073503494
50.3867725611
50.4238125801
50.3867725611
50.4238125801
50.4073503494
50.4073503494
50.3867725611
50.4238125801
50.4238125801
50.4032347918
50.4196970224
50.4032347918
50.4402748108
50.4073503494
50.4238125801
50.4032347918
50.4032347918
50.4361592531
50.4196970224
50.4032347918
50.4073503494
50.4402748108
50.4032347918
50.4238125801
50.3867725611
50.4402748108
50.4402748108
50.4032347918
50.4032347918

Average distance is : 50.440 cm
Average deviation is : 0.100 cm
Block: 5
======================================
50.4238125801
50.4032347918
50.4238125801
50.4402748108
50.4567370415
50.4073503494
50.3867725611
50.3867725611
50.4238125801
50.4073503494
50.4196970224
50.8189061165
50.4238125801
50.4196970224
50.4196970224
50.8024438858
50.8024438858
50.4032347918
50.4238125801
50.8189061165
50.4196970224
50.4402748108
50.4238125801
50.4361592531
50.4196970224
50.3867725611
50.4032347918
50.4196970224
50.3867725611
50.4032347918
50.8189061165
50.8353683472
50.8394839048
50.8353683472
50.8353683472
50.8189061165
50.8353683472
50.8189061165
50.8189061165
50.8024438858
50.8518305779
50.8189061165
50.8189061165
50.8189061165
50.8394839048
50.8353683472
50.8189061165
50.8518305779
50.8559461355
50.8189061165

Average distance is : 50.613 cm
Average deviation is : 0.208 cm
Block: 6
======================================
50.4238125801
50.4032347918
50.4402748108
50.3867725611
50.3867725611
50.4238125801
50.4238125801
50.8518305779
50.8024438858
50.8724083662
50.8518305779
50.8682928085
50.8559461355
50.8518305779
50.9053328276
50.8353683472
50.8353683472
50.8189061165
50.8189061165
50.8394839048
50.4238125801
50.8394839048
50.4361592531
50.8394839048
50.8024438858
50.4032347918
50.4073503494
50.8394839048
50.8518305779
50.8189061165
50.4073503494
50.4238125801
50.4032347918
50.8394839048
50.8189061165
50.8353683472
50.8189061165
50.8189061165
50.8024438858
50.4402748108
50.8189061165
50.3867725611
50.4238125801
50.4238125801
50.8518305779
50.3867725611
50.3867725611
50.4238125801
50.4032347918
50.4238125801

Average distance is : 50.642 cm
Average deviation is : 0.215 cm
Block: 7
======================================
50.3908881187
50.4032347918
50.4196970224
50.4073503494
50.4238125801
50.4196970224
50.4238125801
50.4073503494
50.4238125801
50.4032347918
50.4238125801
50.3867725611
50.3867725611
50.4238125801
50.4196970224
50.4402748108
50.4032347918
50.4402748108
50.4361592531
50.4238125801
50.3703103304
50.4073503494
50.4238125801
50.4238125801
50.4402748108
50.4238125801
50.4238125801
50.4032347918
50.4196970224
50.4402748108
50.3867725611
50.4196970224
50.4073503494
50.4361592531
50.4073503494
50.4032347918
50.4238125801
50.4238125801
50.3867725611
50.4032347918
50.4196970224
50.4238125801
50.4402748108
50.4032347918
50.4032347918
50.4402748108
50.4361592531
50.4238125801
50.4196970224
50.4238125801

Average distance is : 50.416 cm
Average deviation is : 0.017 cm
Block: 8
======================================
50.4402748108
50.4361592531
50.4567370415
50.3867725611
50.4238125801
50.4402748108
50.4032347918
50.3867725611
50.4032347918
50.4238125801
50.4032347918
50.4032347918
50.4238125801
50.4402748108
50.4402748108
50.4032347918
50.4402748108
50.4402748108
50.3867725611
50.4238125801
50.4238125801
50.4032347918
50.4238125801
50.4402748108
50.4032347918
50.4238125801
50.4032347918
50.4032347918
50.4361592531
50.4238125801
50.4402748108
50.4073503494
50.4402748108
50.4238125801
50.3908881187
50.4196970224
50.4238125801
50.4196970224
50.8888705969
50.8353683472
50.8189061165
50.8353683472
50.8682928085
50.8189061165
50.4196970224
50.4032347918
50.4196970224
50.3867725611
50.4073503494
50.4238125801

Average distance is : 50.470 cm
Average deviation is : 0.141 cm
Block: 9
======================================
50.4032347918
50.4238125801
50.4402748108
50.4361592531
50.4567370415
50.3867725611
50.3867725611
50.4402748108
50.3867725611
50.4238125801
50.3703103304
50.4196970224
50.4032347918
50.3867725611
50.4032347918
50.4073503494
50.4238125801
50.4238125801
50.4238125801
50.4402748108
50.3703103304
50.3867725611
50.4196970224
50.3867725611
50.4032347918
50.3867725611
50.4567370415
50.4238125801
50.4567370415
50.4032347918
50.3867725611
50.4032347918
50.4073503494
50.4238125801
50.4196970224
50.3867725611
50.4361592531
50.4073503494
50.3867725611
50.4402748108
50.4032347918
50.4238125801
50.3867725611
50.4032347918
50.3867725611
50.3867725611
50.4196970224
50.4238125801
50.4196970224
50.3703103304

Average distance is : 50.410 cm
Average deviation is : 0.023 cm
Block: 10
======================================
50.4073503494
50.4567370415
50.4032347918
50.4402748108
50.4238125801
50.4238125801
50.4402748108
50.4238125801
50.8189061165
50.4032347918
50.4032347918
50.8024438858
50.3867725611
50.4073503494
50.4402748108
50.4238125801
50.8189061165
50.4196970224
50.4032347918
50.4567370415
50.4238125801
50.8353683472
50.8394839048
50.4402748108
50.4073503494
50.8024438858
50.8559461355
50.3867725611
50.8559461355
50.4073503494
50.3867725611
50.3867725611
50.4238125801
50.4032347918
50.4196970224
50.8189061165
50.8189061165
50.8024438858
50.3908881187
50.4032347918
50.8518305779
50.1809946775
50.4032347918
50.4402748108
50.8024438858
50.8353683472
50.4196970224
50.4196970224
50.4032347918
50.3867725611

Average distance is : 50.525 cm
Average deviation is : 0.193 cm