
Block: 1
======================================
50.1110301971
50.0781057358
50.0904524088
50.1316079855
50.0739901781
50.5267015219
50.1480702162
50.0945679665
50.5267015219
50.1274924278

Block: 2
======================================
50.5102392912
50.5596259832
50.4567370415
50.1110301971
50.5061237335
50.5061237335
50.5596259832
50.4731992722
50.5267015219
50.0945679665

Block: 3
======================================
50.5267015219
50.9423728466
50.0616435051
50.5102392912
50.0945679665
50.5102392912
50.1110301971
50.4896615028
50.0781057358
50.5061237335

Block: 4
======================================
50.5061237335
50.5061237335
50.5596259832
50.5596259832
50.5596259832
50.5061237335
50.0945679665
50.1480702162
50.5225859642
50.1274924278

Block: 5
======================================
50.0945679665
50.1110301971
50.1110301971
50.1110301971
50.0781057358
50.1110301971
50.0945679665
50.1110301971
50.1110301971
50.0739901781

Block: 6
======================================
50.5431637526
50.1151457548
50.0904524088
50.4773148298
50.5267015219
50.5802037716
50.5102392912
50.5102392912
50.5061237335
50.4937770605

Block: 7
======================================
50.1316079855
50.4402748108
50.4567370415
50.1110301971
50.5102392912
50.5102392912
50.0739901781
50.1110301971
50.5225859642
50.1110301971

Block: 8
======================================
50.1110301971
50.1274924278
50.1110301971
50.1274924278
50.0575279474
50.0945679665
50.1110301971
50.0945679665
50.5596259832
50.1274924278

Block: 9
======================================
50.1110301971
50.0739901781
50.5596259832
50.1274924278
50.5596259832
50.1110301971
50.1110301971
50.0945679665
50.5431637526
50.1110301971

Block: 10
======================================
50.5431637526
50.4567370415
50.5061237335
50.1274924278
50.1110301971
50.5061237335
50.5431637526
50.0410657167
50.0781057358
50.4567370415
