
Block: 1
======================================
50.0945679665
50.5596259832
50.0739901781
50.0410657167
50.5267015219
50.1439546585
50.5267015219
50.0945679665
50.4896615028
50.1274924278
50.0781057358
50.1274924278
50.5225859642
50.4731992722
50.5102392912
50.0410657167
50.0781057358
50.5267015219
50.5390481949
50.5061237335
50.5102392912
50.5267015219
50.5267015219
50.4937770605
51.0287995577

Block: 2
======================================
50.5431637526
50.1274924278
50.4937770605
50.5390481949
50.4731992722
50.1274924278
50.5267015219
50.5225859642
50.0739901781
50.4731992722
50.5596259832
50.5225859642
50.4896615028
50.0945679665
50.5225859642
50.5431637526
50.1110301971
50.1480702162
50.1316079855
50.0945679665
49.6459721804
50.1274924278
50.4896615028
50.1110301971
50.5596259832

Block: 3
======================================
50.5390481949
50.1274924278
50.5267015219
50.0451812744
50.1274924278
50.5102392912
50.5267015219
50.5225859642
50.4731992722
50.5431637526
50.1274924278
50.1274924278
50.5267015219
50.4896615028
50.0739901781
50.0945679665
50.5637415409
50.0781057358
50.1110301971
50.5596259832
50.5431637526
50.4731992722
50.4896615028
50.4731992722
50.0945679665

Block: 4
======================================
50.0575279474
50.0739901781
50.5225859642
50.1110301971
50.5431637526
50.4937770605
50.5596259832
50.0781057358
50.1274924278
50.5225859642
50.0781057358
50.5267015219
50.5061237335
50.0739901781
50.5102392912
50.0739901781
50.0781057358
50.0616435051
50.5431637526
50.0945679665
50.5431637526
50.0575279474
50.0575279474
50.0781057358
50.5596259832

Block: 5
======================================
50.1110301971
50.1110301971
50.5061237335
50.1480702162
50.5102392912
50.1439546585
50.1110301971
50.1274924278
50.5596259832
50.5267015219
50.1274924278
50.5061237335
50.0945679665
50.5267015219
50.1274924278
50.5267015219
50.4937770605
50.5431637526
50.4937770605
50.1110301971
50.0945679665
50.5061237335
50.1274924278
50.5267015219
50.5102392912

Block: 6
======================================
50.1110301971
50.0781057358
50.1110301971
50.5596259832
50.4937770605
50.5061237335
50.5267015219
50.1480702162
50.0945679665
50.1110301971
50.5431637526
50.1274924278
50.4773148298
50.5431637526
50.0945679665
50.0904524088
50.5102392912
50.1110301971
50.0781057358
50.4896615028
50.1110301971
50.0781057358
50.1110301971
50.1274924278
50.0945679665

Block: 7
======================================
50.5431637526
50.5102392912
50.4937770605
50.5431637526
50.1274924278
50.5431637526
50.5267015219
50.5267015219
50.4731992722
50.4731992722
50.0739901781
50.5267015219
50.5061237335
50.4731992722
50.1110301971
50.0945679665
50.5061237335
50.0451812744
50.1110301971
50.1110301971
50.0410657167
50.0945679665
50.0945679665
50.5061237335
50.5061237335

Block: 8
======================================
50.0781057358
50.5267015219
50.4896615028
50.5267015219
50.0945679665
50.5102392912
50.0945679665
50.0945679665
50.5102392912
50.5431637526
50.0945679665
50.0616435051
50.0781057358
50.0739901781
50.0575279474
50.5596259832
50.4896615028
50.5596259832
50.5431637526
50.4896615028
50.5431637526
50.5596259832
50.5596259832
50.1110301971
50.4731992722

Block: 9
======================================
50.1110301971
50.5225859642
50.5267015219
50.0739901781
50.5061237335
50.0575279474
50.4567370415
50.1480702162
50.0575279474
50.1110301971
50.0945679665
50.4731992722
50.5760882139
50.0781057358
50.0945679665
50.4731992722
50.4731992722
50.0781057358
50.0945679665
50.4731992722
50.0575279474
50.5267015219
50.1110301971
50.4773148298
50.5225859642

Block: 10
======================================
50.5637415409
50.5637415409
50.5102392912
50.5267015219
50.0575279474
50.0739901781
50.0739901781
50.0781057358
50.0781057358
50.5225859642
50.5596259832
50.1110301971
50.0575279474
50.0945679665
50.0945679665
50.0945679665
50.4567370415
50.5225859642
50.0945679665
50.5061237335
50.4937770605
50.0739901781
50.5431637526
50.0945679665
50.0739901781
