
Block: 1
======================================
50.5061237335
50.0781057358
50.5267015219
50.0904524088
50.6460526943

Block: 2
======================================
50.5637415409
50.0904524088
50.1274924278
50.5061237335
50.9382572889

Block: 3
======================================
50.5267015219
50.1480702162
50.1110301971
50.1316079855
50.1439546585

Block: 4
======================================
50.0945679665
50.1110301971
50.0945679665
50.0904524088
50.0945679665

Block: 5
======================================
50.1110301971
50.5061237335
50.5102392912
50.1274924278
50.1274924278

Block: 6
======================================
50.0781057358
50.1439546585
50.1645324469
50.0945679665
50.1110301971

Block: 7
======================================
50.1110301971
50.1274924278
50.1439546585
50.0904524088
50.0945679665

Block: 8
======================================
50.5596259832
50.9217950583
50.5225859642
50.1110301971
50.1274924278

Block: 9
======================================
50.0904524088
50.1439546585
50.5061237335
50.5267015219
50.0575279474

Block: 10
======================================
50.0945679665
50.5431637526
50.9917595387
50.0945679665
50.5225859642
