
Block: 1
======================================
50.5061237335
50.0781057358
50.5267015219
50.0904524088
50.6460526943

Average distance is : 50.369 cm
Average deviation is : 0.266 cm
Block: 2
======================================
50.5637415409
50.0904524088
50.1274924278
50.5061237335
50.9382572889

Average distance is : 50.445 cm
Average deviation is : 0.349 cm
Block: 3
======================================
50.5267015219
50.1480702162
50.1110301971
50.1316079855
50.1439546585

Average distance is : 50.212 cm
Average deviation is : 0.176 cm
Block: 4
======================================
50.0945679665
50.1110301971
50.0945679665
50.0904524088
50.0945679665

Average distance is : 50.097 cm
Average deviation is : 0.008 cm
Block: 5
======================================
50.1110301971
50.5061237335
50.5102392912
50.1274924278
50.1274924278

Average distance is : 50.276 cm
Average deviation is : 0.212 cm
Block: 6
======================================
50.0781057358
50.1439546585
50.1645324469
50.0945679665
50.1110301971

Average distance is : 50.118 cm
Average deviation is : 0.035 cm
Block: 7
======================================
50.1110301971
50.1274924278
50.1439546585
50.0904524088
50.0945679665

Average distance is : 50.113 cm
Average deviation is : 0.022 cm
Block: 8
======================================
50.5596259832
50.9217950583
50.5225859642
50.1110301971
50.1274924278

Average distance is : 50.449 cm
Average deviation is : 0.339 cm
Block: 9
======================================
50.0904524088
50.1439546585
50.5061237335
50.5267015219
50.0575279474

Average distance is : 50.265 cm
Average deviation is : 0.232 cm
Block: 10
======================================
50.0945679665
50.5431637526
50.9917595387
50.0945679665
50.5225859642

Average distance is : 50.449 cm
Average deviation is : 0.374 cm