
Block: 1
======================================
401.113203907
402.419195247
400.704828906
400.684612322
401.145550442
401.57009871
401.586271977
401.590315294
400.721002173
400.704828906
401.145550442
401.129377174
400.688655639
401.161723709
402.892263317
400.704828906
401.145550442
400.704828906
400.704828906
401.165767026
401.161723709
401.129377174
401.161723709
401.145550442
401.129377174
401.145550442
401.129377174
401.606488562
402.010820246
400.757392025
400.704828906
401.586271977
400.721002173
401.181940293
400.704828906
400.721002173
400.721002173
401.161723709
400.737175441
400.721002173
400.757392025
402.059340048
400.280280638
401.181940293
400.72504549
400.296453905
400.296453905
401.198113561
400.737175441
401.181940293
400.316670489
401.194070244
400.753348708
401.181940293
400.737175441
400.741218758
400.753348708
400.737175441
401.177896976
401.177896976
401.177896976
400.280280638
402.026993513
402.026993513
400.773565292
400.312627172
401.177896976
400.741218758
400.757392025
400.757392025
400.280280638
400.721002173
400.72504549
400.349017024
401.194070244
401.198113561
401.655008364
400.741218758
400.737175441
400.773565292
400.332843757
401.194070244
400.316670489
402.079556632
400.332843757
400.312627172
400.78973856
401.230460095
401.198113561
401.214286828
401.198113561
400.332843757
400.316670489
400.349017024
400.349017024
400.349017024
400.78973856
400.349017024
400.349017024
400.332843757

Average distance is : 400.946 cm
Average deviation is : 0.508 cm
Block: 2
======================================
401.214286828
400.332843757
400.32880044
400.349017024
400.349017024
402.059340048
400.78973856
400.332843757
401.198113561
400.312627172
400.312627172
401.214286828
401.214286828
400.332843757
400.332843757
400.332843757
400.316670489
400.32880044
400.332843757
400.737175441
400.332843757
401.194070244
402.5041049
400.332843757
400.312627172
400.753348708
400.300497222
401.618618512
400.332843757
401.194070244
400.757392025
400.316670489
400.312627172
400.332843757
400.769521976
400.316670489
400.769521976
400.316670489
400.753348708
400.773565292
402.500061584
400.332843757
400.332843757
401.177896976
400.312627172
400.296453905
401.618618512
401.622661829
400.773565292
400.300497222
400.332843757
400.312627172
400.737175441
399.875948954
400.332843757
400.332843757
400.737175441
402.059340048
400.296453905
401.181940293
402.471758366
400.316670489
400.757392025
400.737175441
399.859775686
400.332843757
400.332843757
399.871905637
400.737175441
400.757392025
400.316670489
400.296453905
400.316670489
399.892122221
401.177896976
400.769521976
400.316670489
401.181940293
401.198113561
400.316670489
400.332843757
400.300497222
400.316670489
400.300497222
400.757392025
400.296453905
400.312627172
399.855732369
399.875948954
399.871905637
399.855732369
401.586271977
400.737175441
399.855732369
400.284323955
400.280280638
399.875948954
399.871905637
401.586271977
399.855732369

Average distance is : 400.605 cm
Average deviation is : 0.592 cm
Block: 3
======================================
401.198113561
400.721002173
400.737175441
402.026993513
400.280280638
400.280280638
400.26410737
400.721002173
400.721002173
400.737175441
399.871905637
400.741218758
400.26410737
400.26410737
400.688655639
402.41515193
400.704828906
400.280280638
401.586271977
401.129377174
401.125333858
400.704828906
401.129377174
401.10916059
400.704828906
400.688655639
401.553925443
401.129377174
401.129377174
400.688655639
402.403021979
400.688655639
401.145550442
401.129377174
401.57009871
401.113203907
401.129377174
401.145550442
401.145550442
401.129377174
401.129377174
401.113203907
401.553925443
401.57009871
401.537752175
401.553925443
401.553925443
402.843743515
401.501362324
403.280421734
401.974430394
402.839700198
401.553925443
402.839700198
401.57009871
403.264248466
402.010820246
401.958257127
401.549882126
401.533708858
402.419195247
401.549882126
401.129377174
401.978473711
401.09703064
401.553925443
402.823526931
401.978473711
401.10916059
401.517535591
401.533708858
401.994646978
401.537752175
401.994646978
401.113203907
401.974430394
401.113203907
402.010820246
401.994646978
401.080857372
401.553925443
401.57009871
401.57009871
401.537752175
401.57009871
402.026993513
401.129377174
401.129377174
402.026993513
402.04316678
401.129377174
401.129377174
401.586271977
401.549882126
401.57009871
400.668439054
401.129377174
400.688655639
400.688655639
402.03103683

Average distance is : 401.388 cm
Average deviation is : 0.667 cm
Block: 4
======================================
400.721002173
400.72504549
401.602445245
400.72504549
400.704828906
400.684612322
400.688655639
400.688655639
400.688655639
401.145550442
401.161723709
401.129377174
400.721002173
400.737175441
401.145550442
401.606488562
400.280280638
401.145550442
401.165767026
400.26410737
401.602445245
400.26410737
402.047210097
400.704828906
400.280280638
401.161723709
401.145550442
401.145550442
400.737175441
400.26410737
400.26410737
401.602445245
400.280280638
402.026993513
401.161723709
400.26410737
400.296453905
401.165767026
400.280280638
400.741218758
400.704828906
400.296453905
401.161723709
401.606488562
400.737175441
400.26410737
401.177896976
400.753348708
400.280280638
400.316670489
400.296453905
399.855732369
401.181940293
401.177896976
401.177896976
400.296453905
400.316670489
400.757392025
400.757392025
400.757392025
400.737175441
401.194070244
400.741218758
401.177896976
400.721002173
400.741218758
400.280280638
400.737175441
400.300497222
400.280280638
400.737175441
400.737175441
401.606488562
400.280280638
401.586271977
402.03103683
400.300497222
400.296453905
401.181940293
401.181940293
401.198113561
400.704828906
401.177896976
401.177896976
400.72504549
401.161723709
400.280280638
400.296453905
400.296453905
400.316670489
400.280280638
400.312627172
400.721002173
401.181940293
400.72504549
401.586271977
400.721002173
400.737175441
401.606488562
400.741218758

Average distance is : 400.818 cm
Average deviation is : 0.476 cm
Block: 5
======================================
400.704828906
401.198113561
400.300497222
399.823385835
400.26410737
400.247934103
401.586271977
400.26410737
400.704828906
400.280280638
400.26410737
399.839559102
400.280280638
401.57009871
400.26410737
400.26410737
399.839559102
400.280280638
400.721002173
400.280280638
401.145550442
400.721002173
400.300497222
400.72504549
400.296453905
400.721002173
399.871905637
400.737175441
400.296453905
400.757392025
400.316670489
400.284323955
400.737175441
400.296453905
399.839559102
400.316670489
401.602445245
400.737175441
401.198113561
402.03103683
399.855732369
400.284323955
400.300497222
400.32880044
400.316670489
401.165767026
400.300497222
401.198113561
400.737175441
401.177896976
400.280280638
400.737175441
400.280280638
400.753348708
400.296453905
401.606488562
401.165767026
400.72504549
400.300497222
400.721002173
400.280280638
400.721002173
400.721002173
402.04316678
401.198113561
401.161723709
400.688655639
400.721002173
402.010820246
400.704828906
400.704828906
400.26410737
400.704828906
401.10916059
401.145550442
402.451541781
401.994646978
400.704828906
401.10916059
401.145550442
401.57009871
400.672482371
402.431325197
400.668439054
401.09703064
401.553925443
401.57009871
401.990603662
402.026993513
401.129377174
401.076814055
401.553925443
401.113203907
401.092987323
402.010820246
401.113203907
401.57009871
401.113203907
401.57009871
401.553925443

Average distance is : 400.845 cm
Average deviation is : 0.618 cm
Block: 6
======================================
400.741218758
400.312627172
400.737175441
400.757392025
400.312627172
402.026993513
400.753348708
401.194070244
400.316670489
401.214286828
400.332843757
400.773565292
401.214286828
400.296453905
400.757392025
400.332843757
400.32880044
400.773565292
400.349017024
400.365190291
400.757392025
400.773565292
400.773565292
400.753348708
400.365190291
400.349017024
400.316670489
400.773565292
400.773565292
401.177896976
400.773565292
400.32880044
400.332843757
400.316670489
400.312627172
400.757392025
399.908295488
400.773565292
400.349017024
400.332843757
400.316670489
401.618618512
399.908295488
400.332843757
400.296453905
400.741218758
401.602445245
400.737175441
400.757392025
400.737175441
401.161723709
400.280280638
400.296453905
401.181940293
400.280280638
400.26410737
401.161723709
400.721002173
401.586271977
400.704828906
401.586271977
400.280280638
400.854431629
401.145550442
401.145550442
401.145550442
400.688655639
401.161723709
400.708872223
401.57009871
400.704828906
400.688655639
400.688655639
401.57009871
401.586271977
400.672482371
401.113203907
400.688655639
400.688655639
401.10916059
401.113203907
400.672482371
401.57009871
400.672482371
401.549882126
400.688655639
400.688655639
401.113203907
400.688655639
402.419195247
401.533708858
401.521578908
401.076814055
401.09703064
401.092987323
401.092987323
400.656309104
307.142477202
401.10916059
400.640135837

Average distance is : 399.875 cm
Average deviation is : 9.378 cm
Block: 7
======================================
401.092987323
401.553925443
401.125333858
400.672482371
400.688655639
400.668439054
401.962300444
400.668439054
401.57009871
400.672482371
401.537752175
400.672482371
401.113203907
401.060640788
401.962300444
400.63609252
401.533708858
166.467397666
401.978473711
400.652265787
401.092987323
401.521578908
401.09703064
402.403021979
401.092987323
400.668439054
401.113203907
400.668439054
400.247934103
400.688655639
401.10916059
400.656309104
401.113203907
401.113203907
400.684612322
401.092987323
401.10916059
401.113203907
401.537752175
400.652265787
402.366632128
401.076814055
402.382805395
401.09703064
401.060640788
401.537752175
401.501362324
401.501362324
401.521578908
401.501362324
401.517535591
401.517535591
401.517535591
401.521578908
401.517535591
401.060640788
401.076814055
401.501362324
403.231901932
401.929953909
401.076814055
401.501362324
401.040424204
401.064684105
402.366632128
401.076814055
401.942083859
401.962300444
401.044467521
401.060640788
401.060640788
402.807353663
401.962300444
401.942083859
401.505405641
401.501362324
401.505405641
401.962300444
402.403021979
402.398978662
403.688796735
402.398978662
401.942083859
401.942083859
402.41515193
401.533708858
401.505405641
401.537752175
401.990603662
401.10916059
401.129377174
401.533708858
401.537752175
401.553925443
401.549882126
401.57009871
401.129377174
401.129377174
401.10916059
400.688655639

Average distance is : 399.072 cm
Average deviation is : 23.503 cm
Block: 8
======================================
401.145550442
400.704828906
400.704828906
401.145550442
400.721002173
401.586271977
401.485189056
401.145550442
401.125333858
401.129377174
400.684612322
401.145550442
401.57009871
401.57009871
400.688655639
401.145550442
401.145550442
400.704828906
400.721002173
401.145550442
401.586271977
401.602445245
401.129377174
401.129377174
402.010820246
401.129377174
401.113203907
401.57009871
401.553925443
401.10916059
401.129377174
401.113203907
401.113203907
402.451541781
401.553925443
401.113203907
401.57009871
401.10916059
401.080857372
401.566055393
401.129377174
401.57009871
401.57009871
401.113203907
401.994646978
401.129377174
401.145550442
401.590315294
401.10916059
402.010820246
401.129377174
401.129377174
401.553925443
401.125333858
401.165767026
401.57009871
401.57009871
401.113203907
400.704828906
401.129377174
402.010820246
401.10916059
401.566055393
401.586271977
401.586271977
401.113203907
401.10916059
400.672482371
401.129377174
401.113203907
402.859916782
401.092987323
401.57009871
401.076814055
401.092987323
401.537752175
401.076814055
401.537752175
401.537752175
401.553925443
401.10916059
401.076814055
401.958257127
401.994646978
401.990603662
401.990603662
401.113203907
401.537752175
401.076814055
401.09703064
401.586271977
401.129377174
401.125333858
401.57009871
401.553925443
402.010820246
400.704828906
402.41515193
400.684612322
401.57009871

Average distance is : 401.329 cm
Average deviation is : 0.413 cm
Block: 9
======================================
401.521578908
401.092987323
401.09703064
401.537752175
401.553925443
401.57009871
401.57009871
402.010820246
401.113203907
401.129377174
401.990603662
401.57009871
401.553925443
402.010820246
401.57009871
401.586271977
401.129377174
401.125333858
402.010820246
401.145550442
401.145550442
401.145550442
401.57009871
401.145550442
401.10916059
400.688655639
400.688655639
400.672482371
400.721002173
401.113203907
401.129377174
402.41515193
401.145550442
400.684612322
400.672482371
400.668439054
401.57009871
400.688655639
401.57009871
401.586271977
401.586271977
401.129377174
401.145550442
401.113203907
401.145550442
401.129377174
401.149593759
400.721002173
401.602445245
401.586271977
401.586271977
401.606488562
401.618618512
401.129377174
401.161723709
400.72504549
400.704828906
401.161723709
400.721002173
400.704828906
400.704828906
401.145550442
400.704828906
400.72504549
400.704828906
400.721002173
401.129377174
400.704828906
400.672482371
400.72504549
400.704828906
401.145550442
401.129377174
401.129377174
401.129377174
401.125333858
401.129377174
401.129377174
401.145550442
401.145550442
400.672482371
401.566055393
401.113203907
400.688655639
401.586271977
400.688655639
401.129377174
400.688655639
401.129377174
400.688655639
401.129377174
401.161723709
401.586271977
400.704828906
400.26410737
400.247934103
400.26410737
401.149593759
401.129377174
400.704828906

Average distance is : 401.126 cm
Average deviation is : 0.412 cm
Block: 10
======================================
400.688655639
401.129377174
400.656309104
400.63609252
400.688655639
401.09703064
400.656309104
401.57009871
401.553925443
401.553925443
401.129377174
401.537752175
401.553925443
401.517535591
400.652265787
401.09703064
400.668439054
400.672482371
401.517535591
401.076814055
401.978473711
401.092987323
402.382805395
401.87739079
401.076814055
401.501362324
401.974430394
401.517535591
401.09703064
401.958257127
401.092987323
401.076814055
401.958257127
401.962300444
401.076814055
401.501362324
402.386848712
401.719701433
401.10916059
401.076814055
401.092987323
401.517535591
401.942083859
401.521578908
401.533708858
401.501362324
401.517535591
401.517535591
401.958257127
401.553925443
401.942083859
401.978473711
401.521578908
401.962300444
401.517535591
402.823526931
401.553925443
401.553925443
401.533708858
401.553925443
401.113203907
403.280421734
401.994646978
401.113203907
401.10916059
402.859916782
401.129377174
401.129377174
401.113203907
401.145550442
401.586271977
402.855873466
400.72504549
400.688655639
400.721002173
400.668439054
401.602445245
400.721002173
401.145550442
401.165767026
401.145550442
401.129377174
401.129377174
401.145550442
401.57009871
402.859916782
401.125333858
401.113203907
402.435368514
401.57009871
401.553925443
401.553925443
401.113203907
402.03103683
401.553925443
401.145550442
401.553925443
401.125333858
402.419195247
401.113203907

Average distance is : 401.449 cm
Average deviation is : 0.551 cm