
Block: 1
======================================
99.9007111788
99.8635411263
99.8800611496
99.9172312021
99.8428910971
99.8470211029
99.8800611496
99.9172312021
99.8635411263
99.8635411263
99.8470211029
99.8635411263
99.8800611496
100.334361792
100.297191739
99.8841911554
100.313711762
100.330231786
100.313711762
99.9502712488
99.8841911554
99.9007111788
100.334361792
99.8841911554
99.8800611496

Block: 2
======================================
99.8841911554
99.9007111788
100.334361792
99.8800611496
99.9007111788
99.9172312021
99.9007111788
99.8470211029
99.8965811729
99.9007111788
99.8676711321
99.9007111788
99.9172312021
99.8965811729
99.9172312021
99.9172312021
99.8635411263
99.9131011963
99.9337512255
99.9007111788
99.9131011963
100.334361792
99.8841911554
99.8841911554
99.9172312021

Block: 3
======================================
99.8800611496
99.8800611496
100.313711762
99.8800611496
99.8965811729
99.9007111788
100.297191739
99.8800611496
99.8965811729
99.8635411263
99.9172312021
99.8965811729
100.330231786
99.8841911554
99.8841911554
99.8841911554
99.9131011963
99.8676711321
99.8800611496
99.8841911554
99.8635411263
99.9172312021
99.8635411263
99.8305010796
99.8635411263

Block: 4
======================================
99.8635411263
99.8800611496
100.313711762
99.9007111788
100.317841768
99.8800611496
99.8800611496
99.8800611496
99.8635411263
99.8841911554
99.8965811729
99.8800611496
99.8841911554
99.8635411263
99.8800611496
99.9007111788
99.8841911554
99.9007111788
99.9007111788
99.8800611496
99.8676711321
99.9007111788
99.8841911554
99.8841911554
99.8635411263

Block: 5
======================================
99.8800611496
99.8676711321
99.8965811729
99.8800611496
99.8305010796
99.9172312021
100.264151692
100.260021687
99.8841911554
99.8800611496
99.9172312021
99.8965811729
100.330231786
99.9007111788
99.8841911554
99.8676711321
99.8841911554
99.8800611496
99.8635411263
99.8635411263
99.8635411263
99.8635411263
99.8800611496
99.8800611496
99.9007111788

Block: 6
======================================
99.8841911554
99.8841911554
99.8800611496
100.317841768
99.8965811729
99.8635411263
99.8800611496
99.9007111788
99.8800611496
100.330231786
100.346751809
99.8635411263
99.8470211029
99.8635411263
99.8800611496
99.8470211029
99.8800611496
99.8635411263
99.8800611496
99.8965811729
99.8800611496
99.8965811729
99.9007111788
100.313711762
99.8841911554

Block: 7
======================================
99.8800611496
99.8800611496
99.8635411263
99.8965811729
100.297191739
99.8800611496
99.8635411263
99.8800611496
99.8841911554
99.8635411263
99.8470211029
99.8676711321
99.8635411263
99.8800611496
99.8800611496
99.8800611496
99.8635411263
99.8676711321
99.9172312021
99.8800611496
99.8841911554
99.8635411263
99.9172312021
100.297191739
99.9007111788

Block: 8
======================================
99.8800611496
99.8635411263
100.297191739
99.8676711321
99.8470211029
100.297191739
99.9007111788
99.8800611496
99.8800611496
99.8635411263
99.8841911554
99.8965811729
99.8841911554
99.8635411263
99.8470211029
99.8470211029
99.8635411263
99.8800611496
99.8635411263
99.8841911554
99.8841911554
99.8635411263
99.8470211029
99.8841911554
99.8635411263

Block: 9
======================================
100.317841768
99.8841911554
99.8965811729
99.8841911554
99.9172312021
99.8676711321
99.8800611496
99.9007111788
99.8470211029
99.8676711321
99.8800611496
99.8800611496
99.8800611496
99.8965811729
100.297191739
99.8800611496
99.9007111788
99.8841911554
99.8800611496
99.8635411263
99.8965811729
99.8800611496
99.8841911554
99.8635411263
99.8800611496

Block: 10
======================================
99.8965811729
99.9007111788
99.8841911554
99.9007111788
99.8635411263
99.8635411263
99.8635411263
99.8800611496
99.8800611496
99.8800611496
99.8800611496
99.9007111788
99.9007111788
99.8965811729
99.8635411263
99.8800611496
99.9007111788
99.8965811729
99.8841911554
99.8470211029
99.9172312021
99.8841911554
99.8800611496
99.8800611496
99.8841911554
