
Block: 1
======================================
299.447421312
299.431161356
299.378316498
299.394576454
299.410836411
299.410836411
298.9677526
299.410836411
299.394576454
299.427096367
299.427096367
299.378316498
299.410836411
298.918972731
299.394576454
299.378316498
299.378316498
299.394576454
299.447421312
299.004337502
298.935232687
299.394576454
298.9677526
299.378316498
299.427096367
299.378316498
299.447421312
299.410836411
299.394576454
298.935232687
299.004337502
298.984012556
299.394576454
299.516526127
299.410836411
298.9677526
299.394576454
299.394576454
299.378316498
299.410836411
299.431161356
299.410836411
299.394576454
298.935232687
299.378316498
299.410836411
299.410836411
299.447421312
299.4149014
299.447421312
298.984012556
299.427096367
299.4149014
299.378316498
299.394576454
299.4149014
299.394576454
298.951492643
299.374251509
299.378316498
299.362056541
299.394576454
299.374251509
299.394576454
299.410836411
299.341731596
299.378316498
299.4149014
299.394576454
299.357991552
299.357991552
299.378316498
298.902712774
299.374251509
299.394576454

Average distance is : 299.325 cm
Average deviation is : 0.171 cm
Block: 2
======================================
299.378316498
299.309211683
299.736035538
299.394576454
299.378316498
299.378316498
299.378316498
298.935232687
299.394576454
299.394576454
298.951492643
298.918972731
299.394576454
299.410836411
299.357991552
299.394576454
299.378316498
299.410836411
299.394576454
299.362056541
299.394576454
299.394576454
299.410836411
299.378316498
299.362056541
298.914907742
299.374251509
299.4149014
299.378316498
299.374251509
299.378316498
299.394576454
298.898647785
299.378316498
299.362056541
299.32547164
298.935232687
299.378316498
298.902712774
299.378316498
299.378316498
299.394576454
299.341731596
299.32547164
299.345796585
299.357991552
299.394576454
299.362056541
299.394576454
299.4149014
299.357991552
298.914907742
299.362056541
299.378316498
299.427096367
298.935232687
299.394576454
298.898647785
299.309211683
298.935232687
299.341731596
298.918972731
299.378316498
299.394576454
299.410836411
299.374251509
299.394576454
299.362056541
299.394576454
299.378316498
299.362056541
299.362056541
299.394576454
299.410836411
299.394576454

Average distance is : 299.310 cm
Average deviation is : 0.177 cm
Block: 3
======================================
298.935232687
299.394576454
299.362056541
299.362056541
299.362056541
299.357991552
298.914907742
299.378316498
299.362056541
299.362056541
298.947427654
299.341731596
299.329536629
299.394576454
299.357991552
298.951492643
298.882387829
299.32547164
299.341731596
299.357991552
299.341731596
299.345796585
299.394576454
299.4149014
298.931167698
299.378316498
299.394576454
299.345796585
299.378316498
298.918972731
299.341731596
299.394576454
299.378316498
299.378316498
299.378316498
298.882387829
299.32547164
299.374251509
298.951492643
299.378316498
299.362056541
299.479941225
299.378316498
299.362056541
298.951492643
298.914907742
299.341731596
299.341731596
299.394576454
299.378316498
298.902712774
299.362056541
299.394576454
299.394576454
299.394576454
299.394576454
299.341731596
298.918972731
299.378316498
299.410836411
299.410836411
299.378316498
299.390511465
299.357991552
299.378316498
299.32547164
299.394576454
299.394576454
299.394576454
299.410836411
299.410836411
299.357991552
299.4149014
299.431161356
299.374251509

Average distance is : 299.297 cm
Average deviation is : 0.174 cm
Block: 4
======================================
299.516526127
299.394576454
299.378316498
299.394576454
298.914907742
299.362056541
299.4149014
299.374251509
299.378316498
298.935232687
299.394576454
299.378316498
299.378316498
298.951492643
299.394576454
299.410836411
299.394576454
298.935232687
299.374251509
299.378316498
298.951492643
299.410836411
299.378316498
298.935232687
299.394576454
298.918972731
298.918972731
299.341731596
299.4149014
299.362056541
299.394576454
299.431161356
299.394576454
298.918972731
299.410836411
299.374251509
299.410836411
299.431161356
299.427096367
298.931167698
299.357991552
299.410836411
299.394576454
298.9677526
299.357991552
299.374251509
299.378316498
298.951492643
299.394576454
299.394576454
299.378316498
299.410836411
299.394576454
299.378316498
299.410836411
299.394576454
299.394576454
299.394576454
299.357991552
299.357991552
299.410836411
299.394576454
298.935232687
299.374251509
298.918972731
299.378316498
299.394576454
299.378316498
299.410836411
299.394576454
299.394576454
299.362056541
299.378316498
299.378316498
299.341731596

Average distance is : 299.305 cm
Average deviation is : 0.180 cm
Block: 5
======================================
299.431161356
299.378316498
299.427096367
299.410836411
299.378316498
299.394576454
299.374251509
299.394576454
299.362056541
299.378316498
299.394576454
298.9677526
299.378316498
299.410836411
299.394576454
299.394576454
298.935232687
299.394576454
299.374251509
299.394576454
298.918972731
299.374251509
299.374251509
298.914907742
299.378316498
298.988077545
299.362056541
299.374251509
299.410836411
299.357991552
299.394576454
299.410836411
299.394576454
299.378316498
298.902712774
298.914907742
299.394576454
299.394576454
299.410836411
299.410836411
299.427096367
299.394576454
299.362056541
299.378316498
299.378316498
299.362056541
299.378316498
299.463681269
299.410836411
298.951492643
299.362056541
299.357991552
299.410836411
299.394576454
299.378316498
299.341731596
299.374251509
298.935232687
298.914907742
299.357991552
299.394576454
299.341731596
299.341731596
299.362056541
299.394576454
299.394576454
298.935232687
298.914907742
299.341731596
299.394576454
298.951492643
299.362056541
299.378316498
299.394576454
298.918972731

Average distance is : 299.301 cm
Average deviation is : 0.179 cm
Block: 6
======================================
299.341731596
299.362056541
299.362056541
298.935232687
299.394576454
299.345796585
299.345796585
299.410836411
299.32547164
299.362056541
298.9677526
299.362056541
298.760438156
299.4149014
298.866127872
299.374251509
299.362056541
298.9677526
299.341731596
299.341731596
299.345796585
298.918972731
299.362056541
299.378316498
298.935232687
299.378316498
299.378316498
298.951492643
299.362056541
299.362056541
299.394576454
298.914907742
299.362056541
299.329536629
299.378316498
299.378316498
299.341731596
298.951492643
298.918972731
299.378316498
299.410836411
299.32547164
298.914907742
299.374251509
299.362056541
299.362056541
299.362056541
298.918972731
299.378316498
299.345796585
299.362056541
299.394576454
299.394576454
299.410836411
298.935232687
299.378316498
298.951492643
299.374251509
299.378316498
299.357991552
299.378316498
299.345796585
299.341731596
299.362056541
299.394576454
299.378316498
299.394576454
299.394576454
299.394576454
299.394576454
299.341731596
299.341731596
299.394576454
298.914907742
299.378316498

Average distance is : 299.273 cm
Average deviation is : 0.188 cm
Block: 7
======================================
299.378316498
299.394576454
299.362056541
299.378316498
298.971817589
299.357991552
299.378316498
299.378316498
299.378316498
298.914907742
299.378316498
299.394576454
298.9677526
299.357991552
299.345796585
299.394576454
299.410836411
299.341731596
298.935232687
299.378316498
299.378316498
299.410836411
299.394576454
299.410836411
298.9677526
299.378316498
299.394576454
299.378316498
299.410836411
299.378316498
299.394576454
298.951492643
299.394576454
298.951492643
299.4149014
299.394576454
299.394576454
299.374251509
298.984012556
298.951492643
299.4149014
298.984012556
299.357991552
299.410836411
299.394576454
299.394576454
298.931167698
299.362056541
299.394576454
299.362056541
299.410836411
298.951492643
298.918972731
299.378316498
299.394576454
299.378316498
299.357991552
299.357991552
298.951492643
299.362056541
299.378316498
299.357991552
299.378316498
299.394576454
298.951492643
299.394576454
299.357991552
299.394576454
299.394576454
299.362056541
299.362056541
299.410836411
298.9677526
299.374251509
299.410836411

Average distance is : 299.292 cm
Average deviation is : 0.178 cm
Block: 8
======================================
299.447421312
299.378316498
299.378316498
298.914907742
299.374251509
299.394576454
298.951492643
299.394576454
299.378316498
299.378316498
298.914907742
298.931167698
298.902712774
299.394576454
299.394576454
299.394576454
298.951492643
299.394576454
299.378316498
299.378316498
299.394576454
299.394576454
299.378316498
299.374251509
298.918972731
298.9677526
298.971817589
298.951492643
299.394576454
299.394576454
299.4149014
299.410836411
298.988077545
299.427096367
299.431161356
299.394576454
299.410836411
299.378316498
299.378316498
298.914907742
299.4149014
299.431161356
299.378316498
299.394576454
299.378316498
299.427096367
299.394576454
299.378316498
299.431161356
299.378316498
299.378316498
299.378316498
299.378316498
299.447421312
299.378316498
298.935232687
299.378316498
299.410836411
299.410836411
298.947427654
299.394576454
299.378316498
299.378316498
298.9677526
298.9677526
299.410836411
298.931167698
299.378316498
299.394576454
299.362056541
298.951492643
299.427096367
299.394576454
299.378316498
299.394576454

Average distance is : 299.286 cm
Average deviation is : 0.195 cm
Block: 9
======================================
298.951492643
299.374251509
299.394576454
299.378316498
299.374251509
299.394576454
299.410836411
298.951492643
299.394576454
298.914907742
299.394576454
299.427096367
299.394576454
299.410836411
299.378316498
299.378316498
299.394576454
299.394576454
299.410836411
299.345796585
299.378316498
299.410836411
299.362056541
299.378316498
299.394576454
299.410836411
299.427096367
299.394576454
299.378316498
299.378316498
299.362056541
299.374251509
299.394576454
299.378316498
299.394576454
299.394576454
299.394576454
299.394576454
298.935232687
298.951492643
299.4149014
299.410836411
299.378316498
299.362056541
299.394576454
299.394576454
298.898647785
299.394576454
298.918972731
298.882387829
299.394576454
299.427096367
298.914907742
298.947427654
299.410836411
299.374251509
299.394576454
299.374251509
299.394576454
298.914907742
299.394576454
299.410836411
299.374251509
299.394576454
298.951492643
299.431161356
299.394576454
299.410836411
299.410836411
299.394576454
298.951492643
299.357991552
299.410836411
299.362056541
299.390511465

Average distance is : 299.312 cm
Average deviation is : 0.177 cm
Block: 10
======================================
299.410836411
299.390511465
299.378316498
298.951492643
299.4149014
299.394576454
299.394576454
299.394576454
298.951492643
299.410836411
298.931167698
298.951492643
299.447421312
299.410836411
299.410836411
299.410836411
299.4149014
299.410836411
299.443356323
299.374251509
299.378316498
299.410836411
299.390511465
299.394576454
298.951492643
299.378316498
299.427096367
299.378316498
299.374251509
299.427096367
299.410836411
299.427096367
299.410836411
299.394576454
299.410836411
299.394576454
298.951492643
299.427096367
298.951492643
299.410836411
299.431161356
299.427096367
299.427096367
298.984012556
299.410836411
299.431161356
299.378316498
299.374251509
299.427096367
299.410836411
299.394576454
299.410836411
299.410836411
299.394576454
299.410836411
299.394576454
299.410836411
299.394576454
299.410836411
299.378316498
299.394576454
298.935232687
299.410836411
299.410836411
299.410836411
298.9677526
299.362056541
299.4149014
299.447421312
299.378316498
299.394576454
299.394576454
299.4149014
299.394576454
298.935232687

Average distance is : 299.338 cm
Average deviation is : 0.163 cm