
Block: 1
======================================
401.384106135
400.9433846
402.249375939
401.384106135
400.906994748
401.367932868
400.9433846
401.367932868
402.637534356
402.229159355
401.792481136
401.384106135
401.792481136
402.229159355
403.098472476
400.959557867
402.233202672
401.788437819
400.923168015
400.923168015
401.351759601
400.927211332
402.621361089
401.824827671
401.756091285
402.637534356
401.788437819
402.19681282
402.212986088
403.062082624
403.078255892
402.19681282
403.045909357
401.315369749
401.739918017
401.756091285
401.756091285
401.739918017
402.180639553
403.878832626
402.164466286
402.160422969
402.584971237
402.132119751
402.621361089
402.164466286
402.584971237
402.148293018
402.605187821
402.605187821

Block: 2
======================================
402.584971237
402.56879797
403.878832626
405.132260847
403.450241041
403.450241041
403.009519506
405.148434114
405.556809115
403.434067774
403.013562822
403.009519506
403.013562822
402.148293018
402.56879797
402.144249701
407.538034368
402.144249701
401.230460095
402.56879797
404.28316431
402.148293018
401.687354898
402.977172971
401.671181631
402.148293018
403.450241041
403.438111091
404.315510845
401.26280663
401.246633363
401.72374475
401.283023214
402.132119751
404.299337578
2790.5193778
2785.7401773
401.655008364
400.805911827
2793.03027756
400.822085094
400.369233608
405.217170501
400.842301679
2799.96456594
402.111903167
400.41775341
400.41775341
2787.33324413
2800.51041372

Block: 3
======================================
405.180780649
404.331684113
408.45586729
403.518977427
402.605187821
403.04186604
405.572982383
401.299196482
401.315369749
402.180639553
401.335586333
401.315369749
401.72374475
401.739918017
401.756091285
402.212986088
402.641577673
402.180639553
404.331684113
404.792622232
403.078255892
402.641577673
401.756091285
403.078255892
402.164466286
403.045909357
401.739918017
402.653707623
403.50280416
403.045909357
403.518977427
403.025692773
402.180639553
404.319554162
401.772264552
405.148434114
402.164466286
401.739918017
402.164466286
402.180639553
402.621361089
401.739918017
403.062082624
402.19681282
402.164466286
402.180639553
402.621361089
402.176596236
401.72374475
403.943525696

Block: 4
======================================
402.180639553
401.283023214
401.331543016
403.911179161
407.639117289
403.895005894
403.907135844
403.927352428
404.792622232
406.009660602
403.50280416
402.617317772
403.923309112
403.062082624
403.482587576
403.045909357
401.739918017
402.621361089
403.045909357
402.180639553
401.315369749
402.637534356
400.858474946
401.772264552
401.776307869
400.874648213
400.450099945
402.217029405
400.874648213
400.450099945
401.315369749
400.450099945
401.756091285
403.482587576
400.454143262
401.772264552
400.890821481
400.450099945
400.874648213
400.874648213
401.315369749
401.760134602
400.858474946
400.858474946
402.19681282
401.331543016
402.621361089
400.906994748
401.315369749
400.858474946

Block: 5
======================================
401.331543016
401.315369749
401.331543016
401.299196482
401.299196482
401.266849947
402.621361089
401.739918017
402.164466286
402.180639553
403.470457625
401.739918017
401.739918017
402.589014554
404.315510845
402.601144505
402.605187821
403.486630893
403.466414309
403.025692773
403.486630893
403.486630893
404.335727429
402.605187821
402.601144505
403.523020744
402.180639553
402.621361089
402.621361089
401.739918017
402.19681282
402.164466286
402.637534356
403.062082624
402.637534356
402.160422969
401.72374475
401.772264552
403.062082624
401.756091285
402.653707623
402.637534356
402.637534356
402.637534356
401.756091285
401.792481136
401.739918017
401.772264552
402.212986088
402.212986088

Block: 6
======================================
401.347716284
402.212986088
401.363889551
400.9433846
400.906994748
401.367932868
402.637534356
400.890821481
400.906994748
400.906994748
401.772264552
403.523020744
401.367932868
401.367932868
401.367932868
402.229159355
402.229159355
401.331543016
401.804611087
401.331543016
402.249375939
402.212986088
401.331543016
402.653707623
401.808654404
401.331543016
401.331543016
401.363889551
402.233202672
402.212986088
401.331543016
402.212986088
402.249375939
401.384106135
401.808654404
401.788437819
400.927211332
400.923168015
401.367932868
401.347716284
403.094429159
401.792481136
401.347716284
401.347716284
401.331543016
401.331543016
401.347716284
402.637534356
401.363889551
401.367932868

Block: 7
======================================
400.486489797
400.450099945
401.347716284
401.347716284
401.367932868
401.347716284
401.384106135
402.233202672
401.384106135
400.470316529
400.48244648
401.384106135
400.923168015
401.41645267
400.486489797
401.400279403
400.48244648
400.959557867
400.9433846
400.518836331
400.959557867
401.400279403
400.486489797
401.384106135
400.48244648
400.927211332
400.923168015
400.906994748
400.906994748
402.249375939
401.384106135
400.927211332
402.249375939
401.367932868
400.923168015
401.808654404
402.265549207
401.367932868
401.788437819
401.351759601
401.331543016
401.331543016
401.351759601
401.808654404
403.518977427
401.808654404
401.788437819
401.792481136
401.347716284
402.621361089

Block: 8
======================================
404.723885846
402.605187821
403.943525696
401.283023214
401.756091285
401.719701433
402.605187821
400.894864798
402.19681282
401.756091285
401.335586333
402.180639553
401.756091285
401.760134602
401.756091285
401.756091285
401.315369749
401.315369749
402.621361089
403.062082624
401.756091285
402.19681282
401.772264552
402.19681282
401.756091285
402.653707623
402.673924208
402.212986088
402.217029405
403.518977427
401.776307869
402.229159355
402.19681282
401.772264552
402.212986088
402.212986088
402.65775094
401.756091285
401.756091285
402.637534356
402.653707623
402.212986088
402.233202672
402.212986088
401.331543016
401.347716284
402.19681282
401.331543016
401.331543016
401.756091285

Block: 9
======================================
402.212986088
400.890821481
401.776307869
401.772264552
402.19681282
402.212986088
401.756091285
401.299196482
401.315369749
401.299196482
401.299196482
401.756091285
401.739918017
401.772264552
401.671181631
401.735874701
401.278979897
402.605187821
401.331543016
400.906994748
401.299196482
401.756091285
401.776307869
401.735874701
401.315369749
401.315369749
401.776307869
400.870604897
403.04186604
403.025692773
403.02973609
400.890821481
400.874648213
403.02973609
401.772264552
401.331543016
401.315369749
401.335586333
401.335586333
401.331543016
400.854431629
401.315369749
400.854431629
401.315369749
402.589014554
400.854431629
401.315369749
401.315369749
401.299196482
400.858474946

Block: 10
======================================
400.854431629
400.838258362
401.283023214
401.703528166
400.397536826
400.858474946
402.111903167
400.838258362
401.266849947
401.283023214
400.397536826
401.26280663
401.266849947
400.842301679
401.671181631
400.805911827
400.822085094
401.25067668
401.687354898
400.826128411
402.095729899
400.809955144
400.381363559
400.805911827
400.809955144
400.805911827
400.78973856
401.687354898
401.246633363
401.246633363
400.822085094
401.246633363
400.805911827
401.246633363
400.805911827
401.707571483
401.246633363
401.246633363
400.385406876
400.381363559
400.822085094
400.805911827
400.385406876
400.822085094
400.826128411
400.822085094
400.822085094
401.266849947
400.838258362
400.826128411
