
Block: 1
======================================
400.906994748
400.890821481
401.351759601
400.906994748
401.331543016

Block: 2
======================================
401.788437819
401.792481136
402.249375939
401.788437819
401.776307869

Block: 3
======================================
401.384106135
403.114645743
401.367932868
403.094429159
401.808654404

Block: 4
======================================
403.130819011
401.841000938
401.363889551
401.41645267
400.9433846

Block: 5
======================================
400.498619747
400.486489797
400.959557867
401.824827671
401.788437819

Block: 6
======================================
400.906994748
401.808654404
401.804611087
401.351759601
400.890821481

Block: 7
======================================
400.890821481
401.331543016
401.351759601
401.351759601
401.756091285

Block: 8
======================================
401.295153165
401.756091285
400.858474946
401.772264552
401.756091285

Block: 9
======================================
401.72374475
402.19681282
402.19681282
401.756091285
401.283023214

Block: 10
======================================
402.164466286
403.062082624
404.315510845
401.72374475
408.031319022
