
Block: 1
======================================
400.332843757
399.888078904
399.940642023
399.924468756
400.805911827
400.78973856
399.940642023
399.908295488
400.385406876
399.940642023
399.908295488
400.349017024
399.924468756
399.908295488
401.181940293
400.805911827
399.924468756
399.908295488
399.960858607
400.809955144
401.214286828
400.349017024
402.079556632
400.349017024
399.924468756
399.924468756
400.349017024
401.198113561
400.349017024
401.198113561
400.332843757
400.332843757
400.773565292
400.757392025
401.145550442
400.312627172
400.757392025
401.181940293
400.737175441
402.467715049
402.04316678
400.757392025
400.753348708
400.741218758
401.618618512
401.618618512
400.769521976
401.214286828
400.773565292
401.214286828
401.214286828
401.198113561
402.483888316
401.194070244
400.741218758
400.773565292
400.344973707
400.32880044
400.365190291
400.773565292
400.78973856
400.773565292
400.349017024
401.194070244
400.312627172
401.622661829
400.78973856
400.312627172
401.230460095
399.892122221
399.892122221
400.32880044
401.622661829
399.892122221
401.198113561
399.855732369
400.741218758
400.737175441
400.741218758
400.721002173
400.757392025
400.26410737
400.300497222
400.737175441
400.741218758
400.737175441
400.737175441
401.606488562
401.165767026
401.177896976
400.721002173
400.721002173
401.602445245
400.704828906
401.165767026
402.87609005
400.704828906
401.165767026
400.688655639
400.704828906

Average distance is : 400.735 cm
Average deviation is : 0.618 cm
Block: 2
======================================
400.332843757
400.753348708
400.300497222
401.177896976
400.753348708
400.300497222
400.737175441
400.300497222
400.312627172
401.149593759
400.296453905
401.161723709
400.296453905
400.300497222
400.737175441
401.181940293
401.161723709
400.296453905
401.165767026
400.721002173
402.419195247
400.721002173
401.165767026
402.431325197
400.688655639
400.280280638
400.280280638
401.177896976
401.181940293
400.280280638
400.704828906
400.284323955
400.704828906
401.586271977
401.165767026
400.721002173
400.704828906
401.586271977
401.129377174
401.161723709
400.688655639
401.129377174
401.602445245
401.586271977
401.165767026
401.145550442
401.586271977
401.586271977
401.161723709
401.606488562
401.994646978
400.741218758
400.721002173
401.161723709
401.145550442
400.280280638
400.704828906
401.145550442
400.721002173
401.161723709
401.145550442
400.247934103
400.26410737
401.145550442
401.129377174
402.010820246
400.688655639
402.859916782
401.553925443
400.243890786
400.652265787
401.10916059
401.994646978
402.435368514
401.09703064
400.656309104
401.113203907
402.843743515
400.656309104
401.553925443
401.517535591
401.549882126
401.533708858
401.537752175
401.517535591
401.501362324
401.092987323
401.517535591
401.092987323
400.672482371
401.978473711
401.517535591
401.553925443
401.076814055
401.533708858
401.537752175
401.092987323
401.553925443
401.113203907
403.692840052

Average distance is : 401.124 cm
Average deviation is : 0.637 cm
Block: 3
======================================
400.672482371
401.57009871
400.652265787
400.26410737
401.129377174
400.688655639
400.688655639
400.247934103
402.823526931
399.823385835
400.247934103
400.247934103
402.403021979
400.672482371
400.656309104
399.807212567
400.26410737
399.807212567
399.7910393
400.247934103
400.231760836
400.668439054
400.688655639
400.227717519
400.684612322
399.80316925
400.247934103
399.80316925
400.247934103
400.672482371
400.704828906
401.958257127
401.145550442
399.807212567
399.7910393
399.7910393
400.26410737
400.227717519
399.80316925
400.247934103
401.113203907
400.247934103
400.247934103
400.227717519
400.672482371
400.672482371
401.129377174
401.113203907
400.668439054
400.656309104
401.09703064
401.974430394
400.652265787
401.994646978
401.994646978
401.602445245
401.145550442
401.145550442
401.586271977
401.553925443
403.284465051
401.586271977
401.129377174
400.684612322
400.672482371
400.672482371
401.129377174
400.688655639
401.145550442
402.010820246
401.129377174
401.129377174
400.672482371
400.688655639
401.586271977
401.165767026
400.284323955
400.280280638
399.839559102
402.419195247
400.247934103
399.823385835
400.757392025
401.145550442
402.419195247
400.26410737
400.704828906
400.72504549
400.280280638
402.010820246
400.280280638
399.823385835
399.839559102
400.280280638
400.26410737
400.280280638
399.823385835
400.280280638
399.415010834
399.402880883

Average distance is : 400.715 cm
Average deviation is : 0.764 cm
Block: 4
======================================
401.57009871
399.859775686
399.855732369
399.823385835
401.553925443
399.823385835
400.296453905
401.57009871
400.300497222
400.280280638
400.296453905
399.855732369
401.566055393
399.839559102
400.721002173
399.415010834
399.855732369
399.435227418
399.839559102
399.839559102
400.704828906
400.284323955
400.300497222
400.721002173
399.855732369
399.839559102
400.296453905
399.839559102
399.839559102
399.871905637
399.859775686
399.859775686
399.855732369
399.855732369
399.855732369
399.855732369
399.859775686
400.704828906
400.72504549
401.990603662
400.296453905
399.839559102
400.296453905
399.823385835
402.839700198
402.435368514
401.57009871
400.296453905
399.843602419
400.741218758
399.843602419
399.875948954
401.586271977
400.316670489
399.855732369
401.586271977
401.994646978
400.721002173
400.721002173
400.72504549
399.80316925
400.26410737
2794.11388648
400.280280638
400.260064054
400.280280638
400.260064054
400.284323955
399.855732369
400.721002173
401.994646978
401.994646978
2772.61152751
401.994646978
2798.25424292
399.859775686
400.737175441
401.994646978
400.741218758
400.721002173
400.300497222
402.010820246
402.419195247
399.855732369
400.737175441
401.586271977
400.296453905
2783.87216492
399.892122221
402.04316678
399.908295488
400.769521976
400.316670489
399.855732369
400.773565292
402.010820246
400.753348708
400.296453905
402.03103683
399.871905637

Average distance is : 496.014 cm
Average deviation is : 470.050 cm
Block: 5
======================================
400.721002173
402.892263317
400.280280638
399.875948954
400.741218758
402.010820246
400.704828906
400.243890786
402.010820246
402.010820246
400.672482371
400.280280638
402.872046733
402.010820246
401.57009871
400.704828906
401.549882126
401.566055393
401.537752175
404.149734855
402.026993513
401.145550442
401.145550442
403.316811585
401.602445245
401.622661829
401.161723709
400.721002173
401.161723709
400.704828906
400.72504549
400.704828906
403.316811585
401.586271977
402.87609005
402.471758366
403.316811585
402.010820246
401.566055393
402.451541781
401.553925443
402.026993513
402.144249701
402.87609005
402.455585098
401.586271977
402.04316678
401.145550442
400.704828906
400.737175441
400.72504549
401.590315294
400.704828906
400.721002173
402.026993513
402.026993513
401.586271977
407.012403178
400.704828906
401.549882126
401.129377174
401.113203907
403.725186586
403.280421734
402.006776929
401.553925443
401.57009871
402.87609005
404.145691538
401.553925443
402.026993513
401.113203907
401.113203907
400.684612322
400.704828906
400.704828906
400.668439054
401.586271977
401.586271977
402.435368514
401.57009871
401.590315294
401.129377174
402.026993513
401.553925443
400.721002173
401.602445245
404.145691538
402.026993513
402.03103683
402.487931633
402.04316678
402.026993513
402.912479901
401.145550442
404.214427924
402.063383365
403.789879656
402.059340048
401.177896976

Average distance is : 401.779 cm
Average deviation is : 1.089 cm
Block: 6
======================================
401.655008364
401.198113561
402.091686583
403.385547972
401.638835096
401.638835096
400.769521976
402.5041049
401.234503412
401.214286828
401.246633363
400.78973856
400.78973856
400.78973856
401.230460095
401.650965047
401.638835096
401.638835096
401.638835096
402.059340048
401.618618512
400.721002173
400.737175441
401.165767026
401.638835096
401.606488562
401.198113561
402.500061584
402.5041049
402.095729899
401.638835096
401.655008364
402.520278168
401.198113561
401.230460095
402.059340048
402.075513315
400.773565292
401.214286828
401.177896976
400.773565292
400.757392025
400.78973856
400.32880044
400.78973856
400.78973856
401.655008364
401.044467521
400.78973856
400.769521976
400.365190291
401.230460095
401.230460095
400.78973856
401.26280663
402.536451435
400.757392025
400.78973856
400.365190291
402.111903167
401.230460095
401.230460095
401.655008364
401.638835096
401.198113561
401.198113561
403.789879656
400.737175441
402.079556632
401.198113561
402.928653169
403.369374704
401.177896976
401.181940293
400.741218758
400.757392025
400.312627172
400.737175441
400.312627172
400.296453905
401.161723709
400.316670489
400.300497222
402.483888316
400.737175441
400.26410737
402.026993513
401.161723709
402.87609005
401.161723709
400.704828906
400.721002173
400.704828906
401.181940293
400.72504549
400.72504549
401.165767026
400.300497222
401.586271977
401.145550442

Average distance is : 401.313 cm
Average deviation is : 0.734 cm
Block: 7
======================================
401.586271977
401.606488562
403.741359854
400.688655639
401.145550442
400.704828906
400.688655639
402.010820246
403.268291783
402.04316678
402.026993513
401.145550442
400.721002173
400.300497222
400.26410737
401.586271977
403.300638318
401.606488562
401.602445245
401.57009871
401.129377174
401.586271977
401.57009871
401.586271977
401.129377174
401.586271977
402.859916782
400.704828906
401.586271977
401.958257127
401.586271977
401.553925443
402.419195247
400.688655639
401.586271977
400.688655639
400.688655639
400.247934103
400.688655639
400.684612322
400.704828906
400.280280638
400.704828906
399.823385835
399.807212567
400.704828906
400.296453905
401.145550442
399.839559102
401.145550442
400.300497222
400.721002173
399.855732369
399.855732369
399.859775686
400.142807865
399.839559102
399.855732369
400.316670489
399.839559102
399.855732369
401.198113561
400.737175441
400.349017024
399.871905637
399.892122221
401.198113561
399.888078904
400.757392025
399.859775686
401.145550442
401.553925443
402.010820246
400.300497222
2807.61452141
400.72504549
401.57009871
400.280280638
399.892122221
400.704828906
401.177896976
2793.2324434
400.280280638
400.296453905
400.296453905
401.177896976
402.451541781
400.753348708
400.300497222
399.875948954
400.316670489
399.875948954
399.855732369
399.871905637
401.994646978
399.875948954
400.753348708
399.839559102
401.181940293
2799.47532461

Average distance is : 472.855 cm
Average deviation is : 411.342 cm
Block: 8
======================================
401.161723709
401.161723709
401.092987323
402.04316678
401.602445245
401.165767026
402.059340048
402.5041049
402.487931633
402.487931633
402.892263317
401.161723709
401.622661829
403.757533121
402.026993513
402.912479901
401.586271977
402.026993513
400.991904402
402.03103683
401.606488562
402.026993513
402.467715049
402.892263317
402.928653169
403.757533121
402.912479901
402.892263317
402.467715049
402.483888316
401.63479178
402.026993513
401.161723709
401.622661829
402.047210097
401.165767026
402.04316678
403.741359854
402.03103683
401.606488562
401.181940293
402.026993513
401.602445245
402.059340048
401.177896976
401.618618512
401.181940293
401.161723709
401.198113561
401.198113561
400.773565292
401.63479178
400.769521976
401.618618512
401.671181631
401.181940293
401.181940293
401.177896976
401.622661829
402.079556632
401.177896976
402.075513315
400.737175441
401.198113561
401.622661829
401.165767026
402.520278168
401.63479178
401.618618512
401.618618512
401.622661829
402.047210097
401.177896976
402.04316678
401.586271977
401.161723709
401.177896976
401.181940293
401.650965047
401.177896976
401.622661829
401.638835096
401.165767026
400.769521976
401.622661829
401.161723709
401.655008364
401.655008364
401.63479178
401.145550442
401.181940293
401.622661829
401.638835096
401.638835096
401.655008364
401.214286828
403.365331388
401.63479178
401.161723709
401.638835096

Average distance is : 401.734 cm
Average deviation is : 0.658 cm
Block: 9
======================================
402.059340048
402.075513315
402.500061584
401.655008364
401.602445245
402.079556632
402.079556632
401.63479178
400.737175441
401.181940293
402.063383365
401.586271977
402.063383365
402.471758366
401.586271977
402.467715049
401.618618512
402.487931633
405.823668027
402.908436584
403.353201437
402.467715049
402.03103683
402.04316678
402.924609852
401.586271977
402.467715049
401.602445245
402.940783119
402.04316678
402.047210097
402.059340048
402.059340048
401.602445245
402.095729899
401.194070244
402.520278168
401.214286828
401.177896976
401.177896976
401.181940293
403.365331388
402.111903167
401.198113561
401.650965047
401.655008364
401.194070244
401.586271977
402.047210097
402.063383365
404.214427924
401.181940293
402.924609852
403.365331388
402.04316678
405.892404413
401.602445245
2780.73455105
401.655008364
401.655008364
402.079556632
401.230460095
401.230460095
401.246633363
401.230460095
402.095729899
400.805911827
401.230460095
401.655008364
402.095729899
401.638835096
401.655008364
402.111903167
401.691398215
402.977172971
401.655008364
401.230460095
401.671181631
401.703528166
402.128076434
401.671181631
402.132119751
402.095729899
401.230460095
401.230460095
401.63479178
401.63479178
402.115946484
401.246633363
402.111903167
401.655008364
401.214286828
402.111903167
401.655008364
401.230460095
401.638835096
400.805911827
401.655008364
401.230460095
402.536451435

Average distance is : 425.728 cm
Average deviation is : 237.881 cm
Block: 10
======================================
401.230460095
401.230460095
401.671181631
402.148293018
400.826128411
400.773565292
400.826128411
401.246633363
401.687354898
400.805911827
401.266849947
401.691398215
400.805911827
400.78973856
400.365190291
402.960999703
400.809955144
402.944826436
400.78973856
400.773565292
400.78973856
401.638835096
401.638835096
401.63479178
400.78973856
400.769521976
401.230460095
402.5041049
401.655008364
401.638835096
402.095729899
401.618618512
400.773565292
401.638835096
400.78973856
400.773565292
401.638835096
400.769521976
400.773565292
401.214286828
401.214286828
401.194070244
401.655008364
401.650965047
401.638835096
401.194070244
402.095729899
400.773565292
404.230601192
401.230460095
401.214286828
401.230460095
401.246633363
402.091686583
401.214286828
402.095729899
401.25067668
400.809955144
400.805911827
402.095729899
401.214286828
401.214286828
401.230460095
401.655008364
402.111903167
401.194070244
402.095729899
402.095729899
401.655008364
401.177896976
402.111903167
402.095729899
401.230460095
400.78973856
400.773565292
401.671181631
400.753348708
401.214286828
400.805911827
401.230460095
401.230460095
401.214286828
400.78973856
400.773565292
401.703528166
400.78973856
400.773565292
401.230460095
400.773565292
400.349017024
401.230460095
401.246633363
400.78973856
401.230460095
400.78973856
400.349017024
400.78973856
401.25067668
402.164466286
401.230460095

Average distance is : 401.320 cm
Average deviation is : 0.610 cm