
Block: 1
======================================
403.486630893
401.756091285
401.756091285
402.19681282
400.890821481
402.19681282
400.890821481
401.756091285
400.433926678
400.874648213

Block: 2
======================================
403.907135844
401.776307869
402.605187821
401.299196482
401.72374475
402.180639553
402.621361089
402.180639553
403.078255892
403.486630893

Block: 3
======================================
401.772264552
401.739918017
402.229159355
403.50280416
401.792481136
401.772264552
402.265549207
401.772264552
401.335586333
401.792481136

Block: 4
======================================
400.890821481
401.772264552
401.788437819
401.351759601
400.906994748
400.906994748
403.062082624
402.653707623
402.233202672
401.351759601

Block: 5
======================================
402.217029405
401.400279403
402.621361089
403.523020744
401.384106135
401.788437819
403.50280416
401.384106135
400.906994748
401.367932868

Block: 6
======================================
403.959698963
401.384106135
401.824827671
402.229159355
401.808654404
401.400279403
401.808654404
401.820784354
401.400279403
402.265549207

Block: 7
======================================
402.229159355
401.808654404
402.690097475
401.41645267
401.41645267
401.400279403
401.41645267
401.367932868
401.841000938
402.265549207

Block: 8
======================================
401.384106135
401.436669254
400.939341283
402.706270742
400.979774451
401.804611087
401.841000938
400.975731134
402.686054158
401.41645267

Block: 9
======================================
400.927211332
401.384106135
400.959557867
400.9433846
400.959557867
400.975731134
401.420495987
401.432625937
400.975731134
400.991904402

Block: 10
======================================
401.420495987
400.959557867
400.975731134
400.975731134
401.841000938
402.265549207
403.126775694
401.41645267
402.249375939
402.669880891
