
Block: 1
======================================
100.796922445
101.717913747
100.834092498
100.416961908
100.450001955
100.433481932
101.304913163
100.817572474
101.6848737
101.214053035
100.834092498
100.416961908
101.701393723
100.850612521
100.433481932
100.437611938
101.247093081
101.717913747
101.738563776
100.470651984
100.834092498
101.6848737
100.801052451
100.834092498
100.421091914
101.284263134
100.433481932
100.416961908
100.850612521
100.437611938
100.817572474
100.416961908
101.701393723
101.247093081
100.854742527
100.437611938
100.834092498
101.664223671
100.421091914
101.6848737
100.416961908
100.796922445
100.817572474
100.834092498
101.717913747
101.6848737
100.433481932
101.284263134
100.421091914
100.454131961
101.214053035
101.6848737
100.416961908
100.867132545
100.416961908
100.437611938
100.400441885
101.234703064
100.817572474
101.267743111
100.470651984
101.300783157
100.400441885
100.433481932
100.433481932
100.817572474
101.321433187
100.433481932
100.850612521
101.701393723
100.433481932
100.714322329
101.701393723
100.383921862
100.020481348

Average distance is : 100.888 cm
Average deviation is : 0.490 cm
Block: 2
======================================
100.817572474
100.437611938
100.416961908
100.813442469
100.850612521
100.817572474
100.421091914
100.433481932
100.850612521
100.416961908
100.730842352
101.701393723
100.834092498
100.838222504
101.713783741
100.421091914
101.717913747
100.834092498
100.801052451
101.251223087
100.817572474
100.454131961
100.450001955
100.817572474
100.421091914
100.437611938
101.267743111
100.867132545
100.834092498
100.400441885
100.817572474
100.400441885
101.701393723
100.400441885
100.850612521
101.697263718
100.421091914
101.73443377
100.854742527
100.834092498
101.247093081
100.867132545
100.850612521
100.416961908
101.267743111
100.433481932
100.817572474
100.850612521
100.87126255
100.404571891
100.421091914
100.450001955
101.701393723
101.717913747
100.454131961
100.400441885
100.867132545
100.817572474
100.817572474
100.437611938
100.834092498
101.680743694
101.267743111
100.454131961
100.854742527
101.267743111
100.834092498
100.834092498
101.304913163
100.817572474
100.801052451
100.834092498
101.251223087
100.834092498
100.850612521

Average distance is : 100.859 cm
Average deviation is : 0.405 cm
Block: 3
======================================
100.796922445
100.817572474
100.780402422
100.867132545
100.433481932
100.867132545
100.400441885
101.234703064
100.850612521
100.867132545
100.454131961
100.433481932
100.437611938
100.433481932
100.834092498
100.470651984
100.400441885
100.834092498
100.437611938
100.421091914
100.416961908
100.416961908
100.421091914
100.850612521
101.680743694
100.834092498
100.400441885
100.450001955
100.850612521
100.834092498
100.834092498
101.251223087
100.817572474
100.433481932
101.300783157
100.850612521
100.421091914
100.834092498
101.234703064
100.383921862
100.834092498
100.817572474
100.850612521
100.450001955
100.834092498
100.470651984
100.838222504
100.454131961
101.230573058
101.680743694
100.854742527
100.487172008
100.400441885
101.717913747
101.38751328
100.867132545
100.780402422
100.838222504
100.416961908
100.817572474
100.796922445
100.817572474
100.454131961
100.834092498
100.437611938
100.454131961
100.454131961
100.416961908
100.454131961
100.416961908
101.247093081
101.701393723
101.701393723
100.87126255
100.400441885

Average distance is : 100.761 cm
Average deviation is : 0.365 cm
Block: 4
======================================
100.421091914
101.680743694
100.433481932
100.437611938
101.717913747
100.817572474
100.400441885
100.813442469
100.817572474
100.801052451
100.817572474
100.383921862
100.834092498
100.404571891
100.838222504
100.400441885
101.717913747
100.433481932
100.437611938
100.834092498
100.817572474
100.834092498
100.454131961
101.697263718
101.680743694
100.416961908
100.400441885
100.801052451
101.701393723
100.400441885
100.801052451
100.834092498
100.834092498
100.470651984
100.854742527
100.817572474
100.437611938
100.817572474
100.817572474
100.817572474
100.400441885
100.437611938
100.437611938
100.850612521
100.416961908
100.454131961
100.834092498
100.817572474
100.834092498
100.796922445
101.701393723
100.416961908
100.400441885
100.801052451
100.400441885
100.813442469
100.817572474
100.433481932
100.421091914
101.717913747
100.850612521
100.817572474
100.400441885
100.400441885
100.834092498
100.454131961
100.416961908
100.383921862
100.400441885
100.850612521
100.834092498
100.383921862
100.454131961
100.834092498
100.416961908

Average distance is : 100.734 cm
Average deviation is : 0.388 cm
Block: 5
======================================
100.834092498
100.796922445
101.284263134
101.300783157
100.433481932
100.454131961
100.421091914
100.400441885
100.454131961
101.300783157
101.284263134
100.454131961
101.304913163
101.300783157
100.834092498
100.400441885
100.834092498
100.850612521
100.817572474
100.404571891
101.717913747
101.300783157
101.317303181
100.416961908
100.454131961
101.717913747
100.834092498
101.6848737
100.850612521
100.801052451
100.850612521
101.234703064
101.267743111
100.834092498
100.437611938
100.834092498
101.251223087
100.817572474
101.28839314
101.300783157
100.421091914
100.850612521
100.416961908
101.267743111
101.218183041
101.284263134
101.230573058
100.437611938
100.416961908
100.433481932
101.218183041
101.267743111
100.400441885
100.454131961
100.437611938
101.267743111
100.834092498
101.267743111
101.6848737
100.433481932
100.454131961
100.817572474
100.834092498
100.887782574
100.416961908
101.6848737
100.416961908
100.850612521
101.267743111
100.470651984
101.218183041
100.433481932
100.834092498
100.421091914
100.813442469

Average distance is : 100.886 cm
Average deviation is : 0.406 cm
Block: 6
======================================
100.454131961
100.383921862
101.668353677
100.470651984
100.834092498
100.437611938
101.251223087
100.834092498
100.454131961
100.421091914
100.421091914
100.854742527
101.717913747
100.817572474
100.416961908
100.834092498
100.470651984
100.850612521
100.87126255
101.717913747
100.454131961
100.437611938
100.433481932
100.454131961
101.717913747
100.433481932
101.267743111
100.470651984
100.400441885
101.251223087
100.433481932
100.437611938
100.433481932
100.817572474
101.230573058
101.668353677
101.701393723
100.450001955
100.834092498
100.834092498
100.850612521
100.433481932
101.284263134
100.421091914
100.854742527
100.437611938
100.416961908
100.421091914
101.717913747
100.817572474
100.834092498
101.701393723
100.834092498
101.247093081
100.817572474
100.454131961
100.813442469
100.454131961
100.801052451
101.267743111
100.416961908
100.801052451
100.454131961
100.433481932
100.437611938
100.454131961
101.234703064
100.433481932
100.416961908
100.854742527
100.437611938
100.416961908
101.300783157
100.416961908
100.433481932

Average distance is : 100.776 cm
Average deviation is : 0.426 cm
Block: 7
======================================
100.813442469
100.454131961
100.454131961
100.834092498
100.416961908
100.400441885
100.854742527
100.834092498
100.421091914
101.300783157
100.433481932
101.717913747
100.817572474
101.6848737
101.247093081
100.817572474
100.817572474
101.28839314
100.834092498
100.437611938
100.470651984
100.437611938
100.854742527
100.454131961
100.817572474
100.817572474
100.850612521
100.416961908
101.701393723
100.834092498
100.437611938
100.834092498
100.433481932
101.300783157
100.437611938
100.437611938
100.850612521
100.433481932
101.284263134
101.267743111
100.834092498
100.87126255
100.433481932
100.834092498
100.404571891
100.437611938
100.437611938
100.817572474
101.701393723
100.416961908
100.834092498
101.6848737
100.450001955
100.796922445
100.850612521
100.834092498
100.433481932
100.416961908
100.834092498
100.421091914
100.817572474
100.437611938
100.433481932
100.454131961
100.416961908
100.454131961
100.450001955
100.400441885
100.854742527
100.400441885
100.834092498
100.437611938
100.416961908
101.230573058
101.73443377

Average distance is : 100.757 cm
Average deviation is : 0.388 cm
Block: 8
======================================
100.796922445
100.850612521
100.817572474
101.230573058
100.400441885
100.416961908
100.87126255
101.300783157
100.416961908
100.454131961
101.717913747
101.304913163
100.796922445
100.454131961
100.850612521
101.284263134
101.267743111
100.904302597
100.416961908
100.437611938
101.6848737
100.437611938
100.421091914
100.780402422
100.416961908
101.267743111
100.454131961
101.304913163
100.834092498
101.697263718
100.416961908
100.437611938
101.267743111
100.817572474
100.421091914
101.197533011
100.437611938
100.437611938
101.284263134
100.834092498
100.450001955
101.701393723
100.817572474
100.817572474
100.854742527
100.421091914
101.717913747
100.850612521
100.801052451
100.813442469
100.834092498
100.817572474
100.850612521
100.437611938
101.267743111
100.416961908
101.263613105
100.780402422
100.854742527
100.437611938
100.850612521
100.784532428
100.834092498
101.251223087
100.834092498
101.701393723
100.817572474
100.400441885
101.701393723
100.404571891
100.834092498
100.433481932
100.383921862
101.300783157
100.421091914

Average distance is : 100.853 cm
Average deviation is : 0.408 cm
Block: 9
======================================
100.817572474
100.400441885
100.850612521
100.834092498
100.421091914
100.817572474
100.817572474
100.838222504
100.437611938
100.416961908
100.433481932
100.854742527
101.668353677
100.87126255
101.230573058
100.416961908
101.717913747
100.450001955
101.267743111
100.433481932
100.404571891
101.304913163
100.817572474
101.701393723
100.433481932
100.817572474
100.416961908
100.450001955
100.437611938
100.416961908
100.437611938
101.300783157
100.454131961
100.437611938
100.850612521
100.437611938
100.383921862
100.813442469
100.416961908
100.834092498
100.801052451
101.284263134
100.350881815
100.416961908
100.470651984
100.450001955
100.801052451
100.817572474
100.421091914
100.437611938
100.437611938
100.433481932
100.421091914
100.400441885
100.416961908
100.454131961
100.834092498
100.887782574
100.433481932
100.850612521
100.780402422
100.416961908
101.234703064
100.437611938
100.400441885
100.834092498
100.454131961
100.437611938
100.421091914
100.416961908
100.421091914
100.400441885
100.813442469
100.454131961
100.454131961

Average distance is : 100.663 cm
Average deviation is : 0.339 cm
Block: 10
======================================
100.850612521
100.850612521
101.284263134
101.284263134
100.437611938
100.817572474
101.284263134
100.437611938
100.470651984
100.433481932
100.454131961
100.834092498
100.834092498
101.73443377
101.284263134
101.717913747
100.817572474
100.416961908
100.421091914
100.454131961
100.404571891
100.454131961
100.867132545
101.73443377
100.450001955
101.267743111
100.454131961
100.454131961
100.834092498
100.383921862
100.660632253
100.850612521
100.433481932
100.437611938
100.437611938
100.416961908
100.850612521
100.817572474
100.801052451
101.717913747
100.834092498
100.454131961
100.834092498
100.404571891
101.701393723
100.400441885
100.834092498
100.416961908
101.214053035
100.801052451
100.437611938
100.433481932
100.813442469
100.450001955
100.834092498
100.416961908
100.834092498
101.267743111
100.454131961
100.817572474
100.834092498
100.817572474
100.433481932
101.6848737
100.416961908
100.437611938
100.834092498
100.421091914
101.701393723
101.284263134
100.421091914
100.801052451
100.437611938
100.383921862
100.437611938

Average distance is : 100.771 cm
Average deviation is : 0.409 cm
Average distance for 10x75 is : 100.795 cm
Average deviation for 10x75 is : 0.402 cm
 Percentage of values that failed: 0.000