
Block: 1
======================================
400.975731134
400.9433846
401.452842522
400.9433846
402.249375939

Block: 2
======================================
401.367932868
403.114645743
401.808654404
401.808654404
403.130819011

Block: 3
======================================
401.824827671
401.788437819
401.347716284
401.841000938
401.400279403

Block: 4
======================================
401.436669254
400.959557867
401.028294253
400.991904402
401.432625937

Block: 5
======================================
400.991904402
400.975731134
401.008077669
401.893564057
401.469015789

Block: 6
======================================
401.873347473
401.469015789
401.893564057
401.448799205
401.008077669

Block: 7
======================================
401.533708858
401.994646978
401.553925443
401.485189056
401.553925443

Block: 8
======================================
401.469015789
401.501362324
401.464972472
401.028294253
401.028294253

Block: 9
======================================
401.521578908
401.024250937
401.145550442
401.076814055
401.092987323

Block: 10
======================================
401.076814055
401.57009871
400.656309104
400.63609252
401.113203907
