
Block: 1
======================================
200.312165976
79.4936733484
199.119007516
80.8089982033
197.872910285
81.6438019037
197.066612077
82.4948944569
196.199230671
83.3337703705

Average distance is : 139.835 cm
Average deviation is : 61.450 cm
Block: 2
======================================
200.263299417
76.8589514256
200.434332371
77.0503454447
199.941594577
77.9503045559
199.086429811
80.3936324596
198.691425133
81.2691582918

Average distance is : 139.194 cm
Average deviation is : 63.778 cm
Block: 3
======================================
200.316238189
79.013152194
199.974172282
79.5588287592
158.641208577
120.052916551
158.197337341
120.928442383
157.325883722
121.641079688

Average distance is : 139.565 cm
Average deviation is : 43.054 cm
Block: 4
======================================
200.316238189
76.2481194496
199.359268093
77.6978273392
198.455236769
78.5163421869
196.797846007
80.0352777004
198.622197509
80.9270923853

Average distance is : 138.698 cm
Average deviation is : 63.277 cm
Block: 5
======================================
200.27958827
79.082379818
199.102718663
80.3977046728
198.247553897
81.297663784
156.491080022
122.19490068
156.059425426
122.190828466

Average distance is : 139.534 cm
Average deviation is : 49.878 cm
Block: 6
======================================
200.263299417
75.9549201012
200.727531719
76.7082795382
199.461073422
77.7629827499
199.273751616
77.7670549631
199.461073422
79.1678962946

Average distance is : 138.655 cm
Average deviation is : 64.499 cm
Block: 7
======================================
200.299949336
79.082379818
199.119007516
79.9660500765
198.267914963
80.3814158201
197.376100278
81.745607233
196.915940189
82.169117403

Average distance is : 139.532 cm
Average deviation is : 62.060 cm
Block: 8
======================================
200.332527041
75.9549201012
199.754272771
76.3825024843
199.34297924
77.1684396267
199.155657434
76.398791337
199.803139329
79.2493405581

Average distance is : 138.354 cm
Average deviation is : 64.647 cm
Block: 9
======================================
200.27958827
78.7240250587
199.461073422
80.002699995
198.642558575
80.4139935255
197.771104956
81.745607233
196.419130182
82.7677327394

Average distance is : 139.623 cm
Average deviation is : 62.094 cm
Block: 10
======================================
200.332527041
76.8630236387
199.208596206
78.2272150517
198.711786199
79.4733122826
197.90548799
79.9864111423
197.429039049
80.7886371374

Average distance is : 138.893 cm
Average deviation is : 63.074 cm