
Block: 1
======================================
200.332527041
76.7245683908
199.440712357
77.9503045559
198.247553897
79.1475352287
197.465688968
80.2429605722
197.99507668
80.874153614
158.620847511
119.629406381
157.325883722
120.928442383
156.898301339
121.351952553
156.523657727
121.710307312
156.523657727
121.339735913
156.914590192
121.767318296
156.507368875
122.207117319
156.043136573
122.61841085
155.599265337
123.094859791
154.695234013
123.970385623
154.316518188
124.345029235
153.941874576
124.719672847
152.695777345
126.018708849
152.235617256
126.462580085
152.288556027
126.393352461
151.482257819
127.211867309
151.091325355
127.586510921
150.716681743
127.146711898
151.107614207
127.17521739
151.465968966
127.163000751

Average distance is : 139.165 cm
Average deviation is : 30.378 cm
Block: 2
======================================
199.852005887
79.1149575233
199.102718663
80.4465712309
198.707713985
80.4139935255
198.280131602
81.2854471445
197.001456666
82.5315443754
196.13407526
82.9713433981
195.274838281
84.2907404661
193.552292109
85.5897764683
192.375422502
85.2965771198
191.703507328
86.2006084442
190.424832392
87.4304168224
189.553378773
89.4828122616
189.227601719
89.4665234089
189.231673932
90.3013271093
188.34393146
91.2053584337
187.488766694
91.6329408169
186.617313075
92.5410443544
186.173441839
92.9156879663
186.157152987
92.9482656717
185.334565926
93.3595592022
185.354926991
93.803430438
184.89069469
94.2798793793
183.559080982
95.5789153814
183.115209746
95.5952042341
182.655049658
96.4829467058

Average distance is : 139.506 cm
Average deviation is : 51.698 cm
Block: 3
======================================
200.267371631
77.3354003668
199.033491039
79.0783076048
198.198687339
80.002699995
197.376100278
80.4139935255
197.034034371
81.5419965744
195.824587059
83.2645427465
194.969422293
83.6921251297
194.558128762
84.4943511248
193.75997498
85.300649333
192.933315706
85.654931879
192.16773963
86.4938077927
191.332935929
87.3286114931
190.526637721
88.1674874067
190.066477633
88.1837762594
190.05018878
88.5787809372
189.655184102
89.2792016029
188.975124502
89.6701340675
188.543469906
90.1506552219
188.119959736
90.5741653919
186.820923734
91.8732013941
185.953542328
92.2844949245
185.986120033
93.119298625
185.130955267
93.5468810081
184.279862714
93.9744633913
184.275790501
93.9418856859

Average distance is : 139.276 cm
Average deviation is : 52.907 cm
Block: 4
======================================
199.839789248
79.082379818
198.166109633
80.5157988548
197.718166184
81.3709636211
195.991547799
82.6496385574
195.600615335
83.0935097933
195.173032951
83.9323857069
194.354518104
84.2907404661
193.51564219
84.7183228493
193.601158667
85.0440999031
192.460938978
84.8893558025
192.135161924
84.8893558025
191.670929623
85.300649333
191.259636092
87.7561938763
190.001322222
88.643936348
188.738936138
89.9796222687
187.830832601
90.8836535931
187.403250217
91.2257194996
187.028606606
92.0768120527
186.157152987
92.5206832886
185.253121662
93.424714613
184.821467066
93.3799202681
184.393884683
94.2676627398
184.007024431
94.2310128212
183.60794754
94.5893675804
182.789432693
95.920981288

Average distance is : 139.244 cm
Average deviation is : 52.059 cm
Block: 5
======================================
200.316238189
76.7571460962
200.194071794
77.5227221727
199.428495717
77.9706656218
198.589619803
79.0457298994
199.167874074
79.4407345772
199.151585221
79.4936733484
198.707713985
80.6542541027
197.600072002
81.4890578032
196.353974771
82.2424172401
195.995620012
83.1138708591
195.107877541
83.5373810291
194.680295157
84.4251235008
193.808841538
84.852705884
193.381259155
85.724159503
192.542383242
86.5100966454
191.658712983
87.3978391171
190.783187151
87.3978391171
159.49230113
119.083729815
158.673786283
119.527601051
158.213626194
120.020338845
157.716816187
120.484571147
156.934951258
121.730668378
156.454430103
122.207117319
156.043136573
122.121600842
155.668492961
122.10531199

Average distance is : 139.230 cm
Average deviation is : 48.736 cm
Block: 6
======================================
200.267371631
78.6018586636
199.119007516
79.9864111423
197.771104956
80.3936324596
197.787393808
80.8212148428
197.376100278
81.3017359972
196.504646659
82.1569007635
195.63319304
83.4029979944
194.798389339
83.3867091417
194.594778681
82.6496385574
193.446414566
83.9283134937
191.520257735
85.4838989258
190.665092969
87.6869662523
190.070549846
88.5421310186
189.675545168
88.9860022545
188.787802696
89.8411670208
187.93263793
90.7289094925
186.633601928
92.0605232
186.140864134
92.5043944359
185.692920685
92.4881055832
185.729570603
92.4718167305
185.338638139
92.8953269005
184.911055756
93.2903315783
184.499762225
94.1617851973
184.019241071
95.0169499636
182.756854987
95.4608211994

Average distance is : 139.198 cm
Average deviation is : 52.471 cm
Block: 7
======================================
200.332527041
76.5005966663
198.593692017
78.7240250587
197.392389131
79.0660909653
197.001456666
80.3610547543
198.26384275
81.1999306679
159.052502108
119.918533516
158.262492752
120.346115899
158.246203899
120.75740943
157.838982582
120.75740943
157.391039133
121.661440754
156.947167897
121.68180182
156.96345675
121.645151901
156.983817816
122.072734284
156.572524285
122.089023137
156.53994658
122.072734284
156.53994658
122.479955602
156.609174204
122.447377896
156.197880673
122.410727978
156.161230755
122.036084366
156.609174204
122.019795513
157.000106668
121.16870296
157.427689052
121.201280665
157.411400199
121.254219437
157.342172575
121.303085995
156.914590192
121.299013782

Average distance is : 139.221 cm
Average deviation is : 31.370 cm
Block: 8
======================================
200.283660483
79.4733122826
198.642558575
81.2528694391
196.419130182
82.49896667
196.541296577
82.4460278988
196.610524201
82.8369603634
195.804225993
83.6432585716
194.167196298
85.3332270384
192.42428906
87.467066741
191.349224782
86.3920024633
190.958292317
86.8684514046
190.070549846
88.1674874067
189.247962785
90.2198828459
188.852958107
90.1832329273
188.873319173
90.1669440746
188.018154407
91.4456190109
187.610933089
91.8202626228
186.820923734
92.6591385365
185.969831181
93.4939422369
185.542248797
92.4392390251
186.601024222
92.8464603424
186.189730692
92.8505325556
185.778437161
93.685336256
184.499762225
94.5364288092
184.072179842
94.9477223396
183.69753623
95.3590158701

Average distance is : 139.562 cm
Average deviation is : 51.379 cm
Block: 9
======================================
200.267371631
78.0765431643
198.760652757
80.3284770489
197.086973143
81.9695789576
195.840875912
82.3442225695
196.182941818
84.9911611319
194.883905816
85.0074499846
194.492973351
85.8259648323
193.621519732
86.2535472155
192.766354966
87.0924231291
192.355061436
87.5159332991
191.471391177
88.904557991
190.033899927
89.7923004627
189.655184102
90.6637540817
188.360220313
91.9750067234
187.900060225
92.4025891066
187.028606606
92.8505325556
186.633601928
93.2740427256
186.124575281
94.1617851973
184.821467066
95.4445323467
184.414245749
95.8884035826
183.510214424
96.6906295776
182.77314384
97.2200172901
182.247828341
97.9041491032
181.527046609
98.2950815678
181.136114144
99.1991128922

Average distance is : 139.959 cm
Average deviation is : 50.638 cm
Block: 10
======================================
200.263299417
79.4203735113
199.481434488
80.8049259901
198.178326273
81.6763796091
196.915940189
82.4826778173
196.964806747
83.3337703705
195.706492877
84.1685740709
194.44003458
85.4350323677
193.124709725
86.7340683699
191.622063065
86.4245801687
191.328863716
87.3652614117
189.53708992
88.6276474953
188.649347448
90.3216881752
188.649347448
91.2216472864
187.814543748
92.0645954132
186.991956687
92.4881055832
186.07163651
93.3962091208
185.644054127
93.7871415854
185.179821825
94.6952451229
184.243212795
94.9314334869
183.783052707
96.0920142412
182.484016705
97.0326954842
182.019784403
96.9838289261
181.184980702
97.8186326265
181.217558408
98.2136373043
180.806264877
98.1932762384

Average distance is : 139.720 cm
Average deviation is : 50.438 cm