
Block: 1
======================================
199.839789248
76.398791337
201.187691808
76.6879184723
199.477362275

Average distance is : 150.718 cm
Average deviation is : 67.715 cm
Block: 2
======================================
200.283660483
77.8525714397
199.135296369
79.1475352287
198.316781521

Average distance is : 150.947 cm
Average deviation is : 66.140 cm
Block: 3
======================================
199.888655806
79.4896011353
198.93168571
80.1574440956
198.573330951

Average distance is : 151.408 cm
Average deviation is : 65.350 cm
Block: 4
======================================
200.365104747
76.3825024843
200.247010565
77.575660944
198.609980869

Average distance is : 150.636 cm
Average deviation is : 67.244 cm
Block: 5
======================================
200.316238189
79.318568182
199.750200558
80.2266717196
198.899108005

Average distance is : 151.702 cm
Average deviation is : 65.665 cm
Block: 6
======================================
200.283660483
76.5046688795
199.59952867
77.8484992266
198.349359226

Average distance is : 150.517 cm
Average deviation is : 66.956 cm
Block: 7
======================================
200.263299417
79.131246376
199.119007516
80.8212148428
197.824043727

Average distance is : 151.432 cm
Average deviation is : 65.238 cm
Block: 8
======================================
200.247010565
76.7571460962
199.359268093
78.0724709511
198.524464393

Average distance is : 150.592 cm
Average deviation is : 66.806 cm
Block: 9
======================================
200.348815894
79.9008946657
199.139368582
80.4099213123
198.711786199

Average distance is : 151.702 cm
Average deviation is : 65.316 cm
Block: 10
======================================
200.348815894
77.2539561033
199.34297924
78.1254097223
198.471525621

Average distance is : 150.709 cm
Average deviation is : 66.661 cm