
Block: 1
======================================
200.263299417
77.4901444674
199.359268093
77.9014379978
199.000913334
78.6710862875
198.247553897
81.1144141912
197.90548799
81.9695789576
196.643101907
83.2116039753
195.397004676
84.0667687416
194.114257526
84.8893558025
193.702963996
85.724159503
192.884449148
86.5793242693
192.440577912
86.9906177998
191.552835441
87.9109379768
190.221221733
89.1936851263
189.809928203
89.6049786568
188.954763436
90.4560712099
187.281083822
91.7184572935
187.25257833
92.2152673006
185.933181262
93.5509532213
185.420082402
93.5957475662
185.354926991
94.0436910152
184.976211166
94.4712733984
184.46718452
94.4712733984
184.516051078
94.4834900379
184.088468695
95.3060770988
183.681247377
95.7865982533
182.809793758
96.5847520351
182.158239651
97.1996562243
182.227467275
97.2200172901
181.799884892
98.0751820564
180.961008978
98.0385321379
180.537498808
98.8774080515
180.126205277
99.7651505232
179.287329364
100.567376518
178.880108047
100.978670049
177.976076722
101.829762602
177.585144258
101.817545962
177.19013958
102.63606081
176.351263666
103.503442216
175.532748818
103.450503445
175.976620054
103.438286805
175.565326524
103.845508122
175.549037671
103.845508122
175.58568759
103.82921927
175.137744141
104.273090506
174.763100529
104.615156412
174.799750447
104.631445265
174.763100529
104.220151734
174.355879211
104.615156412
174.40474577
104.973511171
174.013813305
105.401093554

Average distance is : 139.655 cm
Average deviation is : 45.538 cm
Block: 2
======================================
200.263299417
79.3715069532
200.348815894
79.884605813
199.086429811
80.756059432
198.231265044
81.6071519852
197.380172491
82.4948944569
196.081136489
83.5048033237
193.739613914
84.4454845667
192.42428906
85.7770982742
191.569124293
86.6159741879
192.306194878
87.5200055122
191.056025434
87.9272268295
191.108964205
88.7172361851
190.270088291
89.3117793083
189.675545168
89.7190006256
188.836669254
91.0221088409
188.034443259
91.8039737701
186.755768323
92.6632107496
186.307824874
93.0867209196
185.851736999
93.5509532213
184.992500019
94.862205863
183.681247377
96.1775307178
183.269953847
96.1612418652
183.269953847
96.605113101
182.842371464
96.5358854771
182.842371464
96.5888242483
182.842371464
96.9797567129
182.431077933
97.3910502434
181.136114144
98.2787927151
180.244299459
99.6104064226
179.393206906
99.5411787987
179.869655848
99.972833395
179.495012236
99.9036057711
179.189596248
98.7226639509
179.495012236
99.8832447052
179.478723383
99.8506669998
179.527589941
99.8710280657
179.576456499
100.347477007
177.923137951
102.375439167
177.084262037
102.497605562
176.93359015
101.609863091
177.800971556
101.182280707
138.312720418
140.996308899
138.41859796
140.552437663
138.874685836
139.680984044
139.322629285
140.092277575
139.306340432
139.269690514
140.161505198
138.809530425
140.141144133
139.273762727
140.157432985
139.151596332
139.803150439
139.680984044

Average distance is : 139.694 cm
Average deviation is : 42.733 cm
Block: 3
======================================
199.803139329
77.6815384865
198.744363904
78.5326310396
197.49419446
80.1940940142
198.349359226
81.4890578032
197.07068429
82.7880938053
196.199230671
84.1197075129
194.44003458
85.4350323677
193.145070791
86.2576194286
191.858251429
87.9760933876
190.616226411
88.8190415144
189.724411726
90.1465830088
188.873319173
90.5578765392
188.462025642
90.952881217
188.034443259
91.4130413055
186.73947947
92.7080050945
185.831375933
93.1396596909
185.880242491
93.9948244572
185.012861085
93.9418856859
185.04543879
94.4183346272
184.617856407
95.2368494749
183.339181471
96.1245919466
182.895310235
96.5521743298
182.040145469
97.4236279488
181.57998538
97.1182119608
181.050597668
98.3805980444
180.65559299
98.7389528036
180.260588312
99.1706073999
178.965624523
100.432993484
178.110459757
101.304447103
177.259367204
101.695379567
176.436780143
102.139250803
176.436780143
102.12296195
176.880651379
102.139250803
176.469357848
102.053734326
176.558946538
101.609863091
176.538585472
102.412089086
175.736359477
103.267253852
175.325065947
103.576742053
174.539128804
104.000252223
174.543201017
104.411545753
174.575778723
104.839128137
173.704325104
105.26671052
173.671747398
105.470321178
172.340133691
106.223680615
171.945129013
106.989256692
172.014356637
106.989256692
171.586774254
107.416839075
171.570485401
107.363900304
171.175480723
107.139928579
171.395380235
107.192867351

Average distance is : 139.549 cm
Average deviation is : 43.808 cm
Block: 4
======================================
200.247010565
79.4529512167
198.622197509
80.7723482847
197.771104956
81.5745742798
196.985167813
81.9492178917
196.215519524
82.5315443754
193.86178031
83.8305803776
193.039193249
84.7509005547
191.691290689
85.606065321
191.072314286
87.8091326475
189.879155827
89.0715187311
188.649347448
90.317615962
187.761604977
91.2216472864
186.926801276
92.0442343473
186.051275444
92.9523378849
185.14724412
93.4124979734
184.666722965
93.872658062
184.259501648
94.2635905266
183.424697948
95.5789153814
182.602110887
96.3648525238
181.767307186
96.8087237597
181.372302508
96.7761460543
181.392663574
97.6272386074
179.682334042
98.8774080515
179.275112724
99.3212792873
178.383298039
100.636604142
176.640390801
101.951928997
175.773009396
102.839671469
174.490262246
104.069479847
174.04639101
104.016541076
174.115618634
104.513351083
173.671747398
104.904283547
173.244165015
104.892066908
173.260453868
105.299288225
173.297103786
105.295216012
173.309320426
105.282999372
172.869521403
105.673931837
172.063223195
106.10151422
171.656001878
106.920029068
170.784548259
107.315033746
169.961961198
108.614069748
169.571028733
108.561130977
168.683286262
109.465162301
168.239415026
109.909033537
167.367961407
110.800848222
159.887305808
117.805054879
159.476012278
119.116307521
157.73310504
120.431632376
156.421852398
122.154178548
155.973908949
123.164087415
155.037299919
123.111148643

Average distance is : 139.280 cm
Average deviation is : 40.986 cm
Block: 5
======================================
200.230721712
76.7245683908
199.241173911
77.575660944
198.471525621
78.8258303881
196.728618383
200.263299417
79.3348570347
199.171946287
80.2063106537
156.877940273
121.237930584
156.934951258
121.661440754
156.487007809
122.10531199
156.02684772
122.976765609
155.582976484
122.976765609
155.139105248
123.848219228
154.727811718
123.404347992
155.175755167
123.351409221
154.320590401
124.703383994
153.872646952
124.735961699
154.283940482
123.848219228
153.840069246
125.14725523
153.416559076
125.159471869
153.021554399
125.554476547
153.001193333
125.094316459
153.481714487
124.613795304
153.962235641
124.613795304
153.550942111
125.05766654
153.534653258
125.05766654
153.502075553
125.05766654
153.107070875
125.041377687
153.534653258
125.078027606
153.530581045
125.025088835
153.123359728
125.40380466
152.30484488
125.880253601
152.30484488
125.863964748
152.712066197
125.452671218
152.748716116
125.399732447
151.486330032
127.073412061
151.091325355
126.617324185
151.482257819
126.23860836
151.877262497
126.275258279
151.417102408
127.142639685
151.005808878
127.586510921
150.561937642
128.030382156
150.508998871
128.067032075
150.101777554
128.014093304
149.739350581
128.425386834
149.295479345
129.296840453
148.83939147
129.740711689
147.91499908
130.665104079
147.519994402
131.003097773
146.685190701
131.414391303
146.766634965
131.365524745
146.803284883

Average distance is : 139.843 cm
Average deviation is : 23.786 cm
Block: 6
======================================
200.283660483
79.0294410467
199.530301046
79.884605813
198.691425133
80.7031206608
197.429039049
81.9655067444
196.573874283
82.8573214293
195.686131811
83.0446432352
193.377186942
84.3558958769
192.546455455
85.1621940851
191.707579541
86.0336477041
191.638351917
87.3449003458
190.803548217
88.1837762594
190.408543539
88.6317197084
189.997250009
89.022652173
188.665636301
90.3379770279
187.354383659
91.6655185223
186.531796598
92.4881055832
185.249049449
93.75456388
184.809250426
93.7708527327
184.809250426
93.7830693722
183.493925571
95.0658165216
183.510214424
95.4771100521
183.082632041
95.4933989048
182.655049658
95.8884035826
182.691699576
95.8680425167
182.247828341
96.7965071201
181.763234973
97.1996562243
181.32343595
98.0588932037
180.859203649
97.6842495918
180.842914796
97.8145604134
180.777759385
98.1932762384
179.955172324
98.6371474743
179.458362317
99.1339574814
179.442073464
99.1665351868
178.53804214
100.001338887
178.574692059
100.090927577
178.468814516
100.978670049
177.173850727
101.284086037
177.275656056
101.475480056
176.672968507
101.886773586
176.640390801
102.37951138
175.785226035
103.198026228
174.510623312
104.460412312
173.655458546
104.786189365
173.806130433
104.309740424
173.415197968
105.144544125
172.60889976
105.999708891
172.612971973
105.979347825
172.169100738
106.406930208
172.18538959
106.801934886
171.297647119
107.315033746

Average distance is : 139.386 cm
Average deviation is : 44.824 cm
Block: 7
======================================
200.230721712
76.2969860077
199.123079729
77.6448885679
197.90548799
78.4308257103
197.205067325
81.7293183804
195.975258946
82.991704464
195.63319304
83.3500592232
194.334157038
84.2215128422
194.354518104
84.665384078
193.487136698
85.4676100731
192.660477424
86.359424758
191.349224782
86.7666460752
191.434741259
87.585160923
190.530709934
87.585160923
190.579576492
88.4240368366
189.264251637
89.2588405371
188.840741467
89.7393616915
158.571980953
119.539817691
157.256656098
121.319374847
156.368913627
121.799896002
155.652204108
122.052373219
155.668492961
122.496244454
155.61555419
122.549183226
155.582976484
122.532894373
153.65274744
122.532894373
155.069877625
123.078570938
155.021011066
123.045993233
153.465425634
124.617867517
153.518364406
124.153635216
153.941874576
124.190285134
153.925585723
124.169924068
153.567230964
124.581217599
153.583519816
124.173996282
153.65274744
124.186212921
153.840069246
124.259512758
153.449136782
124.687095141
153.017482185
124.666734076
153.49800334
124.613795304
152.659127426
125.456743431
151.396741343
126.360774755
150.834775925
127.281094933
150.834775925
127.297383785
149.963322306
128.168837404
149.51945107
128.645286345
148.664286304
129.463801193
148.680575156
129.89545579
148.700936222
129.484162259
149.091868687
129.504523325
148.696864009
129.504523325
148.647997451
129.056579876
149.51945107
128.18919847

Average distance is : 139.061 cm
Average deviation is : 33.311 cm
Block: 8
======================================
200.263299417
79.4040846586
198.67513628
80.7234817266
197.445327902
81.9532901049
195.739070582
83.6921251297
194.900194669
84.1197075129
193.177648497
85.5001877785
190.905353546
86.3879302502
190.514421082
87.279744935
188.804091549
88.5421310186
187.692377353
91.2420083523
186.462568974
92.9523378849
184.361306977
94.6097286463
183.575369835
95.8558258772
182.312983751
96.723207283
180.981370044
98.0222432852
180.570076513
97.9693045139
180.606726432
98.3805980444
180.248371673
99.1868962526
179.376918054
100.054277658
178.110459757
100.876864719
177.291944909
100.856503654
176.880651379
101.679090714
177.340811467
101.231147265
176.93359015
101.593574238
176.575235391
102.017084408
176.522296619
102.460955644
176.131364155
102.908899093
175.683420706
102.465027857
176.115075302
102.888538027
175.259910536
103.299831557
175.276199389
103.31612041
175.650843
103.609319758
174.55948987
104.460412312
174.115618634
105.315577078
173.276742721
105.726870608
172.405289102
106.598324227
172.03064549
106.972967839
171.656001878
107.347611451
171.67229073
107.28245604
171.244708347
107.266167188
171.704868436
107.331322598
171.570485401
107.021834397
171.586774254
107.416839075
170.715320635
108.646647453
169.469223404
109.070157623
169.892733574
109.110879755
169.416284633
110.014911079
168.56519208
110.438421249
168.544831014
110.833425927
168.153898549
111.277297163

Average distance is : 139.449 cm
Average deviation is : 40.715 cm
Block: 9
======================================
200.283660483
78.5000533342
199.18823514
78.4145368576
198.862458086
79.2859904766
197.58378315
80.5850264788
195.840875912
83.5048033237
194.18348515
85.1988440037
193.723325062
85.1947717905
193.316103745
85.1092553139
193.417909074
85.9481312275
192.644188571
86.3227748394
192.236967254
87.1942284584
190.905353546
88.0493932247
190.526637721
88.904557991
189.622606397
89.7923004627
187.912276864
91.4781967163
187.521344399
91.4822689295
187.537633252
91.4456190109
187.130411935
91.6370130301
187.044895458
92.3496503353
186.617313075
92.8301714897
185.322349286
93.237392807
185.354926991
94.0274021626
184.104757547
95.2897882462
183.2862427
95.7173706293
182.86273253
96.5684631824
181.559624314
97.4236279488
181.16869185
97.4562056541
180.468271184
98.4986922264
179.173307395
99.830305934
178.318142629
100.209021759
178.334431481
100.669181848
177.08833425
102.293994904
176.282036042
102.705288434
174.987072253
104.000252223
174.608356428
104.395256901
174.180774045
104.34231813
174.184846258
104.34231813
174.201135111
104.358606982
174.250001669
103.849580336
174.742739463
104.224223948
173.944585681
104.66402297
173.480353379
105.079388714
173.089420915
105.539548802
172.576322055
105.963058972
172.201678443
106.390641356
171.330224824
107.28245604
171.330224824
107.689677358
170.902642441
108.096898675
170.462843418
108.133548594
170.511709976
108.544842124

Average distance is : 139.445 cm
Average deviation is : 44.496 cm
Block: 10
======================================
200.267371631
80.0393499136
198.899108005
80.7723482847
197.771104956
81.6071519852
197.380172491
82.8532492161
195.739070582
84.1197075129
194.900194669
85.3658047438
193.588942027
86.3920024633
157.700527334
119.56425097
156.914590192
120.806275988
156.02684772
121.213497305
156.181591821
122.805732656
156.128653049
122.858671427
156.128653049
122.431089044
156.96345675
122.019795513
156.523657727
122.052373219
156.967528963
121.575924277
157.391039133
121.559635425
157.37475028
121.641079688
156.894229126
122.072734284
156.507368875
122.500316668
156.059425426
122.463666749
156.523657727
122.040156579
156.930879045
122.019795513
156.535874367
122.467738962
156.112364197
122.431089044
156.53994658
122.431089044
156.075714278
122.891249132
156.112364197
122.874960279
156.079786491
122.891249132
155.240910578
124.137346363
154.406106877
124.548639894
153.990741134
124.548639894
154.454973435
124.80111711
154.1658463
124.768539405
154.198424006
125.196121788
153.363620305
125.656281877
152.492166686
126.458507872
152.064584303
126.922740173
152.015717745
126.971606731
152.080873156
126.902379107
152.080873156
125.623704171
153.840069246
124.719672847
154.267651629
124.735961699
154.283940482
124.719672847
154.695234013
124.31245153
155.053588772
123.970385623
153.738263917
124.788900471
154.658584094
124.735961699
154.267651629
124.719672847
154.283940482
124.255440545

Average distance is : 139.471 cm
Average deviation is : 26.068 cm