
Block: 1
======================================
299.63441081
299.650670767
178.904234838
298.38645916
180.63998518
298.353939247
179.957067013
300.114079523
299.650670767
176.465241385
299.256366825
299.68319068
177.623763275
298.866127872
181.013964176
297.158832455
181.481437922
298.780763102
178.957079697
298.813283014
179.826987362
298.353939247
179.400163507
298.813283014
179.826987362

Block: 2
======================================
298.455563974
179.213174009
297.638501167
178.798545122
298.150689793
299.646605778
177.656283188
298.353939247
181.099328947
297.484031582
181.973301601
298.321419334
178.615620613
298.748243189
178.989599609
297.959635305
179.806662416
297.931180382
179.379838562
298.813283014
179.379838562
297.520616484
179.379838562
298.780763102
178.115626955

Block: 3
======================================
299.63441081
176.534346199
298.780763102
176.400201559
298.882387829
179.229433966
300.077494621
177.676608133
300.061234665
179.826987362
298.337679291
178.957079697
298.764503145
179.843247318
298.731983232
177.69286809
299.223846912
179.347318649
297.959635305
181.066809034
297.53687644
181.440788031
295.386497211
183.196863317
294.126350594

Block: 4
======================================
299.630345821
299.63441081
176.363616657
298.797023058
179.363578606
298.780763102
178.953014708
298.764503145
180.660310125
297.520616484
181.119653893
297.484031582
181.546477747
298.321419334
181.562737703
297.073467684
181.119653893
297.057207727
181.509892845
297.959635305
180.3716959
298.882387829
180.558685398
296.752333546
183.574907303

Block: 5
======================================
299.666930723
176.656295872
299.565305996
176.993689966
298.711658287
180.233486271
297.484031582
181.135913849
295.744216251
182.37980051
294.927153444
182.82694931
297.89459548
181.973301601
298.7441782
181.119653893
296.650708818
183.217188263
295.386497211
182.806624365
297.963700294
180.709089994
298.370199203
180.266006184
297.943375349

Block: 6
======================================
299.207586956
175.274199581
299.54904604
176.075002432
298.7441782
176.757920599
298.797023058
299.614085865
179.855442286
298.358004236
178.1359519
298.321419334
180.286331129
297.467771626
180.266006184
297.467771626
180.302591085
298.268574476
178.595295668
299.142547131
179.448943377
297.451511669
182.331020641
294.553174448
183.627752161

Block: 7
======================================
299.240106869
176.209147072
300.093754578
175.579073763
298.780763102
177.656283188
298.83360796
178.904234838
298.866127872
179.34325366
298.418979073
178.477410984
298.813283014
179.379838562
298.390524149
179.400163507
297.943375349
180.558685398
296.358029604
181.835091972
295.504381895
181.904196787
296.646643829
181.050549078
297.89459548

Block: 8
======================================
299.650670767
178.001807261
297.467771626
177.367668962
297.435251713
178.1359519
298.695398331
179.022119522
298.764503145
180.660310125
297.947440338
179.806662416
298.374264193
179.56682806
300.044974709
178.119691944
298.337679291
180.696895027
297.516551495
179.383903551
298.813283014
179.363578606
298.829542971
182.298500729
296.309249735

Block: 9
======================================
299.618150854
177.948962402
296.805178404
179.058704424
296.630383873
181.477372932
297.53687644
178.867649937
298.882387829
180.115601587
297.195417356
145.571324301
299.240106869
177.233524323
298.760438156
180.266006184
298.370199203
178.953014708
298.83360796
179.826987362
297.959635305
181.103393936
297.520616484
180.266006184
297.927115393

Block: 10
======================================
299.240106869
299.699450636
177.180679464
299.68319068
175.989637661
299.171002054
180.725349951
299.223846912
178.989599609
298.817348003
179.79040246
298.374264193
299.223846912
179.416423464
298.780763102
181.530217791
298.353939247
299.240106869
181.940781689
296.683228731
180.623725224
298.406784105
182.367605543
297.569396353
180.644050169
