
Block: 1
======================================
299.650670767
175.936792803
298.748243189
175.900207901
299.601890898

Average distance is : 249.968 cm
Average deviation is : 67.598 cm
Block: 2
======================================
299.207586956
299.618150854
180.213161325
297.963700294
180.217226315

Average distance is : 251.444 cm
Average deviation is : 65.026 cm
Block: 3
======================================
299.63441081
176.961170053
299.54904604
175.558748817
299.175067043

Average distance is : 250.176 cm
Average deviation is : 67.478 cm
Block: 4
======================================
299.223846912
299.171002054
178.936754751
298.797023058
180.217226315

Average distance is : 251.269 cm
Average deviation is : 65.447 cm
Block: 5
======================================
299.63441081
177.062794781
300.044974709
299.63441081
177.660348177

Average distance is : 250.807 cm
Average deviation is : 67.047 cm
Block: 6
======================================
299.187262011
180.522100496
297.605981255
299.223846912
299.63441081

Average distance is : 275.235 cm
Average deviation is : 52.952 cm
Block: 7
======================================
299.650670767
177.042469835
297.654761124
182.196876001
293.06945343

Average distance is : 249.923 cm
Average deviation is : 64.248 cm
Block: 8
======================================
299.223846912
299.171002054
180.233486271
298.748243189
299.223846912

Average distance is : 275.320 cm
Average deviation is : 53.155 cm
Block: 9
======================================
299.597825909
177.843272686
296.549084091
178.648140526
295.21576767

Average distance is : 249.571 cm
Average deviation is : 65.131 cm
Block: 10
======================================
299.63441081
178.766025209
300.114079523
179.29853878
298.866127872

Average distance is : 251.336 cm
Average deviation is : 66.006 cm