
Block: 1
======================================
50.1974569082
50.1604168892
50.1645324469
50.1974569082
50.1974569082

Block: 2
======================================
50.1439546585
50.6460526943
50.613128233
50.1645324469
50.1645324469

Block: 3
======================================
50.1604168892
50.1480702162
50.1645324469
50.1809946775
50.1974569082

Block: 4
======================================
50.5925504446
50.1439546585
50.1439546585
50.1604168892
50.5925504446

Block: 5
======================================
50.1809946775
50.6295904636
50.6789771557
50.5596259832
50.1974569082

Block: 6
======================================
50.1809946775
50.1645324469
50.1809946775
50.1974569082
50.1974569082

Block: 7
======================================
50.2303813696
50.1974569082
50.1974569082
50.1768791199
50.2139191389

Block: 8
======================================
50.2139191389
50.5925504446
50.1439546585
50.1809946775
50.1974569082

Block: 9
======================================
50.2303813696
50.2139191389
50.1645324469
50.1809946775
50.1974569082

Block: 10
======================================
50.1480702162
50.1809946775
50.6295904636
50.6295904636
50.1974569082
