
Block: 1
======================================
200.385465813
199.904944658
200.808975983
200.829337049
201.220269513
199.921233511
200.365104747
200.36917696
200.352888107
200.365104747

Block: 2
======================================
200.808975983
199.941594577
200.348815894
200.385465813
200.332527041
199.904944658
200.36917696
199.904944658
200.365104747
199.888655806

Block: 3
======================================
199.872366953
200.348815894
200.348815894
200.776398277
200.348815894
199.925305724
199.921233511
199.904944658
199.904944658
200.332527041

Block: 4
======================================
200.813048196
200.348815894
200.332527041
200.796759343
200.385465813
200.79268713
200.332527041
200.348815894
199.888655806
199.904944658

Block: 5
======================================
199.888655806
199.872366953
199.904944658
199.953811216
199.904944658
200.79268713
200.776398277
200.79268713
199.925305724
199.921233511

Block: 6
======================================
199.921233511
199.937522364
200.348815894
200.365104747
201.240630579
200.36917696
200.332527041
200.332527041
200.365104747
199.888655806

Block: 7
======================================
200.79268713
200.79268713
199.921233511
200.776398277
199.904944658
200.808975983
199.95788343
200.845625901
201.236558366
199.941594577

Block: 8
======================================
200.829337049
200.79268713
200.418043518
200.796759343
200.825264835
199.974172282
199.95788343
200.808975983
200.808975983
200.829337049

Block: 9
======================================
199.888655806
200.79268713
199.937522364
199.937522364
200.332527041
199.941594577
199.904944658
199.921233511
200.348815894
200.36917696

Block: 10
======================================
199.680972934
200.808975983
200.845625901
200.829337049
200.365104747
199.909016871
200.348815894
200.3813936
200.401754665
199.941594577
