
Block: 1
======================================
200.283660483
200.332527041
200.299949336
200.295877123
199.819428182
200.312165976
200.299949336
200.332527041
200.365104747
200.128916383
200.316238189
200.214432859
200.332527041
200.312165976
200.316238189
200.332527041
200.27958827
200.27958827
200.316238189
200.316238189
200.332527041
199.835717034
200.312165976
200.312165976
200.312165976
200.312165976
158.229915047
199.872366953
200.316238189
200.295877123
200.332527041
200.332527041
200.348815894
200.295877123
200.263299417
200.299949336
200.299949336
200.332527041
200.299949336
200.295877123
158.229915047
200.263299417
200.27958827
200.312165976
200.312165976
200.332527041
200.263299417
200.27958827
200.263299417
200.332527041
200.27958827
200.295877123
200.299949336
200.27958827
199.8560781
200.283660483
200.27958827
200.299949336
200.332527041
200.299949336
200.283660483
200.251082778
200.299949336
200.316238189
200.332527041
200.332527041
200.316238189
200.263299417
200.332527041
200.263299417
200.332527041
200.316238189
200.263299417
200.295877123
200.299949336
200.332527041
200.316238189
200.295877123
200.332527041
200.299949336
200.332527041
200.27958827
200.299949336
200.316238189
200.312165976
200.312165976
200.295877123
200.267371631
200.316238189
199.872366953
200.316238189
200.316238189
199.8560781
200.27958827
200.299949336
200.299949336
200.295877123
200.316238189
200.332527041
200.316238189

Average distance is : 199.434 cm
Average deviation is : 5.917 cm
Block: 2
======================================
200.299949336
200.283660483
200.332527041
200.332527041
200.312165976
200.332527041
200.332527041
200.299949336
200.332527041
200.332527041
200.295877123
200.295877123
199.839789248
200.332527041
200.299949336
200.299949336
199.872366953
200.27958827
200.348815894
200.332527041
200.348815894
200.332527041
200.332527041
199.835717034
200.316238189
200.316238189
200.332527041
200.332527041
200.348815894
200.332527041
200.316238189
200.316238189
199.872366953
200.36917696
200.348815894
200.332527041
200.332527041
200.332527041
200.348815894
199.872366953
200.332527041
200.365104747
199.872366953
200.312165976
200.312165976
200.352888107
199.852005887
200.27958827
200.295877123
200.332527041
200.332527041
159.133946371
199.852005887
158.282853818
200.299949336
199.835717034
200.316238189
200.348815894
200.283660483
200.27958827
200.348815894
200.283660483
200.348815894
200.299949336
200.332527041
200.316238189
200.332527041
199.872366953
200.332527041
200.299949336
200.295877123
200.316238189
199.86829474
200.332527041
200.316238189
199.8560781
200.385465813
200.332527041
200.348815894
200.316238189
200.36917696
199.904944658
200.348815894
199.86829474
200.352888107
200.348815894
200.332527041
200.312165976
199.888655806
199.8560781
200.348815894
200.295877123
200.299949336
200.316238189
200.348815894
199.872366953
200.332527041
199.872366953
199.904944658
200.316238189

Average distance is : 199.406 cm
Average deviation is : 5.846 cm
Block: 3
======================================
200.3813936
199.835717034
200.332527041
200.348815894
200.316238189
199.835717034
200.316238189
200.348815894
200.312165976
200.27958827
200.316238189
200.3813936
200.352888107
200.332527041
200.332527041
200.295877123
200.316238189
200.348815894
200.332527041
200.27958827
200.312165976
200.299949336
200.316238189
200.316238189
200.348815894
200.283660483
200.295877123
200.348815894
199.872366953
200.348815894
200.365104747
200.348815894
200.312165976
200.332527041
200.332527041
200.348815894
200.316238189
199.888655806
200.316238189
200.295877123
200.348815894
200.316238189
200.312165976
200.348815894
200.316238189
200.332527041
200.332527041
199.904944658
200.332527041
200.316238189
200.316238189
200.332527041
199.852005887
200.332527041
200.283660483
200.316238189
200.348815894
200.332527041
200.299949336
200.332527041
200.332527041
199.8560781
200.450621223
200.299949336
200.247010565
199.888655806
200.332527041
159.561528754
200.348815894
200.316238189
200.348815894
200.316238189
200.348815894
200.332527041
200.295877123
200.332527041
200.299949336
200.348815894
200.348815894
200.365104747
200.312165976
200.316238189
200.332527041
199.904944658
199.884583592
199.872366953
200.348815894
200.332527041
200.299949336
200.332527041
200.365104747
200.316238189
200.352888107
200.332527041
200.348815894
200.352888107
199.888655806
200.316238189
200.348815894
200.332527041

Average distance is : 199.867 cm
Average deviation is : 4.074 cm
Block: 4
======================================
200.332527041
199.8560781
200.348815894
199.8560781
200.332527041
200.27958827
200.316238189
200.316238189
200.316238189
200.312165976
199.86829474
200.332527041
200.332527041
200.332527041
200.316238189
200.352888107
200.316238189
200.365104747
200.283660483
200.348815894
200.312165976
200.332527041
200.316238189
200.283660483
200.316238189
200.316238189
200.295877123
200.332527041
200.299949336
200.295877123
200.365104747
200.295877123
200.299949336
200.348815894
200.316238189
200.385465813
200.348815894
200.316238189
200.299949336
200.299949336
200.316238189
200.348815894
200.348815894
200.332527041
200.316238189
200.27958827
200.316238189
200.352888107
200.332527041
199.8560781
200.332527041
200.295877123
200.332527041
200.352888107
200.348815894
200.348815894
199.852005887
200.332527041
200.332527041
200.295877123
200.316238189
200.348815894
200.316238189
200.352888107
200.332527041
200.332527041
200.332527041
200.092266464
200.316238189
199.819428182
200.299949336
200.332527041
200.348815894
200.299949336
200.316238189
199.872366953
200.299949336
200.299949336
200.299949336
199.8560781
200.27958827
200.316238189
199.872366953
200.316238189
200.348815894
200.332527041
200.332527041
200.27958827
200.316238189
200.348815894
200.385465813
200.27958827
200.332527041
200.299949336
200.316238189
200.332527041
200.332527041
200.295877123
200.299949336
200.299949336

Average distance is : 200.278 cm
Average deviation is : 0.137 cm
Block: 5
======================================
200.299949336
200.299949336
200.316238189
200.316238189
200.27958827
200.365104747
200.348815894
200.385465813
200.316238189
200.108555317
200.332527041
200.316238189
200.332527041
200.316238189
200.299949336
199.8560781
200.316238189
200.332527041
200.332527041
200.299949336
200.332527041
200.348815894
200.332527041
200.295877123
200.283660483
200.295877123
200.312165976
200.332527041
200.283660483
200.332527041
200.27958827
200.27958827
200.348815894
200.299949336
200.332527041
200.263299417
200.332527041
200.332527041
200.332527041
200.348815894
200.316238189
200.295877123
200.316238189
200.352888107
200.316238189
200.312165976
199.803139329
199.888655806
200.312165976
200.295877123
200.312165976
200.332527041
200.312165976
200.295877123
200.332527041
200.348815894
200.332527041
200.283660483
200.295877123
200.27958827
200.312165976
200.316238189
200.299949336
200.312165976
200.332527041
200.316238189
200.299949336
200.299949336
200.316238189
200.316238189
200.348815894
200.348815894
200.316238189
200.299949336
200.295877123
200.316238189
200.27958827
200.348815894
200.316238189
200.312165976
200.348815894
200.316238189
200.348815894
199.904944658
200.365104747
200.316238189
200.316238189
200.332527041
200.332527041
200.295877123
200.316238189
200.332527041
159.545239902
200.332527041
199.872366953
200.316238189
200.332527041
200.332527041
200.316238189
200.332527041

Average distance is : 199.886 cm
Average deviation is : 4.076 cm
Block: 6
======================================
200.332527041
200.332527041
200.316238189
200.348815894
200.295877123
200.332527041
200.316238189
200.332527041
200.332527041
200.332527041
200.348815894
200.348815894
200.299949336
199.888655806
200.332527041
199.872366953
200.312165976
200.27958827
199.839789248
200.332527041
200.332527041
200.348815894
200.299949336
200.332527041
200.295877123
200.02303884
199.86829474
199.8560781
200.295877123
200.348815894
200.295877123
200.332527041
199.839789248
199.839789248
200.332527041
200.316238189
200.316238189
200.283660483
200.316238189
200.332527041
200.316238189
200.348815894
200.352888107
200.316238189
200.352888107
200.332527041
200.365104747
199.904944658
200.316238189
200.348815894
200.332527041
200.332527041
200.348815894
200.332527041
200.316238189
200.348815894
200.316238189
200.348815894
200.348815894
200.332527041
200.332527041
200.332527041
200.332527041
200.316238189
200.316238189
200.316238189
200.332527041
200.332527041
200.352888107
200.332527041
200.299949336
200.348815894
200.332527041
199.86829474
200.348815894
200.316238189
200.332527041
199.819428182
200.316238189
200.332527041
200.27958827
200.316238189
200.332527041
200.332527041
200.316238189
200.316238189
200.348815894
200.348815894
199.904944658
200.332527041
200.332527041
199.872366953
200.348815894
200.316238189
200.348815894
200.316238189
200.385465813
200.332527041
199.888655806
199.888655806

Average distance is : 200.261 cm
Average deviation is : 0.164 cm
Block: 7
======================================
199.8560781
200.348815894
200.263299417
200.27958827
200.295877123
199.872366953
200.332527041
200.365104747
159.936172366
200.332527041
200.348815894
200.348815894
199.888655806
200.352888107
200.348815894
200.365104747
200.299949336
200.316238189
200.316238189
199.872366953
200.365104747
200.348815894
200.332527041
200.316238189
200.332527041
200.332527041
200.332527041
200.348815894
200.312165976
200.312165976
200.348815894
200.332527041
200.316238189
200.332527041
200.316238189
200.332527041
199.872366953
200.348815894
200.332527041
200.316238189
200.316238189
200.332527041
200.316238189
200.295877123
200.332527041
200.332527041
200.348815894
200.332527041
200.352888107
200.312165976
200.348815894
200.316238189
200.27958827
200.299949336
200.348815894
200.348815894
200.332527041
200.316238189
200.332527041
200.295877123
200.27958827
200.316238189
199.835717034
200.27958827
200.27958827
200.332527041
200.316238189
199.8560781
200.299949336
200.332527041
200.316238189
200.27958827
200.332527041
200.348815894
200.299949336
200.332527041
200.295877123
200.263299417
200.27958827
200.295877123
200.299949336
200.312165976
200.27958827
200.348815894
200.332527041
200.295877123
200.316238189
200.332527041
200.27958827
200.332527041
200.299949336
200.332527041
200.299949336
200.263299417
199.803139329
200.316238189
200.312165976
200.295877123
200.299949336
200.27958827

Average distance is : 199.878 cm
Average deviation is : 4.037 cm
Block: 8
======================================
200.332527041
200.332527041
199.852005887
200.332527041
200.27958827
200.295877123
200.365104747
200.385465813
200.332527041
200.348815894
200.316238189
200.283660483
200.316238189
200.332527041
200.348815894
200.348815894
200.283660483
200.332527041
200.295877123
200.332527041
200.352888107
200.332527041
199.8560781
200.316238189
200.348815894
200.299949336
200.332527041
200.316238189
200.348815894
200.299949336
200.332527041
200.316238189
200.299949336
200.332527041
200.332527041
200.348815894
200.385465813
199.8560781
200.295877123
200.352888107
200.312165976
200.332527041
200.283660483
200.295877123
200.352888107
200.295877123
200.348815894
200.316238189
200.385465813
199.872366953
200.332527041
200.332527041
200.295877123
200.316238189
200.316238189
200.348815894
199.888655806
199.852005887
200.348815894
200.332527041
200.332527041
200.316238189
200.312165976
200.312165976
200.348815894
200.332527041
200.332527041
200.299949336
200.348815894
200.332527041
200.312165976
200.332527041
200.316238189
200.348815894
200.299949336
200.332527041
200.316238189
200.3813936
200.332527041
199.921233511
200.316238189
200.332527041
200.36917696
199.852005887
200.365104747
200.348815894
200.332527041
200.332527041
200.348815894
200.312165976
200.299949336
200.316238189
200.316238189
199.86829474
200.332527041
199.8560781
200.348815894
200.316238189
199.888655806
200.316238189

Average distance is : 200.278 cm
Average deviation is : 0.146 cm
Block: 9
======================================
200.316238189
200.332527041
200.332527041
200.299949336
200.348815894
200.316238189
200.316238189
200.312165976
200.332527041
200.352888107
200.348815894
200.316238189
200.332527041
200.312165976
200.332527041
200.348815894
199.872366953
200.316238189
200.312165976
200.312165976
200.312165976
200.348815894
199.888655806
200.365104747
200.332527041
200.299949336
200.332527041
200.332527041
200.312165976
200.332527041
200.316238189
200.348815894
200.332527041
200.295877123
200.332527041
200.312165976
200.316238189
200.316238189
200.332527041
200.299949336
200.299949336
200.332527041
200.332527041
200.332527041
200.348815894
200.332527041
200.3813936
200.312165976
200.36917696
200.316238189
200.328454828
200.365104747
199.909016871
200.316238189
200.348815894
200.316238189
200.348815894
199.872366953
200.348815894
200.316238189
200.316238189
200.365104747
200.316238189
200.332527041
200.348815894
200.27958827
200.316238189
200.316238189
200.348815894
200.332527041
200.316238189
200.365104747
200.352888107
200.316238189
200.332527041
200.332527041
200.36917696
200.36917696
200.332527041
200.332527041
200.299949336
200.316238189
200.316238189
200.316238189
200.365104747
199.888655806
200.332527041
200.365104747
200.312165976
200.316238189
200.352888107
200.332527041
200.316238189
200.316238189
200.299949336
200.312165976
200.312165976
200.36917696
200.332527041
200.365104747

Average distance is : 200.308 cm
Average deviation is : 0.099 cm
Block: 10
======================================
200.332527041
200.316238189
200.316238189
200.295877123
200.312165976
200.332527041
200.316238189
158.229915047
199.904944658
200.312165976
200.316238189
200.316238189
200.332527041
200.348815894
200.365104747
200.36917696
199.872366953
200.3813936
200.36917696
200.332527041
200.332527041
200.385465813
200.365104747
200.3813936
200.332527041
200.348815894
200.316238189
200.316238189
200.332527041
200.316238189
200.299949336
200.3813936
200.299949336
200.332527041
200.316238189
200.283660483
200.332527041
200.27958827
200.348815894
200.332527041
200.316238189
200.332527041
200.332527041
200.348815894
200.332527041
200.316238189
200.295877123
200.348815894
200.348815894
200.348815894
159.545239902
199.852005887
200.316238189
200.348815894
200.332527041
200.365104747
200.352888107
200.299949336
200.316238189
200.316238189
200.332527041
200.27958827
200.332527041
200.332527041
200.316238189
200.283660483
200.27958827
200.295877123
200.316238189
200.299949336
200.332527041
200.332527041
200.365104747
200.312165976
200.352888107
200.348815894
200.295877123
200.352888107
200.348815894
200.332527041
200.365104747
200.332527041
200.332527041
200.316238189
200.332527041
200.352888107
200.316238189
200.299949336
200.365104747
200.352888107
200.332527041
200.316238189
200.316238189
200.352888107
200.332527041
200.295877123
200.299949336
200.348815894
200.352888107
200.312165976

Average distance is : 199.487 cm
Average deviation is : 5.831 cm