
Block: 1
======================================
200.316238189
200.299949336
200.283660483
200.332527041
200.283660483
200.295877123
200.283660483
200.316238189
200.295877123
200.263299417
200.283660483
200.295877123
200.263299417
200.316238189
200.316238189
200.299949336
200.299949336
200.316238189
200.295877123
200.283660483
200.295877123
200.299949336
200.332527041
200.299949336
200.316238189
200.27958827
200.283660483
200.332527041
200.316238189
200.267371631
200.299949336
200.299949336
200.316238189
200.27958827
200.27958827
200.295877123
200.27958827
199.819428182
200.299949336
200.27958827
200.247010565
200.299949336
200.283660483
200.263299417
200.299949336
200.247010565
200.299949336
200.316238189
200.316238189
200.263299417

Block: 2
======================================
200.283660483
200.283660483
200.316238189
199.835717034
200.332527041
200.299949336
200.316238189
200.295877123
200.316238189
200.295877123
200.316238189
199.819428182
200.295877123
200.299949336
200.295877123
200.316238189
200.299949336
200.263299417
200.332527041
200.283660483
200.312165976
199.803139329
200.295877123
200.299949336
200.27958827
200.295877123
200.27958827
200.27958827
200.27958827
200.27958827
200.247010565
200.283660483
200.332527041
200.27958827
200.263299417
200.263299417
199.803139329
200.27958827
200.312165976
200.283660483
200.299949336
200.27958827
200.263299417
200.316238189
200.247010565
200.27958827
200.27958827
199.8560781
200.299949336
200.316238189

Block: 3
======================================
200.247010565
200.348815894
200.27958827
200.299949336
200.27958827
200.295877123
200.299949336
200.312165976
200.247010565
200.295877123
200.312165976
200.263299417
200.27958827
200.247010565
200.27958827
200.283660483
199.803139329
200.316238189
200.283660483
200.312165976
199.819428182
200.283660483
200.27958827
200.27958827
200.299949336
200.27958827
200.247010565
200.295877123
200.283660483
200.299949336
200.27958827
200.263299417
200.283660483
200.263299417
200.263299417
200.263299417
199.819428182
200.263299417
200.27958827
200.316238189
200.283660483
200.295877123
200.295877123
200.283660483
199.803139329
199.835717034
200.283660483
200.27958827
200.299949336
200.332527041

Block: 4
======================================
200.316238189
200.27958827
200.283660483
200.283660483
200.263299417
200.295877123
200.295877123
200.27958827
200.299949336
200.299949336
199.974172282
200.295877123
200.27958827
200.267371631
200.299949336
200.247010565
200.299949336
200.283660483
200.295877123
200.299949336
199.803139329
200.267371631
200.263299417
200.299949336
200.27958827
200.27958827
200.27958827
200.299949336
200.263299417
200.263299417
200.283660483
200.247010565
200.263299417
200.263299417
200.251082778
200.263299417
199.819428182
200.299949336
200.247010565
200.263299417
200.247010565
200.263299417
200.230721712
200.263299417
200.247010565
200.316238189
200.299949336
200.27958827
200.263299417
200.299949336

Block: 5
======================================
200.299949336
200.299949336
200.27958827
200.247010565
200.263299417
200.263299417
200.247010565
200.283660483
200.299949336
200.283660483
200.267371631
200.263299417
200.263299417
199.819428182
200.299949336
200.263299417
200.263299417
200.247010565
200.263299417
200.295877123
200.247010565
200.299949336
200.295877123
200.263299417
200.247010565
200.283660483
200.312165976
200.299949336
200.263299417
200.299949336
200.312165976
200.247010565
200.295877123
200.263299417
200.283660483
199.819428182
200.247010565
200.27958827
200.283660483
200.247010565
200.27958827
200.299949336
199.819428182
200.299949336
200.27958827
200.299949336
200.283660483
200.299949336
200.295877123
200.27958827

Block: 6
======================================
200.267371631
200.316238189
200.283660483
200.247010565
200.263299417
200.247010565
200.247010565
200.27958827
200.27958827
200.263299417
200.316238189
200.247010565
200.263299417
200.247010565
200.263299417
200.247010565
200.283660483
200.283660483
200.230721712
200.283660483
200.263299417
200.27958827
200.27958827
200.267371631
200.27958827
200.247010565
200.27958827
200.263299417
200.267371631
200.299949336
200.295877123
200.267371631
200.295877123
200.283660483
200.299949336
200.283660483
200.299949336
200.299949336
200.263299417
200.247010565
200.299949336
200.263299417
200.312165976
200.267371631
200.332527041
199.803139329
200.295877123
200.267371631
200.283660483
200.295877123

Block: 7
======================================
200.332527041
200.263299417
199.819428182
200.299949336
200.27958827
200.263299417
200.263299417
200.316238189
200.267371631
199.803139329
200.267371631
200.283660483
200.263299417
200.332527041
200.283660483
200.247010565
200.295877123
200.247010565
200.283660483
200.247010565
200.27958827
200.283660483
200.27958827
200.295877123
200.247010565
200.27958827
200.263299417
200.230721712
200.247010565
199.839789248
200.263299417
200.299949336
200.247010565
200.263299417
200.263299417
200.247010565
200.27958827
200.283660483
199.803139329
200.299949336
200.263299417
200.283660483
200.316238189
200.283660483
200.299949336
200.283660483
200.283660483
200.299949336
200.230721712
200.283660483

Block: 8
======================================
200.332527041
200.27958827
200.247010565
199.819428182
200.263299417
200.283660483
200.312165976
200.299949336
200.299949336
200.283660483
200.299949336
200.27958827
200.283660483
200.263299417
200.316238189
200.267371631
200.283660483
200.283660483
200.299949336
200.316238189
200.332527041
200.263299417
200.299949336
200.332527041
200.263299417
199.819428182
200.27958827
200.295877123
200.283660483
200.27958827
200.247010565
200.295877123
200.27958827
200.267371631
200.299949336
200.316238189
200.690881801
200.295877123
200.299949336
200.299949336
200.27958827
200.283660483
200.263299417
200.316238189
200.299949336
199.835717034
200.299949336
200.27958827
200.267371631
200.263299417

Block: 9
======================================
199.852005887
200.263299417
200.283660483
200.316238189
200.295877123
200.295877123
200.263299417
199.835717034
200.316238189
200.316238189
200.316238189
200.316238189
200.283660483
200.27958827
200.263299417
200.295877123
200.299949336
200.332527041
200.27958827
200.316238189
200.316238189
200.316238189
200.316238189
200.295877123
200.332527041
200.332527041
200.316238189
199.819428182
199.852005887
200.283660483
200.27958827
200.283660483
200.332527041
200.316238189
200.316238189
200.332527041
200.348815894
200.348815894
200.295877123
200.27958827
200.283660483
200.299949336
200.316238189
200.283660483
200.283660483
200.295877123
200.316238189
200.283660483
200.295877123
200.263299417

Block: 10
======================================
200.299949336
200.332527041
200.332527041
199.872366953
200.332527041
199.835717034
199.8560781
200.316238189
200.316238189
199.86829474
200.348815894
200.295877123
200.283660483
200.348815894
200.27958827
199.921233511
200.365104747
200.332527041
200.316238189
200.299949336
200.348815894
200.283660483
200.283660483
200.295877123
199.904944658
200.348815894
200.365104747
200.348815894
200.312165976
200.263299417
200.348815894
200.263299417
200.316238189
200.316238189
200.332527041
200.316238189
200.332527041
200.332527041
200.299949336
200.316238189
200.316238189
200.332527041
200.316238189
200.299949336
200.316238189
200.27958827
200.316238189
159.101368666
200.316238189
200.332527041
