
Block: 1
======================================
101.251223087
100.850612521
100.433481932
100.433481932
100.400441885
101.717913747
101.6848737
100.383921862
100.437611938
101.267743111

Block: 2
======================================
100.850612521
100.867132545
101.251223087
101.218183041
100.400441885
101.701393723
100.421091914
100.416961908
100.834092498
101.284263134

Block: 3
======================================
101.230573058
101.251223087
100.487172008
100.437611938
100.834092498
100.400441885
100.437611938
100.454131961
100.433481932
100.817572474

Block: 4
======================================
100.838222504
101.230573058
100.817572474
100.817572474
101.284263134
100.850612521
100.817572474
100.416961908
100.796922445
100.817572474

Block: 5
======================================
100.454131961
100.437611938
101.701393723
100.834092498
101.214053035
101.284263134
101.251223087
100.421091914
100.834092498
100.416961908

Block: 6
======================================
100.834092498
100.867132545
100.801052451
100.834092498
100.850612521
100.433481932
100.437611938
100.850612521
101.680743694
100.437611938

Block: 7
======================================
100.416961908
101.284263134
100.801052451
100.367401838
100.433481932
101.263613105
100.817572474
101.251223087
101.230573058
100.801052451

Block: 8
======================================
100.433481932
100.437611938
100.003961325
100.433481932
100.437611938
100.404571891
101.267743111
100.383921862
100.416961908
100.437611938

Block: 9
======================================
100.834092498
100.801052451
100.850612521
100.404571891
101.284263134
100.400441885
101.267743111
100.416961908
101.267743111
100.796922445

Block: 10
======================================
100.416961908
100.87126255
101.230573058
101.701393723
101.701393723
101.251223087
100.437611938
100.834092498
100.416961908
100.383921862
