397.583,11.376
397.485,12.167
397.529,11.776
397.611,11.639
397.622,11.832
397.531,11.932
397.408,11.596
397.485,11.617
396.956,15.789
397.449,10.818
wait time: 15.0 ms trigger time: 15.0 micros reps: 100,
Distance, Deviation
397.683,12.071
397.842,11.606
397.75,12.202
398.617,0.725
398.82,0.65
398.832,0.623
398.667,0.617
396.148,25.267
396.475,22.114
398.528,0.574
wait time: 15.0 ms trigger time: 15.0 micros reps: 100,
Distance, Deviation
398.655,0.621
398.693,0.671
398.611,0.648
398.673,0.663
398.687,0.741
398.787,0.661
398.751,0.657
398.638,0.545
398.672,0.634
398.548,0.603
wait time: 15.0 ms trigger time: 15.0 micros reps: 100,
Distance, Deviation
398.634,0.518
396.458,22.161
398.625,0.752
398.615,0.583
398.602,0.779
398.533,0.633
398.594,0.604
398.58,0.6
398.551,0.642
398.603,0.652
