
Block: 1
======================================
399.908295488
400.349017024
400.349017024
400.344973707
399.908295488
400.773565292
399.940642023
400.78973856
400.773565292
399.924468756
399.892122221
399.924468756
400.332843757
399.924468756
400.753348708
399.908295488
400.312627172
399.908295488
400.332843757
401.214286828
400.312627172
401.214286828
399.875948954
400.312627172
400.332843757

Block: 2
======================================
400.805911827
400.365190291
399.908295488
399.888078904
400.757392025
400.757392025
399.908295488
400.316670489
400.753348708
400.753348708
400.349017024
400.312627172
400.757392025
400.316670489
400.316670489
400.757392025
400.312627172
400.316670489
402.467715049
400.332843757
400.721002173
400.78973856
402.047210097
400.757392025
402.03103683

Block: 3
======================================
399.908295488
401.214286828
400.312627172
402.04316678
399.875948954
400.316670489
401.194070244
400.332843757
399.908295488
400.769521976
400.280280638
399.871905637
400.32880044
399.875948954
400.753348708
401.177896976
400.773565292
400.316670489
400.757392025
399.892122221
399.871905637
400.316670489
400.773565292
399.892122221
400.332843757

Block: 4
======================================
400.316670489
400.349017024
399.924468756
401.177896976
401.198113561
400.753348708
400.753348708
400.741218758
401.177896976
400.773565292
400.332843757
400.332843757
400.316670489
400.32880044
401.161723709
401.181940293
401.194070244
400.300497222
400.312627172
400.757392025
401.161723709
401.181940293
401.638835096
401.177896976
400.300497222

Block: 5
======================================
400.296453905
402.026993513
401.181940293
400.737175441
400.296453905
401.586271977
400.280280638
400.721002173
400.316670489
400.300497222
400.247934103
401.606488562
400.280280638
402.435368514
400.312627172
400.300497222
400.296453905
400.721002173
400.280280638
400.280280638
400.300497222
400.704828906
400.721002173
400.721002173
402.431325197

Block: 6
======================================
400.672482371
401.145550442
401.09703064
401.113203907
401.129377174
402.403021979
400.704828906
400.704828906
401.129377174
400.652265787
400.668439054
400.668439054
401.57009871
401.09703064
401.533708858
402.366632128
401.113203907
401.113203907
401.113203907
401.09703064
401.533708858
401.09703064
401.517535591
401.113203907
401.537752175

Block: 7
======================================
401.10916059
400.668439054
400.672482371
402.827570248
401.125333858
400.672482371
400.672482371
403.248075199
401.113203907
401.129377174
401.10916059
401.549882126
400.684612322
401.129377174
402.403021979
401.10916059
400.688655639
400.26410737
400.247934103
401.113203907
400.704828906
400.688655639
400.26410737
400.721002173
400.280280638

Block: 8
======================================
400.684612322
401.129377174
401.113203907
401.080857372
400.688655639
400.704828906
400.688655639
400.688655639
400.668439054
401.145550442
400.684612322
400.688655639
400.688655639
400.704828906
400.688655639
401.145550442
401.113203907
400.704828906
400.688655639
400.672482371
403.264248466
400.704828906
401.129377174
400.668439054
400.704828906

Block: 9
======================================
400.672482371
401.57009871
401.129377174
401.10916059
401.129377174
400.704828906
401.145550442
400.688655639
401.161723709
400.684612322
401.990603662
401.145550442
401.161723709
400.704828906
400.704828906
400.704828906
400.721002173
400.704828906
400.704828906
400.721002173
400.280280638
400.72504549
400.72504549
400.704828906
402.010820246

Block: 10
======================================
400.688655639
400.280280638
400.741218758
400.737175441
401.161723709
400.280280638
400.296453905
401.161723709
400.316670489
401.177896976
400.737175441
400.753348708
401.177896976
400.737175441
402.467715049
400.741218758
400.737175441
400.741218758
400.753348708
400.757392025
400.741218758
401.177896976
400.769521976
402.471758366
400.753348708
