
Block: 1
======================================
50.7489416361
50.7324794054
50.7160171747
50.3538480997
50.3168080807
50.7695194244
50.30034585
50.2838836193
50.3703103304
50.3332703114

Average distance is : 50.493 cm
Average deviation is : 0.216 cm
Block: 2
======================================
50.1274924278
50.7695194244
50.2674213886
50.2674213886
50.2838836193
50.7489416361
50.3209236383
50.30034585
50.7160171747
50.3168080807

Average distance is : 50.412 cm
Average deviation is : 0.236 cm
Block: 3
======================================
50.7489416361
50.2674213886
50.3209236383
50.30034585
50.287999177
50.30034585
50.30034585
50.2838836193
50.349732542
50.30034585

Average distance is : 50.346 cm
Average deviation is : 0.143 cm
Block: 4
======================================
50.3332703114
50.3332703114
50.3703103304
50.3209236383
50.30034585
50.337385869
50.3209236383
50.337385869
50.2838836193
50.30034585

Average distance is : 50.324 cm
Average deviation is : 0.025 cm
Block: 5
======================================
50.3703103304
50.2838836193
50.3168080807
50.3209236383
50.3044614077
50.30034585
50.7324794054
50.30034585
50.3332703114
50.2838836193

Average distance is : 50.355 cm
Average deviation is : 0.135 cm
Block: 6
======================================
50.7489416361
50.2838836193
50.349732542
50.3044614077
50.30034585
50.30034585
50.3209236383
50.2838836193
50.7160171747
50.3044614077

Average distance is : 50.391 cm
Average deviation is : 0.181 cm
Block: 7
======================================
50.7859816551
50.699554944
50.3168080807
50.7695194244
50.3332703114
50.7654038668
50.7530571938
50.30034585
50.7654038668
50.7489416361

Average distance is : 50.624 cm
Average deviation is : 0.213 cm
Block: 8
======================================
50.3209236383
50.30034585
50.7859816551
50.7324794054
50.7324794054
50.3538480997
50.7530571938
50.7654038668
50.7365949631
50.7324794054

Average distance is : 50.621 cm
Average deviation is : 0.206 cm
Block: 9
======================================
50.30034585
50.3044614077
50.30034585
50.2674213886
50.3209236383
50.7654038668
50.7489416361
50.30034585
50.6789771557
50.3332703114

Average distance is : 50.432 cm
Average deviation is : 0.208 cm
Block: 10
======================================
50.3168080807
50.2838836193
50.30034585
50.30034585
50.7160171747
50.30034585
50.2674213886
50.7160171747
50.7160171747
50.3168080807

Average distance is : 50.423 cm
Average deviation is : 0.202 cm