
Block: 1
======================================
200.62572639
200.605365324
200.62572639
200.589076471
199.717622852
200.161494088
200.589076471
200.145205235
200.605365324
200.161494088
200.605365324
200.12484417
200.605365324
201.069597626
200.161494088
200.605365324
200.181855154
201.081814265
201.069597626
200.621654177
200.589076471
199.717622852
200.145205235
201.069597626
201.069597626

Average distance is : 200.502 cm
Average deviation is : 0.399 cm
Block: 2
======================================
201.04923656
201.081814265
200.194071794
200.145205235
201.065525413
200.589076471
201.085886478
200.62572639
200.165566301
200.198144007
200.605365324
201.085886478
200.605365324
200.181855154
201.04923656
200.145205235
200.589076471
200.621654177
201.065525413
200.181855154
201.085886478
200.177782941
201.069597626
200.177782941
200.194071794

Average distance is : 200.601 cm
Average deviation is : 0.398 cm
Block: 3
======================================
201.069597626
200.145205235
200.177782941
201.529757714
200.145205235
200.621654177
201.04923656
200.605365324
201.069597626
200.589076471
200.605365324
200.605365324
200.605365324
199.737983918
200.642015243
200.145205235
200.161494088
201.04923656
200.177782941
200.161494088
200.161494088
200.145205235
200.141133022
200.161494088
201.065525413

Average distance is : 200.503 cm
Average deviation is : 0.438 cm
Block: 4
======================================
200.181855154
200.62572639
201.069597626
200.181855154
199.717622852
200.658304095
201.053308773
200.214432859
200.589076471
200.177782941
200.177782941
199.717622852
200.161494088
199.754272771
200.194071794
199.717622852
200.181855154
200.177782941
200.177782941
200.62572639
200.161494088
200.177782941
200.621654177
200.621654177
199.680972934

Average distance is : 200.265 cm
Average deviation is : 0.389 cm
Block: 5
======================================
200.161494088
201.016658854
201.065525413
201.081814265
200.141133022
200.572787619
201.04923656
200.845625901
200.177782941
200.585004258
201.069597626
201.065525413
200.572787619
201.04923656
200.62572639
201.032947707
201.065525413
201.032947707
200.605365324
200.572787619
200.605365324
200.589076471
200.589076471
200.609437537
199.717622852

Average distance is : 200.700 cm
Average deviation is : 0.367 cm
Block: 6
======================================
200.177782941
201.053308773
201.000370002
201.053308773
200.145205235
200.108555317
200.605365324
200.145205235
200.589076471
200.585004258
200.128916383
200.589076471
200.572787619
200.605365324
200.589076471
201.032947707
200.128916383
200.568715405
201.476818943
200.145205235
200.128916383
200.760109425
200.145205235
200.128916383
200.145205235

Average distance is : 200.504 cm
Average deviation is : 0.391 cm
Block: 7
======================================
200.145205235
200.589076471
200.145205235
200.177782941
200.12484417
200.572787619
201.04923656
200.145205235
200.128916383
200.605365324
200.128916383
200.145205235
200.128916383
200.145205235
200.589076471
200.145205235
200.145205235
200.12484417
200.12484417
201.069597626
200.128916383
200.128916383
200.161494088
200.141133022
200.11262753

Average distance is : 200.284 cm
Average deviation is : 0.287 cm
Block: 8
======================================
200.589076471
200.145205235
200.552426553
201.032947707
200.589076471
200.572787619
201.46053009
200.161494088
200.605365324
200.128916383
200.128916383
200.609437537
201.476818943
200.605365324
200.128916383
200.589076471
200.621654177
200.145205235
200.128916383
200.12484417
200.62572639
200.145205235
200.605365324
200.161494088
200.128916383

Average distance is : 200.483 cm
Average deviation is : 0.392 cm
Block: 9
======================================
200.605365324
200.642015243
200.177782941
200.12484417
200.161494088
200.12484417
200.12484417
200.589076471
200.12484417
200.12484417
200.12484417
200.605365324
200.145205235
200.181855154
200.145205235
200.161494088
200.12484417
200.161494088
200.145205235
200.145205235
201.032947707
200.128916383
200.605365324
200.128916383
200.128916383

Average distance is : 200.271 cm
Average deviation is : 0.248 cm
Block: 10
======================================
200.165566301
200.161494088
200.572787619
200.589076471
200.145205235
201.04923656
200.589076471
200.605365324
201.016658854
200.621654177
200.194071794
201.04923656
201.065525413
201.085886478
201.065525413
200.177782941
200.161494088
201.053308773
200.194071794
201.065525413
200.194071794
200.161494088
200.194071794
200.194071794
200.194071794

Average distance is : 200.543 cm
Average deviation is : 0.394 cm