
Block: 1
======================================
300.52761085
300.511437583
300.458874464
300.931942534
300.5154809
302.241977191
300.495264316
300.919812584
300.919812584
302.630135608
300.915769267
302.241977191
300.952159119
301.392880654
300.952159119
300.479091048
300.935985851
300.915769267
302.666525459
301.376707387
301.376707387
300.511437583
300.458874464
300.899596
301.817428923
301.376707387
300.915769267
301.376707387
300.935985851
300.935985851
300.952159119
300.935985851
300.935985851
301.392880654
301.376707387
300.511437583
300.511437583
300.495264316
301.392880654
301.376707387
300.491220999
300.495264316
301.376707387
300.511437583
302.205587339
300.5154809
300.495264316
300.956202435
300.511437583
301.821472239

Average distance is : 301.057 cm
Average deviation is : 0.588 cm
Block: 2
======================================
300.511437583
300.531654167
300.543784118
301.376707387
300.495264316
300.5154809
300.511437583
300.511437583
301.83360219
300.952159119
300.511437583
300.511437583
300.511437583
300.511437583
300.531654167
300.52761085
300.98854897
300.511437583
300.511437583
300.52761085
300.495264316
301.392880654
300.495264316
300.495264316
301.797212338
300.984505653
301.36053412
300.935985851
301.413097239
300.935985851
301.392880654
301.409053922
300.511437583
300.968332386
300.972375703
300.495264316
300.511437583
300.475047731
301.392880654
300.952159119
300.935985851
300.935985851
300.952159119
300.935985851
300.52761085
301.409053922
300.972375703
300.952159119
301.376707387
300.935985851

Average distance is : 300.855 cm
Average deviation is : 0.389 cm
Block: 3
======================================
300.984505653
300.511437583
300.511437583
300.495264316
301.801255655
300.495264316
300.952159119
300.972375703
300.968332386
300.479091048
300.952159119
300.531654167
301.392880654
301.392880654
301.392880654
301.392880654
301.392880654
300.935985851
300.935985851
300.935985851
300.5154809
300.972375703
302.241977191
301.376707387
300.511437583
300.952159119
300.952159119
300.495264316
300.968332386
300.511437583
300.968332386
302.666525459
300.952159119
301.801255655
301.409053922
300.952159119
300.935985851
300.952159119
300.531654167
300.935985851
300.952159119
300.495264316
301.392880654
300.952159119
301.445443773
301.409053922
300.511437583
301.392880654
300.915769267
300.952159119

Average distance is : 301.029 cm
Average deviation is : 0.464 cm
Block: 4
======================================
300.956202435
300.511437583
300.511437583
300.952159119
300.935985851
300.511437583
301.376707387
300.52761085
300.52761085
301.392880654
300.511437583
300.956202435
300.935985851
301.396923971
301.376707387
300.968332386
301.817428923
301.409053922
300.511437583
300.52761085
301.837645507
300.52761085
300.531654167
300.511437583
300.511437583
300.52761085
300.531654167
300.511437583
300.543784118
301.392880654
300.511437583
300.511437583
300.968332386
300.511437583
300.511437583
300.968332386
300.952159119
300.547827435
300.5154809
301.413097239
300.547827435
300.511437583
300.52761085
300.968332386
300.511437583
300.543784118
300.511437583
300.52761085
300.952159119
300.968332386

Average distance is : 300.800 cm
Average deviation is : 0.382 cm
Block: 5
======================================
300.52761085
300.968332386
300.479091048
300.968332386
300.52761085
300.547827435
301.396923971
300.511437583
301.409053922
301.376707387
300.968332386
301.413097239
301.392880654
301.376707387
301.376707387
301.376707387
300.952159119
300.511437583
301.817428923
301.376707387
300.511437583
300.531654167
300.495264316
301.392880654
300.511437583
300.511437583
301.392880654
300.968332386
300.935985851
300.495264316
301.392880654
301.376707387
301.376707387
301.396923971
300.931942534
300.935985851
300.919812584
301.36053412
300.495264316
300.919812584
300.458874464
300.511437583
302.209630656
300.935985851
300.935985851
300.903639317
300.956202435
300.458874464
300.495264316
300.491220999

Average distance is : 300.970 cm
Average deviation is : 0.428 cm
Block: 6
======================================
300.511437583
300.495264316
300.899596
301.376707387
300.462917781
300.935985851
300.935985851
300.479091048
300.479091048
300.935985851
300.935985851
300.935985851
300.935985851
300.479091048
300.915769267
300.479091048
300.935985851
300.495264316
300.935985851
300.479091048
300.931942534
300.935985851
300.462917781
300.935985851
302.650352192
300.919812584
300.915769267
300.899596
300.935985851
300.479091048
300.919812584
301.817428923
300.919812584
300.475047731
300.915769267
300.919812584
300.479091048
300.479091048
301.376707387
302.209630656
300.935985851
300.479091048
300.479091048
302.189414072
300.491220999
300.475047731
300.935985851
300.935985851
300.495264316
300.479091048

Average distance is : 300.870 cm
Average deviation is : 0.478 cm
Block: 7
======================================
301.392880654
300.952159119
302.650352192
300.52761085
301.376707387
300.52761085
300.511437583
301.392880654
300.462917781
301.392880654
300.495264316
300.935985851
301.413097239
301.396923971
301.409053922
301.392880654
300.935985851
301.392880654
300.511437583
301.392880654
300.52761085
300.52761085
300.479091048
300.491220999
300.531654167
300.931942534
300.52761085
300.531654167
301.376707387
301.376707387
302.241977191
300.52761085
300.935985851
301.392880654
300.531654167
301.376707387
301.36053412
301.409053922
300.511437583
301.376707387
300.547827435
300.547827435
301.392880654
301.409053922
300.52761085
301.392880654
300.52761085
300.511437583
301.392880654
300.531654167

Average distance is : 301.004 cm
Average deviation is : 0.507 cm
Block: 8
======================================
300.531654167
300.491220999
300.52761085
301.83360219
301.376707387
300.935985851
300.952159119
300.547827435
300.915769267
300.919812584
300.511437583
300.935985851
300.919812584
300.952159119
300.952159119
300.935985851
300.935985851
300.479091048
300.919812584
300.952159119
301.376707387
300.495264316
300.919812584
300.935985851
300.919812584
300.491220999
300.935985851
300.952159119
300.935985851
300.935985851
300.931942534
300.935985851
302.666525459
300.952159119
301.356490803
301.396923971
300.919812584
301.392880654
302.666525459
300.919812584
300.968332386
300.511437583
301.392880654
301.36053412
300.511437583
301.376707387
300.511437583
300.475047731
301.376707387
300.495264316

Average distance is : 300.991 cm
Average deviation is : 0.470 cm
Block: 9
======================================
300.935985851
300.952159119
300.919812584
300.547827435
300.511437583
300.511437583
300.952159119
300.52761085
300.543784118
302.241977191
300.952159119
300.968332386
300.952159119
300.511437583
301.392880654
300.935985851
300.531654167
301.396923971
300.972375703
300.968332386
300.511437583
300.511437583
301.376707387
300.511437583
300.968332386
300.952159119
301.83360219
300.52761085
301.837645507
301.376707387
300.52761085
300.511437583
300.52761085
300.511437583
300.511437583
300.972375703
300.531654167
300.952159119
300.952159119
300.511437583
300.511437583
301.837645507
300.52761085
300.52761085
300.52761085
300.52761085
300.972375703
300.52761085
301.441400456
300.511437583

Average distance is : 300.861 cm
Average deviation is : 0.434 cm
Block: 10
======================================
300.511437583
300.968332386
300.531654167
300.511437583
300.968332386
301.376707387
300.531654167
300.547827435
301.392880654
300.543784118
300.52761085
300.952159119
300.952159119
300.511437583
300.511437583
301.396923971
300.543784118
300.952159119
300.547827435
300.511437583
300.968332386
301.396923971
300.52761085
300.547827435
301.409053922
301.83360219
300.511437583
300.52761085
301.392880654
300.547827435
300.511437583
300.952159119
300.952159119
300.952159119
300.495264316
300.547827435
301.392880654
301.396923971
301.801255655
300.952159119
300.968332386
300.952159119
301.409053922
301.392880654
301.392880654
300.495264316
300.935985851
300.956202435
300.511437583
300.531654167

Average distance is : 300.889 cm
Average deviation is : 0.395 cm