
Block: 1
======================================
399.875948954
399.908295488
399.855732369
399.871905637
399.875948954
399.875948954
399.875948954
399.875948954
400.296453905
400.332843757
400.805911827
400.773565292
399.892122221
399.871905637
399.888078904
399.888078904
400.349017024
399.875948954
400.349017024
400.349017024
399.871905637
400.332843757
399.875948954
400.773565292
400.773565292
400.78973856
401.198113561
399.892122221
400.757392025
400.773565292
400.773565292
400.753348708
400.316670489
400.757392025
400.32880044
400.757392025
400.312627172
400.312627172
400.312627172
399.871905637
400.332843757
400.296453905
401.230460095
399.892122221
401.246633363
399.892122221
400.757392025
400.332843757
399.871905637
399.888078904
399.875948954
400.773565292
400.757392025
400.332843757
399.875948954
399.892122221
400.296453905
399.871905637
400.312627172
400.332843757
399.892122221
399.892122221
400.332843757
399.431184101
399.888078904
400.769521976
399.908295488
399.888078904
399.888078904
399.888078904
401.230460095
400.365190291
399.908295488
400.805911827
400.349017024
400.805911827
400.805911827
400.365190291
399.924468756
399.924468756
400.809955144
400.652265787
400.805911827
399.908295488
399.908295488
399.940642023
399.904252172
400.365190291
399.451400685
399.924468756
399.451400685
399.467573953
399.924468756
399.447357368
400.365190291
399.451400685
399.467573953
399.467573953
400.365190291
399.48374722

Block: 2
======================================
399.892122221
399.467573953
399.451400685
399.908295488
400.332843757
399.892122221
399.908295488
399.892122221
399.892122221
399.875948954
400.809955144
399.892122221
399.875948954
399.888078904
399.888078904
400.349017024
399.888078904
400.78973856
400.78973856
400.805911827
400.349017024
400.332843757
400.349017024
400.349017024
400.365190291
400.332843757
399.875948954
400.805911827
399.908295488
400.332843757
400.332843757
399.892122221
400.349017024
400.773565292
399.908295488
400.78973856
400.349017024
400.332843757
399.871905637
400.773565292
399.447357368
399.892122221
400.332843757
399.419054151
400.316670489
400.78973856
399.467573953
399.892122221
399.431184101
399.435227418
399.415010834
400.32880044
400.312627172
400.773565292
400.773565292
400.316670489
400.312627172
399.871905637
399.855732369
399.398837566
400.737175441
399.855732369
400.773565292
399.892122221
400.721002173
399.839559102
401.214286828
399.823385835
400.773565292
400.26410737
400.737175441
399.823385835
400.300497222
400.312627172
400.72504549
401.194070244
399.839559102
400.312627172
400.300497222
401.161723709
401.165767026
401.161723709
400.721002173
399.839559102
400.280280638
400.296453905
400.737175441
400.26410737
400.741218758
400.296453905
400.741218758
400.737175441
400.280280638
400.280280638
400.741218758
400.280280638
400.312627172
400.316670489
400.280280638
400.753348708

Block: 3
======================================
400.757392025
400.349017024
400.316670489
400.312627172
401.214286828
402.111903167
401.214286828
400.32880044
400.365190291
400.809955144
400.385406876
401.246633363
400.349017024
400.78973856
401.655008364
400.332843757
400.385406876
400.365190291
400.365190291
400.381363559
400.381363559
401.26280663
400.822085094
400.385406876
399.940642023
400.826128411
400.365190291
400.826128411
399.940642023
400.381363559
400.365190291
400.381363559
400.369233608
400.397536826
401.266849947
400.381363559
399.940642023
399.940642023
399.94468534
399.908295488
399.940642023
399.924468756
399.924468756
400.385406876
399.940642023
400.826128411
400.381363559
400.381363559
399.940642023
399.940642023
399.940642023
399.94468534
400.365190291
399.924468756
400.349017024
400.805911827
400.344973707
400.381363559
399.940642023
399.888078904
400.365190291
400.805911827
400.369233608
400.805911827
400.365190291
400.365190291
399.924468756
399.94468534
400.805911827
400.826128411
399.924468756
399.924468756
400.785695243
400.381363559
400.349017024
401.246633363
399.908295488
400.349017024
399.908295488
399.892122221
399.892122221
400.78973856
400.349017024
400.769521976
400.349017024
400.349017024
400.805911827
400.316670489
400.332843757
400.32880044
399.924468756
400.349017024
400.365190291
400.349017024
399.888078904
399.888078904
399.871905637
399.875948954
399.892122221
399.875948954

Block: 4
======================================
400.32880044
399.892122221
400.753348708
399.839559102
399.855732369
400.32880044
399.839559102
399.892122221
400.773565292
399.839559102
400.316670489
400.296453905
400.312627172
399.823385835
400.312627172
399.839559102
400.757392025
400.300497222
399.871905637
400.737175441
399.859775686
400.312627172
399.839559102
401.181940293
400.280280638
399.807212567
400.721002173
401.198113561
400.721002173
400.296453905
400.296453905
401.181940293
400.737175441
400.704828906
401.161723709
400.280280638
401.165767026
402.04316678
401.165767026
402.063383365
400.721002173
400.284323955
401.161723709
400.72504549
400.247934103
400.704828906
400.247934103
400.296453905
401.161723709
401.586271977
401.145550442
401.145550442
400.721002173
400.721002173
400.704828906
400.721002173
400.704828906
400.704828906
401.145550442
400.672482371
400.704828906
400.721002173
400.684612322
400.704828906
401.129377174
401.145550442
401.590315294
400.26410737
401.994646978
401.145550442
400.688655639
400.231760836
401.586271977
400.668439054
401.161723709
400.668439054
400.704828906
402.87609005
400.26410737
400.684612322
401.566055393
400.704828906
400.704828906
401.553925443
401.149593759
401.129377174
401.145550442
400.26410737
400.260064054
400.704828906
400.704828906
400.247934103
400.280280638
400.284323955
400.247934103
400.26410737
400.704828906
400.704828906
400.704828906
400.247934103

Block: 5
======================================
400.280280638
400.741218758
400.737175441
399.843602419
399.871905637
400.349017024
399.875948954
400.753348708
400.773565292
400.737175441
399.839559102
400.737175441
400.753348708
400.737175441
400.72504549
399.855732369
399.839559102
400.300497222
400.296453905
400.280280638
400.316670489
400.296453905
400.757392025
400.737175441
400.296453905
399.823385835
400.737175441
400.300497222
399.807212567
400.737175441
400.296453905
399.415010834
399.859775686
400.296453905
400.737175441
400.721002173
400.280280638
400.296453905
399.888078904
400.773565292
400.753348708
400.757392025
400.741218758
400.753348708
400.296453905
400.296453905
400.280280638
400.312627172
400.296453905
400.753348708
400.296453905
399.859775686
400.753348708
399.859775686
400.737175441
400.296453905
399.859775686
399.859775686
399.871905637
400.332843757
400.741218758
400.312627172
399.892122221
399.859775686
400.312627172
400.332843757
399.859775686
400.312627172
399.859775686
400.332843757
401.214286828
400.753348708
400.890821481
400.300497222
399.892122221
400.753348708
400.757392025
400.741218758
400.296453905
399.875948954
400.773565292
399.839559102
400.280280638
400.737175441
399.823385835
399.859775686
399.843602419
399.839559102
400.741218758
399.855732369
400.741218758
400.296453905
399.843602419
400.737175441
399.855732369
399.839559102
399.839559102
400.280280638
400.296453905
400.72504549

Block: 6
======================================
400.721002173
400.280280638
399.807212567
400.26410737
400.231760836
400.688655639
400.26410737
400.26410737
399.807212567
399.823385835
399.786995983
400.280280638
400.247934103
400.247934103
400.26410737
399.807212567
400.247934103
399.7910393
400.26410737
400.684612322
400.26410737
401.177896976
400.247934103
401.145550442
400.296453905
399.823385835
401.602445245
399.823385835
399.839559102
399.786995983
399.786995983
401.586271977
399.823385835
400.26410737
400.247934103
400.26410737
399.823385835
399.823385835
399.823385835
400.721002173
400.704828906
399.823385835
401.161723709
400.704828906
400.247934103
400.26410737
400.26410737
400.243890786
401.145550442
400.280280638
400.721002173
400.26410737
401.129377174
400.26410737
401.145550442
401.129377174
400.721002173
401.590315294
401.994646978
400.684612322
400.721002173
400.721002173
401.602445245
401.57009871
400.26410737
400.704828906
401.586271977
400.741218758
400.704828906
400.704828906
400.704828906
400.72504549
400.721002173
400.741218758
402.483888316
401.145550442
400.704828906
400.721002173
401.161723709
401.165767026
401.586271977
400.721002173
401.994646978
401.145550442
401.602445245
400.26410737
401.602445245
400.741218758
400.721002173
400.704828906
400.300497222
401.606488562
400.26410737
402.047210097
400.721002173
400.26410737
400.737175441
402.924609852
401.177896976
400.316670489

Block: 7
======================================
399.908295488
399.908295488
400.78973856
400.349017024
400.332843757
400.805911827
401.230460095
400.365190291
400.809955144
400.381363559
400.369233608
400.365190291
400.805911827
400.365190291
400.413710093
400.369233608
400.381363559
401.266849947
401.266849947
401.26280663
401.283023214
400.385406876
400.822085094
400.401580143
400.826128411
401.266849947
400.842301679
400.822085094
401.299196482
401.283023214
400.401580143
399.95681529
401.278979897
400.413710093
400.822085094
399.924468756
399.94468534
399.940642023
399.924468756
400.413710093
399.95681529
399.960858607
400.858474946
399.977031875
400.838258362
400.858474946
400.858474946
400.858474946
399.95681529
400.874648213
399.520137072
400.397536826
400.397536826
399.48374722
399.516093755
399.94468534
399.95681529
400.838258362
399.924468756
399.94468534
399.924468756
400.809955144
399.940642023
400.822085094
400.842301679
399.908295488
399.908295488
399.908295488
399.467573953
399.924468756
400.381363559
399.924468756
399.908295488
402.095729899
399.908295488
399.908295488
400.822085094
399.463530636
399.431184101
399.904252172
399.888078904
399.908295488
399.447357368
399.924468756
399.892122221
400.365190291
400.78973856
399.908295488
399.467573953
400.349017024
399.892122221
400.365190291
400.78973856
400.78973856
400.78973856
399.871905637
399.888078904
399.892122221
400.773565292
401.230460095

Block: 8
======================================
401.161723709
400.721002173
402.026993513
400.26410737
401.165767026
400.280280638
401.198113561
400.704828906
400.280280638
400.753348708
401.145550442
401.618618512
400.316670489
400.280280638
401.181940293
402.04316678
400.721002173
400.737175441
401.198113561
400.300497222
401.161723709
401.181940293
400.721002173
401.181940293
401.181940293
401.177896976
401.618618512
400.300497222
400.721002173
400.332843757
400.296453905
401.181940293
400.741218758
400.280280638
400.72504549
400.737175441
401.161723709
400.296453905
400.753348708
400.280280638
402.908436584
400.280280638
400.296453905
402.04316678
400.757392025
400.773565292
400.773565292
400.78973856
400.316670489
401.214286828
402.095729899
401.234503412
400.753348708
400.773565292
401.230460095
401.230460095
401.230460095
400.349017024
400.332843757
400.78973856
401.230460095
400.381363559
400.805911827
401.283023214
400.78973856
400.809955144
401.26280663
400.369233608
401.278979897
400.349017024
400.349017024
400.369233608
400.822085094
400.369233608
400.365190291
401.230460095
400.78973856
400.773565292
400.753348708
400.753348708
400.300497222
400.753348708
400.773565292
400.753348708
400.721002173
401.161723709
401.606488562
400.737175441
400.26410737
401.177896976
400.721002173
401.161723709
400.26410737
400.247934103
400.26410737
400.243890786
401.129377174
400.688655639
400.668439054
400.227717519

Block: 9
======================================
400.211544251
401.537752175
401.09703064
401.125333858
400.668439054
400.668439054
401.517535591
401.10916059
401.994646978
401.57009871
403.284465051
400.704828906
401.125333858
401.145550442
402.41515193
400.672482371
401.10916059
400.684612322
400.704828906
400.688655639
401.57009871
401.606488562
401.586271977
401.145550442
400.704828906
400.672482371
400.704828906
401.113203907
401.10916059
401.129377174
400.688655639
400.672482371
400.672482371
401.553925443
400.227717519
401.092987323
401.092987323
401.10916059
400.63609252
401.113203907
401.113203907
400.231760836
400.63609252
400.63609252
401.080857372
401.09703064
400.652265787
400.195370984
400.195370984
400.668439054
401.533708858
400.195370984
401.076814055
400.63609252
400.63609252
400.179197717
401.076814055
401.076814055
401.076814055
401.537752175
401.553925443
401.537752175
401.10916059
401.517535591
400.652265787
400.684612322
401.076814055
401.553925443
401.113203907
401.553925443
401.092987323
401.092987323
400.668439054
402.872046733
401.566055393
402.419195247
401.129377174
400.704828906
400.247934103
400.672482371
400.688655639
401.145550442
400.672482371
400.688655639
400.656309104
400.211544251
401.129377174
401.129377174
400.247934103
400.688655639
401.553925443
400.688655639
401.129377174
401.129377174
400.227717519
401.165767026
402.010820246
400.672482371
400.668439054
400.652265787

Block: 10
======================================
400.656309104
401.09703064
400.009378409
401.080857372
400.195370984
401.09703064
400.63609252
400.199414301
400.179197717
400.195370984
400.199414301
400.179197717
400.211544251
401.076814055
400.195370984
400.63609252
400.211544251
401.09703064
400.63609252
400.215587568
400.672482371
401.553925443
400.619919252
401.060640788
400.672482371
400.215587568
400.211544251
400.199414301
400.195370984
400.195370984
400.63609252
399.770822716
400.231760836
399.770822716
399.754649448
401.974430394
400.672482371
399.754649448
399.722302914
400.227717519
399.770822716
400.199414301
400.211544251
400.231760836
400.199414301
399.770822716
400.211544251
400.652265787
400.179197717
400.672482371
400.63609252
400.211544251
400.656309104
400.211544251
401.09703064
400.668439054
400.640135837
400.211544251
400.652265787
400.199414301
401.060640788
401.537752175
401.521578908
401.092987323
401.076814055
401.533708858
400.179197717
401.040424204
401.080857372
401.517535591
400.63609252
401.092987323
401.09703064
400.63609252
400.619919252
400.619919252
401.092987323
401.092987323
400.603745985
401.553925443
401.080857372
400.652265787
400.656309104
400.63609252
401.076814055
401.092987323
400.195370984
400.652265787
400.63609252
400.668439054
401.537752175
401.129377174
401.533708858
401.533708858
400.215587568
401.092987323
400.195370984
401.533708858
401.092987323
400.231760836
