
Block: 1
======================================
50.3168080807
50.699554944
50.7324794054
50.30034585
50.3209236383

Average distance is : 50.474 cm
Average deviation is : 0.221 cm
Block: 2
======================================
50.2303813696
50.3044614077
50.263305831
50.2674213886
50.3168080807

Average distance is : 50.276 cm
Average deviation is : 0.035 cm
Block: 3
======================================
50.2838836193
50.6954393864
50.2838836193
50.7324794054
50.7654038668

Average distance is : 50.552 cm
Average deviation is : 0.246 cm
Block: 4
======================================
50.3209236383
50.7160171747
50.30034585
50.30034585
50.2674213886

Average distance is : 50.381 cm
Average deviation is : 0.188 cm
Block: 5
======================================
50.30034585
50.3044614077
50.3044614077
50.2674213886
50.30034585

Average distance is : 50.295 cm
Average deviation is : 0.016 cm
Block: 6
======================================
50.7365949631
50.7489416361
50.2838836193
50.2674213886
50.2838836193

Average distance is : 50.464 cm
Average deviation is : 0.254 cm
Block: 7
======================================
50.6789771557
50.7160171747
50.7489416361
50.3044614077
50.3332703114

Average distance is : 50.556 cm
Average deviation is : 0.218 cm
Block: 8
======================================
50.7160171747
50.3332703114
50.2468436003
50.2838836193
50.7324794054

Average distance is : 50.462 cm
Average deviation is : 0.241 cm
Block: 9
======================================
50.6830927134
50.7160171747
50.263305831
50.7324794054
50.662514925

Average distance is : 50.611 cm
Average deviation is : 0.197 cm
Block: 10
======================================
50.2674213886
50.7324794054
50.6789771557
50.2838836193
49.7323988914

Average distance is : 50.339 cm
Average deviation is : 0.402 cm