
Block: 1
======================================
99.8470211029
100.834092498
100.768012404
100.350881815
100.383921862

Average distance is : 100.437 cm
Average deviation is : 0.395 cm
Block: 2
======================================
101.251223087
100.363271832
100.834092498
101.234703064
101.267743111

Average distance is : 100.990 cm
Average deviation is : 0.394 cm
Block: 3
======================================
100.780402422
100.090691447
100.796922445
100.813442469
100.817572474

Average distance is : 100.660 cm
Average deviation is : 0.318 cm
Block: 4
======================================
100.817572474
100.834092498
100.681282282
100.796922445
100.400441885

Average distance is : 100.706 cm
Average deviation is : 0.181 cm
Block: 5
======================================
100.383921862
100.784532428
100.801052451
101.214053035
100.383921862

Average distance is : 100.713 cm
Average deviation is : 0.347 cm
Block: 6
======================================
100.416961908
100.796922445
100.796922445
101.214053035
100.346751809

Average distance is : 100.714 cm
Average deviation is : 0.349 cm
Block: 7
======================================
100.784532428
100.780402422
100.400441885
100.817572474
100.400441885

Average distance is : 100.637 cm
Average deviation is : 0.216 cm
Block: 8
======================================
101.197533011
100.850612521
101.214053035
101.28839314
100.383921862

Average distance is : 100.987 cm
Average deviation is : 0.377 cm
Block: 9
======================================
100.400441885
100.817572474
100.817572474
101.267743111
100.350881815

Average distance is : 100.731 cm
Average deviation is : 0.373 cm
Block: 10
======================================
100.817572474
101.230573058
100.367401838
100.834092498
100.817572474

Average distance is : 100.813 cm
Average deviation is : 0.306 cm
Average distance for 10x5 is : 100.739 cm
Average deviation for 10x5 is : 0.326 cm
 Percentage of values that failed: 0.000