
Block: 1
======================================
100.813442469
100.801052451
100.330231786
100.400441885
101.197533011
100.817572474
100.780402422
100.400441885
100.763882399
99.9502712488
100.780402422
100.763882399
100.801052451
99.9502712488
100.801052451
101.201663017
100.367401838
100.780402422
99.970921278
100.367401838
100.346751809
100.780402422
100.784532428
100.367401838
100.796922445
99.9502712488
100.784532428
99.9667912722
100.363271832
100.363271832
99.9544012547
101.181012988
100.784532428
100.383921862
100.350881815
99.9172312021
100.780402422
99.9337512255
100.367401838
99.9502712488
100.350881815
99.9337512255
99.9502712488
100.367401838
100.367401838
100.784532428
99.9502712488
100.780402422
99.9502712488
100.784532428
99.9337512255
100.367401838
100.796922445
99.9337512255
100.367401838
99.9502712488
100.367401838
100.367401838
100.383921862
100.780402422
99.9502712488
100.367401838
100.350881815
100.367401838
100.367401838
100.350881815
100.780402422
100.383921862
100.780402422
99.9544012547
100.850612521
100.801052451
100.367401838
100.801052451
100.784532428

Average distance is : 100.452 cm
Average deviation is : 0.359 cm
Block: 2
======================================
100.801052451
100.367401838
100.784532428
101.197533011
100.834092498
100.383921862
100.834092498
100.784532428
100.780402422
100.784532428
100.367401838
100.801052451
101.04059279
100.416961908
100.838222504
100.437611938
100.367401838
101.230573058
100.383921862
100.817572474
100.383921862
100.421091914
100.801052451
101.197533011
100.763882399
99.9502712488
100.780402422
99.9337512255
100.784532428
99.9502712488
100.784532428
100.801052451
99.9337512255
100.363271832
99.970921278
99.9337512255
100.784532428
99.9502712488
100.350881815
100.367401838
100.383921862
100.383921862
99.9337512255
100.363271832
99.9544012547
100.363271832
100.801052451
99.9337512255
100.367401838
100.383921862
100.367401838
100.367401838
99.9337512255
100.367401838
99.9337512255
99.9502712488
99.9337512255
99.9502712488
99.9337512255
100.780402422
100.367401838
100.383921862
100.383921862
100.780402422
100.367401838
101.197533011
101.680743694
100.383921862
99.9502712488
100.784532428
99.9502712488
100.784532428
99.9502712488
100.780402422
99.9337512255

Average distance is : 100.460 cm
Average deviation is : 0.405 cm
Block: 3
======================================
100.780402422
100.416961908
100.763882399
101.284263134
101.267743111
100.801052451
100.834092498
100.367401838
100.367401838
101.647703648
101.197533011
100.780402422
100.817572474
100.796922445
99.9337512255
100.780402422
100.784532428
99.9337512255
100.801052451
100.346751809
99.970921278
100.363271832
99.970921278
99.9337512255
100.350881815
99.9502712488
100.367401838
99.9667912722
99.9502712488
99.9337512255
100.367401838
100.763882399
99.9544012547
101.668353677
99.9667912722
100.367401838
100.780402422
99.9337512255
100.367401838
100.784532428
99.9502712488
100.780402422
99.9296212196
100.363271832
100.363271832
100.367401838
100.383921862
100.784532428
100.383921862
101.04059279
100.416961908
100.801052451
99.9502712488
100.801052451
100.796922445
100.367401838
100.784532428
100.801052451
100.780402422
100.363271832
100.780402422
100.784532428
100.784532428
100.796922445
100.367401838
100.350881815
100.784532428
99.9502712488
100.784532428
99.9667912722
100.834092498
100.801052451
100.801052451
100.801052451
100.780402422

Average distance is : 100.533 cm
Average deviation is : 0.416 cm
Block: 4
======================================
100.796922445
100.796922445
100.367401838
100.801052451
100.834092498
99.9502712488
100.834092498
100.796922445
100.784532428
100.801052451
99.9337512255
100.780402422
100.367401838
101.251223087
100.003961325
100.334361792
100.834092498
100.416961908
100.400441885
100.817572474
100.801052451
100.834092498
100.780402422
100.801052451
100.780402422
100.346751809
100.768012404
100.796922445
99.9667912722
100.784532428
99.9502712488
100.780402422
100.367401838
100.801052451
99.9337512255
100.780402422
100.780402422
100.784532428
100.801052451
99.9502712488
100.350881815
100.780402422
100.784532428
100.367401838
100.763882399
99.9337512255
100.763882399
99.9544012547
100.780402422
99.9667912722
100.350881815
100.780402422
99.9131011963
100.363271832
99.9544012547
100.834092498
99.9172312021
99.9337512255
99.516620636
100.784532428
99.9296212196
99.9502712488
100.784532428
99.9502712488
100.780402422
100.363271832
100.796922445
100.350881815
100.367401838
100.367401838
100.780402422
99.9502712488
100.796922445
100.801052451
99.9502712488

Average distance is : 100.483 cm
Average deviation is : 0.385 cm
Block: 5
======================================
100.784532428
100.363271832
100.801052451
101.234703064
100.367401838
101.218183041
100.817572474
100.834092498
100.796922445
100.796922445
100.801052451
100.784532428
99.9337512255
100.383921862
100.801052451
100.763882399
99.9337512255
100.784532428
99.9502712488
100.801052451
100.383921862
100.363271832
100.780402422
100.801052451
100.801052451
100.346751809
100.367401838
100.801052451
99.9667912722
99.4835805893
100.367401838
100.801052451
100.796922445
100.780402422
100.801052451
99.9502712488
100.780402422
99.9337512255
99.9131011963
99.9544012547
100.780402422
99.9502712488
100.796922445
100.367401838
100.367401838
100.784532428
100.363271832
100.780402422
100.784532428
100.796922445
100.367401838
100.801052451
100.801052451
100.796922445
100.383921862
100.383921862
100.367401838
100.383921862
100.801052451
100.367401838
100.796922445
99.9544012547
100.796922445
100.780402422
99.9502712488
100.796922445
99.9337512255
100.780402422
99.9502712488
100.367401838
100.834092498
100.780402422
99.9337512255
100.801052451
99.9502712488

Average distance is : 100.517 cm
Average deviation is : 0.375 cm
Block: 6
======================================
100.796922445
101.230573058
100.367401838
100.367401838
100.644112229
100.834092498
100.834092498
100.801052451
100.780402422
100.784532428
100.801052451
99.9667912722
100.780402422
101.181012988
101.218183041
100.817572474
100.400441885
100.433481932
100.400441885
100.383921862
100.536732078
100.421091914
100.416961908
100.784532428
99.9544012547
100.363271832
100.367401838
100.367401838
99.9337512255
101.214053035
100.400441885
101.251223087
100.801052451
100.763882399
99.9544012547
100.780402422
100.780402422
99.9502712488
100.780402422
100.367401838
100.367401838
100.383921862
99.9337512255
100.350881815
100.367401838
100.350881815
100.780402422
100.784532428
100.383921862
100.796922445
99.970921278
100.780402422
99.9667912722
100.350881815
99.9502712488
100.784532428
99.9502712488
100.350881815
101.647703648
100.330231786
100.350881815
99.9172312021
99.9337512255
99.9337512255
99.9337512255
99.9502712488
100.367401838
100.350881815
99.9502712488
100.367401838
99.9667912722
100.796922445
100.350881815
100.784532428
99.9337512255

Average distance is : 100.473 cm
Average deviation is : 0.398 cm
Block: 7
======================================
101.230573058
100.416961908
100.768012404
100.817572474
100.421091914
101.230573058
101.247093081
100.801052451
100.367401838
100.834092498
100.784532428
99.9502712488
100.768012404
99.9502712488
100.367401838
100.763882399
100.780402422
99.9337512255
100.796922445
99.9502712488
100.763882399
99.9667912722
100.763882399
100.367401838
100.383921862
100.834092498
100.763882399
100.784532428
100.780402422
99.9502712488
100.784532428
99.9502712488
100.796922445
99.970921278
100.780402422
100.367401838
100.801052451
99.9502712488
100.350881815
99.9502712488
100.383921862
100.383921862
100.350881815
100.796922445
99.9667912722
99.9667912722
100.801052451
100.780402422
100.383921862
100.801052451
99.9502712488
100.784532428
100.367401838
100.801052451
100.796922445
101.197533011
100.363271832
100.801052451
100.784532428
100.796922445
100.367401838
100.780402422
100.346751809
100.801052451
100.780402422
99.9544012547
100.763882399
100.367401838
100.400441885
100.383921862
100.850612521
100.780402422
99.9172312021
100.780402422
99.9502712488

Average distance is : 100.530 cm
Average deviation is : 0.371 cm
Block: 8
======================================
100.780402422
100.801052451
100.367401838
99.9502712488
101.251223087
100.367401838
101.181012988
100.780402422
100.784532428
100.780402422
100.367401838
100.367401838
99.9337512255
100.330231786
100.747362375
100.400441885
100.834092498
99.9998313189
100.383921862
100.834092498
100.437611938
100.346751809
101.214053035
100.780402422
100.363271832
100.784532428
100.350881815
100.367401838
100.367401838
99.9502712488
100.383921862
100.367401838
100.540862083
101.197533011
99.9502712488
100.780402422
100.780402422
99.9502712488
100.780402422
100.801052451
100.367401838
100.763882399
99.9502712488
100.383921862
100.801052451
100.763882399
100.801052451
100.780402422
100.367401838
100.763882399
100.796922445
100.801052451
99.9544012547
100.367401838
99.9337512255
100.780402422
99.9337512255
99.8800611496
99.5372706652
99.8965811729
99.5372706652
100.780402422
99.9502712488
99.516620636
99.9172312021
99.516620636
99.9502712488
100.763882399
99.9337512255
99.9502712488
100.780402422
100.768012404
99.9502712488
101.664223671
100.784532428

Average distance is : 100.442 cm
Average deviation is : 0.453 cm
Block: 9
======================================
101.300783157
100.801052451
100.400441885
101.631183624
100.784532428
100.350881815
100.367401838
100.383921862
101.234703064
100.834092498
100.801052451
100.784532428
100.383921862
100.363271832
100.784532428
100.780402422
100.383921862
100.367401838
100.784532428
100.780402422
100.801052451
100.730842352
100.817572474
100.796922445
101.214053035
100.796922445
100.784532428
100.383921862
99.9667912722
101.218183041
100.813442469
100.780402422
100.367401838
100.784532428
100.780402422
100.363271832
100.784532428
100.780402422
99.9667912722
100.784532428
99.9502712488
100.784532428
99.970921278
100.763882399
99.9502712488
100.383921862
100.363271832
100.796922445
99.9337512255
100.367401838
100.383921862
99.9502712488
100.350881815
99.9502712488
100.780402422
100.346751809
100.383921862
100.784532428
99.9667912722
100.780402422
99.9544012547
100.363271832
99.9296212196
100.363271832
100.367401838
99.9667912722
100.367401838
100.367401838
100.350881815
100.367401838
100.367401838
100.784532428
99.9337512255
100.763882399
99.9337512255

Average distance is : 100.522 cm
Average deviation is : 0.378 cm
Block: 10
======================================
100.780402422
106.880421042
100.416961908
100.780402422
100.817572474
99.9337512255
101.218183041
100.834092498
100.780402422
100.796922445
100.801052451
100.780402422
100.780402422
100.817572474
100.330231786
100.437611938
100.801052451
100.350881815
100.796922445
100.350881815
100.834092498
100.400441885
100.834092498
100.784532428
100.346751809
99.9337512255
100.801052451
99.9502712488
100.780402422
100.817572474
100.784532428
99.9337512255
100.780402422
100.383921862
100.350881815
100.367401838
100.796922445
100.784532428
100.367401838
99.9502712488
100.780402422
99.9502712488
100.350881815
99.9172312021
100.801052451
100.768012404
99.9502712488
100.763882399
100.367401838
100.763882399
100.780402422
100.801052451
100.780402422
100.784532428
100.350881815
100.801052451
99.9337512255
99.9007111788
99.5372706652
100.107211471
99.5537906885
99.9007111788
99.5331406593
99.4835805893
99.9502712488
100.350881815
99.9337512255
99.5001006126
99.9502712488
99.516620636
99.516620636
100.367401838
100.350881815
100.796922445
100.363271832

Average distance is : 100.490 cm
Average deviation is : 0.868 cm
Average distance for 10x75 is : 100.490 cm
Average deviation for 10x75 is : 0.441 cm
 Percentage of values that failed: 0.000