
Block: 1
======================================
99.136660099
99.6240007877
99.1160100698
99.136660099
99.5868307352
99.4835805893
99.0829700232
99.1036200523
99.136660099
99.1573101282
99.136660099
99.1531801224
99.5703107119
99.1201400757
99.5001006126
99.1160100698
99.1573101282
99.136660099
99.0994900465
99.136660099
99.1738301516
99.1531801224
99.1531801224
99.1697001457
99.136660099
99.136660099
99.0994900465
99.1573101282
99.1738301516
99.5703107119
99.1738301516
99.136660099
99.136660099
99.136660099
99.1531801224
99.136660099
99.136660099
99.1201400757
99.4835805893
99.1201400757
99.1201400757
99.1160100698
99.1036200523
99.1573101282
99.1531801224
99.136660099
99.5537906885
99.1160100698
99.136660099
99.1903501749
99.1201400757
99.1201400757
99.1160100698
99.1201400757
99.1201400757
99.1573101282
99.136660099
99.136660099
99.136660099
99.1201400757
99.1160100698
99.5703107119
99.1531801224
99.136660099
99.1160100698
99.1201400757
99.1160100698
99.1201400757
99.087100029
99.1201400757
99.136660099
99.1738301516
99.1201400757
99.1531801224
99.1160100698

Block: 2
======================================
99.5703107119
99.1201400757
99.136660099
98.3560889959
99.5537906885
99.1697001457
99.0829700232
99.136660099
99.1201400757
99.136660099
99.516620636
99.136660099
99.1160100698
99.5703107119
99.136660099
99.136660099
99.1201400757
99.5331406593
99.1036200523
99.1036200523
99.0994900465
99.1036200523
99.1201400757
99.136660099
99.1160100698
99.5703107119
99.0664499998
99.0994900465
99.136660099
99.1160100698
99.1573101282
99.136660099
99.0994900465
99.0994900465
99.1036200523
99.1201400757
99.1201400757
98.7030094862
99.136660099
99.1573101282
99.1201400757
99.1531801224
99.136660099
99.136660099
99.1036200523
99.1201400757
99.136660099
99.1738301516
100.383921862
99.1531801224
99.5703107119
99.1201400757
99.136660099
99.136660099
99.1531801224
99.1738301516
99.1531801224
99.1201400757
99.1531801224
99.1531801224
99.136660099
99.1201400757
99.136660099
99.1201400757
99.136660099
99.1531801224
99.136660099
99.5537906885
99.136660099
99.1201400757
99.1573101282
99.1531801224
99.1531801224
99.1201400757
99.1573101282

Block: 3
======================================
99.5372706652
99.8098510504
99.1201400757
99.1697001457
99.1531801224
99.5537906885
99.1201400757
99.136660099
99.1531801224
99.136660099
99.1531801224
99.136660099
99.1531801224
99.1697001457
99.136660099
99.136660099
99.1201400757
99.136660099
99.1531801224
99.136660099
99.1697001457
99.1201400757
99.136660099
99.1697001457
99.1573101282
99.1573101282
99.1531801224
99.1573101282
99.5496606827
99.1201400757
99.136660099
99.1573101282
99.1201400757
99.1573101282
99.1201400757
99.4629305601
99.1573101282
99.136660099
99.1531801224
99.1697001457
99.136660099
99.1160100698
99.1160100698
99.136660099
99.136660099
99.5207506418
98.7732195854
99.5372706652
99.0994900465
99.136660099
99.1531801224
99.136660099
99.1531801224
99.1738301516
99.136660099
99.1531801224
99.136660099
99.4835805893
99.1201400757
99.136660099
99.136660099
99.1160100698
99.1201400757
99.1036200523
99.1036200523
99.5207506418
99.1201400757
99.1201400757
99.3968504667
99.136660099
99.1036200523
99.5703107119
99.1201400757
99.1201400757
98.8434296846

Block: 4
======================================
99.1201400757
99.516620636
99.136660099
99.0829700232
99.136660099
99.1201400757
99.1201400757
99.1201400757
99.1201400757
99.136660099
99.0829700232
99.1201400757
99.1160100698
99.1201400757
99.1036200523
99.1036200523
99.1201400757
99.1160100698
99.1036200523
99.087100029
99.1036200523
99.1201400757
99.1036200523
99.0994900465
99.1036200523
99.1036200523
99.1036200523
99.1201400757
99.0994900465
99.0994900465
99.0994900465
99.1036200523
99.1036200523
99.1201400757
99.136660099
99.136660099
99.1160100698
99.1201400757
99.1036200523
99.1036200523
99.087100029
99.0829700232
99.1201400757
99.1036200523
99.1036200523
99.5372706652
99.1201400757
99.0664499998
99.1036200523
99.1036200523
99.5001006126
99.1201400757
99.1201400757
99.1201400757
99.1036200523
99.0829700232
99.0829700232
99.1036200523
99.0664499998
99.5001006126
99.1036200523
99.1036200523
99.0829700232
99.0829700232
99.0664499998
99.1036200523
99.1036200523
99.1201400757
99.087100029
99.0994900465
99.0994900465
99.1201400757
99.1036200523
99.1036200523
99.1201400757

Block: 5
======================================
99.1036200523
88.9851057529
99.0664499998
99.087100029
99.087100029
99.5372706652
99.0829700232
99.1036200523
99.1201400757
99.1160100698
99.0829700232
99.087100029
99.1036200523
99.0994900465
99.0829700232
99.1201400757
99.1036200523
99.1036200523
99.087100029
99.087100029
99.0994900465
99.0994900465
99.0829700232
99.087100029
99.1036200523
99.0994900465
99.1201400757
99.1036200523
99.1201400757
99.1036200523
99.087100029
99.1201400757
99.1036200523
99.1201400757
99.1036200523
99.0994900465
99.0994900465
99.5042306185
99.5372706652
99.1160100698
99.1036200523
99.0829700232
99.1201400757
99.1036200523
99.1201400757
99.5537906885
99.0994900465
99.1201400757
99.0829700232
99.087100029
99.0829700232
99.6033507586
99.1036200523
99.1201400757
99.0994900465
99.1036200523
99.1036200523
99.0829700232
99.1036200523
99.0664499998
99.087100029
99.1201400757
99.1201400757
99.5703107119
99.136660099
99.136660099
99.5496606827
99.1201400757
99.1036200523
99.087100029
99.136660099
99.1201400757
99.1036200523
99.0994900465
99.1201400757

Block: 6
======================================
99.5868307352
99.5703107119
99.0994900465
99.0705800056
99.136660099
99.1036200523
99.1036200523
99.1036200523
99.1160100698
99.1201400757
99.1201400757
99.1201400757
99.087100029
99.1201400757
99.1201400757
99.136660099
99.1531801224
99.1201400757
99.1201400757
99.1201400757
99.0994900465
99.1201400757
99.1160100698
99.1531801224
99.1160100698
99.1036200523
99.1201400757
99.1201400757
99.1201400757
99.1160100698
99.1201400757
99.0994900465
99.1201400757
99.1201400757
99.136660099
99.1201400757
99.087100029
99.1036200523
99.0994900465
99.1531801224
99.087100029
99.1036200523
99.1036200523
99.1036200523
99.136660099
99.0994900465
99.0829700232
99.0994900465
99.0664499998
99.1036200523
99.1201400757
99.087100029
99.1738301516
99.1201400757
99.1201400757
99.0829700232
99.1160100698
99.1201400757
99.0994900465
99.136660099
99.1201400757
99.0829700232
98.8062596321
99.0994900465
99.1201400757
99.1201400757
99.136660099
99.087100029
99.1201400757
99.1201400757
99.1201400757
99.1201400757
99.1201400757
99.0829700232
99.1201400757

Block: 7
======================================
99.0705800056
99.5001006126
99.516620636
99.136660099
99.1036200523
99.1036200523
99.0664499998
99.1201400757
99.5537906885
99.1201400757
99.136660099
99.1201400757
99.0994900465
99.0994900465
99.1201400757
99.0994900465
99.1036200523
99.0994900465
99.1201400757
99.1201400757
99.1036200523
99.087100029
99.1201400757
99.0829700232
99.1036200523
99.1160100698
99.087100029
99.1160100698
99.1036200523
99.1201400757
99.1201400757
99.1036200523
99.1036200523
99.136660099
99.1201400757
99.087100029
99.1201400757
99.087100029
99.1160100698
99.0994900465
99.0994900465
99.0829700232
99.136660099
99.1036200523
99.087100029
99.0994900465
99.1201400757
99.0994900465
99.1201400757
99.1036200523
99.136660099
99.136660099
99.0994900465
99.0829700232
99.1036200523
99.0994900465
99.1201400757
99.1036200523
99.0829700232
99.087100029
99.0829700232
99.1036200523
99.5001006126
99.136660099
99.136660099
99.0829700232
99.136660099
99.0994900465
99.087100029
99.087100029
99.0829700232
99.136660099
99.0829700232
99.0829700232
99.1036200523

Block: 8
======================================
99.0994900465
99.1201400757
99.087100029
99.1036200523
99.5703107119
99.5496606827
99.5496606827
99.5703107119
99.1201400757
99.5372706652
99.5537906885
99.0829700232
99.1201400757
99.5537906885
99.1160100698
99.1201400757
99.0994900465
99.1036200523
99.1160100698
99.136660099
99.1531801224
99.136660099
99.1036200523
99.136660099
99.5207506418
99.1036200523
99.087100029
99.1036200523
99.1036200523
99.1201400757
99.1201400757
99.1573101282
99.1160100698
99.1201400757
99.1160100698
99.1531801224
99.136660099
99.0994900465
99.1036200523
99.0829700232
99.1201400757
99.4670605659
99.1201400757
99.0994900465
99.1036200523
99.136660099
99.5537906885
99.1036200523
99.1201400757
99.0994900465
99.1036200523
99.1160100698
99.0994900465
99.136660099
99.136660099
99.1201400757
99.136660099
99.5372706652
99.1201400757
99.1531801224
99.1201400757
99.136660099
99.1201400757
99.136660099
99.1201400757
99.136660099
99.1160100698
99.136660099
99.5001006126
99.136660099
99.1036200523
99.1201400757
99.136660099
99.1201400757
99.5537906885

Block: 9
======================================
99.5703107119
99.0994900465
99.1531801224
99.087100029
99.5703107119
99.516620636
99.5537906885
99.5001006126
99.1036200523
99.1160100698
99.1160100698
99.1201400757
99.1036200523
99.0994900465
99.1201400757
99.0994900465
99.136660099
99.1201400757
99.1201400757
99.1201400757
99.0994900465
99.136660099
99.136660099
99.136660099
99.136660099
99.1160100698
99.1201400757
99.1201400757
99.0994900465
99.1531801224
99.1201400757
99.1036200523
99.136660099
99.087100029
99.9007111788
99.0499299765
99.1036200523
99.1201400757
99.1160100698
99.136660099
99.1201400757
99.1201400757
99.1201400757
99.136660099
99.1160100698
99.0829700232
99.1036200523
99.0829700232
99.0994900465
99.1160100698
99.0829700232
99.516620636
99.1531801224
99.087100029
99.0994900465
99.1160100698
99.1160100698
99.1036200523
99.1036200523
99.136660099
99.0994900465
99.136660099
99.136660099
99.1036200523
99.1201400757
99.1201400757
99.0994900465
99.1036200523
99.1036200523
99.0994900465
99.0829700232
99.1036200523
99.1036200523
99.1201400757
99.1201400757

Block: 10
======================================
99.1201400757
99.1201400757
99.5001006126
99.0829700232
99.1036200523
99.1036200523
99.087100029
99.1201400757
99.1201400757
99.087100029
99.0829700232
99.1036200523
99.1201400757
99.0994900465
99.136660099
99.0829700232
99.1036200523
99.1036200523
99.0829700232
99.0994900465
99.1160100698
99.1201400757
99.136660099
99.1036200523
99.0664499998
99.0994900465
99.1201400757
99.0994900465
99.1201400757
99.0994900465
99.1201400757
99.136660099
99.1036200523
99.087100029
99.1201400757
99.1036200523
99.1201400757
99.087100029
99.0994900465
99.0664499998
99.087100029
99.1036200523
99.1531801224
99.1036200523
99.1201400757
99.0664499998
99.1036200523
99.1201400757
99.1036200523
99.0829700232
99.0829700232
99.1201400757
99.1036200523
99.1201400757
99.1036200523
99.5537906885
99.1036200523
99.1036200523
99.087100029
99.1036200523
99.0829700232
99.136660099
99.0994900465
99.0829700232
99.5372706652
99.1201400757
99.1036200523
99.1160100698
99.1201400757
99.0829700232
99.1036200523
99.0994900465
99.087100029
99.1160100698
99.0994900465
