
Block: 1
======================================
398.893422961
399.281581378
399.293711329
399.350317764
193.856825948

Average distance is : 358.135 cm
Average deviation is : 91.835 cm
Block: 2
======================================
399.350317764
196.75992744
399.362447715
399.350317764
399.297754645

Average distance is : 358.824 cm
Average deviation is : 90.597 cm
Block: 3
======================================
399.281581378
192.401231885
399.265408111
399.265408111
399.297754645

Average distance is : 357.902 cm
Average deviation is : 92.518 cm
Block: 4
======================================
399.31797123
194.265200949
398.501221228
194.786788821
398.840859842

Average distance is : 317.142 cm
Average deviation is : 111.933 cm
Block: 5
======================================
399.245191526
399.297754645
399.313927913
399.261364794
194.398630404

Average distance is : 358.303 cm
Average deviation is : 91.626 cm
Block: 6
======================================
399.212844992
399.706129646
399.212844992
399.653566527
399.16432519

Average distance is : 399.390 cm
Average deviation is : 0.266 cm
Block: 7
======================================
400.146851182
399.689956379
399.738476181
399.245191526
399.689956379

Average distance is : 399.702 cm
Average deviation is : 0.319 cm
Block: 8
======================================
399.738476181
399.7910393
399.754649448
399.774866033
399.754649448

Average distance is : 399.763 cm
Average deviation is : 0.020 cm
Block: 9
======================================
398.889379644
398.905552912
398.873206377
398.873206377
196.08065021

Average distance is : 358.324 cm
Average deviation is : 90.697 cm
Block: 10
======================================
399.313927913
399.313927913
399.313927913
399.350317764
399.313927913

Average distance is : 399.321 cm
Average deviation is : 0.016 cm