
Block: 1
======================================
399.346274447
399.346274447
195.995740557
396.839418006
399.33010118
398.873206377
398.893422961
399.313927913
399.313927913
399.350317764
399.334144497
399.366491032
399.334144497
195.195163822
398.54974103
399.350317764
195.61971209
397.635951424
399.366491032
194.705922484
397.720861077
197.281515312
396.887937808
195.975523973
396.887937808
399.362447715
194.346067286
398.925769496
399.313927913
399.313927913
194.006428671
398.501221228
399.33010118
196.129170012
397.24374969
196.096823478
397.652124691
399.33010118
399.313927913
195.30029006
398.481004643
399.33010118
399.350317764
399.313927913
194.447150207
398.85703311
399.297754645
399.722302914
399.346274447
399.378620982
399.366491032
399.366491032
399.346274447
399.382664299
399.350317764
399.297754645
399.382664299
398.905552912
194.451193523
398.941942763
398.893422961
399.33010118
398.921726179
398.893422961
398.905552912
399.346274447
398.873206377
398.925769496
399.350317764
399.362447715
398.905552912
398.909596229
398.941942763
398.941942763
398.921726179
398.941942763
398.925769496
398.921726179
398.925769496
399.33010118
194.350110602
398.533567762
398.937899446
398.889379644
398.481004643
398.925769496
398.937899446
398.941942763
196.893356895
396.855591273
398.921726179
398.925769496
398.958116031
399.346274447
399.350317764
399.362447715
398.893422961
399.33010118
399.382664299
399.362447715

Block: 2
======================================
399.346274447
399.346274447
399.706129646
399.738476181
399.738476181
399.293711329
399.734432864
399.738476181
399.738476181
399.702086329
399.261364794
399.738476181
399.738476181
399.722302914
399.702086329
399.722302914
399.706129646
399.334144497
399.722302914
399.31797123
399.722302914
399.277538061
399.249234843
399.33010118
399.313927913
399.277538061
399.261364794
399.722302914
399.297754645
399.689956379
399.261364794
399.297754645
399.245191526
399.281581378
399.277538061
194.046861839
398.852989793
399.281581378
399.297754645
399.685913062
399.261364794
399.734432864
399.313927913
399.685913062
399.754649448
399.245191526
399.245191526
399.722302914
399.297754645
399.265408111
399.669739795
399.685913062
399.722302914
399.669739795
399.669739795
193.634443521
399.265408111
399.702086329
399.706129646
194.010471988
398.448658109
399.297754645
399.702086329
399.313927913
399.313927913
399.297754645
399.261364794
399.265408111
399.718259597
399.334144497
399.281581378
195.757184863
399.297754645
399.346274447
399.722302914
399.738476181
399.722302914
399.770822716
399.33010118
399.754649448
399.382664299
399.419054151
193.165418768
398.889379644
399.350317764
399.758692765
399.33010118
399.350317764
195.183033872
399.313927913
399.313927913
399.33010118
194.414803672
398.925769496
398.921726179
399.7910393
398.889379644
399.350317764
399.770822716
399.738476181

Block: 3
======================================
399.7910393
399.807212567
399.738476181
399.738476181
193.925562334
398.941942763
196.028087091
397.296312809
197.281515312
398.958116031
193.925562334
398.941942763
399.33010118
194.414803672
398.092846227
399.334144497
194.414803672
398.925769496
193.537403917
398.517394495
195.247726941
398.113062811
195.227510357
398.145409346
194.758485603
398.941942763
399.382664299
193.941735601
398.978332615
399.334144497
193.990255404
398.517394495
399.382664299
399.33010118
398.958116031
398.974289298
196.096823478
396.871764541
399.382664299
193.961952186
398.909596229
197.807146502
398.501221228
398.909596229
195.280073476
398.092846227
398.909596229
195.247726941
396.835374689
398.921726179
194.82722199
398.109019494
196.521371746
398.056456375
196.974223232
397.631908107
196.622454667
398.076672959
398.941942763
194.823178673
397.684471226
398.941942763
398.889379644
398.925769496
195.296246743
397.603604889
398.958116031
398.925769496
398.925769496
398.873206377
197.402814817
396.823244739
398.889379644
399.334144497
398.937899446
196.658844519
399.265408111
399.334144497
399.362447715
399.350317764
398.909596229
398.941942763
399.366491032
399.346274447
398.941942763
399.774866033
399.366491032
399.807212567
399.33010118
399.378620982
399.33010118
399.313927913
399.33010118
399.350317764
399.33010118
193.941735601
398.925769496
399.382664299
399.770822716
399.334144497

Block: 4
======================================
399.718259597
399.702086329
399.754649448
399.685913062
399.706129646
400.130677915
399.718259597
399.722302914
399.754649448
399.754649448
399.706129646
399.293711329
399.297754645
399.722302914
399.297754645
399.297754645
399.738476181
399.702086329
399.297754645
399.33010118
399.33010118
399.706129646
399.738476181
193.602096987
399.366491032
399.738476181
399.706129646
399.313927913
399.346274447
399.754649448
399.334144497
399.297754645
399.33010118
399.313927913
399.297754645
398.85703311
399.313927913
399.31797123
398.873206377
399.313927913
399.313927913
399.313927913
399.313927913
399.293711329
399.350317764
399.313927913
399.706129646
399.738476181
399.754649448
399.722302914
399.281581378
399.722302914
399.738476181
399.265408111
399.722302914
399.738476181
399.722302914
400.142807865
399.689956379
399.722302914
399.738476181
400.163024449
399.738476181
399.722302914
399.738476181
399.702086329
399.734432864
399.754649448
399.718259597
399.754649448
399.754649448
399.722302914
399.754649448
399.738476181
194.414803672
398.909596229
399.754649448
399.738476181
399.261364794
399.758692765
399.718259597
399.346274447
399.346274447
399.334144497
399.754649448
399.313927913
399.346274447
194.807005405
398.941942763
194.807005405
398.517394495
399.382664299
399.346274447
399.350317764
399.313927913
193.808306146
399.738476181
398.909596229
399.350317764
399.346274447

Block: 5
======================================
398.905552912
398.941942763
398.905552912
193.877042532
398.909596229
399.350317764
398.889379644
398.873206377
398.941942763
398.905552912
398.941942763
398.905552912
398.909596229
398.921726179
398.958116031
398.909596229
398.958116031
399.366491032
398.537611079
398.958116031
398.958116031
398.925769496
398.889379644
398.958116031
398.941942763
398.941942763
398.925769496
398.974289298
398.501221228
398.958116031
398.958116031
398.921726179
398.941942763
398.921726179
398.958116031
398.958116031
398.958116031
398.905552912
398.921726179
398.941942763
398.921726179
398.921726179
398.481004643
398.889379644
399.297754645
398.889379644
398.941942763
398.905552912
398.889379644
398.925769496
398.464831376
398.889379644
398.481004643
398.941942763
398.873206377
398.464831376
398.941942763
398.925769496
398.941942763
398.889379644
398.941942763
398.941942763
398.464831376
398.905552912
398.889379644
398.941942763
398.905552912
398.925769496
398.941942763
398.909596229
398.941942763
398.909596229
398.889379644
398.941942763
398.873206377
398.921726179
399.313927913
398.925769496
399.350317764
399.313927913
399.366491032
398.958116031
398.905552912
195.995740557
398.54974103
398.893422961
398.958116031
398.921726179
398.873206377
195.603538823
398.517394495
399.313927913
398.889379644
399.313927913
399.346274447
399.297754645
399.334144497
399.350317764
398.905552912
194.774658871

Block: 6
======================================
398.889379644
399.334144497
398.889379644
399.313927913
399.297754645
399.33010118
399.313927913
399.366491032
398.889379644
399.297754645
398.921726179
398.893422961
399.313927913
399.362447715
399.366491032
399.313927913
398.905552912
399.350317764
398.905552912
399.350317764
399.346274447
399.334144497
399.346274447
398.909596229
399.33010118
399.346274447
398.889379644
399.366491032
398.893422961
399.346274447
399.33010118
398.941942763
398.889379644
194.786788821
398.517394495
399.31797123
193.90534575
398.501221228
399.313927913
399.346274447
398.889379644
195.21133709
397.631908107
195.195163822
398.125192761
398.889379644
398.941942763
398.905552912
196.484981894
398.092846227
398.873206377
398.921726179
398.905552912
398.958116031
398.448658109
398.905552912
398.889379644
398.921726179
398.909596229
399.362447715
398.893422961
398.925769496
398.921726179
398.925769496
398.48504796
398.48504796
398.941942763
398.958116031
398.941942763
398.921726179
398.893422961
398.925769496
398.921726179
398.889379644
398.893422961
398.873206377
250.075103307
398.48504796
398.889379644
398.925769496
398.909596229
398.905552912
398.909596229
398.921726179
398.873206377
398.925769496
398.905552912
251.874379301
398.060499692
398.925769496
398.905552912
399.362447715
398.873206377
399.350317764
398.905552912
398.941942763
398.925769496
194.738269019
398.109019494
198.336821008

Block: 7
======================================
399.33010118
399.313927913
399.297754645
248.858064938
398.958116031
399.346274447
399.350317764
399.738476181
399.754649448
399.754649448
399.738476181
399.754649448
399.722302914
399.7910393
399.754649448
399.770822716
399.807212567
399.366491032
399.366491032
399.378620982
399.402880883
193.040075946
398.533567762
399.366491032
399.398837566
251.332574844
398.958116031
398.941942763
399.362447715
399.382664299
194.774658871
398.17775588
194.281374216
399.026852417
399.362447715
399.366491032
399.366491032
399.346274447
399.313927913
194.790832138
398.109019494
399.334144497
398.941942763
194.754442286
398.129236078
399.346274447
398.941942763
398.958116031
398.889379644
398.941942763
398.921726179
398.958116031
399.350317764
194.807005405
398.481004643
398.905552912
398.909596229
398.889379644
398.925769496
398.921726179
399.350317764
398.889379644
398.788296723
399.33010118
399.33010118
398.893422961
399.31797123
399.31797123
399.334144497
399.297754645
399.33010118
398.889379644
399.334144497
399.313927913
399.33010118
398.889379644
399.722302914
399.33010118
399.33010118
399.350317764
399.31797123
398.909596229
399.33010118
399.334144497
398.85703311
399.33010118
399.33010118
399.722302914
399.738476181
399.718259597
399.734432864
399.334144497
399.738476181
399.722302914
399.754649448
399.738476181
399.738476181
399.754649448
399.722302914
399.7910393

Block: 8
======================================
399.738476181
399.702086329
399.738476181
399.738476181
399.281581378
399.738476181
399.754649448
399.281581378
399.754649448
399.293711329
399.774866033
399.718259597
399.334144497
399.313927913
399.770822716
399.774866033
399.738476181
399.346274447
399.738476181
399.770822716
399.754649448
399.758692765
399.722302914
399.313927913
399.313927913
399.738476181
399.770822716
399.738476181
399.754649448
193.517187333
399.33010118
399.31797123
193.957908869
398.921726179
399.281581378
399.770822716
399.734432864
193.925562334
398.464831376
399.754649448
399.702086329
399.754649448
399.722302914
399.722302914
399.738476181
193.957908869
398.481004643
399.297754645
399.702086329
399.297754645
399.754649448
399.738476181
399.706129646
194.36628387
398.905552912
399.277538061
399.718259597
399.738476181
399.706129646
399.754649448
399.738476181
399.738476181
399.706129646
399.722302914
399.754649448
399.738476181
399.738476181
400.179197717
399.297754645
196.489025211
398.873206377
197.758626699
395.076531863
197.758626699
398.48504796
196.076606894
398.464831376
198.094221997
398.129236078
195.077907634
399.754649448
194.738269019
397.413568997
399.770822716
399.758692765
399.738476181
399.770822716
399.297754645
399.754649448
399.722302914
399.722302914
399.297754645
399.738476181
399.334144497
399.738476181
399.313927913
399.350317764
399.738476181
399.754649448
399.334144497

Block: 9
======================================
398.889379644
193.209895253
399.33010118
398.893422961
193.824479413
398.873206377
195.14664402
398.072629642
398.889379644
195.332636595
398.517394495
398.893422961
195.094080901
397.631908107
196.282816052
398.109019494
195.922960854
398.044326425
398.909596229
398.432484841
196.808447242
396.819201422
196.77205739
398.092846227
398.85703311
398.889379644
398.85703311
398.893422961
398.416311574
398.873206377
398.909596229
398.85703311
398.873206377
398.905552912
398.873206377
193.432277679
398.501221228
398.889379644
194.297547483
397.603604889
398.464831376
195.550975704
398.072629642
398.873206377
398.925769496
398.925769496
398.464831376
398.889379644
194.738269019
398.497177911
398.905552912
398.905552912
194.244984365
398.517394495
398.468874693
398.840859842
193.468667531
398.464831376
398.448658109
398.873206377
196.011913824
397.179056621
398.889379644
398.909596229
398.448658109
398.889379644
194.556319761
398.040283108
398.909596229
398.85703311
398.432484841
398.905552912
398.909596229
398.905552912
398.873206377
194.297547483
398.468874693
398.893422961
195.110254169
398.481004643
398.889379644
398.909596229
398.909596229
194.281374216
397.635951424
398.873206377
398.432484841
398.873206377
398.909596229
398.873206377
398.840859842
398.905552912
398.85703311
398.873206377
398.873206377
398.85703311
398.905552912
398.416311574
398.873206377
398.840859842

Block: 10
======================================
398.85703311
398.873206377
398.873206377
398.873206377
398.383965039
398.840859842
398.416311574
398.889379644
398.873206377
398.432484841
398.400138307
398.852989793
398.820643258
398.85703311
398.416311574
193.436320996
398.448658109
398.852989793
398.852989793
398.85703311
399.249234843
398.873206377
398.85703311
398.873206377
398.873206377
398.400138307
399.297754645
399.297754645
398.873206377
398.85703311
398.820643258
398.39609499
398.840859842
399.281581378
399.281581378
398.85703311
399.297754645
398.820643258
398.820643258
398.852989793
398.840859842
399.277538061
398.85703311
399.261364794
399.281581378
399.261364794
398.889379644
398.824686575
399.245191526
399.261364794
398.836816525
399.281581378
398.820643258
399.297754645
399.265408111
398.889379644
398.873206377
399.313927913
399.281581378
399.297754645
399.277538061
398.893422961
398.873206377
398.889379644
398.416311574
398.836816525
398.873206377
398.85703311
398.873206377
398.39609499
398.452701426
398.85703311
398.416311574
398.432484841
398.85703311
398.85703311
398.85703311
398.820643258
398.824686575
398.379921722
397.955373454
398.873206377
398.873206377
398.852989793
398.416311574
398.820643258
398.416311574
398.852989793
195.05769105
398.007936573
398.412268257
398.412268257
398.836816525
195.025344515
398.02410984
398.840859842
398.85703311
398.39609499
398.836816525
398.379921722
