
Block: 1
======================================
301.000247145
301.032767057
301.016507101
300.12627449
300.110014534
301.016507101
300.110014534
299.666930723
300.553098345
300.093754578
300.553098345
301.028702068
301.016507101
300.12627449
300.110014534
300.114079523
301.42300601
300.589683247
300.57342329
301.032767057
300.130339479
300.557163334
300.569358301
300.12627449
299.68319068
300.569358301
301.028702068
300.569358301
301.012442112
300.12627449
301.028702068
301.028702068
300.110014534
301.012442112
301.028702068
301.000247145
301.032767057
300.146599436
300.996182156
300.569358301
301.012442112
300.110014534
300.130339479
300.162859392
300.130339479
300.130339479
300.130339479
300.130339479
301.016507101
300.146599436
300.130339479
300.146599436
300.553098345
301.049027014
301.000247145
300.130339479
300.12627449
300.130339479
300.146599436
300.12627449
300.12627449
300.142534447
300.130339479
301.016507101
300.589683247
301.012442112
300.569358301
300.162859392
300.12627449
301.492110825
301.012442112
300.12627449
300.130339479
301.028702068
301.028702068
300.12627449
301.049027014
300.589683247
300.130339479
300.146599436
300.12627449
301.012442112
300.158794403
300.142534447
300.12627449
300.146599436
300.57342329
300.12627449
300.585618258
300.569358301
301.028702068
301.028702068
300.158794403
300.553098345
300.146599436
301.06528697
300.130339479
300.130339479
300.146599436
300.146599436

Average distance is : 300.491 cm
Average deviation is : 0.428 cm
Block: 2
======================================
300.569358301
300.57342329
300.130339479
300.146599436
300.589683247
300.158794403
300.195379305
300.089689589
300.179119349
300.605943203
300.589683247
300.589683247
301.455525923
299.703515625
300.589683247
300.585618258
300.585618258
300.605943203
300.585618258
300.179119349
300.585618258
300.57342329
300.589683247
300.57342329
300.605943203
300.12627449
300.589683247
300.12627449
300.158794403
300.142534447
300.605943203
300.146599436
300.146599436
300.146599436
300.162859392
300.622203159
300.585618258
300.601878214
301.06528697
300.158794403
300.601878214
300.585618258
300.605943203
300.589683247
301.044962025
300.585618258
300.605943203
300.605943203
300.146599436
299.736035538
300.12627449
300.605943203
300.146599436
300.622203159
300.601878214
300.142534447
300.142534447
300.605943203
300.605943203
300.605943203
301.049027014
300.162859392
300.162859392
300.605943203
300.585618258
300.179119349
299.699450636
300.792932701
299.699450636
300.585618258
300.162859392
300.158794403
300.142534447
300.162859392
301.049027014
300.589683247
300.622203159
300.605943203
299.703515625
299.719775581
300.605943203
299.715710592
300.601878214
300.179119349
300.162859392
299.719775581
300.179119349
299.699450636
300.162859392
300.162859392
300.162859392
299.719775581
300.179119349
300.585618258
299.699450636
301.455525923
299.68319068
300.158794403
300.146599436
300.589683247

Average distance is : 300.363 cm
Average deviation is : 0.371 cm
Block: 3
======================================
301.016507101
300.142534447
299.699450636
300.162859392
299.703515625
299.699450636
299.68319068
300.142534447
299.68319068
299.68319068
300.162859392
299.731970549
208.533940315
300.179119349
208.147766352
301.012442112
300.146599436
300.162859392
209.355068111
300.536838388
300.142534447
300.605943203
300.162859392
300.146599436
300.146599436
301.049027014
299.68319068
210.224975777
298.866127872
300.142534447
299.68319068
300.12627449
300.142534447
300.12627449
300.142534447
300.179119349
300.130339479
300.12627449
300.601878214
300.12627449
300.12627449
300.569358301
300.179119349
300.179119349
300.162859392
300.589683247
300.605943203
300.622203159
300.605943203
300.585618258
300.585618258
300.142534447
300.601878214
299.715710592
300.605943203
299.68319068
301.049027014
299.703515625
300.179119349
300.130339479
300.589683247
301.049027014
300.142534447
300.12627449
300.12627449
300.622203159
300.589683247
299.703515625
300.589683247
300.589683247
300.142534447
300.601878214
300.142534447
300.12627449
300.57342329
300.110014534
300.142534447
300.130339479
300.146599436
300.605943203
300.130339479
300.142534447
299.68319068
300.585618258
300.589683247
299.699450636
300.12627449
299.699450636
300.589683247
299.703515625
300.589683247
300.605943203
300.605943203
300.589683247
300.146599436
300.589683247
299.699450636
300.57342329
301.028702068
299.68319068

Average distance is : 296.587 cm
Average deviation is : 17.960 cm
Block: 4
======================================
300.605943203
301.049027014
299.699450636
299.68319068
300.605943203
300.158794403
299.68319068
299.687255669
299.703515625
300.569358301
299.699450636
299.699450636
300.146599436
300.146599436
300.158794403
300.162859392
300.162859392
300.12627449
300.57342329
299.68319068
299.68319068
300.146599436
300.585618258
300.142534447
300.158794403
301.049027014
300.12627449
300.585618258
300.162859392
300.146599436
299.703515625
300.142534447
300.146599436
300.605943203
299.699450636
300.589683247
300.162859392
299.703515625
300.605943203
300.179119349
300.569358301
299.68319068
301.049027014
301.044962025
300.585618258
300.585618258
299.703515625
301.049027014
299.699450636
301.032767057
300.57342329
300.130339479
300.589683247
300.585618258
300.569358301
300.585618258
300.12627449
299.703515625
299.68319068
299.666930723
299.68319068
300.569358301
301.028702068
300.146599436
300.638463116
300.589683247
300.57342329
300.146599436
301.028702068
301.028702068
301.032767057
300.57342329
300.569358301
300.569358301
299.687255669
299.68319068
300.553098345
301.439265966
300.110014534
299.687255669
300.553098345
300.57342329
301.012442112
300.569358301
300.585618258
300.130339479
300.557163334
300.093754578
300.557163334
300.585618258
300.142534447
300.569358301
299.666930723
299.68319068
300.569358301
300.585618258
300.110014534
300.569358301
300.585618258
300.553098345

Average distance is : 300.311 cm
Average deviation is : 0.447 cm
Block: 5
======================================
301.012442112
300.605943203
300.146599436
300.093754578
300.158794403
301.012442112
300.162859392
300.605943203
300.146599436
301.032767057
300.162859392
300.569358301
300.57342329
300.57342329
300.12627449
299.68319068
301.049027014
299.479941225
301.028702068
299.68319068
301.028702068
300.585618258
300.142534447
301.012442112
301.439265966
300.146599436
300.12627449
301.028702068
300.553098345
301.032767057
300.142534447
300.142534447
300.146599436
300.12627449
300.569358301
301.455525923
299.68319068
301.049027014
300.12627449
300.142534447
300.142534447
300.142534447
301.049027014
300.589683247
301.032767057
301.049027014
300.110014534
300.569358301
300.589683247
300.114079523
300.158794403
301.012442112
299.687255669
300.142534447
300.130339479
300.158794403
300.142534447
300.142534447
300.158794403
300.110014534
300.158794403
300.158794403
300.146599436
301.028702068
301.016507101
300.146599436
300.146599436
300.12627449
299.666930723
300.569358301
300.605943203
300.146599436
300.12627449
300.146599436
300.12627449
301.032767057
299.687255669
301.028702068
300.146599436
301.032767057
300.57342329
301.016507101
299.68319068
300.146599436
300.12627449
301.459590912
300.146599436
300.12627449
300.12627449
299.68319068
300.146599436
301.032767057
301.016507101
301.032767057
300.569358301
301.032767057
300.146599436
299.68319068
300.585618258
300.57342329

Average distance is : 300.420 cm
Average deviation is : 0.471 cm
Block: 6
======================================
300.12627449
300.557163334
301.028702068
300.569358301
300.110014534
300.146599436
300.569358301
300.589683247
301.028702068
300.536838388
300.146599436
300.996182156
300.093754578
300.569358301
300.557163334
300.57342329
300.110014534
300.569358301
300.927077341
300.110014534
300.093754578
300.110014534
300.569358301
300.093754578
300.110014534
300.569358301
300.142534447
300.557163334
300.110014534
300.093754578
300.569358301
300.093754578
300.589683247
300.110014534
300.162859392
300.12627449
300.110014534
300.110014534
300.12627449
301.000247145
301.016507101
300.12627449
300.557163334
300.585618258
300.130339479
300.110014534
300.114079523
300.569358301
300.569358301
299.988064861
300.110014534
300.110014534
300.110014534
300.569358301
300.589683247
300.093754578
300.110014534
300.557163334
300.569358301
300.110014534
300.110014534
300.585618258
300.114079523
300.569358301
300.57342329
300.553098345
301.000247145
300.536838388
300.089689589
300.553098345
301.443330956
300.110014534
300.114079523
300.12627449
301.000247145
301.016507101
300.553098345
301.012442112
300.536838388
300.110014534
300.569358301
301.000247145
301.032767057
300.996182156
301.882349777
300.553098345
300.110014534
300.553098345
300.093754578
300.553098345
300.996182156
300.605943203
300.130339479
300.536838388
300.12627449
300.146599436
300.979922199
300.110014534
300.110014534
300.110014534

Average distance is : 300.440 cm
Average deviation is : 0.369 cm
Block: 7
======================================
300.110014534
300.996182156
300.589683247
300.130339479
300.110014534
300.110014534
300.553098345
300.569358301
300.536838388
300.553098345
300.536838388
300.569358301
300.553098345
300.130339479
300.12627449
300.57342329
301.000247145
300.57342329
300.553098345
301.028702068
300.569358301
300.130339479
300.110014534
300.130339479
300.093754578
300.589683247
300.110014534
300.110014534
300.093754578
300.110014534
300.553098345
300.110014534
300.110014534
301.012442112
300.12627449
300.996182156
300.536838388
300.589683247
301.000247145
300.093754578
301.012442112
301.000247145
301.032767057
301.012442112
300.996182156
300.589683247
300.12627449
300.536838388
300.57342329
300.979922199
301.012442112
300.12627449
300.979922199
301.016507101
300.996182156
300.536838388
301.016507101
301.012442112
300.093754578
300.585618258
299.670995712
300.110014534
300.553098345
300.110014534
300.12627449
301.000247145
300.130339479
300.110014534
300.130339479
300.110014534
300.130339479
300.589683247
300.601878214
300.601878214
300.110014534
300.110014534
300.585618258
300.557163334
300.110014534
300.12627449
301.012442112
301.032767057
300.110014534
300.110014534
300.553098345
300.093754578
300.110014534
300.114079523
300.569358301
300.110014534
300.110014534
300.569358301
300.57342329
300.093754578
300.110014534
301.012442112
300.12627449
300.142534447
300.130339479
301.032767057

Average distance is : 300.456 cm
Average deviation is : 0.366 cm
Block: 8
======================================
300.110014534
300.585618258
300.162859392
300.57342329
300.585618258
209.351003122
299.292951727
301.028702068
300.57342329
301.016507101
300.162859392
301.032767057
299.687255669
300.130339479
300.142534447
301.032767057
299.666930723
300.589683247
299.68319068
301.049027014
301.016507101
299.670995712
299.68319068
300.146599436
300.146599436
299.699450636
301.044962025
301.012442112
300.162859392
300.162859392
300.142534447
301.016507101
299.68319068
301.032767057
299.719775581
300.585618258
299.699450636
300.114079523
300.57342329
300.110014534
300.569358301
301.028702068
301.028702068
300.601878214
301.028702068
301.012442112
300.162859392
301.032767057
300.589683247
300.162859392
299.736035538
300.589683247
300.605943203
300.605943203
300.110014534
300.162859392
300.589683247
300.585618258
301.049027014
301.016507101
300.162859392
300.130339479
300.130339479
300.142534447
300.142534447
300.12627449
300.585618258
300.585618258
301.044962025
299.68319068
300.589683247
300.146599436
301.049027014
300.179119349
301.028702068
300.589683247
300.130339479
301.049027014
302.345758533
300.589683247
300.589683247
299.687255669
300.605943203
300.589683247
300.146599436
300.589683247
300.589683247
300.130339479
300.179119349
299.703515625
300.12627449
300.12627449
300.585618258
300.585618258
300.142534447
300.585618258
300.569358301
301.032767057
299.719775581
300.569358301

Average distance is : 299.514 cm
Average deviation is : 9.121 cm
Block: 9
======================================
300.12627449
300.146599436
300.093754578
300.093754578
300.553098345
301.032767057
300.589683247
300.585618258
300.162859392
301.032767057
300.589683247
299.699450636
300.589683247
300.130339479
299.68319068
300.585618258
299.703515625
299.703515625
300.12627449
300.589683247
300.589683247
300.585618258
300.130339479
300.130339479
300.569358301
300.110014534
300.57342329
300.57342329
300.589683247
300.162859392
300.569358301
300.569358301
300.605943203
301.028702068
300.569358301
301.016507101
299.68319068
300.569358301
300.605943203
300.12627449
300.12627449
300.585618258
300.110014534
300.114079523
300.130339479
300.601878214
300.585618258
301.049027014
300.589683247
300.589683247
300.569358301
300.569358301
301.028702068
300.12627449
300.589683247
300.589683247
301.471785879
300.093754578
300.589683247
301.049027014
300.57342329
301.032767057
300.585618258
301.028702068
301.028702068
301.028702068
301.032767057
301.902674723
301.032767057
300.569358301
300.162859392
301.012442112
301.902674723
300.110014534
300.569358301
300.589683247
301.044962025
300.569358301
301.044962025
300.12627449
300.114079523
301.049027014
300.146599436
300.589683247
300.130339479
300.585618258
301.012442112
300.130339479
300.12627449
300.605943203
300.146599436
300.12627449
300.162859392
300.142534447
300.12627449
300.146599436
300.569358301
300.569358301
300.585618258
301.028702068

Average distance is : 300.514 cm
Average deviation is : 0.429 cm
Block: 10
======================================
300.146599436
300.589683247
300.130339479
300.589683247
300.12627449
300.162859392
300.179119349
301.049027014
300.130339479
300.12627449
300.569358301
300.110014534
300.601878214
301.032767057
300.569358301
300.57342329
301.032767057
301.443330956
300.110014534
300.110014534
300.569358301
301.459590912
300.089689589
300.585618258
300.585618258
300.12627449
300.12627449
300.142534447
300.12627449
300.569358301
300.142534447
300.569358301
300.585618258
300.585618258
300.569358301
300.162859392
300.57342329
300.12627449
300.12627449
300.130339479
300.12627449
300.110014534
300.585618258
300.130339479
300.57342329
300.130339479
300.589683247
301.032767057
300.146599436
301.016507101
300.130339479
300.110014534
300.569358301
300.553098345
302.329498577
301.028702068
300.569358301
300.585618258
300.114079523
300.142534447
300.569358301
300.110014534
301.459590912
300.130339479
300.162859392
300.12627449
300.130339479
300.130339479
300.110014534
300.57342329
300.57342329
300.601878214
300.146599436
300.162859392
300.12627449
300.585618258
300.142534447
300.589683247
300.589683247
300.162859392
300.093754578
300.589683247
300.162859392
300.57342329
300.589683247
300.589683247
301.028702068
300.569358301
300.142534447
300.130339479
300.130339479
300.589683247
300.569358301
300.12627449
301.471785879
300.12627449
301.012442112
300.130339479
300.110014534
300.110014534

Average distance is : 300.439 cm
Average deviation is : 0.403 cm