
Block: 1
======================================
102.5492
102.5492
102.5319
102.5319
102.5319
102.6358
102.9303
102.6012
102.5319
103.4846
102.5146
102.6185
102.9303
102.5146
102.5319
102.9303
103.398
103.398
102.9476
102.5146
102.5319
102.5146
102.5319
102.5319
103.398

Average distance is : 102.747 cm
Average deviation is : 0.334 cm
Block: 2
======================================
103.5019
102.5319
102.6705
102.5492
102.6705
102.5492
102.6531
103.4153
102.9476
102.5319
103.398
102.9476
102.5492
103.3634
102.9303
102.5319
102.5492
102.5319
102.5146
102.5146
102.5319
102.6531
102.5319
103.0342
102.9303

Average distance is : 102.781 cm
Average deviation is : 0.329 cm
Block: 3
======================================
102.5319
102.6185
102.4972
102.6185
102.5146
102.9823
102.5146
102.5146
102.5146
102.5319
102.5319
102.9476
102.5492
103.4153
103.4153
102.9476
103.4153
102.9303
103.5193
103.4153
102.5319
102.5492
103.4326
102.9649
103.4153

Average distance is : 102.873 cm
Average deviation is : 0.392 cm
Block: 4
======================================
102.9649
102.9476
102.5492
103.5193
103.398
102.6705
102.9476
102.6705
103.4153
102.5492
102.5492
102.5492
102.5665
102.5838
103.4326
102.5665
102.9476
102.5492
102.5319
102.5492
102.913
102.9649
103.4846
102.5146
103.45

Average distance is : 102.871 cm
Average deviation is : 0.369 cm
Block: 5
======================================
103.8311
102.5492
103.398
102.5319
102.5492
102.9823
103.398
102.5319
102.5146
102.5319
102.9303
102.6358
102.5492
102.6531
102.5146
103.5193
102.9476
102.6358
103.8311
102.5492
102.5665
102.9649
102.5319
103.4153
102.5665

Average distance is : 102.865 cm
Average deviation is : 0.439 cm
Block: 6
======================================
102.5665
102.5492
102.5492
102.5665
102.5492
102.5665
102.5492
102.5492
102.6705
103.4153
102.6705
102.5665
102.6531
102.5665
102.6531
102.5665
103.4153
102.5665
102.9649
102.5665
102.5665
103.4153
102.5665
102.5665
102.5665

Average distance is : 102.696 cm
Average deviation is : 0.284 cm
Block: 7
======================================
102.9649
103.8484
102.9649
103.1035
102.5492
103.1035
102.9649
102.9649
102.5665
102.5665
102.5492
103.4153
102.5665
103.8484
102.5665
102.5665
102.5665
102.5665
102.5492
102.5492
103.0516
102.5492
102.6705
102.5492
103.5193

Average distance is : 102.867 cm
Average deviation is : 0.414 cm
Block: 8
======================================
103.4153
103.4153
103.4153
102.5492
102.5665
103.4153
103.4153
103.4153
102.1508
102.6358
103.4153
102.6358
103.4153
102.6705
102.5665
102.5319
102.5492
102.5665
102.9649
102.5492
102.5492
103.4153
102.5665
102.9476
102.5492

Average distance is : 102.891 cm
Average deviation is : 0.425 cm
Block: 9
======================================
102.5665
102.5492
102.5492
103.4153
102.6705
102.9649
103.0516
103.4153
102.6705
102.5492
102.9476
102.5492
102.5492
102.5665
103.4153
102.5665
102.5492
102.5665
102.5665
102.5492
102.9649
103.4153
103.8484
103.5193
102.5665

Average distance is : 102.862 cm
Average deviation is : 0.407 cm
Block: 10
======================================
102.5319
102.5665
102.5492
102.5665
102.5665
103.4153
102.5492
102.5665
102.1508
102.5665
102.5665
102.5492
102.5665
103.4153
102.9649
102.5492
102.5492
102.5146
102.6012
102.5146
103.9177
103.3807
102.6531
102.9649
102.5492

Average distance is : 102.731 cm
Average deviation is : 0.396 cm
Average distance for 10x25 is : 102.790 cm
Average deviation for 10x25 is : 0.362 cm
 Percentage of values that failed: 0.000