
Block: 1
======================================
400.009378409
400.094288063
400.025551677
400.009378409
400.078114796
399.63739326
399.568656874
399.584830141
400.061941528
400.025551677

Average distance is : 399.910 cm
Average deviation is : 0.218 cm
Block: 2
======================================
400.074071479
400.078114796
400.061941528
400.029594994
399.588873458
399.993205142
399.588873458
400.045768261
399.180498457
399.144108605

Average distance is : 399.779 cm
Average deviation is : 0.376 cm
Block: 3
======================================
399.584830141
399.63739326
399.584830141
398.363748455
399.621219993
399.621219993
399.621219993
399.568656874
399.621219993
399.584830141

Average distance is : 399.481 cm
Average deviation is : 0.393 cm
Block: 4
======================================
399.605046725
399.621219993
399.601003408
399.584830141
399.653566527
399.617176676
399.63739326
399.633349943
399.601003408
399.584830141

Average distance is : 399.614 cm
Average deviation is : 0.023 cm
Block: 5
======================================
399.584830141
399.621219993
399.127935338
399.653566527
399.63739326
399.127935338
399.584830141
399.601003408
399.584830141
399.568656874

Average distance is : 399.509 cm
Average deviation is : 0.203 cm
Block: 6
======================================
399.568656874
398.719560337
399.584830141
399.653566527
399.605046725
399.617176676
399.584830141
399.196671724
399.144108605
399.144108605

Average distance is : 399.382 cm
Average deviation is : 0.313 cm
Block: 7
======================================
399.601003408
399.584830141
399.621219993
399.617176676
399.617176676
399.568656874
399.63739326
399.180498457
399.584830141
399.601003408

Average distance is : 399.561 cm
Average deviation is : 0.135 cm
Block: 8
======================================
399.584830141
399.568656874
400.041724944
399.605046725
399.63739326
399.605046725
400.025551677
400.041724944
400.041724944
399.160281873

Average distance is : 399.731 cm
Average deviation is : 0.296 cm
Block: 9
======================================
400.025551677
399.601003408
400.029594994
399.16432519
398.739776921
399.601003408
399.584830141
399.605046725
399.605046725
399.605046725

Average distance is : 399.556 cm
Average deviation is : 0.377 cm
Block: 10
======================================
399.160281873
399.621219993
399.601003408
399.601003408
399.601003408
399.617176676
399.144108605
399.180498457
399.196671724
399.144108605

Average distance is : 399.387 cm
Average deviation is : 0.234 cm