
Block: 1
======================================
399.617176676
399.16432519
399.601003408
399.588873458
399.601003408
399.180498457
399.144108605
399.617176676
399.63739326
399.63739326
399.617176676
399.617176676
399.160281873
399.160281873
399.160281873
398.723603654
399.160281873
399.584830141
399.605046725
399.63739326
399.617176676
399.621219993
399.601003408
399.568656874
399.212844992

Average distance is : 399.433 cm
Average deviation is : 0.256 cm
Block: 2
======================================
399.588873458
399.63739326
399.601003408
399.621219993
399.588873458
399.584830141
399.584830141
398.311185336
399.568656874
399.605046725
399.584830141
399.584830141
398.719560337
399.17645514
398.719560337
399.16432519
399.16432519
399.16432519
399.605046725
398.723603654
399.601003408
399.568656874
399.633349943
399.617176676
399.160281873

Average distance is : 399.355 cm
Average deviation is : 0.378 cm
Block: 3
======================================
399.16432519
399.617176676
399.144108605
399.196671724
398.282882118
399.17645514
399.180498457
399.180498457
399.144108605
399.180498457
398.719560337
398.739776921
398.723603654
399.180498457
399.16432519
399.180498457
398.311185336
399.160281873
399.584830141
399.16432519
399.144108605
398.719560337
398.735733604
399.16432519
399.16432519

Average distance is : 399.045 cm
Average deviation is : 0.322 cm
Block: 4
======================================
398.687213802
399.17645514
399.148151922
399.160281873
399.601003408
398.707430387
399.16432519
399.229018259
399.160281873
399.16432519
399.605046725
399.180498457
231.641621828
44.8565570354
229.114548802
46.9914283276
226.959460926
49.1101263523
224.400041366
51.7099790812
221.517156458
54.1480991364
219.414631701
56.2546672106
217.32828021

Average distance is : 266.537 cm
Average deviation is : 144.886 cm
Block: 5
======================================
399.63739326
399.180498457
399.584830141
399.160281873
399.617176676
399.584830141
399.144108605
399.16432519
398.719560337
399.196671724
398.70338707
399.584830141
399.584830141
398.739776921
399.588873458
399.127935338
399.601003408
399.17645514
399.180498457
399.148151922
399.16432519
399.621219993
399.621219993
399.605046725
399.568656874

Average distance is : 399.320 cm
Average deviation is : 0.307 cm
Block: 6
======================================
398.719560337
398.719560337
398.719560337
399.127935338
399.17645514
399.552483606
399.144108605
399.16432519
399.601003408
399.601003408
399.568656874
399.601003408
399.144108605
399.127935338
399.144108605
399.144108605
399.148151922
399.568656874
399.584830141
399.584830141
399.584830141
399.588873458
399.584830141
399.584830141
399.144108605

Average distance is : 399.305 cm
Average deviation is : 0.304 cm
Block: 7
======================================
399.552483606
398.751906872
399.552483606
399.208801675
399.568656874
399.180498457
399.160281873
399.160281873
399.233061576
399.160281873
399.212844992
399.196671724
399.17645514
399.601003408
399.601003408
398.735733604
398.719560337
399.144108605
399.568656874
399.180498457
399.16432519
399.16432519
399.584830141
399.552483606
399.617176676

Average distance is : 399.270 cm
Average deviation is : 0.276 cm
Block: 8
======================================
399.568656874
398.719560337
399.548440289
399.601003408
399.621219993
399.617176676
399.180498457
399.588873458
399.601003408
399.552483606
399.601003408
399.617176676
399.160281873
399.568656874
399.617176676
399.160281873
399.584830141
399.601003408
399.160281873
399.617176676
399.584830141
399.621219993
399.588873458
399.16432519
399.584830141

Average distance is : 399.473 cm
Average deviation is : 0.235 cm
Block: 9
======================================
399.617176676
399.605046725
399.144108605
399.633349943
399.588873458
399.601003408
399.552483606
399.605046725
399.584830141
399.144108605
399.160281873
399.584830141
399.621219993
399.144108605
399.16432519
399.584830141
399.601003408
399.63739326
399.568656874
399.621219993
399.601003408
399.160281873
399.160281873
399.17645514
399.601003408

Average distance is : 399.459 cm
Average deviation is : 0.212 cm
Block: 10
======================================
399.17645514
399.196671724
297.96819129
399.17645514
398.739776921
399.229018259
398.755950189
399.621219993
399.196671724
398.772123456
398.739776921
399.233061576
398.735733604
399.196671724
399.63739326
399.653566527
399.192628407
399.212844992
399.233061576
399.196671724
399.621219993
399.653566527
399.233061576
399.180498457
399.63739326

Average distance is : 395.168 cm
Average deviation is : 20.252 cm