
Block: 1
======================================
199.733911705
200.108555317
199.717622852
201.04923656
199.717622852
199.701334
200.605365324
199.701334
199.733911705
200.161494088
200.161494088
199.717622852
200.145205235
200.161494088
199.717622852
199.697261786
200.161494088
199.273751616
199.717622852
199.273751616
199.733911705
199.290040469
199.733911705
199.310401535
200.128916383
199.701334
199.273751616
199.273751616
200.161494088
199.717622852
199.701334
199.273751616
199.257462764
200.161494088
200.145205235
200.605365324
199.701334
200.589076471
199.717622852
199.701334
199.253390551
200.605365324
199.717622852
199.273751616
199.717622852
200.161494088
199.290040469
200.161494088
199.717622852
199.737983918

Average distance is : 199.821 cm
Average deviation is : 0.423 cm
Block: 2
======================================
200.605365324
199.701334
199.717622852
199.701334
199.701334
200.589076471
199.701334
199.701334
200.161494088
200.161494088
199.717622852
199.253390551
199.257462764
199.685045147
200.128916383
199.701334
199.701334
199.717622852
199.290040469
201.032947707
200.145205235
200.145205235
199.680972934
200.589076471
200.141133022
199.685045147
199.733911705
199.717622852
199.733911705
199.273751616
199.701334
199.697261786
199.717622852
199.701334
199.717622852
200.128916383
200.605365324
199.717622852
201.012586641
200.161494088
199.701334
201.427952385
200.165566301
200.145205235
199.701334
199.717622852
199.290040469
199.253390551
200.572787619
200.589076471

Average distance is : 199.936 cm
Average deviation is : 0.487 cm
Block: 3
======================================
200.12484417
199.273751616
200.108555317
200.161494088
199.664684081
199.680972934
200.572787619
201.016658854
199.697261786
199.257462764
199.685045147
200.605365324
199.717622852
200.12484417
200.589076471
200.552426553
200.589076471
199.701334
200.145205235
200.181855154
199.701334
200.145205235
199.664684081
200.568715405
200.589076471
200.145205235
199.664684081
199.701334
200.568715405
200.145205235
201.032947707
200.161494088
199.685045147
199.701334
199.717622852
200.161494088
200.572787619
199.241173911
200.568715405
200.589076471
199.685045147
199.685045147
200.572787619
200.568715405
200.128916383
201.032947707
199.717622852
199.685045147
199.685045147
200.145205235

Average distance is : 200.094 cm
Average deviation is : 0.468 cm
Block: 4
======================================
200.108555317
199.701334
200.145205235
200.12484417
200.568715405
199.680972934
199.685045147
199.680972934
199.685045147
200.12484417
200.108555317
200.145205235
200.589076471
200.161494088
199.680972934
199.701334
200.589076471
199.664684081
199.701334
199.680972934
199.680972934
199.701334
200.589076471
200.108555317
199.680972934
200.141133022
199.680972934
199.701334
199.685045147
199.680972934
200.12484417
200.572787619
199.701334
200.145205235
199.664684081
200.572787619
199.685045147
199.701334
200.11262753
200.108555317
200.12484417
199.701334
200.11262753
200.572787619
199.701334
199.680972934
200.552426553
199.241173911
199.697261786
199.685045147

Average distance is : 199.953 cm
Average deviation is : 0.347 cm
Block: 5
======================================
199.803139329
199.717622852
200.145205235
199.701334
200.145205235
199.680972934
199.668756294
199.697261786
200.145205235
200.11262753
200.128916383
199.237101698
199.685045147
200.128916383
199.701334
200.12484417
199.680972934
200.572787619
199.668756294
200.108555317
199.685045147
199.717622852
199.680972934
200.128916383
200.128916383
199.697261786
199.685045147
199.717622852
200.12484417
199.273751616
199.685045147
200.145205235
199.697261786
199.701334
200.11262753
200.128916383
199.685045147
200.141133022
200.589076471
199.697261786
199.697261786
199.685045147
199.680972934
199.685045147
200.145205235
200.128916383
199.701334
200.12484417
200.128916383
199.664684081

Average distance is : 199.878 cm
Average deviation is : 0.282 cm
Block: 6
======================================
199.652467442
199.685045147
200.609437537
199.680972934
199.701334
199.685045147
199.717622852
200.589076471
199.685045147
200.589076471
199.680972934
199.680972934
199.273751616
199.685045147
199.273751616
199.717622852
199.701334
191.675001836
199.685045147
199.257462764
200.145205235
200.161494088
199.253390551
199.701334
199.241173911
200.589076471
200.128916383
199.717622852
199.257462764
200.145205235
199.668756294
199.680972934
201.444241238
199.241173911
199.273751616
199.273751616
200.141133022
199.237101698
200.145205235
199.717622852
200.141133022
199.685045147
199.697261786
200.145205235
200.108555317
199.257462764
199.717622852
199.685045147
200.145205235
200.145205235

Average distance is : 199.642 cm
Average deviation is : 1.235 cm
Block: 7
======================================
199.680972934
199.237101698
199.680972934
199.685045147
200.12484417
199.717622852
200.572787619
199.680972934
199.717622852
199.701334
200.572787619
199.697261786
200.108555317
200.128916383
200.128916383
199.257462764
199.701334
200.145205235
199.685045147
199.237101698
200.12484417
199.697261786
199.680972934
199.685045147
200.092266464
200.145205235
199.685045147
199.697261786
199.685045147
200.145205235
200.128916383
199.701334
199.701334
199.717622852
199.253390551
200.12484417
200.11262753
200.161494088
199.224885058
199.701334
200.145205235
199.680972934
199.685045147
200.128916383
199.685045147
199.668756294
199.697261786
199.701334
200.589076471
200.128916383

Average distance is : 199.841 cm
Average deviation is : 0.330 cm
Block: 8
======================================
199.701334
200.12484417
199.257462764
200.145205235
200.108555317
200.589076471
199.220812845
199.680972934
199.668756294
199.685045147
200.108555317
199.697261786
200.568715405
200.128916383
200.11262753
200.108555317
199.680972934
200.145205235
199.652467442
199.680972934
199.701334
200.128916383
199.697261786
200.128916383
200.572787619
199.220812845
200.589076471
199.680972934
199.685045147
199.717622852
200.108555317
201.000370002
199.701334
200.145205235
200.963720083
199.685045147
199.701334
200.12484417
199.253390551
199.664684081
200.589076471
201.000370002
199.701334
199.680972934
199.685045147
199.648395228
199.685045147
200.568715405
200.128916383
200.128916383

Average distance is : 199.967 cm
Average deviation is : 0.443 cm
Block: 9
======================================
199.664684081
200.145205235
199.717622852
200.161494088
199.680972934
199.680972934
199.685045147
199.685045147
200.128916383
199.697261786
199.697261786
200.145205235
199.697261786
199.680972934
199.701334
200.145205235
200.128916383
200.145205235
199.701334
199.237101698
200.108555317
200.128916383
199.680972934
199.685045147
200.141133022
199.237101698
200.128916383
199.701334
200.589076471
200.145205235
199.237101698
200.141133022
199.701334
201.444241238
199.701334
199.717622852
200.11262753
199.668756294
200.128916383
199.717622852
201.000370002
199.701334
200.108555317
199.697261786
200.145205235
200.145205235
199.697261786
199.701334
200.145205235
199.717622852

Average distance is : 199.914 cm
Average deviation is : 0.391 cm
Block: 10
======================================
200.128916383
200.11262753
199.273751616
199.668756294
199.717622852
199.701334
199.701334
199.685045147
200.11262753
199.697261786
199.717622852
200.589076471
199.701334
200.589076471
200.572787619
200.572787619
200.12484417
200.568715405
199.668756294
201.423880172
192.750066113
199.685045147
200.572787619
200.12484417
199.697261786
199.701334
200.128916383
199.701334
200.145205235
199.717622852
199.717622852
200.12484417
200.12484417
200.145205235
199.701334
201.012586641
199.697261786
199.257462764
199.701334
199.701334
199.680972934
199.680972934
200.145205235
199.257462764
200.556498766
200.589076471
200.11262753
201.016658854
199.697261786
199.668756294

Average distance is : 199.863 cm
Average deviation is : 1.128 cm