
Block: 1
======================================
100.346751809
99.9337512255
101.214053035
100.346751809
99.9667912722
100.350881815
100.747362375
99.9667912722
100.92082262
100.367401838
99.9667912722
100.383921862
100.367401838
99.9502712488
100.383921862
100.367401838
100.400441885
100.346751809
100.313711762
100.330231786
99.9337512255
99.9131011963
99.9172312021
99.9172312021
99.9172312021
100.350881815
101.214053035
100.346751809
99.8965811729
100.763882399
100.317841768
99.9007111788
99.9172312021
99.8965811729
99.9131011963
99.8965811729
99.8965811729
99.8965811729
100.313711762
99.8965811729
100.313711762
100.334361792
99.8965811729
99.9172312021
99.9172312021
100.334361792
99.9172312021
100.780402422
99.9502712488
100.383921862
100.297191739
99.9007111788
99.9667912722
100.367401838
100.784532428
100.334361792
99.9172312021
99.9007111788
99.9007111788
100.784532428
100.330231786
100.330231786
99.9172312021
100.784532428
100.334361792
100.330231786
99.8965811729
99.9172312021
100.297191739
100.801052451
99.9007111788
99.9172312021
99.9172312021
100.801052451
100.784532428
100.330231786
99.8965811729
100.317841768
99.8800611496
99.8800611496
99.8965811729
99.9172312021
100.763882399
100.763882399
100.784532428
100.780402422
100.317841768
99.9007111788
100.763882399
100.367401838
100.367401838
100.780402422
100.313711762
99.9007111788
99.9007111788
99.9007111788
99.9007111788
99.9007111788
99.9172312021
100.763882399

Block: 2
======================================
100.383921862
100.346751809
100.367401838
100.334361792
101.668353677
100.784532428
100.784532428
99.9667912722
99.9337512255
100.367401838
100.367401838
100.317841768
99.9007111788
100.297191739
99.8965811729
99.9172312021
99.9131011963
99.9296212196
99.9172312021
99.8965811729
99.9172312021
99.8965811729
99.9007111788
99.9172312021
99.9007111788
99.9172312021
100.313711762
99.9131011963
99.4835805893
99.9007111788
99.9172312021
99.8841911554
99.9007111788
99.9007111788
99.9007111788
99.9007111788
100.330231786
99.9172312021
99.9007111788
99.9007111788
99.8965811729
99.8800611496
99.8800611496
99.9007111788
99.9502712488
99.8965811729
99.9172312021
100.280671716
99.8965811729
99.8800611496
99.9172312021
99.9172312021
99.9172312021
99.9172312021
99.9172312021
99.9131011963
100.367401838
100.313711762
99.8965811729
99.8965811729
99.8965811729
100.297191739
100.313711762
99.9007111788
99.9172312021
99.9172312021
99.9007111788
99.9131011963
99.8965811729
99.8965811729
99.9337512255
99.9172312021
99.9337512255
100.313711762
99.8965811729
100.313711762
99.9007111788
99.9007111788
99.8965811729
99.8800611496
99.8800611496
99.9131011963
99.8965811729
99.9131011963
99.4835805893
99.9007111788
99.9172312021
99.9131011963
99.8800611496
99.9131011963
99.9007111788
99.8965811729
100.313711762
99.9007111788
99.9007111788
99.9007111788
99.8800611496
99.9007111788
99.9172312021
99.9172312021

Block: 3
======================================
99.9172312021
100.763882399
100.350881815
100.330231786
100.763882399
100.367401838
99.9131011963
100.747362375
100.747362375
100.763882399
100.747362375
100.730842352
100.346751809
100.763882399
101.214053035
100.383921862
99.8841911554
99.9172312021
100.313711762
100.317841768
100.330231786
99.9172312021
100.313711762
100.367401838
99.9172312021
99.9007111788
99.9007111788
99.9337512255
100.334361792
99.8800611496
99.9172312021
99.9007111788
100.313711762
99.9172312021
99.9131011963
99.9131011963
99.9172312021
99.9172312021
99.9007111788
99.9007111788
99.8965811729
99.8965811729
99.8965811729
99.9172312021
99.9172312021
99.8965811729
99.8965811729
100.330231786
99.9131011963
99.9007111788
99.9172312021
99.9337512255
99.9172312021
99.8965811729
99.9007111788
99.9007111788
99.9007111788
99.9172312021
99.9131011963
99.9337512255
99.9337512255
99.9172312021
99.9007111788
99.9007111788
99.9131011963
99.9172312021
99.9007111788
100.27654171
99.5001006126
99.9172312021
99.8965811729
99.8965811729
99.9007111788
100.367401838
100.383921862
99.9667912722
100.330231786
100.330231786
99.9172312021
99.9337512255
99.8965811729
99.9172312021
99.9007111788
99.9172312021
99.9337512255
99.9172312021
99.9172312021
99.9007111788
99.8965811729
99.8965811729
99.5042306185
99.9172312021
99.8800611496
99.9007111788
99.9007111788
99.9172312021
99.9007111788
99.9172312021
99.9172312021
99.9172312021

Block: 4
======================================
100.334361792
99.9172312021
100.768012404
99.9296212196
100.470651984
99.9667912722
100.383921862
99.9874413013
99.9337512255
101.197533011
100.383921862
100.763882399
99.9131011963
99.9172312021
99.9007111788
100.313711762
99.9131011963
100.780402422
100.313711762
99.9007111788
99.9007111788
100.313711762
99.8965811729
99.8965811729
100.780402422
100.768012404
100.313711762
99.8965811729
99.9131011963
99.8965811729
99.9172312021
99.8965811729
99.9007111788
99.9131011963
99.9131011963
100.730842352
100.780402422
100.334361792
99.9172312021
99.9007111788
99.9172312021
99.5001006126
100.367401838
101.197533011
100.313711762
99.8965811729
99.8965811729
100.313711762
99.9172312021
99.8965811729
99.8965811729
99.9337512255
99.9007111788
99.9007111788
99.9007111788
99.8965811729
99.9172312021
99.9337512255
99.9007111788
99.9337512255
99.9131011963
99.9131011963
99.8800611496
99.9131011963
99.9172312021
99.9172312021
99.9007111788
99.9172312021
99.8965811729
99.8965811729
99.8965811729
99.9172312021
99.9172312021
99.9172312021
99.9131011963
99.9296212196
99.9007111788
99.9007111788
99.9667912722
100.334361792
99.9007111788
99.9007111788
99.8800611496
99.9131011963
99.9131011963
99.9007111788
99.9007111788
99.9172312021
99.9007111788
100.730842352
100.330231786
99.9172312021
99.9131011963
99.9172312021
101.214053035
100.317841768
99.9172312021
99.9172312021
99.9337512255
99.9131011963

Block: 5
======================================
100.313711762
99.9337512255
100.350881815
100.383921862
101.474243402
100.367401838
99.9337512255
100.763882399
100.763882399
100.780402422
100.416961908
100.730842352
100.330231786
100.57390213
100.363271832
100.350881815
100.367401838
100.346751809
100.780402422
100.350881815
100.768012404
100.780402422
99.8965811729
99.9337512255
99.9172312021
99.9172312021
99.9172312021
99.9172312021
99.9131011963
99.9172312021
99.9007111788
99.9874413013
100.313711762
99.8800611496
99.9172312021
99.9172312021
100.330231786
100.313711762
99.9172312021
99.9007111788
99.9172312021
99.9131011963
99.8965811729
99.9172312021
99.9172312021
99.9007111788
99.9172312021
100.313711762
99.8965811729
100.383921862
100.784532428
100.330231786
101.201663017
100.780402422
99.8800611496
99.8965811729
99.9131011963
99.9131011963
99.9007111788
101.214053035
100.801052451
100.383921862
101.181012988
100.313711762
99.8965811729
99.9337512255
99.9172312021
99.9172312021
99.8965811729
99.8965811729
99.8965811729
99.8965811729
99.9172312021
100.313711762
99.9131011963
99.9007111788
99.9007111788
99.9172312021
99.9172312021
99.8965811729
100.297191739
99.9172312021
99.9172312021
101.214053035
99.9172312021
99.9172312021
99.9172312021
99.9337512255
99.9172312021
100.747362375
99.9172312021
99.9172312021
99.8965811729
99.8965811729
99.8965811729
99.8965811729
99.8965811729
100.313711762
99.9172312021
99.9007111788

Block: 6
======================================
100.350881815
100.330231786
100.367401838
99.9131011963
100.367401838
100.346751809
99.9667912722
100.367401838
99.970921278
100.763882399
100.334361792
100.313711762
101.197533011
99.9172312021
100.334361792
99.9007111788
100.313711762
100.330231786
99.9172312021
99.9131011963
99.9337512255
99.9172312021
100.383921862
100.334361792
99.9172312021
99.9131011963
99.9172312021
99.9007111788
99.9172312021
99.9337512255
99.9172312021
99.9007111788
99.9131011963
99.9131011963
99.9337512255
99.9172312021
100.730842352
99.9172312021
99.9172312021
99.9007111788
99.9172312021
99.9172312021
100.330231786
99.9172312021
99.8965811729
99.8965811729
99.9172312021
100.313711762
99.9007111788
99.8965811729
99.8965811729
99.9131011963
99.8800611496
99.8965811729
99.9337512255
99.9337512255
99.9172312021
99.9131011963
99.9131011963
99.9337512255
99.9172312021
99.9172312021
100.330231786
100.383921862
100.363271832
99.9172312021
99.9172312021
99.9007111788
99.9007111788
99.9172312021
99.9296212196
99.9131011963
99.9172312021
100.747362375
99.8965811729
99.9337512255
99.9172312021
99.9007111788
99.9007111788
99.8965811729
99.9131011963
99.9337512255
99.9172312021
99.8965811729
99.8965811729
99.9172312021
99.9007111788
99.9172312021
99.9172312021
99.9131011963
99.9131011963
99.9007111788
99.9337512255
99.9007111788
99.9172312021
99.9172312021
99.8965811729
99.8965811729
99.9131011963
99.9172312021

Block: 7
======================================
100.346751809
100.334361792
100.363271832
100.367401838
100.210461617
99.9502712488
100.330231786
99.9874413013
100.346751809
100.313711762
100.383921862
100.367401838
100.334361792
99.9007111788
99.9172312021
100.297191739
99.9172312021
99.9007111788
99.9172312021
99.9172312021
99.9172312021
99.8965811729
99.9131011963
99.9667912722
100.383921862
100.330231786
99.9172312021
99.9131011963
99.8965811729
99.9172312021
99.9172312021
99.9007111788
99.9172312021
99.8965811729
99.8800611496
99.9172312021
99.9172312021
99.9172312021
99.9172312021
99.9007111788
99.9007111788
99.9667912722
100.334361792
99.9172312021
100.334361792
99.9007111788
99.9337512255
100.350881815
99.9007111788
99.8841911554
99.9172312021
99.9007111788
99.9007111788
99.9172312021
99.9131011963
99.9131011963
99.9172312021
99.9337512255
99.9337512255
99.9337512255
99.9172312021
99.9172312021
100.383921862
101.197533011
100.330231786
99.9172312021
99.9007111788
99.8841911554
99.9172312021
99.9172312021
99.8965811729
99.8965811729
99.8965811729
99.9007111788
99.9172312021
99.9007111788
100.367401838
100.367401838
100.367401838
101.197533011
100.313711762
99.9007111788
99.9172312021
99.9337512255
99.9007111788
99.9007111788
99.9007111788
99.9172312021
99.9007111788
99.9172312021
99.9172312021
99.9296212196
99.9172312021
99.9172312021
99.9007111788
99.9007111788
99.5001006126
99.9131011963
100.313711762
99.9172312021

Block: 8
======================================
99.9337512255
99.8965811729
100.801052451
100.763882399
100.330231786
100.817572474
100.383921862
100.297191739
100.280671716
100.350881815
101.044722795
100.383921862
99.8800611496
99.9172312021
99.9172312021
100.317841768
99.9172312021
99.9172312021
99.9007111788
99.9172312021
99.9131011963
99.8965811729
99.8965811729
99.8965811729
99.9007111788
99.8800611496
99.9172312021
99.9172312021
99.9007111788
99.9172312021
99.9172312021
99.8965811729
99.9131011963
99.9007111788
99.9172312021
99.9007111788
99.9172312021
100.383921862
100.801052451
99.9172312021
99.9172312021
99.9007111788
99.9172312021
99.9007111788
99.9337512255
99.8965811729
99.8965811729
100.313711762
99.9007111788
99.9172312021
99.8965811729
99.8965811729
99.9007111788
99.9337512255
99.9172312021
99.9007111788
99.9172312021
99.9172312021
99.9131011963
99.9172312021
99.9172312021
99.8965811729
99.8965811729
99.8965811729
99.8965811729
99.9502712488
100.768012404
100.367401838
100.763882399
100.763882399
99.9502712488
100.780402422
100.784532428
100.313711762
99.9131011963
99.8965811729
99.9172312021
99.9172312021
99.9172312021
99.9007111788
99.9007111788
100.313711762
99.9131011963
99.9007111788
99.9007111788
99.9172312021
99.9172312021
99.9131011963
99.8965811729
100.334361792
100.363271832
99.8965811729
99.9172312021
99.9007111788
99.9172312021
99.9172312021
99.9007111788
99.9007111788
99.9172312021
99.9007111788

Block: 9
======================================
100.383921862
100.313711762
100.367401838
100.367401838
99.9337512255
100.346751809
100.730842352
100.334361792
100.763882399
100.346751809
99.9131011963
100.747362375
100.334361792
100.747362375
100.330231786
101.218183041
101.197533011
99.9007111788
99.9172312021
99.9007111788
99.9007111788
99.9007111788
99.8965811729
99.8841911554
99.9172312021
99.9007111788
99.8800611496
99.9131011963
100.334361792
99.9007111788
99.9172312021
99.9172312021
99.9337512255
99.8965811729
99.9131011963
99.8965811729
99.9172312021
99.9172312021
99.9172312021
99.9007111788
99.9007111788
99.9007111788
100.313711762
99.8965811729
99.8965811729
99.9172312021
99.8965811729
100.313711762
99.7066009045
100.317841768
100.747362375
101.201663017
99.9172312021
99.8965811729
99.8965811729
99.8965811729
99.8965811729
99.8965811729
99.8965811729
99.9131011963
99.8965811729
99.8965811729
99.8800611496
99.8800611496
99.9131011963
99.8965811729
99.8965811729
99.9172312021
99.9007111788
99.9007111788
99.9131011963
99.9131011963
99.9337512255
100.330231786
99.9172312021
99.8965811729
100.367401838
99.9172312021
99.9172312021
99.9337512255
99.8965811729
99.8965811729
99.9131011963
99.9007111788
99.9172312021
99.9007111788
99.9131011963
99.8965811729
99.9172312021
99.9007111788
99.9172312021
99.9172312021
99.8841911554
99.9007111788
99.9172312021
99.9172312021
99.9172312021
99.9007111788
99.9172312021
99.8965811729

Block: 10
======================================
100.367401838
100.784532428
100.768012404
100.763882399
100.367401838
100.367401838
100.383921862
100.817572474
99.9544012547
100.330231786
100.400441885
100.383921862
99.9667912722
100.747362375
99.9172312021
100.313711762
99.9131011963
99.9337512255
99.9172312021
99.9172312021
100.313711762
99.9172312021
99.8841911554
100.313711762
100.747362375
99.9172312021
99.9007111788
99.9172312021
99.9337512255
99.9172312021
99.9172312021
99.9172312021
99.9131011963
99.9337512255
99.9007111788
99.9131011963
99.9337512255
99.9337512255
99.8965811729
99.8965811729
100.330231786
99.9172312021
99.9172312021
99.9131011963
99.9172312021
99.9007111788
99.9131011963
99.9172312021
99.9007111788
99.9131011963
99.9667912722
100.313711762
99.9296212196
99.9172312021
99.9172312021
99.9007111788
99.9131011963
99.9172312021
99.9172312021
100.334361792
99.9172312021
99.9172312021
99.9172312021
99.9172312021
100.747362375
100.330231786
100.334361792
99.9172312021
99.9172312021
99.9337512255
99.9172312021
99.9172312021
99.9337512255
100.330231786
99.9131011963
99.9172312021
99.9172312021
99.9172312021
99.9131011963
99.9172312021
99.9007111788
99.9172312021
99.8965811729
99.9172312021
100.334361792
99.9007111788
99.9337512255
99.9172312021
99.8965811729
99.9131011963
99.9172312021
99.9172312021
99.9172312021
99.8965811729
99.9337512255
100.763882399
99.9337512255
99.9131011963
100.053521395
99.8965811729
