
Block: 1
======================================
100.037001371
100.346751809
100.330231786
100.367401838
100.780402422

Average distance is : 100.372 cm
Average deviation is : 0.265 cm
Block: 2
======================================
100.367401838
100.346751809
100.363271832
99.9172312021
100.346751809

Average distance is : 100.268 cm
Average deviation is : 0.196 cm
Block: 3
======================================
100.383921862
99.9502712488
99.9337512255
100.334361792
100.763882399

Average distance is : 100.273 cm
Average deviation is : 0.345 cm
Block: 4
======================================
99.9502712488
100.350881815
99.9667912722
100.383921862
100.400441885

Average distance is : 100.210 cm
Average deviation is : 0.231 cm
Block: 5
======================================
101.197533011
100.383921862
99.9337512255
100.330231786
100.367401838

Average distance is : 100.443 cm
Average deviation is : 0.461 cm
Block: 6
======================================
99.970921278
100.350881815
100.383921862
100.796922445
101.234703064

Average distance is : 100.547 cm
Average deviation is : 0.483 cm
Block: 7
======================================
100.763882399
100.383921862
100.763882399
100.350881815
100.367401838

Average distance is : 100.526 cm
Average deviation is : 0.217 cm
Block: 8
======================================
100.367401838
99.9502712488
100.367401838
100.763882399
100.784532428

Average distance is : 100.447 cm
Average deviation is : 0.344 cm
Block: 9
======================================
101.181012988
100.346751809
100.780402422
100.383921862
99.8965811729

Average distance is : 100.518 cm
Average deviation is : 0.485 cm
Block: 10
======================================
100.313711762
100.801052451
100.801052451
100.796922445
100.330231786

Average distance is : 100.609 cm
Average deviation is : 0.262 cm
Average distance for 10x5 is : 100.421 cm
Average deviation for 10x5 is : 0.329 cm
 Percentage of values that failed: 0.000