
Block: 1
======================================
99.1531801224
99.5207506418
98.5832393169
99.1531801224
99.5868307352
99.1903501749
99.5331406593
99.1531801224
99.5868307352
99.5703107119

Block: 2
======================================
99.1531801224
99.136660099
99.5207506418
99.1903501749
99.5537906885
99.0994900465
99.1697001457
99.5537906885
99.1697001457
99.1160100698

Block: 3
======================================
99.566180706
99.1160100698
99.136660099
99.1201400757
99.1036200523
99.1738301516
99.136660099
99.1738301516
99.1531801224
99.1697001457

Block: 4
======================================
99.5331406593
99.516620636
99.2399102449
99.1160100698
99.1697001457
99.1697001457
99.1738301516
99.1201400757
99.1697001457
99.1903501749

Block: 5
======================================
99.516620636
99.5868307352
99.1903501749
99.2068701982
99.0994900465
99.1573101282
99.136660099
99.1531801224
99.1531801224
99.1531801224

Block: 6
======================================
99.5868307352
99.1201400757
99.5331406593
99.1160100698
99.1201400757
99.1531801224
99.1531801224
99.1903501749
99.1738301516
99.1738301516

Block: 7
======================================
99.5537906885
99.1036200523
99.5372706652
99.5372706652
99.1697001457
99.1160100698
99.5537906885
99.5537906885
99.5703107119
99.2068701982

Block: 8
======================================
99.0829700232
99.1531801224
99.1903501749
99.5703107119
99.1201400757
99.1201400757
99.1697001457
99.1201400757
99.5331406593
99.1201400757

Block: 9
======================================
99.1697001457
99.5537906885
99.1201400757
99.5703107119
99.136660099
99.5372706652
99.136660099
99.5537906885
99.1903501749
99.5207506418

Block: 10
======================================
99.1201400757
99.1036200523
99.1531801224
99.136660099
99.0994900465
99.136660099
99.1903501749
99.1697001457
99.5496606827
99.1738301516
