
Block: 1
======================================
300.903639317
301.344360852
300.919812584
300.903639317
300.899596
300.919812584
301.36053412
300.479091048
300.883422732
301.36053412
301.324144268
300.475047731
301.356490803
300.915769267
300.899596
301.340317535
300.899596
300.495264316
300.479091048
301.344360852
300.903639317
301.324144268
300.883422732
300.883422732
301.307971001
301.344360852
301.340317535
301.748692536
300.899596
301.36053412
302.61396234
300.442701197
300.899596
300.883422732
300.899596
301.344360852
300.883422732
301.324144268
300.442701197
300.899596
301.781039071
300.899596
300.887466049
300.442701197
300.426527929
300.458874464
300.458874464
300.883422732
301.324144268
300.867249465
300.883422732
300.899596
300.883422732
302.193457389
300.887466049
300.426527929
300.899596
302.634178925
302.61396234
300.919812584
300.887466049
301.344360852
300.442701197
301.344360852
302.205587339
300.475047731
302.205587339
300.479091048
300.462917781
301.340317535
300.919812584
301.340317535
301.340317535
300.458874464
300.462917781

Average distance is : 301.060 cm
Average deviation is : 0.529 cm
Block: 2
======================================
301.785082388
301.36053412
300.479091048
300.479091048
300.919812584
300.475047731
301.356490803
301.36053412
300.479091048
300.935985851
300.495264316
301.797212338
300.935985851
301.36053412
300.919812584
300.495264316
300.972375703
300.935985851
300.919812584
300.462917781
301.344360852
301.36053412
300.479091048
300.919812584
300.475047731
301.376707387
301.36053412
300.479091048
300.479091048
301.36053412
300.495264316
300.5154809
300.915769267
300.479091048
300.919812584
300.919812584
300.903639317
300.462917781
300.495264316
301.36053412
300.495264316
300.475047731
301.324144268
300.935985851
300.931942534
301.340317535
300.531654167
301.340317535
301.36053412
300.511437583
300.495264316
301.36053412
300.462917781
300.495264316
300.479091048
300.458874464
300.883422732
302.205587339
301.340317535
301.356490803
301.340317535
301.356490803
300.479091048
300.915769267
300.495264316
300.899596
300.475047731
302.221760607
300.956202435
300.931942534
302.221760607
301.340317535
301.344360852
300.462917781
300.479091048

Average distance is : 300.943 cm
Average deviation is : 0.467 cm
Block: 3
======================================
301.340317535
301.36053412
301.340317535
301.356490803
301.344360852
302.630135608
301.340317535
302.630135608
300.915769267
300.903639317
301.356490803
302.225803924
301.324144268
301.324144268
300.475047731
300.899596
300.475047731
300.495264316
302.630135608
300.919812584
301.344360852
300.903639317
301.36053412
300.458874464
301.376707387
300.495264316
300.903639317
301.340317535
300.919812584
301.36053412
301.356490803
301.344360852
300.462917781
301.36053412
301.36053412
301.340317535
300.475047731
301.340317535
301.344360852
300.479091048
300.899596
300.495264316
300.479091048
300.5154809
300.458874464
300.479091048
300.935985851
300.479091048
301.344360852
300.475047731
300.511437583
300.903639317
301.36053412
300.495264316
300.919812584
301.785082388
301.340317535
301.356490803
301.376707387
300.462917781
300.903639317
300.899596
300.495264316
300.935985851
300.915769267
300.479091048
301.785082388
300.479091048
302.630135608
300.479091048
300.475047731
300.903639317
300.919812584
301.36053412
300.903639317

Average distance is : 301.070 cm
Average deviation is : 0.553 cm
Block: 4
======================================
300.462917781
300.442701197
300.915769267
300.883422732
301.748692536
300.919812584
301.36053412
300.458874464
300.903639317
300.458874464
301.344360852
300.883422732
300.511437583
301.36053412
300.462917781
300.495264316
300.475047731
300.899596
300.899596
300.919812584
300.915769267
301.376707387
300.903639317
301.344360852
301.344360852
301.344360852
301.344360852
300.883422732
301.376707387
300.883422732
300.479091048
300.919812584
300.887466049
302.225803924
300.887466049
300.903639317
300.903639317
300.887466049
301.36053412
301.324144268
300.935985851
301.340317535
300.491220999
300.479091048
300.919812584
301.36053412
300.899596
300.919812584
300.899596
301.36053412
301.328187585
301.344360852
301.36053412
300.903639317
301.36053412
301.328187585
300.899596
300.479091048
300.479091048
300.475047731
300.935985851
300.495264316
300.475047731
300.919812584
301.376707387
301.36053412
301.340317535
300.952159119
301.36053412
300.022196245
300.495264316
300.495264316
300.479091048
301.36053412
300.919812584

Average distance is : 300.958 cm
Average deviation is : 0.391 cm
Block: 5
======================================
300.495264316
300.458874464
301.356490803
300.899596
301.768909121
301.36053412
301.356490803
300.899596
300.475047731
300.919812584
301.324144268
300.479091048
300.915769267
301.817428923
300.919812584
300.935985851
300.495264316
301.376707387
300.899596
300.899596
301.36053412
301.356490803
300.899596
301.376707387
301.36053412
300.495264316
300.919812584
300.903639317
300.935985851
301.36053412
301.376707387
300.903639317
300.479091048
301.344360852
300.495264316
301.36053412
301.36053412
301.36053412
300.915769267
300.458874464
300.935985851
300.919812584
300.931942534
300.919812584
300.919812584
300.883422732
300.915769267
301.376707387
302.189414072
301.340317535
301.344360852
300.919812584
300.495264316
300.899596
300.915769267
301.36053412
301.36053412
300.475047731
301.36053412
301.785082388
301.36053412
301.356490803
300.899596
300.899596
301.376707387
300.903639317
300.899596
301.785082388
300.903639317
302.630135608
300.915769267
302.189414072
300.479091048
300.919812584
300.919812584

Average distance is : 301.090 cm
Average deviation is : 0.434 cm
Block: 6
======================================
300.883422732
300.426527929
300.887466049
301.768909121
300.919812584
300.442701197
300.903639317
300.903639317
300.915769267
301.785082388
300.903639317
302.173240805
303.042553926
301.328187585
300.899596
301.340317535
301.324144268
300.899596
301.801255655
300.935985851
303.038510609
300.919812584
300.915769267
301.376707387
300.903639317
300.899596
300.935985851
300.446744514
300.442701197
300.919812584
300.919812584
301.376707387
301.36053412
300.903639317
301.785082388
300.903639317
300.903639317
302.225803924
300.903639317
300.442701197
300.442701197
300.903639317
300.899596
300.915769267
300.903639317
301.36053412
301.328187585
302.193457389
300.462917781
300.915769267
300.883422732
300.903639317
300.458874464
301.340317535
300.462917781
300.462917781
300.442701197
300.899596
300.462917781
301.768909121
303.07490046
300.458874464
301.356490803
300.903639317
300.919812584
300.919812584
300.462917781
300.919812584
301.376707387
301.785082388
301.36053412
301.36053412
301.36053412
300.919812584
300.952159119

Average distance is : 301.114 cm
Average deviation is : 0.592 cm
Block: 7
======================================
301.36053412
300.479091048
300.511437583
300.495264316
300.495264316
300.511437583
300.931942534
300.952159119
300.952159119
300.972375703
300.511437583
300.952159119
301.340317535
300.495264316
300.52761085
300.968332386
300.495264316
301.36053412
300.919812584
300.511437583
300.495264316
300.491220999
300.511437583
300.495264316
300.511437583
301.376707387
300.495264316
300.511437583
300.935985851
300.495264316
300.495264316
300.935985851
302.205587339
300.952159119
300.495264316
301.376707387
302.205587339
302.241977191
300.495264316
301.36053412
301.376707387
300.479091048
300.915769267
301.340317535
301.340317535
300.495264316
301.344360852
301.817428923
300.883422732
300.935985851
300.899596
300.899596
300.442701197
300.919812584
300.68125689
300.462917781
301.376707387
301.356490803
301.36053412
301.376707387
302.650352192
301.36053412
300.919812584
300.511437583
300.479091048
301.344360852
300.495264316
301.344360852
301.376707387
300.915769267
300.442701197
300.903639317
300.935985851
301.36053412
300.919812584

Average distance is : 300.953 cm
Average deviation is : 0.490 cm
Block: 8
======================================
302.193457389
301.36053412
301.36053412
301.801255655
301.344360852
300.903639317
300.903639317
300.919812584
300.919812584
300.919812584
300.899596
300.919812584
300.899596
301.356490803
301.356490803
300.458874464
300.919812584
301.356490803
300.479091048
302.205587339
301.36053412
300.495264316
300.903639317
302.630135608
300.915769267
300.919812584
300.919812584
300.462917781
300.935985851
300.458874464
302.630135608
301.340317535
300.919812584
300.442701197
300.442701197
300.475047731
301.785082388
300.899596
300.903639317
301.764865804
300.919812584
300.919812584
300.919812584
300.458874464
300.899596
300.475047731
300.458874464
300.915769267
300.899596
300.903639317
301.344360852
301.785082388
300.919812584
300.903639317
300.899596
300.919812584
301.764865804
301.356490803
300.915769267
300.915769267
300.883422732
301.340317535
300.495264316
300.899596
300.899596
300.899596
300.919812584
300.446744514
301.356490803
300.915769267
301.344360852
301.785082388
302.630135608
300.915769267
301.356490803

Average distance is : 301.089 cm
Average deviation is : 0.516 cm
Block: 9
======================================
301.36053412
301.376707387
300.462917781
300.458874464
300.919812584
300.462917781
300.462917781
300.475047731
300.903639317
300.919812584
300.479091048
300.475047731
300.442701197
301.36053412
300.903639317
300.935985851
300.919812584
300.919812584
300.919812584
300.899596
300.915769267
301.340317535
300.442701197
300.919812584
300.919812584
300.475047731
301.356490803
300.952159119
300.935985851
300.475047731
301.376707387
301.768909121
301.36053412
300.479091048
300.903639317
301.356490803
300.495264316
300.475047731
300.495264316
300.479091048
301.376707387
301.36053412
301.344360852
300.495264316
300.511437583
300.899596
301.36053412
301.376707387
300.495264316
301.356490803
301.36053412
300.935985851
300.475047731
301.36053412
300.899596
301.356490803
301.801255655
300.919812584
300.479091048
301.340317535
300.458874464
300.458874464
300.919812584
300.919812584
300.899596
300.899596
300.903639317
300.903639317
300.935985851
300.903639317
300.458874464
300.479091048
300.935985851
300.511437583
300.462917781

Average distance is : 300.887 cm
Average deviation is : 0.373 cm
Block: 10
======================================
302.646308875
300.458874464
300.462917781
301.781039071
300.899596
300.442701197
300.442701197
300.462917781
301.785082388
300.883422732
300.442701197
302.634178925
300.479091048
300.883422732
300.442701197
301.344360852
300.462917781
300.887466049
300.903639317
300.903639317
301.785082388
302.189414072
300.462917781
300.462917781
300.919812584
300.462917781
300.458874464
300.935985851
300.458874464
300.475047731
300.919812584
300.426527929
300.442701197
301.328187585
300.903639317
301.324144268
300.883422732
300.458874464
300.915769267
301.324144268
300.495264316
300.883422732
301.344360852
300.462917781
300.479091048
300.887466049
301.324144268
301.328187585
302.597789073
301.324144268
301.344360852
301.307971001
300.883422732
300.462917781
301.307971001
300.479091048
300.442701197
302.173240805
301.748692536
301.324144268
301.324144268
300.883422732
300.867249465
301.307971001
301.324144268
301.324144268
302.173240805
301.748692536
300.442701197
301.307971001
301.324144268
300.442701197
301.328187585
300.867249465
301.307971001

Average distance is : 301.037 cm
Average deviation is : 0.580 cm