
Block: 1
======================================
300.782339811
302.933384371
301.700172734
302.088331151
302.088331151
300.802556396
301.223061347
300.786383128
301.227104664
300.36183486
300.378008127
301.243277931
300.37396481
300.36183486
300.798513079
301.20688808
301.223061347
300.394181395
300.798513079
300.357791543
302.104504418
302.953600955
300.818729663
301.227104664
300.378008127

Block: 2
======================================
301.663782883
300.37396481
301.20688808
302.92125442
301.696129417
300.798513079
300.818729663
300.36183486
300.818729663
301.700172734
300.814686346
300.357791543
300.83490293
301.663782883
300.83490293
300.798513079
300.357791543
301.696129417
300.818729663
300.83490293
300.798513079
300.798513079
301.67995615
300.798513079
301.259451199

Block: 3
======================================
300.37396481
300.818729663
300.802556396
300.814686346
301.239234614
300.782339811
300.378008127
302.104504418
300.394181395
300.37396481
300.394181395
300.390138078
301.255407882
300.851076198
300.798513079
301.255407882
301.223061347
301.255407882
300.818729663
300.814686346
300.390138078
301.259451199
301.275624466
300.818729663
300.390138078

Block: 4
======================================
301.275624466
301.239234614
301.223061347
301.259451199
301.239234614
301.259451199
301.271581149
301.696129417
300.818729663
301.259451199
300.814686346
300.798513079
300.830859613
300.802556396
300.814686346
300.410354662
301.259451199
301.255407882
301.239234614
302.124721003
301.255407882
301.259451199
301.259451199
301.243277931
301.259451199

Block: 5
======================================
300.851076198
300.394181395
300.410354662
302.969774222
300.37396481
301.275624466
300.390138078
300.851076198
301.275624466
301.259451199
301.259451199
301.291797733
301.275624466
302.120677686
300.390138078
300.37396481
300.830859613
300.851076198
301.255407882
300.830859613
300.851076198
301.255407882
300.83490293
300.851076198
301.275624466

Block: 6
======================================
300.851076198
301.291797733
301.275624466
300.83490293
300.83490293
300.410354662
300.830859613
300.378008127
300.410354662
300.851076198
300.83490293
300.410354662
300.851076198
300.410354662
300.378008127
301.312014318
300.830859613
301.275624466
301.271581149
300.851076198
300.410354662
300.851076198
302.157067537
300.394181395
300.83490293

Block: 7
======================================
300.390138078
300.410354662
300.867249465
301.307971001
300.410354662
300.410354662
300.410354662
301.307971001
301.291797733
301.307971001
301.291797733
301.732519269
301.312014318
302.597789073
301.307971001
302.157067537
301.307971001
300.830859613
300.410354662
301.307971001
301.291797733
301.291797733
301.716346002
300.867249465
300.867249465

Block: 8
======================================
301.716346002
300.446744514
301.312014318
300.446744514
300.442701197
301.291797733
300.430571246
302.157067537
300.426527929
301.291797733
301.307971001
301.307971001
302.173240805
300.426527929
300.426527929
300.446744514
300.883422732
300.883422732
302.14089427
301.291797733
300.426527929
300.406311345
301.291797733
300.442701197
301.307971001

Block: 9
======================================
301.307971001
300.867249465
300.867249465
301.275624466
300.83490293
301.291797733
300.446744514
301.307971001
302.581615806
301.307971001
300.851076198
300.426527929
300.426527929
300.430571246
300.442701197
300.851076198
300.867249465
300.851076198
301.732519269
300.867249465
300.426527929
301.307971001
301.291797733
301.307971001
301.291797733

Block: 10
======================================
300.867249465
300.426527929
301.312014318
300.883422732
300.410354662
300.867249465
300.442701197
301.764865804
300.426527929
301.732519269
300.426527929
300.446744514
300.887466049
300.851076198
301.312014318
301.291797733
301.291797733
300.446744514
300.426527929
300.410354662
300.851076198
300.442701197
301.748692536
300.446744514
300.442701197
