
Block: 1
======================================
50.4544447899
50.4544447899
50.8858198166
50.4914197922
50.4380114555
50.4544447899
50.4708781242
50.4708781242
50.4380114555
18.0438011169
50.4873114586
50.4708781242
50.4873114586
50.4873114586
50.9186864853
50.8858198166
50.4708781242
50.4873114586
50.4873114586
50.4544447899
50.4708781242
50.4708781242
6.75410041809
50.4873114586
50.4339031219
50.4873114586
50.4873114586
50.4544447899
50.4708781242
50.4544447899
50.4708781242
50.4873114586
50.4708781242
50.4544447899
50.9022531509
8.09752550125
50.4708781242
50.9022531509
50.9022531509
50.4749864578
50.4544447899
50.9022531509
50.4708781242
50.4749864578
50.4544447899
50.4708781242
50.4708781242
50.4174697876
7.35802545547
50.4339031219

Block: 2
======================================
50.4544447899
50.4051447868
50.4174697876
50.4051447868
50.4544447899
50.4174697876
50.4749864578
50.4749864578
50.4708781242
50.4708781242
50.4873114586
50.4708781242
50.4503364563
21.4537179947
50.4708781242
50.4708781242
50.8858198166
50.4544447899
50.4749864578
51.419903183
50.4914197922
50.5078531265
50.4708781242
50.4914197922
50.4873114586
50.4010364532
5.64895868301
50.4873114586
50.4708781242
50.881711483
50.881711483
50.4051447868
50.4873114586
50.8858198166
50.9022531509
50.4544447899
50.4708781242
50.4708781242
50.4708781242
5.43121700287
50.4544447899
50.4749864578
50.4708781242
50.4873114586
50.4708781242
50.4544447899
50.4708781242
50.4749864578
50.8652781487
50.4873114586

Block: 3
======================================
50.4544447899
50.4544447899
50.4873114586
50.4544447899
20.1595929146
50.5037447929
50.4544447899
50.5242864609
50.0436114311
50.4708781242
50.4544447899
50.4708781242
50.5037447929
50.4708781242
50.4544447899
50.4708781242
50.4708781242
3.20450019836
50.4544447899
50.4873114586
50.4544447899
50.4708781242
50.4749864578
50.5078531265
50.4544447899
50.4708781242
50.4708781242
50.4873114586
50.4544447899
50.4708781242
8.09752550125
50.5037447929
50.4708781242
50.4873114586
50.4708781242
50.4544447899
50.4708781242
50.4708781242
50.4873114586
50.5037447929
50.5037447929
50.4708781242
50.5078531265
8.1468255043
50.9022531509
50.4544447899
50.4544447899
50.9022531509
50.4914197922
50.4708781242

Block: 4
======================================
50.4873114586
50.4544447899
50.4010364532
50.4544447899
50.4174697876
50.4010364532
50.4873114586
50.0559364319
20.5581012726
50.4873114586
50.4544447899
50.5078531265
50.4914197922
50.4544447899
50.4544447899
50.5037447929
50.4544447899
50.4708781242
50.4544447899
50.4544447899
50.4544447899
6.37613372803
50.4380114555
50.881711483
50.4708781242
50.4215781212
50.1627531052
50.4708781242
50.4708781242
50.4708781242
50.5037447929
50.4708781242
50.4544447899
50.4380114555
7.23888378143
50.4708781242
50.4380114555
50.4708781242
50.4873114586
50.4708781242
50.4873114586
50.4380114555
50.4544447899
50.4708781242
50.4708781242
50.4708781242
50.4708781242
7.60041713715
50.4708781242
50.4873114586

Block: 5
======================================
50.4339031219
50.881711483
50.4544447899
50.4873114586
50.8858198166
50.4544447899
50.4708781242
50.4708781242
50.4873114586
50.4544447899
50.4544447899
0.981891727448
50.4380114555
50.4708781242
50.4708781242
50.4708781242
50.4503364563
50.4339031219
50.8858198166
50.4873114586
50.4914197922
50.4544447899
50.4339031219
50.4873114586
8.45905885696
50.4749864578
50.5078531265
50.4708781242
50.4708781242
50.4873114586
50.4873114586
50.4873114586
50.4708781242
50.5078531265
50.1257781029
50.4708781242
50.4749864578
8.70555887222
50.4544447899
50.881711483
50.4873114586
50.4708781242
50.4873114586
50.4914197922
50.4708781242
50.4544447899
50.4544447899
50.8858198166
50.4544447899
50.4873114586

Block: 6
======================================
50.4339031219
2.13633346558
50.4380114555
50.4051447868
50.4708781242
50.5037447929
50.4749864578
50.4708781242
50.4873114586
50.4380114555
50.5078531265
50.4708781242
50.4544447899
50.5078531265
6.20358371735
50.5037447929
50.4544447899
50.4544447899
50.9186864853
50.4749864578
50.4544447899
50.4708781242
50.4873114586
50.4544447899
50.8652781487
50.4544447899
49.7971114159
7.90854215622
50.4873114586
50.4873114586
50.4708781242
50.4544447899
50.4708781242
50.4544447899
50.5037447929
50.4215781212
50.4544447899
50.5037447929
50.5078531265
50.4749864578
6.35970039368
50.4544447899
50.4914197922
50.4708781242
50.4544447899
50.5078531265
50.4339031219
50.4544447899
50.0559364319
50.4708781242

Block: 7
======================================
50.4914197922
50.5242864609
50.8652781487
50.4174697876
50.4708781242
15.492525959
50.4749864578
50.6968364716
50.4914197922
50.4503364563
50.4339031219
50.4544447899
50.4544447899
50.4544447899
50.4544447899
50.4708781242
50.4544447899
50.4873114586
6.60209207535
50.4873114586
50.4380114555
50.4215781212
50.4380114555
50.5037447929
50.4708781242
50.4873114586
50.4708781242
50.4380114555
50.0764780998
50.4380114555
50.4544447899
7.42786712646
50.4708781242
50.4873114586
50.4503364563
50.4873114586
50.4914197922
50.4380114555
50.4708781242
50.4544447899
50.4708781242
50.4215781212
50.4708781242
50.4873114586
6.63495874405
50.4708781242
50.4708781242
50.4544447899
50.4708781242
50.4544447899

Block: 8
======================================
50.4708781242
50.9186864853
50.4544447899
50.9186864853
50.4914197922
50.9022531509
50.4708781242
50.3681697845
50.4544447899
18.7134594917
50.4544447899
50.4708781242
50.5078531265
50.4380114555
50.4544447899
50.4873114586
50.4708781242
50.4708781242
50.4544447899
50.4708781242
50.4380114555
50.4544447899
7.70312547684
50.4544447899
50.4708781242
50.4708781242
50.4914197922
50.4749864578
50.4708781242
50.4503364563
50.4914197922
50.4708781242
50.4708781242
50.4544447899
50.4708781242
8.73842554092
50.4544447899
50.4380114555
50.4544447899
50.4873114586
50.4708781242
50.4708781242
50.8858198166
50.5037447929
50.4914197922
50.4380114555
50.4914197922
50.4708781242
6.56511707306
50.4708781242

Block: 9
======================================
50.4215781212
50.4174697876
50.8652781487
50.4215781212
50.4873114586
50.8858198166
50.4708781242
50.4914197922
50.4708781242
50.4708781242
50.4708781242
50.4544447899
50.0600447655
21.0757513046
50.4708781242
50.4215781212
50.4544447899
50.4873114586
50.4708781242
50.4749864578
50.4544447899
50.4708781242
50.4544447899
50.4708781242
50.4544447899
50.4914197922
7.70312547684
50.4380114555
50.4708781242
50.4544447899
50.4914197922
50.4873114586
50.4544447899
50.4708781242
50.4708781242
50.4708781242
50.4708781242
50.4873114586
50.4873114586
7.6168504715
50.4708781242
50.4544447899
50.4873114586
50.4873114586
50.4503364563
50.4544447899
50.4873114586
50.4708781242
50.4914197922
50.4873114586

Block: 10
======================================
50.4544447899
50.4544447899
50.4544447899
3.03195018768
50.4544447899
50.4544447899
50.4380114555
50.4380114555
50.4873114586
50.4544447899
50.4380114555
50.4873114586
50.4544447899
50.5037447929
50.4873114586
50.4749864578
6.15017538071
50.4708781242
50.8693864822
50.8693864822
50.4749864578
50.4914197922
50.4544447899
50.4873114586
50.5078531265
50.4914197922
50.4010364532
50.4380114555
50.8858198166
5.13541698456
51.021394825
50.4544447899
50.4708781242
50.4873114586
50.8858198166
50.4380114555
50.4708781242
50.4544447899
50.4544447899
50.4708781242
50.5078531265
50.4544447899
6.56511707306
50.4339031219
50.4544447899
50.4708781242
50.4544447899
50.4914197922
50.4708781242
50.4708781242
