
Block: 1
======================================
50.4010364532
16.3183010101
50.4708781242
50.3846031189
40.1343108177
50.4215781212
50.4215781212
37.5666023254
50.4010364532
50.8858198166
38.5813607216
50.4708781242
50.4544447899
40.8368358612
50.4380114555
50.4708781242
40.7875358582
50.4503364563
50.8488448143
39.3085357666
50.4380114555
50.4873114586
40.3191858292
50.8858198166
50.8858198166
39.2879940987
50.4544447899
50.4544447899
40.1466358185
50.4708781242
50.4873114586
40.4260025024
50.4873114586
50.4708781242
40.2000441551
50.4708781242
50.4503364563
40.3561608315
50.4708781242
50.4708781242
40.2534524918
50.4544447899
50.5078531265
40.5122775078
50.4708781242
50.4749864578
40.2000441551
50.4708781242
50.4708781242
40.8409441948
50.4873114586
50.4708781242
40.1178774834
50.4544447899
50.4544447899
39.6865024567
50.9186864853
50.4914197922
39.563252449
50.4380114555
50.4544447899
50.4708781242
50.5078531265
50.4708781242
50.4544447899
50.4873114586
50.5037447929
50.9022531509
50.4215781212
50.4544447899
50.4544447899
49.9039280891
50.4174697876
50.8858198166
39.6002274513

Average distance is : 47.231 cm
Average deviation is : 5.942 cm
Block: 2
======================================
50.8858198166
49.9902030945
22.5711847305
50.4544447899
50.4380114555
37.4269189835
50.4215781212
50.4215781212
37.4269189835
50.8858198166
50.4708781242
39.8056441307
50.4914197922
50.4339031219
40.2164774895
50.9022531509
50.9186864853
39.3208607674
50.4708781242
50.4544447899
39.63309412
50.8858198166
50.4708781242
40.6314191818
50.4708781242
50.8858198166
39.2510190964
50.8693864822
50.4873114586
39.8056441307
50.4873114586
50.4339031219
40.3191858292
50.4708781242
50.5037447929
40.6149858475
50.4708781242
50.4380114555
39.9781941414
50.4544447899
50.8652781487
39.5796857834
50.4873114586
50.5037447929
40.3725941658
50.4873114586
50.4708781242
40.2698858261
50.4380114555
50.9022531509
39.6823941231
50.4708781242
50.4749864578
39.891919136
50.4544447899
50.4708781242
40.7875358582
50.4544447899
50.4544447899
40.2000441551
50.4708781242
50.4708781242
39.6823941231
50.4544447899
50.4544447899
40.1507441521
50.4708781242
50.4708781242
39.891919136
50.4708781242
50.4873114586
40.1877191544
50.4708781242
50.4544447899
40.3561608315

Average distance is : 46.728 cm
Average deviation is : 5.780 cm
Block: 3
======================================
50.4380114555
50.4544447899
23.4380431175
50.4544447899
50.3846031189
38.3554023743
50.4749864578
50.4708781242
35.8411022186
50.4339031219
50.4873114586
40.5287108421
50.4708781242
50.4708781242
39.2386940956
50.4708781242
50.4544447899
38.8894857407
50.4544447899
50.4749864578
39.4071357727
50.4544447899
50.4544447899
39.444110775
50.8858198166
50.4544447899
39.6495274544
50.4544447899
50.4873114586
40.1302024841
50.5037447929
50.4708781242
40.4588691711
50.4544447899
50.4544447899
39.9946274757
50.4708781242
50.4380114555
40.4588691711
50.4708781242
50.4339031219
40.1507441521
50.4544447899
50.4544447899
40.3767024994
50.4503364563
50.4873114586
40.0644691467
50.4708781242
50.4708781242
39.961760807
50.4544447899
50.5078531265
40.4054608345
50.4708781242
50.4380114555
40.2329108238
50.4544447899
50.4708781242
39.444110775
50.4339031219
50.4708781242
41.0997692108
50.4708781242
50.4873114586
39.9946274757
50.4914197922
50.4544447899
39.7193691254
50.4503364563
50.0066364288
40.8039691925
50.4749864578
50.0764780998
40.1836108208

Average distance is : 46.679 cm
Average deviation is : 5.717 cm
Block: 4
======================================
50.4873114586
50.8693864822
23.0189930916
50.9022531509
50.4010364532
36.9955439568
50.8858198166
50.3846031189
37.4474606514
50.4380114555
50.4708781242
40.1343108177
50.4544447899
50.4708781242
40.2863191605
50.4544447899
50.4380114555
40.0480358124
50.4873114586
50.4544447899
40.1302024841
50.4708781242
50.4708781242
39.7193691254
50.4544447899
50.4914197922
40.4753025055
50.4544447899
50.4544447899
39.3907024384
50.4708781242
50.4708781242
40.7341275215
50.4544447899
50.4708781242
40.4218941689
50.4544447899
50.4749864578
40.1836108208
50.4380114555
50.4914197922
39.2510190964
50.4873114586
50.4873114586
40.2370191574
50.4708781242
50.4873114586
40.2329108238
50.5037447929
50.4749864578
40.3561608315
50.4873114586
50.4914197922
40.1137691498
50.4339031219
50.4749864578
39.5961191177
50.4914197922
50.4339031219
39.563252449
50.4749864578
50.4914197922
40.7382358551
50.4708781242
50.4544447899
40.5287108421
50.4873114586
50.4873114586
39.6495274544
50.4708781242
50.4708781242
40.3397274971
50.8693864822
50.4380114555
39.8590524673

Average distance is : 46.726 cm
Average deviation is : 5.728 cm
Block: 5
======================================
50.4749864578
50.4544447899
50.4174697876
50.9022531509
50.4544447899
50.8693864822
50.4914197922
50.4708781242
50.4380114555
50.4380114555
50.4708781242
50.4503364563
39.8754858017
50.4544447899
50.4544447899
40.5451441765
50.4544447899
50.4380114555
39.7686691284
50.4503364563
50.4708781242
40.4260025024
50.4708781242
50.4873114586
39.9288941383
50.4544447899
50.4749864578
40.2370191574
50.4873114586
50.4544447899
39.891919136
50.5037447929
50.4339031219
40.4424358368
50.5037447929
50.4708781242
39.4769774437
50.4708781242
50.4544447899
40.2698858261
50.4749864578
50.4708781242
40.0603608131
50.4708781242
50.4544447899
40.2329108238
50.4174697876
50.4708781242
40.1137691498
49.6985114098
50.4010364532
40.1836108208
51.280219841
50.4749864578
39.7358024597
51.0049614906
50.0230697632
41.5270359039
50.4873114586
50.4914197922
40.0809024811
50.4873114586
50.4544447899
40.0110608101
50.4544447899
50.4544447899
40.0973358154
50.4380114555
50.8693864822
39.4605441093
50.4708781242
50.4544447899
40.7012608528
50.4749864578
50.4544447899

Average distance is : 47.592 cm
Average deviation is : 4.684 cm
Block: 6
======================================
23.5202097893
50.4873114586
50.4215781212
36.6668772697
50.4544447899
50.8488448143
37.0653856277
50.4873114586
50.4544447899
36.8271022797
50.1956197739
50.4873114586
39.25512743
50.4380114555
50.4380114555
39.7193691254
50.4380114555
50.4708781242
40.3397274971
50.4544447899
50.4544447899
40.0603608131
50.4914197922
50.4914197922
40.0973358154
50.4380114555
50.4544447899
40.3561608315
50.4708781242
50.4339031219
40.0480358124
50.4544447899
50.4544447899
40.1507441521
50.4708781242
50.4873114586
40.1507441521
50.4708781242
50.5037447929
40.0809024811
50.4708781242
50.4708781242
39.891919136
50.4544447899
50.4708781242
40.2863191605
50.4544447899
50.4708781242
40.2000441551
50.4749864578
50.4873114586
40.1137691498
50.4380114555
50.4544447899
40.2370191574
50.4544447899
50.4873114586
39.9946274757
50.4544447899
50.5078531265
40.1671774864
50.4339031219
50.4503364563
40.0151691437
50.4380114555
50.4708781242
40.1877191544
50.4380114555
50.4708781242
40.0110608101
50.4544447899
50.4544447899
40.7176941872
50.5078531265
50.4339031219

Average distance is : 46.659 cm
Average deviation is : 5.758 cm
Block: 7
======================================
24.5719431877
50.4749864578
50.4708781242
39.9247858047
50.4544447899
50.4708781242
40.4424358368
50.4544447899
50.4708781242
39.7522357941
50.4708781242
50.4544447899
40.2164774895
50.4544447899
50.4544447899
39.8056441307
50.4544447899
50.4708781242
40.4794108391
50.4708781242
50.4873114586
40.0110608101
50.881711483
50.8652781487
38.71693573
50.4215781212
50.4708781242
40.6683941841
50.4873114586
50.4380114555
40.1137691498
50.4708781242
50.4708781242
40.5122775078
50.4544447899
50.4708781242
40.1507441521
50.0436114311
50.4708781242
40.8245108604
50.4749864578
50.8652781487
39.9083524704
50.8488448143
50.4503364563
39.6495274544
50.5037447929
50.4544447899
40.0274941444
50.4708781242
50.4339031219
40.6314191818
50.4174697876
50.4873114586
40.5122775078
50.4380114555
50.4544447899
40.6478525162
50.4544447899
50.8488448143
39.3578357697
50.4380114555
50.4215781212
40.0274941444
50.8693864822
50.4708781242
40.101444149
50.4708781242
50.4708781242
40.4260025024
50.4708781242
50.4873114586
39.8056441307
50.4873114586
50.4010364532

Average distance is : 46.831 cm
Average deviation is : 5.524 cm
Block: 8
======================================
24.9704515457
50.4339031219
50.3846031189
36.2396105766
50.4708781242
50.3846031189
37.9774356842
50.881711483
50.4914197922
34.4976771355
50.4873114586
50.4873114586
40.0480358124
50.4708781242
50.4544447899
40.4424358368
50.4708781242
50.9022531509
40.2534524918
50.4708781242
50.4708781242
39.045602417
50.4749864578
50.4339031219
40.1343108177
50.4380114555
50.5078531265
40.0480358124
50.4708781242
50.4339031219
40.2493441582
50.4873114586
50.5037447929
39.9453274727
50.4708781242
50.4544447899
39.6495274544
50.4708781242
50.4544447899
50.4339031219
50.4708781242
50.4544447899
50.4873114586
50.4708781242
50.4544447899
50.4749864578
50.4708781242
50.4708781242
50.4380114555
50.4544447899
50.4708781242
50.4708781242
42.7841859818
50.4544447899
50.4544447899
39.891919136
50.4708781242
50.4914197922
40.8039691925
50.4873114586
50.8693864822
39.234585762
50.4544447899
50.4708781242
39.8878108025
50.4544447899
50.4503364563
40.7176941872
50.4503364563
50.4708781242
40.1671774864
50.4914197922
50.4544447899
40.4260025024
50.4914197922

Average distance is : 47.250 cm
Average deviation is : 5.555 cm
Block: 9
======================================
50.4174697876
22.3986347198
50.4215781212
50.4380114555
37.6857439995
50.4174697876
50.3887114525
37.2379356384
50.4174697876
50.4708781242
39.513952446
50.4708781242
50.4380114555
39.9576524734
50.4544447899
50.4380114555
40.1343108177
50.4544447899
50.4380114555
40.3561608315
50.4380114555
50.0395030975
40.5287108421
50.4749864578
50.4544447899
38.7703440666
50.4380114555
50.8488448143
39.0332774162
50.4380114555
50.4544447899
40.3397274971
50.4339031219
50.8652781487
39.4112441063
50.4215781212
50.4914197922
40.4424358368
50.4914197922
50.4873114586
39.961760807
50.4544447899
50.4503364563
40.0439274788
50.4708781242
50.4873114586
40.2698858261
50.4215781212
50.4339031219
39.7686691284
50.4708781242
50.4708781242
40.2534524918
50.8488448143
50.4708781242
39.3537274361
50.4544447899
50.4380114555
40.3767024994
50.4873114586
50.4873114586
39.9453274727
50.4873114586
50.4914197922
40.1137691498
50.8693864822
50.4708781242
39.563252449
50.4708781242
50.4010364532
40.2329108238
50.4544447899
50.4215781212
39.7358024597
50.4873114586

Average distance is : 46.657 cm
Average deviation is : 5.804 cm
Block: 10
======================================
50.4708781242
24.1241348267
50.8858198166
50.4544447899
37.6857439995
50.4174697876
50.4215781212
37.0982522964
50.4544447899
50.4380114555
37.032518959
50.4339031219
50.4873114586
39.9946274757
50.8652781487
50.4051447868
39.1483107567
50.8858198166
50.4708781242
39.513952446
50.4010364532
50.4544447899
39.9412191391
50.4544447899
50.8652781487
39.8056441307
50.4174697876
50.4215781212
39.7522357941
50.881711483
50.4051447868
39.7522357941
50.9022531509
50.4051447868
39.6495274544
50.4215781212
50.4873114586
39.9781941414
50.4215781212
50.4174697876
40.1671774864
50.8858198166
50.8858198166
38.926460743
50.4380114555
50.4708781242
39.9453274727
50.4544447899
50.4544447899
40.8902441978
50.4544447899
50.0764780998
39.4071357727
50.5078531265
50.8858198166
40.0439274788
50.8858198166
50.4544447899
39.185285759
50.4708781242
50.6598614693
40.0973358154
50.4010364532
50.4380114555
40.2698858261
50.4010364532
50.4380114555
39.7193691254
50.4503364563
50.4544447899
40.101444149
50.9022531509
50.4380114555
39.63309412
50.8693864822

Average distance is : 46.655 cm
Average deviation is : 5.835 cm