
Block: 1
======================================
48.5892613411
50.8693864822
50.0559364319
50.4708781242
50.0395030975
50.4544447899
14.884492588
50.0395030975
50.0559364319
50.4873114586
50.4873114586
50.0559364319
22.4520430565
50.4708781242
50.4544447899
50.4873114586
50.4544447899
50.4708781242
21.1784596443
50.4380114555
50.4503364563
50.4873114586
50.4708781242
50.4544447899
21.8316846848
50.4544447899
50.4708781242
50.5078531265
50.4708781242
50.4914197922
21.211326313
50.4708781242
50.4544447899
50.4914197922
50.4544447899
50.4544447899
21.6591346741
50.4339031219
50.4708781242
50.4503364563
50.4708781242
50.4708781242
21.4865846634
50.4708781242
50.4380114555
50.4708781242
50.4873114586
50.4914197922
21.679676342
50.0436114311
50.0559364319
50.4749864578
50.4873114586
50.4544447899
21.4003096581
50.4544447899
50.4708781242
50.4708781242
50.4914197922
50.4708781242
21.022342968
50.4708781242
50.4708781242
50.4708781242
50.4708781242
50.4544447899
20.9401762962
50.4708781242
50.4873114586
50.0559364319
50.4708781242
50.4708781242
21.868659687
50.4380114555
50.0230697632

Block: 2
======================================
50.4914197922
50.8652781487
50.4544447899
50.3846031189
50.4380114555
50.5037447929
50.4339031219
50.4544447899
18.6436178207
50.4380114555
50.4380114555
50.4544447899
50.4544447899
50.4873114586
20.5745346069
50.4708781242
50.4749864578
50.4380114555
50.0559364319
50.0230697632
21.5194513321
50.0230697632
50.4914197922
50.4914197922
50.0066364288
50.4873114586
23.1586764336
50.0600447655
50.0764780998
50.4749864578
50.4749864578
50.0764780998
22.5752930641
50.0395030975
50.4708781242
50.4708781242
50.0600447655
50.0559364319
20.0568845749
50.5037447929
50.4339031219
50.4380114555
50.0230697632
50.4380114555
24.7773598671
50.0395030975
50.4051447868
50.0600447655
50.0600447655
50.0230697632
22.4725847244
50.4544447899
50.0600447655
50.0271780968
50.4914197922
50.4544447899
21.9878013611
50.4749864578
50.0559364319
50.4544447899
50.4380114555
50.0559364319
19.8843345642
50.4544447899
50.0559364319
50.0230697632
50.0395030975
50.4873114586
24.2638181686
50.0600447655
50.4544447899
50.4708781242
50.0395030975
50.0230697632
22.4356097221

Block: 3
======================================
50.5037447929
50.4544447899
50.0600447655
50.4914197922
50.0066364288
50.4380114555
50.4380114555
50.4708781242
50.0230697632
50.4873114586
20.7470846176
50.4708781242
50.0764780998
50.0764780998
50.0395030975
50.0066364288
23.6434597969
50.0395030975
50.0600447655
50.0230697632
50.4544447899
50.0559364319
23.0066680908
50.5078531265
50.4708781242
50.4544447899
50.0395030975
50.0764780998
18.2492177963
50.4708781242
50.0559364319
50.0600447655
50.0436114311
50.0395030975
22.4520430565
50.4708781242
50.0230697632
50.0600447655
50.0395030975
50.0600447655
22.7807097435
50.4544447899
50.0559364319
50.4544447899
50.0395030975
50.4708781242
22.5383180618
50.4708781242
50.5078531265
50.0395030975
50.0230697632
50.4914197922
22.1110513687
50.4708781242
50.4708781242
50.4544447899
50.0395030975
50.4708781242
21.6632430077
50.0395030975
50.0764780998
50.4708781242
50.0230697632
50.4380114555
23.0189930916
50.4708781242
50.4544447899
50.0395030975
50.4749864578
50.0395030975
20.5416679382
50.0600447655
50.4544447899
50.0395030975
50.0764780998

Block: 4
======================================
11.836109066
50.4873114586
50.4544447899
50.4873114586
50.5201781273
50.4708781242
13.9395758629
50.4873114586
50.4873114586
50.4708781242
50.4873114586
50.4544447899
19.3502511978
50.4914197922
50.0600447655
50.0600447655
50.4380114555
50.4544447899
22.2794930458
50.0230697632
50.5776947975
50.4544447899
50.4873114586
50.4503364563
20.3321429253
50.0395030975
50.4708781242
50.0723697662
50.4544447899
50.0559364319
21.4742596626
50.0764780998
50.4708781242
50.4503364563
50.0559364319
50.4873114586
20.8662262917
50.4749864578
50.4708781242
50.4708781242
50.4544447899
50.5078531265
20.3526845932
50.4708781242
50.4873114586
50.4544447899
50.0230697632
50.0600447655
21.022342968
50.4708781242
50.0559364319
50.4873114586
50.4544447899
50.0395030975
21.8481180191
50.4708781242
50.4708781242
50.4544447899
50.0436114311
50.0559364319
20.8169262886
50.0764780998
50.4544447899
50.0559364319
50.4708781242
50.0559364319
23.0395347595
50.4708781242
50.4544447899
50.0395030975
50.0559364319
50.4708781242
21.9672596931
50.4708781242
50.0764780998

Block: 5
======================================
50.0559364319
50.4544447899
50.4339031219
50.4339031219
50.0395030975
50.4544447899
50.4544447899
50.0230697632
18.0396927834
50.4708781242
50.4708781242
50.4544447899
50.0230697632
50.4708781242
21.4537179947
50.4544447899
50.0764780998
50.4749864578
50.4708781242
50.4708781242
21.609834671
50.4708781242
50.0395030975
50.4873114586
50.0559364319
50.0271780968
22.2836013794
50.0436114311
50.0559364319
50.0436114311
50.0230697632
50.4708781242
22.9327180862
50.4708781242
50.4544447899
50.0230697632
50.4873114586
50.4708781242
21.4537179947
50.0600447655
50.4544447899
50.0395030975
50.4174697876
50.4873114586
21.6961096764
50.0395030975
50.0230697632
50.0764780998
50.4708781242
50.4708781242
21.4003096581
50.0395030975
50.0723697662
50.0559364319
50.4873114586
50.0395030975
23.1586764336
50.0230697632
50.0395030975
50.4380114555
50.4380114555
50.4544447899
21.5235596657
50.4873114586
50.4380114555
50.4544447899
50.0230697632
50.4708781242
21.7454096794
50.0230697632
50.0395030975
50.0395030975
50.4873114586
50.4873114586
22.1233763695

Block: 6
======================================
50.4708781242
50.881711483
50.8652781487
50.4380114555
14.2518092155
50.4380114555
50.4380114555
50.4708781242
50.4873114586
50.4873114586
20.2335429192
50.4708781242
50.0395030975
50.4544447899
50.4873114586
50.4544447899
20.8004929543
50.4051447868
50.4873114586
50.4503364563
50.4873114586
50.4544447899
21.022342968
50.4708781242
50.4873114586
50.4544447899
50.4708781242
50.4544447899
19.9706095695
50.4873114586
50.4544447899
50.4339031219
50.4339031219
50.4544447899
21.2483013153
50.4544447899
50.0723697662
50.4544447899
50.4544447899
50.4503364563
21.609834671
50.4544447899
50.4544447899
50.4544447899
50.4708781242
50.4708781242
21.231867981
50.0395030975
50.0436114311
50.4544447899
50.4708781242
50.4708781242
21.8645513535
50.0764780998
50.4873114586
50.4380114555
50.4544447899
50.4749864578
21.5564263344
50.4380114555
50.4708781242
50.4544447899
50.4914197922
50.4503364563
20.9689346313
50.5078531265
50.4749864578
50.4708781242
50.4544447899
50.5037447929
21.4537179947
50.4708781242
50.4544447899
50.0395030975
50.4544447899

Block: 7
======================================
50.4708781242
50.5078531265
50.4544447899
50.4749864578
50.4708781242
50.4708781242
15.0282842636
50.4708781242
50.4544447899
50.4873114586
50.4708781242
50.4749864578
20.4019845963
50.4708781242
50.5037447929
50.4708781242
50.4914197922
50.4544447899
20.2130012512
50.0600447655
50.4380114555
50.4708781242
50.5078531265
50.4873114586
20.812817955
50.4873114586
50.4339031219
50.4708781242
50.4873114586
50.4708781242
20.7840596199
50.4544447899
50.4544447899
50.0764780998
50.0600447655
50.4708781242
21.609834671
50.4708781242
50.0600447655
50.0395030975
50.0723697662
50.4708781242
22.5917263985
50.4914197922
50.4544447899
50.4708781242
50.4544447899
50.4544447899
21.071642971
50.4544447899
50.4708781242
50.5037447929
50.4544447899
50.4544447899
21.1086179733
50.4544447899
50.4544447899
50.4749864578
50.4873114586
50.4749864578
20.7306512833
50.4708781242
50.4544447899
50.0271780968
50.0230697632
50.4873114586
21.8850930214
50.5078531265
50.1298864365
50.4708781242
50.4708781242
50.0600447655
17.505609417
50.4708781242
50.4708781242

Block: 8
======================================
50.0764780998
50.4873114586
47.7799196243
50.4544447899
50.0723697662
50.0764780998
50.0764780998
50.0230697632
20.2623012543
50.4873114586
50.0395030975
50.0764780998
50.0600447655
50.4708781242
21.868659687
50.4544447899
50.4544447899
50.0559364319
50.0436114311
50.4708781242
21.3838763237
50.0230697632
50.4708781242
50.4708781242
50.4708781242
36.18620224
50.4544447899
50.4873114586
50.4708781242
50.4708781242
50.0764780998
21.0059096336
50.0559364319
50.4873114586
50.4914197922
50.4544447899
50.4873114586
20.3691179276
50.4873114586
50.5037447929
50.4380114555
50.4914197922
50.4339031219
20.5046929359
51.0255031586
50.4873114586
50.4873114586
50.4708781242
50.4708781242
20.2787345886
50.5078531265
50.0723697662
50.4380114555
50.4708781242
50.4544447899
20.5745346069
50.0559364319
50.4873114586
50.4708781242
50.4544447899
50.4708781242
19.7980595589
50.4708781242
50.4380114555
50.4544447899
50.4544447899
50.5078531265
21.1086179733
50.0559364319
50.4339031219
50.4708781242
50.4544447899
50.4544447899
21.1086179733
50.0395030975

Block: 9
======================================
50.881711483
50.9186864853
50.5037447929
48.1948613167
50.8981448174
50.4708781242
50.4544447899
50.4749864578
50.4544447899
17.505609417
50.4708781242
50.4380114555
50.4873114586
50.4708781242
50.4914197922
20.0404512405
50.4339031219
50.5078531265
50.4708781242
50.4708781242
50.4544447899
19.7323262215
50.4544447899
50.5037447929
50.4708781242
50.4708781242
50.4873114586
20.8292512894
50.4503364563
50.4708781242
50.4914197922
50.4503364563
50.4873114586
20.5252346039
50.0559364319
50.5078531265
50.4708781242
50.4544447899
50.4544447899
21.141484642
50.4708781242
50.9022531509
50.4544447899
50.4873114586
50.3353031158
20.1102929115
50.4873114586
50.4708781242
50.4380114555
50.4708781242
50.4708781242
20.6772429466
50.4544447899
50.4708781242
50.4708781242
50.4708781242
50.4544447899
20.4677179337
50.4914197922
50.4708781242
50.4708781242
50.4708781242
50.4708781242
20.5909679413
50.0559364319
50.4914197922
50.4544447899
50.4544447899
50.4544447899
21.141484642
50.0436114311
50.4380114555
50.4914197922
50.5037447929
50.4914197922

Block: 10
======================================
50.4873114586
50.8693864822
50.8858198166
50.4544447899
50.4708781242
12.094934082
50.4708781242
50.4544447899
50.4708781242
50.4914197922
50.4544447899
20.1267262459
50.4708781242
50.4544447899
50.4380114555
50.4914197922
50.5037447929
20.7470846176
50.4708781242
50.5078531265
50.4873114586
50.4873114586
50.4914197922
20.4553929329
50.4708781242
50.4544447899
50.4544447899
50.4380114555
50.4339031219
20.7101096153
50.4914197922
50.4708781242
50.4503364563
50.4708781242
50.4544447899
20.6608096123
50.4544447899
50.4544447899
50.4708781242
50.4873114586
50.4544447899
20.812817955
50.0559364319
50.4544447899
50.0764780998
49.0411780357
46.5761778831
50.4380114555
50.4873114586
50.5037447929
50.4873114586
50.4708781242
20.5581012726
50.4914197922
50.4380114555
50.4708781242
50.4544447899
50.4380114555
21.0387763023
50.0764780998
50.4749864578
50.4544447899
50.4174697876
50.4544447899
19.9172012329
50.8858198166
50.4380114555
50.4708781242
50.4544447899
50.4873114586
19.9541762352
50.4708781242
50.4544447899
50.9022531509
50.4544447899
