
Block: 1
======================================
50.4010364532
50.4174697876
50.4339031219
50.4544447899
50.4914197922

Average distance is : 50.440 cm
Average deviation is : 0.035 cm
Block: 2
======================================
50.4051447868
50.4215781212
50.9022531509
50.4544447899
39.563252449

Average distance is : 48.349 cm
Average deviation is : 4.916 cm
Block: 3
======================================
50.7132698059
50.4544447899
27.9982933998
50.4215781212
50.4544447899

Average distance is : 46.008 cm
Average deviation is : 10.069 cm
Block: 4
======================================
28.8281767845
50.4010364532
50.4174697876
40.8738108635
50.4339031219

Average distance is : 44.191 cm
Average deviation is : 9.531 cm
Block: 5
======================================
50.3846031189
50.3846031189
50.4215781212
50.4380114555
50.4380114555

Average distance is : 50.413 cm
Average deviation is : 0.027 cm
Block: 6
======================================
50.4708781242
50.4339031219
50.4215781212
48.231836319
50.4010364532

Average distance is : 49.992 cm
Average deviation is : 0.984 cm
Block: 7
======================================
50.4174697876
23.4503681183
50.4544447899
50.4010364532
37.1146856308

Average distance is : 42.368 cm
Average deviation is : 12.044 cm
Block: 8
======================================
50.3846031189
50.4215781212
26.2604682922
50.4544447899
50.4339031219

Average distance is : 45.591 cm
Average deviation is : 10.806 cm
Block: 9
======================================
23.1751097679
50.9186864853
50.4010364532
37.5624939919
50.4215781212

Average distance is : 42.496 cm
Average deviation is : 12.185 cm
Block: 10
======================================
50.4010364532
23.0395347595
50.4215781212
50.4215781212
37.8911606789

Average distance is : 42.435 cm
Average deviation is : 12.123 cm