
Block: 1
======================================
50.881711483
50.4174697876
50.9022531509
50.9186864853
50.4749864578
50.4544447899
50.4708781242
12.8056757927
50.4544447899
50.4544447899
50.4914197922
50.4873114586
50.4380114555
50.4339031219
50.4708781242
50.4544447899
50.4873114586
50.9022531509
50.4708781242
50.4708781242
7.1156337738
50.4708781242
50.4708781242
50.4708781242
50.9022531509
50.4708781242
50.4708781242
50.4503364563
50.4708781242
50.4873114586
50.9022531509
50.4380114555
50.8529531479
7.57987546921
50.4914197922
50.8858198166
50.8858198166
50.4708781242
50.4708781242
50.4873114586
50.4544447899
51.2843281746
50.4544447899
50.4914197922
50.4380114555
50.4708781242
8.44262552261
50.4914197922
50.4174697876
50.4708781242
50.8858198166
50.4914197922
50.9186864853
50.4051447868
50.7790031433
50.4215781212
50.4051447868
50.8652781487
50.9022531509
7.63328380585
50.881711483
50.4174697876
50.4708781242
50.4010364532
50.4544447899
50.4708781242
50.4380114555
50.4010364532
50.4708781242
50.4873114586
50.8693864822
50.4544447899
7.99481716156
50.4708781242
50.4708781242

Average distance is : 47.212 cm
Average deviation is : 11.479 cm
Block: 2
======================================
50.4544447899
50.4174697876
50.4708781242
50.4708781242
50.4873114586
50.4380114555
50.4380114555
50.4873114586
50.4708781242
50.9227948189
50.8693864822
50.0764780998
21.5934013367
50.4544447899
50.4914197922
50.4914197922
50.5037447929
50.4708781242
50.4544447899
50.4873114586
50.4544447899
50.4708781242
50.5078531265
50.0395030975
50.4380114555
8.84113388062
50.4544447899
50.4708781242
50.4708781242
50.4544447899
50.4914197922
50.4708781242
50.4380114555
50.4544447899
50.5078531265
50.4544447899
50.5037447929
50.5037447929
8.66858386993
50.4873114586
50.4914197922
50.4544447899
50.4914197922
50.4749864578
50.4708781242
50.4873114586
50.4708781242
50.4873114586
50.8693864822
50.4544447899
50.4544447899
8.40975885391
50.4873114586
50.4544447899
50.4873114586
50.4708781242
50.4544447899
50.4708781242
50.4914197922
50.4544447899
50.4708781242
50.4380114555
50.4873114586
50.4544447899
8.49603385925
50.4544447899
50.4708781242
50.4708781242
50.4708781242
50.5078531265
50.4914197922
50.4708781242
50.4708781242
50.4544447899
50.4544447899

Average distance is : 47.858 cm
Average deviation is : 9.956 cm
Block: 3
======================================
50.4708781242
50.4544447899
50.4544447899
50.4873114586
50.5037447929
50.4010364532
18.7463261604
50.4708781242
50.4708781242
50.4380114555
50.4749864578
50.4544447899
50.4708781242
51.091236496
50.4708781242
50.4544447899
50.4749864578
50.4708781242
50.4544447899
7.44019212723
50.4708781242
50.4873114586
50.4708781242
50.4708781242
50.4749864578
50.4503364563
50.4544447899
50.4708781242
50.4708781242
50.5037447929
50.4708781242
50.4708781242
8.38921718597
50.4873114586
50.4708781242
50.4873114586
50.4708781242
50.4914197922
50.4708781242
50.4544447899
50.4380114555
50.4708781242
50.4708781242
50.4873114586
50.4380114555
7.71955881119
50.4544447899
50.4708781242
50.4873114586
50.4708781242
50.4873114586
50.4708781242
50.4544447899
50.4708781242
50.9885281563
50.4544447899
50.4708781242
50.9022531509
6.77053375244
50.4708781242
50.4873114586
50.4708781242
50.4544447899
50.4708781242
50.4544447899
50.4503364563
50.4544447899
50.4708781242
50.4339031219
50.4708781242
50.4873114586
7.16904211044
50.4708781242
50.4544447899
50.4380114555

Average distance is : 47.200 cm
Average deviation is : 11.295 cm
Block: 4
======================================
50.4380114555
50.4708781242
50.4873114586
50.4708781242
50.4503364563
50.4708781242
50.4503364563
50.4708781242
50.4544447899
50.4544447899
4.34250860214
50.4873114586
50.4708781242
50.4544447899
50.4708781242
50.4708781242
50.4544447899
50.4708781242
50.4544447899
50.8858198166
50.4708781242
50.4544447899
50.4749864578
7.82226715088
49.9203614235
50.4215781212
50.4873114586
50.4873114586
50.4544447899
50.4544447899
50.4544447899
50.4708781242
50.4708781242
50.4503364563
50.0600447655
50.4544447899
8.33991718292
50.4544447899
50.4873114586
50.4873114586
50.4708781242
50.4544447899
50.4708781242
50.5037447929
50.4708781242
50.4380114555
50.4873114586
50.4380114555
50.4873114586
6.46240873337
50.4708781242
50.4544447899
50.4873114586
50.4873114586
50.4873114586
50.4544447899
50.4544447899
50.4708781242
50.5078531265
50.0395030975
50.4503364563
50.4544447899
8.1139588356
50.4544447899
50.4873114586
50.4544447899
50.4339031219
50.4544447899
50.4544447899
50.4708781242
50.4708781242
50.4708781242
50.4544447899
50.4873114586
50.4708781242

Average distance is : 47.557 cm
Average deviation is : 10.915 cm
Block: 5
======================================
50.4215781212
0.965458393097
50.4215781212
50.9022531509
50.4380114555
50.8693864822
50.5078531265
50.4708781242
50.4380114555
50.4873114586
50.4914197922
50.0395030975
50.4873114586
50.5037447929
3.3934835434
50.4503364563
50.0395030975
50.0230697632
50.0600447655
50.0066364288
50.0230697632
50.4708781242
50.4749864578
50.4749864578
50.4708781242
50.4708781242
50.4914197922
10.1352589607
50.4749864578
50.5078531265
50.4380114555
50.4503364563
50.4914197922
50.4503364563
50.4708781242
50.4708781242
50.4708781242
50.4708781242
50.4708781242
50.4914197922
7.80583381653
50.4503364563
50.4544447899
50.5037447929
50.4873114586
50.4708781242
50.4544447899
50.4544447899
50.4708781242
50.4380114555
50.0764780998
50.5037447929
50.4708781242
50.4708781242
50.4339031219
11.9264924049
50.4544447899
50.4708781242
50.4544447899
50.4873114586
50.4749864578
50.4749864578
50.4708781242
50.4708781242
50.4708781242
50.4544447899
50.4708781242
50.4174697876
50.4708781242
50.4380114555
6.77053375244
38.0637106895
50.4873114586
50.4380114555
50.4708781242

Average distance is : 46.782 cm
Average deviation is : 11.994 cm
Block: 6
======================================
50.8858198166
50.9022531509
50.4873114586
50.4708781242
50.4708781242
50.5078531265
50.4339031219
50.0271780968
50.4339031219
50.4708781242
50.4708781242
17.0413677216
50.4544447899
50.4544447899
50.4544447899
50.4544447899
50.4544447899
50.4873114586
50.0066364288
50.4339031219
50.4749864578
50.4544447899
50.4708781242
50.4708781242
6.58155040741
50.4503364563
50.4544447899
50.4544447899
50.4708781242
50.4544447899
50.4380114555
50.4544447899
50.4708781242
50.4708781242
50.4708781242
50.4749864578
50.4914197922
5.64895868301
50.4215781212
50.4708781242
50.4708781242
50.4544447899
50.4544447899
50.4503364563
50.5037447929
50.4708781242
50.4708781242
50.4749864578
50.4708781242
50.4544447899
6.30629205704
50.4544447899
50.4873114586
50.4503364563
50.4873114586
50.4873114586
50.4873114586
50.4708781242
50.4544447899
50.4544447899
50.4914197922
50.4708781242
50.4708781242
6.33915872574
50.0395030975
50.4544447899
50.0395030975
50.4708781242
50.4873114586
50.4749864578
50.4380114555
50.4544447899
50.4873114586
50.4708781242
50.4708781242

Average distance is : 47.648 cm
Average deviation is : 10.625 cm
Block: 7
======================================
50.4215781212
50.4010364532
50.0271780968
16.9756343842
50.4708781242
50.4708781242
50.4708781242
50.4708781242
50.4708781242
50.4544447899
50.4544447899
50.4544447899
50.4544447899
50.4873114586
50.4544447899
50.4708781242
5.58322534561
50.5037447929
50.4708781242
50.8858198166
50.8693864822
50.4708781242
50.4544447899
50.4544447899
50.5078531265
50.4914197922
50.4914197922
50.4708781242
50.4051447868
5.70236701965
50.4914197922
50.4544447899
50.4544447899
50.8858198166
50.4544447899
50.4873114586
50.4544447899
50.8858198166
50.4708781242
50.8488448143
50.4708781242
50.8858198166
5.03270864487
50.9022531509
50.5078531265
50.4708781242
50.4544447899
50.4380114555
51.2637865067
50.4708781242
50.8652781487
50.4708781242
50.8693864822
50.9022531509
50.5037447929
3.96454191208
50.881711483
50.4380114555
50.4380114555
50.8858198166
50.4708781242
50.8693864822
50.881711483
50.4914197922
50.4708781242
50.4873114586
50.4544447899
50.8858198166
3.51262521744
50.4708781242
50.8693864822
50.9186864853
50.5037447929
50.8652781487
50.4544447899

Average distance is : 47.077 cm
Average deviation is : 12.032 cm
Block: 8
======================================
50.4544447899
50.4749864578
50.4010364532
50.4749864578
50.4708781242
50.4749864578
50.4708781242
1.3968334198
50.4174697876
50.4544447899
50.4544447899
50.4708781242
50.4544447899
50.4380114555
50.4708781242
50.4380114555
50.4544447899
50.4708781242
50.8529531479
50.4544447899
4.73690862656
50.4708781242
50.4544447899
50.4544447899
50.4873114586
50.4380114555
50.4544447899
50.4708781242
50.4708781242
50.4544447899
50.4051447868
50.4380114555
50.0559364319
50.4708781242
50.4544447899
19.9541762352
50.4708781242
50.4544447899
50.4914197922
50.8858198166
50.4708781242
50.4708781242
50.4873114586
50.4708781242
50.4544447899
50.4380114555
50.4708781242
50.8488448143
6.92665042877
50.4749864578
50.8858198166
50.4873114586
50.4708781242
50.4708781242
50.8693864822
50.4544447899
50.4380114555
50.4708781242
50.4380114555
50.4873114586
50.4544447899
7.1485004425
50.4708781242
50.4708781242
50.5776947975
50.8652781487
50.4544447899
50.4873114586
50.4708781242
50.4708781242
50.4873114586
50.4873114586
50.4544447899
50.4873114586
8.16736717224

Average distance is : 47.098 cm
Average deviation is : 11.707 cm
Block: 9
======================================
50.4708781242
50.4749864578
50.4051447868
50.5037447929
50.4914197922
50.4749864578
50.4708781242
50.4544447899
50.4544447899
50.4914197922
50.4544447899
50.4873114586
50.4503364563
3.18806686401
50.4544447899
50.4544447899
50.4544447899
50.5037447929
50.4380114555
50.4708781242
50.4708781242
50.4380114555
50.4708781242
50.4708781242
50.4708781242
50.4544447899
8.23720884323
50.4544447899
50.4380114555
50.4914197922
50.4380114555
50.4708781242
50.4544447899
50.4544447899
50.4708781242
50.4708781242
50.4708781242
50.4339031219
50.4544447899
8.45905885696
50.4339031219
50.4873114586
50.4708781242
50.4873114586
50.4708781242
50.4544447899
50.5037447929
50.4873114586
50.4339031219
49.4889863968
50.4544447899
50.4544447899
8.52890052795
50.4708781242
50.4380114555
50.4380114555
50.4708781242
50.4873114586
50.4708781242
50.4544447899
50.4544447899
50.4544447899
50.3887114525
50.4914197922
50.9022531509
7.94140882492
50.4544447899
50.4544447899
50.4503364563
50.4708781242
50.4708781242
50.4914197922
50.4544447899
50.4544447899
50.4708781242

Average distance is : 47.576 cm
Average deviation is : 10.858 cm
Block: 10
======================================
50.4215781212
50.4339031219
50.4339031219
50.4174697876
50.0723697662
19.7610845566
50.4174697876
50.4174697876
50.4380114555
50.4544447899
50.4544447899
50.4544447899
50.4544447899
50.4544447899
50.4749864578
50.4544447899
50.9022531509
50.4010364532
4.87659196854
50.4380114555
50.4873114586
50.4873114586
50.2284864426
50.4914197922
50.4708781242
50.4544447899
50.4708781242
50.4380114555
50.4544447899
50.4544447899
50.4873114586
7.13617544174
50.4174697876
50.4544447899
50.4708781242
50.9392281532
50.4544447899
50.4708781242
50.4914197922
50.4873114586
50.4749864578
50.4708781242
50.8858198166
50.8858198166
6.33915872574
50.4708781242
50.4544447899
50.4708781242
50.4380114555
50.4544447899
50.4708781242
50.4708781242
50.4544447899
50.4544447899
50.4544447899
50.4914197922
50.4380114555
8.03179216385
50.5078531265
50.4544447899
50.4708781242
50.4708781242
50.4544447899
50.4380114555
50.9022531509
50.4749864578
50.4873114586
50.4708781242
50.8858198166
50.4873114586
7.44430046082
50.4339031219
50.5078531265
50.4544447899
50.4544447899

Average distance is : 47.164 cm
Average deviation is : 11.438 cm