
Block: 1
======================================
50.4238125801
50.8518305779
50.8189061165
50.8353683472
50.2674213886
50.8353683472
50.8724083662
50.8682928085
50.8353683472
50.8724083662
50.8394839048
50.8888705969
50.8353683472
50.8682928085
50.8024438858
50.8518305779
50.8724083662
50.8724083662
50.8518305779
50.8024438858
50.8888705969
50.8353683472
50.8559461355
50.8682928085
50.7983283281
50.8559461355
50.8724083662
50.8724083662
50.8024438858
50.8682928085
50.8682928085
50.8559461355
50.8189061165
50.8888705969
50.8189061165
50.8189061165
50.8353683472
50.8518305779
50.8353683472
50.8189061165
50.8024438858
50.8189061165
50.8353683472
50.7859816551
50.4196970224
50.3867725611
50.3908881187
50.4196970224
50.4073503494
50.4032347918

Block: 2
======================================
50.4032347918
50.4196970224
50.4238125801
50.4238125801
50.4238125801
50.4032347918
50.4032347918
50.4073503494
50.4402748108
50.8189061165
50.7983283281
50.8353683472
50.8682928085
50.7818660975
50.7983283281
50.8189061165
50.8189061165
50.8024438858
50.8189061165
50.8682928085
50.8189061165
50.8189061165
50.8353683472
50.4196970224
50.8189061165
50.4567370415
50.8353683472
50.4402748108
50.4032347918
50.8518305779
50.8189061165
50.8024438858
50.8518305779
50.8189061165
50.8394839048
50.8847550392
50.8888705969
50.8559461355
50.8518305779
50.8189061165
50.8353683472
50.8559461355
50.8724083662
50.7818660975
50.8189061165
50.8353683472
50.8724083662
50.8024438858
50.8724083662
50.8353683472

Block: 3
======================================
50.3703103304
50.8189061165
50.8024438858
50.8518305779
50.8394839048
50.8189061165
50.8518305779
50.8724083662
50.8724083662
50.8847550392
50.8559461355
50.8847550392
50.8682928085
50.8559461355
50.8847550392
50.8518305779
50.8724083662
50.8559461355
50.8189061165
50.8353683472
50.8682928085
50.8724083662
50.8024438858
50.8888705969
50.8724083662
50.8518305779
50.8394839048
50.8888705969
50.8353683472
50.8724083662
50.8353683472
50.8189061165
50.8559461355
50.8353683472
50.8024438858
50.8189061165
50.4032347918
50.4073503494
50.8888705969
50.8353683472
50.3867725611
50.8724083662
50.8189061165
50.7983283281
50.8189061165
50.4032347918
50.7818660975
50.8847550392
50.8189061165
50.8353683472

Block: 4
======================================
50.4567370415
50.4567370415
50.4196970224
50.8559461355
50.8888705969
50.8847550392
50.4567370415
50.8353683472
50.4402748108
50.8888705969
50.8724083662
50.8724083662
50.8888705969
50.4567370415
50.4402748108
50.8518305779
50.8518305779
50.4402748108
50.8888705969
50.8888705969
50.4402748108
50.4361592531
50.8559461355
50.4567370415
50.4526214838
50.4238125801
50.4238125801
50.4402748108
50.8888705969
50.8353683472
50.4402748108
50.8353683472
50.8682928085
50.4402748108
50.8724083662
50.4402748108
50.4567370415
50.8682928085
50.4361592531
50.4567370415
50.4567370415
50.4402748108
50.4402748108
50.4402748108
50.4773148298
50.4238125801
50.8724083662
50.8559461355
50.4402748108
50.4937770605

Block: 5
======================================
50.8682928085
50.8394839048
50.8847550392
50.8394839048
50.8888705969
50.8682928085
50.8518305779
50.8888705969
50.8888705969
50.8724083662
50.8189061165
50.8353683472
50.8353683472
50.9053328276
50.8888705969
50.8394839048
50.8559461355
50.8724083662
50.8888705969
50.8518305779
50.8518305779
50.8682928085
50.8518305779
50.8888705969
50.8724083662
50.8888705969
50.8518305779
50.8724083662
50.8353683472
50.8724083662
50.8724083662
50.8724083662
50.8518305779
50.8518305779
50.8682928085
50.8682928085
50.8559461355
50.8559461355
50.8682928085
50.8724083662
50.8353683472
50.8353683472
50.8724083662
50.8724083662
50.8518305779
50.4731992722
50.4567370415
50.4402748108
50.8888705969
50.8724083662

Block: 6
======================================
50.8682928085
50.8847550392
50.8682928085
50.8518305779
50.9053328276
50.4402748108
50.4238125801
50.4567370415
50.4731992722
50.8724083662
50.4238125801
50.4402748108
50.4402748108
50.4196970224
50.4567370415
50.4731992722
50.8888705969
50.4773148298
50.4567370415
50.8518305779
50.4361592531
50.4361592531
50.4567370415
50.4567370415
50.4402748108
50.4567370415
50.4567370415
50.4773148298
50.8888705969
50.4731992722
50.4402748108
50.4402748108
50.8559461355
50.4402748108
50.8724083662
50.4238125801
50.8518305779
50.4731992722
50.8724083662
50.8353683472
50.8724083662
50.8353683472
50.8682928085
50.4567370415
50.4567370415
50.8394839048
50.8559461355
50.8518305779
50.8518305779
50.8847550392

Block: 7
======================================
50.8353683472
50.8888705969
50.9053328276
50.8888705969
50.8353683472
50.8189061165
50.975297308
50.9053328276
50.8724083662
50.8888705969
50.9053328276
50.8888705969
50.8353683472
50.8724083662
50.8888705969
50.8518305779
50.8724083662
50.8888705969
50.8847550392
50.4402748108
50.4567370415
50.4731992722
50.8724083662
50.8559461355
50.8559461355
50.8724083662
50.8559461355
50.4567370415
50.8518305779
50.8518305779
50.8353683472
50.8518305779
50.8847550392
50.8724083662
50.8724083662
50.8888705969
50.8888705969
50.8024438858
50.8518305779
50.8847550392
50.8518305779
50.8724083662
50.8724083662
50.8724083662
50.8888705969
50.8888705969
50.8559461355
50.8518305779
50.8888705969
50.8724083662

Block: 8
======================================
50.8024438858
50.8189061165
50.8024438858
50.9053328276
50.8724083662
50.8888705969
50.8353683472
50.8559461355
50.8189061165
50.8888705969
50.8559461355
50.8024438858
50.8353683472
50.8559461355
50.8724083662
50.8888705969
50.8682928085
50.8682928085
51.3703908443
50.8724083662
50.8353683472
50.8559461355
50.8024438858
50.8353683472
50.8559461355
50.8353683472
50.8724083662
50.8024438858
50.8724083662
50.8518305779
50.8353683472
50.8189061165
50.8189061165
50.8888705969
50.8353683472
50.8682928085
50.8847550392
50.8682928085
50.8518305779
50.8518305779
50.8353683472
50.8518305779
50.8353683472
50.8394839048
50.8518305779
50.8559461355
50.8559461355
50.8024438858
50.8559461355
50.8559461355

Block: 9
======================================
50.8559461355
50.8724083662
50.8024438858
50.8024438858
50.8724083662
50.8189061165
50.7818660975
50.8559461355
50.8559461355
50.8559461355
50.8724083662
50.8888705969
50.8682928085
50.8518305779
50.8888705969
50.8724083662
50.8189061165
50.8847550392
50.8724083662
50.8724083662
50.8888705969
50.7859816551
50.8724083662
50.8394839048
50.8559461355
50.8394839048
50.8353683472
50.4567370415
50.8559461355
50.8559461355
50.8189061165
50.8682928085
50.8189061165
50.8724083662
50.8353683472
50.8518305779
50.8353683472
50.8724083662
50.8353683472
50.8847550392
50.8888705969
50.8518305779
50.8518305779
50.8724083662
50.8682928085
50.8724083662
50.8518305779
50.8394839048
50.8024438858
50.8189061165

Block: 10
======================================
50.3867725611
50.4032347918
50.7818660975
50.8189061165
50.4073503494
50.8189061165
50.8518305779
50.8024438858
50.8024438858
50.8024438858
50.8353683472
50.8189061165
50.8518305779
50.8024438858
50.8724083662
50.8888705969
50.8024438858
50.8682928085
50.8518305779
50.8518305779
50.8518305779
50.8518305779
50.8559461355
50.8189061165
50.8024438858
50.8847550392
50.7983283281
50.8559461355
50.8518305779
50.8024438858
50.8189061165
50.7818660975
50.8024438858
50.3867725611
50.8682928085
50.8394839048
50.8724083662
50.7859816551
50.3867725611
50.8559461355
50.8559461355
50.8888705969
50.8189061165
50.8353683472
50.7983283281
50.8682928085
50.8189061165
50.8189061165
50.8024438858
50.8394839048
