
Block: 1
======================================
50.2468436003
50.30034585
50.2838836193
50.30034585
50.2838836193
50.2838836193
50.263305831
50.2344969273
50.2838836193
50.263305831

Block: 2
======================================
50.2674213886
50.2674213886
50.2674213886
50.2674213886
50.2674213886
50.2674213886
50.287999177
50.2674213886
50.2674213886
50.263305831

Block: 3
======================================
50.2468436003
50.263305831
50.6830927134
50.662514925
50.2838836193
50.30034585
50.30034585
50.2674213886
50.2509591579
50.6830927134

Block: 4
======================================
50.30034585
50.30034585
50.2838836193
50.30034585
50.2674213886
50.2838836193
50.2674213886
50.2838836193
50.2838836193
50.2674213886

Block: 5
======================================
50.2674213886
50.6830927134
50.2303813696
50.2468436003
50.2838836193
50.2468436003
50.699554944
50.2509591579
50.2838836193
50.2838836193

Block: 6
======================================
50.2468436003
50.2509591579
50.2303813696
50.6954393864
50.2344969273
50.30034585
50.30034585
50.6954393864
50.2468436003
50.2838836193

Block: 7
======================================
50.2674213886
50.2838836193
50.2674213886
50.662514925
50.2674213886
50.2838836193
50.2838836193
50.2303813696
50.2838836193
50.2838836193

Block: 8
======================================
50.2838836193
50.2674213886
50.2674213886
50.2838836193
50.30034585
50.263305831
50.2838836193
50.2838836193
50.30034585
50.2674213886

Block: 9
======================================
50.263305831
50.2838836193
50.2838836193
50.2509591579
50.2674213886
50.2838836193
50.2838836193
50.2838836193
50.2838836193
50.263305831

Block: 10
======================================
50.3168080807
50.2838836193
50.7324794054
50.30034585
50.3168080807
50.30034585
50.2674213886
50.30034585
50.5966660023
50.2838836193
