
Block: 1
======================================
50.2303813696
50.263305831
50.2509591579
50.2674213886
50.2509591579

Block: 2
======================================
50.662514925
50.7324794054
50.7324794054
50.699554944
50.7530571938

Block: 3
======================================
50.7119016171
50.2509591579
50.7324794054
50.6830927134
50.7160171747

Block: 4
======================================
50.6460526943
50.6830927134
50.2303813696
50.650168252
50.7160171747

Block: 5
======================================
50.6460526943
50.2139191389
50.699554944
50.2344969273
50.7160171747

Block: 6
======================================
50.2303813696
50.6295904636
50.6830927134
50.7160171747
50.3044614077

Block: 7
======================================
50.2674213886
50.2509591579
50.2838836193
50.6460526943
50.7324794054

Block: 8
======================================
50.2509591579
50.2344969273
50.2344969273
50.6954393864
50.699554944

Block: 9
======================================
50.2674213886
50.2838836193
50.699554944
50.2838836193
50.2838836193

Block: 10
======================================
50.2509591579
50.2509591579
50.2509591579
50.2674213886
50.30034585
