
Block: 1
======================================
50.2303813696
50.263305831
50.2509591579
50.2674213886
50.2509591579

Average distance is : 50.253 cm
Average deviation is : 0.014 cm
Block: 2
======================================
50.662514925
50.7324794054
50.7324794054
50.699554944
50.7530571938

Average distance is : 50.716 cm
Average deviation is : 0.036 cm
Block: 3
======================================
50.7119016171
50.2509591579
50.7324794054
50.6830927134
50.7160171747

Average distance is : 50.619 cm
Average deviation is : 0.206 cm
Block: 4
======================================
50.6460526943
50.6830927134
50.2303813696
50.650168252
50.7160171747

Average distance is : 50.585 cm
Average deviation is : 0.200 cm
Block: 5
======================================
50.6460526943
50.2139191389
50.699554944
50.2344969273
50.7160171747

Average distance is : 50.502 cm
Average deviation is : 0.255 cm
Block: 6
======================================
50.2303813696
50.6295904636
50.6830927134
50.7160171747
50.3044614077

Average distance is : 50.513 cm
Average deviation is : 0.228 cm
Block: 7
======================================
50.2674213886
50.2509591579
50.2838836193
50.6460526943
50.7324794054

Average distance is : 50.436 cm
Average deviation is : 0.233 cm
Block: 8
======================================
50.2509591579
50.2344969273
50.2344969273
50.6954393864
50.699554944

Average distance is : 50.423 cm
Average deviation is : 0.251 cm
Block: 9
======================================
50.2674213886
50.2838836193
50.699554944
50.2838836193
50.2838836193

Average distance is : 50.364 cm
Average deviation is : 0.188 cm
Block: 10
======================================
50.2509591579
50.2509591579
50.2509591579
50.2674213886
50.30034585

Average distance is : 50.264 cm
Average deviation is : 0.021 cm