
Block: 1
======================================
49.3167275667
49.3167275667
49.3331897974
49.3167275667
49.3167275667
49.3702298164
49.3167275667
49.3331897974
49.3167275667
49.3331897974
49.3496520281
49.3373053551
49.3331897974
49.3167275667
49.3331897974
49.8352878332
49.3702298164
49.3167275667
49.3702298164
49.3702298164
49.3167275667
49.300265336
49.3702298164
49.3537675858
49.3537675858
49.3208431244
49.3167275667
49.3702298164
49.3537675858
49.3866920471
49.3702298164
49.3866920471
49.3331897974
49.3661142588
49.3702298164
49.3702298164
49.3331897974
49.3167275667
48.9216340303
49.3373053551
49.3167275667
49.3167275667
49.3702298164
49.3702298164
49.3167275667
49.3331897974
49.3167275667
49.3825764894
49.3167275667
48.9216340303
49.3661142588
49.3331897974
49.3331897974
49.3537675858
49.3702298164
49.3373053551
49.3167275667
49.3496520281
49.3373053551
49.3167275667
49.3866920471
49.3331897974
49.3167275667
49.3167275667
49.3167275667
49.3331897974
49.3702298164
49.3167275667
49.3866920471
49.3331897974
49.3167275667
49.3866920471
49.3167275667
49.3167275667
49.300265336
49.3661142588
49.3537675858
49.3661142588
48.938096261
49.3167275667
49.3702298164
49.3702298164
49.300265336
49.3661142588
49.2961497784
49.3167275667
49.3537675858
49.300265336
49.3866920471
49.3331897974
49.3167275667
49.3702298164
49.3866920471
49.3373053551
49.3167275667
49.3825764894
49.3167275667
49.3167275667
49.3167275667
49.3537675858

Average distance is : 49.333 cm
Average deviation is : 0.091 cm
Block: 2
======================================
49.4031542778
49.3167275667
49.3331897974
49.3866920471
49.3702298164
49.3331897974
49.4031542778
49.4031542778
49.3866920471
49.4031542778
49.3496520281
49.3866920471
49.3167275667
49.3167275667
49.300265336
49.3866920471
49.3167275667
49.3167275667
49.3661142588
49.3537675858
49.3702298164
49.300265336
49.3167275667
49.3167275667
49.3702298164
49.3167275667
49.3537675858
49.3167275667
49.3331897974
49.3373053551
49.300265336
49.3167275667
49.3702298164
49.3331897974
49.300265336
49.3167275667
49.3866920471
49.3702298164
49.3167275667
49.3167275667
49.3331897974
49.3866920471
49.3331897974
49.3866920471
49.300265336
49.3661142588
49.3167275667
49.300265336
49.300265336
49.3373053551
49.3167275667
49.3331897974
49.3702298164
49.3373053551
48.9051717997
49.3661142588
49.3208431244
49.3331897974
49.3331897974
49.3702298164
49.3331897974
49.3167275667
49.3866920471
49.3331897974
49.3331897974
49.3702298164
49.3702298164
49.3537675858
49.3331897974
48.8845940113
48.9216340303
49.3167275667
49.3331897974
49.3373053551
49.3496520281
49.3331897974
49.3167275667
49.3167275667
49.3866920471
49.3331897974
49.3167275667
49.3331897974
49.3537675858
49.3331897974
49.3208431244
49.3496520281
49.3866920471
49.3537675858
49.3702298164
49.3702298164
49.3702298164
49.3702298164
49.300265336
49.3702298164
49.3866920471
49.3866920471
49.3537675858
49.3866920471
49.300265336
49.3661142588

Average distance is : 49.332 cm
Average deviation is : 0.081 cm
Block: 3
======================================
49.3866920471
49.3331897974
49.3331897974
49.3167275667
49.3661142588
49.3208431244
49.3331897974
49.300265336
48.9175184727
49.3496520281
49.3331897974
49.3331897974
49.3167275667
49.3208431244
48.901056242
49.3208431244
48.8845940113
49.3167275667
49.3331897974
49.3496520281
49.3537675858
49.3331897974
49.3167275667
49.3331897974
49.3331897974
49.3331897974
49.3702298164
49.3866920471
49.3537675858
49.3702298164
49.3167275667
49.3167275667
49.300265336
49.3373053551
49.3208431244
49.3373053551
49.3537675858
49.2961497784
49.3331897974
49.3661142588
49.3167275667
49.3167275667
49.3331897974
49.4031542778
49.3537675858
49.3167275667
48.901056242
49.300265336
48.901056242
49.3373053551
49.3661142588
49.3167275667
49.3167275667
49.3331897974
49.3167275667
49.3702298164
49.3167275667
49.3866920471
49.3167275667
49.3167275667
49.3496520281
49.3866920471
49.3661142588
49.3866920471
49.3373053551
49.3331897974
49.3167275667
49.3208431244
49.300265336
49.3866920471
49.3661142588
49.3167275667
49.3331897974
49.3537675858
49.3167275667
49.3167275667
48.9175184727
49.3496520281
49.3702298164
49.3496520281
49.3702298164
49.3702298164
49.3167275667
49.3702298164
49.3661142588
49.3702298164
49.3702298164
49.3702298164
49.3496520281
49.3825764894
49.3702298164
49.3661142588
49.3702298164
49.3167275667
49.3702298164
49.3866920471
49.3702298164
49.300265336
49.3661142588
49.3702298164

Average distance is : 49.317 cm
Average deviation is : 0.108 cm
Block: 4
======================================
49.4237320662
49.3331897974
49.4031542778
49.3537675858
49.3331897974
49.3496520281
49.3866920471
49.2838031054
49.3167275667
49.3866920471
49.3866920471
49.3702298164
49.3167275667
49.3866920471
49.3702298164
49.3702298164
49.3866920471
49.3702298164
49.3661142588
49.3702298164
49.300265336
49.3496520281
49.3866920471
49.3702298164
49.3866920471
49.3702298164
49.3331897974
49.3373053551
49.3866920471
49.3702298164
49.3702298164
49.3167275667
49.3661142588
49.3702298164
49.3702298164
49.3208431244
49.3167275667
49.3866920471
49.3702298164
49.3702298164
49.3702298164
49.3661142588
49.2673408747
49.3661142588
49.3496520281
49.3866920471
49.3167275667
49.3866920471
49.3866920471
49.3373053551
49.3702298164
49.3661142588
49.3702298164
49.3496520281
49.3702298164
49.3702298164
49.3702298164
49.3661142588
49.3661142588
49.3167275667
49.3866920471
49.3702298164
49.3866920471
49.3702298164
49.3661142588
49.3702298164
49.3661142588
49.3167275667
49.3702298164
49.3866920471
49.3331897974
49.3702298164
49.3167275667
49.3208431244
49.3866920471
49.3702298164
49.3331897974
49.3866920471
49.3331897974
49.3167275667
49.3167275667
49.3661142588
49.3866920471
49.3702298164
49.4031542778
49.3702298164
49.3702298164
49.3167275667
49.3866920471
49.3866920471
49.3661142588
49.4031542778
49.3702298164
49.4031542778
49.3702298164
49.3661142588
49.3661142588
49.3866920471
49.3866920471
49.3702298164

Average distance is : 49.362 cm
Average deviation is : 0.028 cm
Block: 5
======================================
49.4031542778
49.3496520281
49.3702298164
49.3702298164
49.3702298164
49.3537675858
49.3331897974
49.3702298164
49.3661142588
49.3866920471
49.3537675858
49.3167275667
49.3537675858
49.3537675858
49.3167275667
49.3825764894
49.3661142588
49.3866920471
49.3702298164
49.3702298164
49.3702298164
49.3537675858
49.3825764894
49.3702298164
49.3537675858
49.3661142588
49.3661142588
49.3661142588
49.3167275667
49.3702298164
49.3331897974
49.3661142588
49.3702298164
49.3866920471
49.3167275667
49.3702298164
49.3702298164
49.3537675858
49.3702298164
49.3331897974
49.3702298164
49.3866920471
49.3537675858
49.3866920471
49.3702298164
49.3866920471
49.3167275667
49.3167275667
49.3661142588
49.3702298164
49.3167275667
49.3866920471
49.3167275667
49.3331897974
49.3866920471
49.3866920471
49.3866920471
49.3866920471
49.3373053551
49.3167275667
49.3702298164
49.3702298164
49.3702298164
49.3537675858
49.3661142588
49.3537675858
49.3496520281
49.3537675858
49.3537675858
49.3661142588
49.3537675858
49.3661142588
49.3373053551
49.3702298164
49.3866920471
49.300265336
49.3866920471
49.3496520281
49.3167275667
49.3331897974
49.3866920471
49.3702298164
49.3866920471
49.3537675858
49.3866920471
49.3702298164
49.3702298164
49.3866920471
49.4031542778
49.4031542778
49.3496520281
49.3373053551
49.4031542778
49.3866920471
49.3537675858
49.3702298164
49.3702298164
49.4031542778
49.3866920471
49.3866920471

Average distance is : 49.363 cm
Average deviation is : 0.024 cm
Block: 6
======================================
49.3661142588
49.3167275667
49.3866920471
49.3537675858
49.300265336
49.3373053551
49.300265336
49.4031542778
49.3208431244
49.3661142588
49.3866920471
49.3866920471
49.3537675858
49.3331897974
49.3167275667
49.3167275667
49.3373053551
49.3331897974
49.3331897974
49.300265336
49.300265336
49.3702298164
49.3167275667
48.9051717997
49.3331897974
49.3208431244
49.300265336
48.9051717997
48.8845940113
49.300265336
48.9216340303
48.901056242
49.3167275667
49.3167275667
49.300265336
49.3373053551
49.3661142588
49.3331897974
49.3167275667
49.3702298164
49.300265336
49.3702298164
49.3702298164
49.3702298164
49.300265336
48.8845940113
48.888709569
49.300265336
49.3496520281
49.2961497784
49.2838031054
49.3167275667
49.3866920471
49.3537675858
49.3661142588
48.888709569
48.9051717997
48.9175184727
48.8722473383
48.901056242
49.3167275667
49.3373053551
49.3167275667
49.3167275667
49.3866920471
49.300265336
48.9051717997
49.3208431244
49.300265336
48.8681317806
48.901056242
48.901056242
48.9051717997
49.3331897974
48.8845940113
48.9051717997
48.9051717997
48.8681317806
48.8845940113
49.3331897974
49.3702298164
48.8681317806
49.2796875477
49.300265336
49.300265336
49.300265336
49.3167275667
49.3208431244
49.300265336
49.300265336
48.8845940113
49.2796875477
49.3331897974
49.3331897974
49.3167275667
49.3496520281
49.3661142588
49.3866920471
49.3373053551
49.300265336

Average distance is : 49.226 cm
Average deviation is : 0.190 cm
Block: 7
======================================
49.300265336
49.3537675858
49.3537675858
49.3537675858
49.3373053551
49.3167275667
49.3702298164
49.3373053551
49.3866920471
49.3496520281
49.3537675858
49.3167275667
49.3331897974
49.300265336
49.3331897974
48.9051717997
49.3373053551
49.300265336
49.300265336
49.300265336
49.3373053551
49.3866920471
49.3661142588
49.3167275667
49.3208431244
49.3167275667
49.2961497784
49.3167275667
49.3866920471
49.3702298164
49.3167275667
49.3331897974
49.3167275667
49.3331897974
49.300265336
49.3167275667
49.3537675858
49.3208431244
49.3702298164
49.3331897974
49.300265336
49.3496520281
49.300265336
49.3496520281
49.2961497784
49.3661142588
49.300265336
49.3167275667
49.3702298164
49.3373053551
49.3167275667
49.3702298164
49.3702298164
49.3167275667
49.3167275667
49.3702298164
49.3661142588
49.3208431244
49.3825764894
49.3825764894
49.3208431244
49.3866920471
49.3208431244
49.3496520281
49.3167275667
49.300265336
49.3167275667
49.3537675858
49.3167275667
49.3373053551
49.3167275667
49.3331897974
49.3331897974
49.3208431244
49.3702298164
49.3331897974
49.3702298164
49.3167275667
49.3866920471
49.3702298164
49.3661142588
49.3496520281
49.300265336
49.3496520281
49.3866920471
49.3373053551
49.300265336
49.3702298164
49.3167275667
49.3331897974
49.3167275667
49.300265336
49.3866920471
49.3866920471
49.3866920471
49.3866920471
49.3331897974
49.3866920471
49.3208431244
49.300265336

Average distance is : 49.334 cm
Average deviation is : 0.052 cm
Block: 8
======================================
49.3208431244
49.3167275667
49.3167275667
48.8845940113
48.888709569
49.3167275667
48.9216340303
49.3167275667
48.8845940113
49.3167275667
48.901056242
48.8845940113
48.901056242
48.8681317806
48.888709569
48.9051717997
49.3702298164
49.3373053551
49.300265336
49.5760077
49.3866920471
49.3373053551
49.3496520281
49.300265336
49.3167275667
49.4031542778
49.3825764894
49.3537675858
49.300265336
49.3702298164
49.3661142588
49.3167275667
49.3537675858
49.3702298164
49.3702298164
49.3167275667
49.3373053551
49.3702298164
49.3702298164
48.8845940113
49.300265336
49.300265336
49.3702298164
49.300265336
49.3866920471
48.8845940113
49.3496520281
49.3661142588
49.3702298164
49.300265336
49.3702298164
49.3866920471
49.3496520281
49.3866920471
49.3167275667
48.9216340303
49.3702298164
49.3702298164
49.3496520281
49.3167275667
49.4031542778
49.3661142588
48.901056242
48.9051717997
49.3866920471
49.3167275667
49.3702298164
49.3661142588
48.888709569
48.901056242
49.3496520281
48.938096261
49.3702298164
49.3702298164
49.3167275667
49.3702298164
49.3331897974
49.300265336
49.3702298164
49.3702298164
49.3661142588
49.3208431244
49.3373053551
49.3167275667
49.3702298164
49.300265336
48.9051717997
48.8845940113
49.3825764894
49.3866920471
49.3331897974
49.3167275667
49.3866920471
49.3167275667
49.3866920471
49.3167275667
49.3537675858
49.3702298164
49.3866920471
49.3866920471

Average distance is : 49.261 cm
Average deviation is : 0.186 cm
Block: 9
======================================
49.3702298164
49.3537675858
49.3537675858
49.4196165085
49.3702298164
49.3866920471
49.4031542778
49.3702298164
49.3866920471
49.3702298164
49.3866920471
49.3866920471
49.3866920471
49.3866920471
49.3537675858
49.3496520281
49.3702298164
49.3866920471
49.3702298164
49.3661142588
49.3496520281
49.3537675858
49.3866920471
49.3702298164
49.3866920471
49.3866920471
49.4031542778
49.3702298164
49.3825764894
49.3537675858
49.3702298164
49.3702298164
49.3661142588
49.3702298164
49.3702298164
49.3866920471
49.4031542778
49.3661142588
49.3866920471
49.3866920471
49.3866920471
49.3702298164
49.3866920471
49.3702298164
49.3866920471
49.3866920471
49.3866920471
49.3702298164
49.3702298164
49.3866920471
49.3866920471
49.3866920471
49.3331897974
49.3866920471
49.3496520281
49.3661142588
49.3537675858
49.3167275667
49.3702298164
49.300265336
49.3702298164
49.3866920471
49.3167275667
49.3866920471
49.3661142588
49.3866920471
49.3866920471
49.3825764894
49.3661142588
49.3331897974
49.3702298164
49.3661142588
49.3373053551
49.3661142588
49.3866920471
49.3702298164
49.3661142588
49.3537675858
49.3702298164
49.3537675858
49.3702298164
49.3866920471
49.3496520281
49.0780252218
49.4031542778
49.3208431244
49.3702298164
49.3866920471
49.4031542778
49.4072698355
49.4196165085
49.3866920471
49.3537675858
49.3866920471
49.3702298164
49.4031542778
49.3866920471
49.3167275667
49.4031542778
49.3825764894

Average distance is : 49.370 cm
Average deviation is : 0.037 cm
Block: 10
======================================
49.3702298164
49.3702298164
49.3702298164
49.3866920471
49.3866920471
49.3167275667
49.3208431244
49.3661142588
49.3167275667
49.3167275667
49.3661142588
49.3537675858
49.3167275667
49.3866920471
49.3373053551
49.3661142588
49.3373053551
49.3167275667
49.3167275667
49.3537675858
49.3167275667
49.3702298164
49.3825764894
49.3496520281
49.3702298164
49.4031542778
49.3496520281
49.3537675858
49.3331897974
49.3331897974
49.3702298164
49.3208431244
49.3167275667
49.3496520281
49.3702298164
49.3496520281
49.3331897974
49.3331897974
49.300265336
49.3702298164
49.3866920471
49.3702298164
49.3167275667
49.3866920471
49.3866920471
49.3167275667
49.3167275667
49.3866920471
49.3167275667
49.213838625
49.3825764894
49.3496520281
49.3167275667
49.3866920471
49.3866920471
49.3866920471
49.3496520281
49.3537675858
49.3537675858
49.3373053551
49.3496520281
49.3496520281
49.3702298164
49.3866920471
49.3167275667
49.3373053551
49.3496520281
49.3702298164
49.3661142588
49.3866920471
49.3866920471
49.3866920471
49.3825764894
49.3702298164
49.3702298164
49.300265336
49.3702298164
49.3373053551
49.3331897974
49.3866920471
49.3866920471
49.3825764894
49.3167275667
49.3537675858
49.3702298164
49.3866920471
49.3866920471
49.3866920471
49.3702298164
49.3866920471
49.3702298164
49.3167275667
49.3866920471
49.3167275667
49.3866920471
49.3825764894
49.3661142588
49.3702298164
49.3866920471
49.3537675858

Average distance is : 49.355 cm
Average deviation is : 0.030 cm