
Block: 1
======================================
49.3167275667
49.3866920471
49.3661142588
49.3208431244
49.3537675858
49.3702298164
49.300265336
49.3866920471
49.3331897974
49.3537675858
49.3167275667
49.3661142588
49.3167275667
49.3167275667
49.300265336
49.3866920471
49.3537675858
49.3702298164
49.4031542778
49.3167275667
49.3167275667
49.3167275667
49.3496520281
49.300265336
49.3331897974

Average distance is : 49.342 cm
Average deviation is : 0.031 cm
Block: 2
======================================
49.3331897974
49.3866920471
49.3702298164
49.300265336
49.300265336
49.300265336
49.3167275667
49.3167275667
49.3331897974
49.3331897974
49.3167275667
49.3331897974
49.3331897974
49.3331897974
49.3537675858
49.3702298164
49.3167275667
49.300265336
49.3167275667
49.2838031054
49.3373053551
48.7158561468
49.3331897974
49.3702298164
49.3373053551

Average distance is : 49.306 cm
Average deviation is : 0.125 cm
Block: 3
======================================
49.3167275667
49.3167275667
49.3331897974
49.300265336
49.3331897974
49.3702298164
49.3866920471
49.3661142588
49.3537675858
49.3702298164
49.4031542778
49.4031542778
49.3866920471
49.3866920471
49.3702298164
49.3661142588
49.3661142588
49.3496520281
49.3661142588
49.3866920471
49.3702298164
49.3866920471
49.3866920471
49.3537675858
49.3702298164

Average distance is : 49.364 cm
Average deviation is : 0.027 cm
Block: 4
======================================
49.2961497784
49.300265336
49.3496520281
49.3373053551
49.3167275667
49.3167275667
49.5430832386
49.300265336
49.3373053551
49.3537675858
49.3537675858
49.3167275667
49.3167275667
49.3537675858
49.3331897974
49.3537675858
49.4031542778
49.3167275667
49.3702298164
49.3373053551
49.3167275667
49.3331897974
49.3373053551
49.3331897974
49.3702298164

Average distance is : 49.344 cm
Average deviation is : 0.048 cm
Block: 5
======================================
49.3866920471
49.2796875477
49.300265336
49.3167275667
49.3866920471
49.300265336
49.3208431244
49.3208431244
49.3167275667
49.3331897974
49.3331897974
49.2838031054
49.300265336
49.300265336
49.300265336
49.3167275667
49.3167275667
49.3702298164
49.300265336
49.2796875477
49.3331897974
49.3373053551
49.3331897974
49.3167275667
49.3167275667

Average distance is : 49.320 cm
Average deviation is : 0.028 cm
Block: 6
======================================
49.2796875477
49.3661142588
49.3331897974
49.3866920471
49.3331897974
49.3702298164
49.3537675858
49.3702298164
49.3331897974
49.2838031054
49.4031542778
49.4031542778
49.3496520281
49.3496520281
49.3167275667
49.3373053551
49.4031542778
49.3167275667
49.3825764894
49.3702298164
49.2796875477
49.3702298164
49.3331897974
49.3702298164
49.4031542778

Average distance is : 49.352 cm
Average deviation is : 0.037 cm
Block: 7
======================================
49.3825764894
49.3331897974
49.3373053551
49.3373053551
49.2838031054
49.3825764894
49.3331897974
49.300265336
49.3537675858
49.3496520281
49.3331897974
49.3537675858
49.3702298164
49.3702298164
49.3167275667
49.300265336
49.3331897974
49.3373053551
49.3702298164
49.3167275667
49.3661142588
49.3331897974
49.3167275667
49.3866920471
49.4031542778

Average distance is : 49.344 cm
Average deviation is : 0.030 cm
Block: 8
======================================
49.4031542778
49.3702298164
49.3167275667
49.3373053551
49.3702298164
49.3702298164
49.3866920471
49.3496520281
49.3496520281
49.3331897974
49.4031542778
49.4072698355
48.8516695499
49.3167275667
49.3331897974
49.3866920471
49.3866920471
49.3167275667
49.4031542778
49.3702298164
49.3866920471
49.4072698355
49.4196165085
49.300265336
49.3661142588

Average distance is : 49.346 cm
Average deviation is : 0.108 cm
Block: 9
======================================
49.4031542778
49.3702298164
49.3331897974
49.3866920471
49.3331897974
49.3866920471
49.3331897974
49.3702298164
49.300265336
49.3702298164
49.4196165085
49.300265336
49.3496520281
49.3825764894
49.3825764894
49.3208431244
49.3167275667
49.300265336
49.3373053551
49.3331897974
49.3331897974
49.3537675858
49.3702298164
49.3496520281
49.3866920471

Average distance is : 49.353 cm
Average deviation is : 0.033 cm
Block: 10
======================================
49.3167275667
49.3866920471
49.4031542778
49.3825764894
49.3866920471
49.3702298164
49.3866920471
49.3661142588
49.2961497784
49.3702298164
49.3331897974
49.3331897974
49.3866920471
49.3702298164
49.3702298164
49.3373053551
49.3167275667
49.3702298164
49.3331897974
49.3866920471
49.3702298164
49.3537675858
49.4072698355
49.3537675858
49.3373053551

Average distance is : 49.361 cm
Average deviation is : 0.029 cm