
Block: 1
======================================
100.346751809
100.313711762
100.367401838
101.565103531
100.350881815
100.330231786
101.164492965
100.313711762
100.330231786
100.264151692
100.313711762
100.27654171
100.297191739
100.297191739
100.313711762
100.297191739
100.313711762
100.297191739
100.313711762
100.334361792
100.297191739
100.334361792
100.317841768
100.317841768
100.297191739
100.280671716
100.317841768
100.280671716
100.297191739
100.297191739
100.297191739
100.313711762
100.334361792
100.297191739
100.297191739
100.280671716
100.330231786
100.313711762
100.313711762
100.313711762
100.313711762
100.280671716
100.297191739
100.297191739
100.313711762
100.313711762
100.280671716
100.297191739
100.317841768
100.297191739
100.330231786
100.280671716
100.297191739
100.313711762
100.280671716
100.313711762
100.280671716
100.27654171
100.313711762
100.280671716
100.297191739
100.297191739
100.313711762
100.297191739
100.313711762
100.297191739
100.27654171
100.297191739
100.280671716
100.313711762
100.297191739
100.280671716
100.297191739
100.297191739
100.297191739
100.313711762
100.297191739
100.280671716
100.280671716
100.297191739
100.297191739
100.313711762
100.280671716
100.313711762
100.313711762
100.297191739
100.297191739
100.297191739
100.313711762
100.297191739
100.317841768
100.317841768
100.297191739
100.313711762
100.297191739
100.297191739
100.297191739
100.313711762
100.313711762
100.297191739

Average distance is : 100.325 cm
Average deviation is : 0.153 cm
Block: 2
======================================
99.9544012547
100.297191739
100.350881815
100.503692031
100.264151692
100.297191739
100.313711762
100.27654171
100.330231786
100.297191739
100.317841768
100.27654171
100.280671716
100.297191739
100.297191739
100.301321745
100.264151692
100.297191739
100.297191739
100.297191739
100.280671716
100.280671716
100.297191739
100.313711762
100.297191739
100.334361792
100.297191739
100.297191739
100.313711762
100.280671716
100.313711762
100.297191739
100.297191739
100.297191739
100.313711762
100.313711762
100.313711762
100.313711762
100.297191739
100.280671716
100.627592206
100.350881815
100.747362375
100.730842352
100.747362375
100.313711762
100.313711762
100.037001371
100.297191739
100.280671716
100.297191739
100.297191739
100.330231786
100.313711762
100.280671716
100.317841768
100.297191739
100.297191739
100.297191739
100.317841768
100.730842352
100.280671716
100.297191739
100.297191739
100.313711762
100.297191739
100.313711762
100.27654171
100.297191739
100.317841768
100.260021687
100.297191739
100.317841768
100.297191739
100.297191739
100.280671716
100.313711762
100.297191739
100.297191739
100.313711762
100.297191739
100.280671716
100.297191739
100.297191739
100.297191739
100.297191739
100.297191739
100.280671716
100.280671716
100.297191739
100.280671716
100.313711762
100.313711762
100.280671716
100.313711762
100.313711762
100.280671716
100.697802305
100.313711762
100.677152276

Average distance is : 100.324 cm
Average deviation is : 0.118 cm
Block: 3
======================================
100.297191739
100.260021687
99.8800611496
100.280671716
99.9007111788
100.297191739
100.317841768
100.297191739
100.313711762
100.334361792
100.280671716
100.297191739
101.164492965
101.181012988
101.164492965
100.693672299
100.313711762
100.313711762
100.27654171
100.677152276
100.297191739
100.297191739
100.27654171
100.297191739
101.181012988
100.763882399
100.693672299
100.297191739
100.264151692
100.297191739
101.181012988
100.714322329
100.297191739
100.297191739
100.297191739
100.280671716
100.280671716
100.280671716
100.297191739
100.677152276
100.27654171
100.280671716
100.693672299
100.297191739
100.313711762
100.317841768
100.280671716
100.280671716
100.297191739
100.280671716
100.297191739
100.297191739
100.330231786
100.313711762
100.313711762
100.297191739
100.297191739
100.313711762
100.313711762
100.313711762
100.297191739
100.280671716
100.280671716
100.297191739
100.297191739
100.313711762
100.297191739
100.297191739
100.280671716
100.313711762
100.297191739
100.247631669
100.297191739
100.297191739
100.297191739
100.297191739
100.297191739
100.730842352
100.020481348
101.160362959
100.697802305
101.181012988
100.297191739
100.313711762
100.280671716
100.714322329
100.297191739
100.714322329
100.297191739
100.313711762
101.147972941
100.313711762
100.280671716
100.297191739
100.297191739
100.313711762
100.280671716
100.297191739
100.317841768
100.297191739

Average distance is : 100.401 cm
Average deviation is : 0.272 cm
Block: 4
======================================
100.350881815
100.330231786
100.297191739
101.164492965
100.313711762
100.280671716
100.313711762
100.317841768
100.313711762
100.280671716
100.264151692
100.313711762
100.280671716
100.714322329
100.714322329
100.297191739
100.297191739
100.297191739
100.297191739
100.297191739
100.280671716
100.313711762
100.297191739
100.297191739
100.297191739
100.297191739
100.313711762
100.297191739
100.280671716
100.280671716
100.730842352
100.297191739
100.297191739
100.313711762
101.164492965
100.313711762
100.297191739
100.297191739
100.297191739
100.280671716
100.297191739
100.27654171
100.297191739
100.714322329
100.27654171
100.297191739
100.297191739
100.714322329
100.297191739
100.313711762
100.317841768
100.313711762
100.297191739
100.297191739
100.297191739
100.280671716
100.297191739
100.313711762
100.330231786
100.297191739
100.693672299
100.280671716
100.297191739
100.297191739
100.280671716
100.297191739
100.27654171
100.297191739
100.297191739
100.297191739
100.280671716
100.297191739
100.297191739
100.297191739
100.297191739
100.297191739
100.313711762
100.297191739
100.313711762
100.280671716
100.330231786
100.297191739
100.313711762
100.297191739
100.297191739
100.297191739
100.280671716
100.313711762
100.27654171
100.297191739
100.280671716
100.280671716
100.297191739
100.297191739
100.710192323
100.297191739
100.260021687
100.297191739
100.280671716
100.280671716

Average distance is : 100.344 cm
Average deviation is : 0.160 cm
Block: 5
======================================
99.8635411263
100.280671716
100.313711762
100.280671716
99.9502712488
100.297191739
100.27654171
100.297191739
100.264151692
100.27654171
100.297191739
100.297191739
100.297191739
100.27654171
100.297191739
100.297191739
100.280671716
100.297191739
100.297191739
100.297191739
100.297191739
100.297191739
100.297191739
100.297191739
100.280671716
100.297191739
100.280671716
100.297191739
100.280671716
100.297191739
100.27654171
100.313711762
100.280671716
100.313711762
100.297191739
100.334361792
100.297191739
100.297191739
100.297191739
100.280671716
100.297191739
100.297191739
100.280671716
100.297191739
100.280671716
100.313711762
100.280671716
100.297191739
100.297191739
100.297191739
100.297191739
100.27654171
100.297191739
100.264151692
100.297191739
100.297191739
100.297191739
100.297191739
100.297191739
100.297191739
100.301321745
100.297191739
100.280671716
100.317841768
100.313711762
100.264151692
100.313711762
100.297191739
100.313711762
100.297191739
100.297191739
100.280671716
100.297191739
100.280671716
100.280671716
100.313711762
100.297191739
100.330231786
100.297191739
100.280671716
100.313711762
100.297191739
100.313711762
100.297191739
100.27654171
100.280671716
100.297191739
100.297191739
100.297191739
100.297191739
100.313711762
100.297191739
100.330231786
100.280671716
100.297191739
100.17742157
100.297191739
100.297191739
100.313711762
100.317841768

Average distance is : 100.286 cm
Average deviation is : 0.058 cm
Block: 6
======================================
101.160362959
100.297191739
99.9007111788
100.313711762
100.313711762
100.313711762
100.280671716
100.313711762
100.313711762
100.297191739
100.297191739
100.317841768
100.330231786
100.317841768
100.280671716
100.280671716
100.313711762
100.334361792
100.313711762
100.297191739
100.297191739
100.350881815
100.747362375
101.143842936
100.264151692
100.280671716
100.297191739
100.317841768
100.313711762
100.297191739
100.297191739
100.297191739
100.313711762
100.313711762
100.27654171
100.297191739
100.313711762
100.297191739
100.313711762
100.313711762
100.313711762
100.313711762
100.313711762
100.313711762
100.313711762
100.297191739
100.313711762
100.313711762
100.280671716
100.297191739
100.297191739
100.297191739
100.297191739
100.313711762
100.313711762
100.297191739
100.297191739
100.313711762
100.297191739
100.297191739
100.330231786
100.297191739
100.317841768
100.330231786
100.280671716
100.264151692
100.297191739
100.297191739
100.313711762
100.27654171
100.317841768
100.330231786
100.297191739
100.297191739
100.297191739
100.313711762
100.297191739
100.297191739
100.317841768
100.297191739
100.27654171
100.297191739
100.297191739
100.313711762
100.313711762
100.297191739
100.297191739
100.313711762
100.280671716
100.297191739
100.313711762
100.313711762
100.297191739
100.297191739
100.301321745
100.313711762
100.330231786
100.280671716
100.297191739
100.313711762

Average distance is : 100.321 cm
Average deviation is : 0.134 cm
Block: 7
======================================
100.747362375
100.297191739
100.747362375
100.297191739
101.181012988
101.164492965
99.9007111788
100.313711762
100.280671716
100.297191739
100.334361792
100.297191739
100.297191739
100.297191739
100.297191739
100.280671716
100.313711762
100.297191739
100.297191739
100.313711762
100.297191739
100.280671716
100.297191739
100.297191739
100.313711762
100.297191739
100.297191739
100.280671716
100.317841768
100.317841768
100.297191739
100.313711762
100.317841768
100.280671716
100.317841768
100.301321745
100.313711762
100.313711762
100.264151692
100.297191739
100.313711762
100.313711762
100.313711762
100.297191739
100.280671716
100.297191739
100.317841768
100.280671716
100.297191739
100.297191739
100.313711762
100.334361792
100.313711762
100.297191739
100.313711762
100.264151692
100.317841768
100.301321745
101.147972941
100.714322329
101.197533011
100.730842352
101.143842936
100.297191739
100.280671716
99.8965811729
100.280671716
100.297191739
100.280671716
100.280671716
100.297191739
100.313711762
100.280671716
100.297191739
100.313711762
100.297191739
100.280671716
100.297191739
100.313711762
100.297191739
100.313711762
100.317841768
100.297191739
100.280671716
100.297191739
100.313711762
100.297191739
100.297191739
100.297191739
100.297191739
100.280671716
100.313711762
100.313711762
100.280671716
100.280671716
100.313711762
100.313711762
100.297191739
100.297191739
100.297191739

Average distance is : 100.353 cm
Average deviation is : 0.215 cm
Block: 8
======================================
100.697802305
99.9172312021
99.9337512255
100.297191739
100.763882399
100.763882399
100.297191739
100.297191739
100.317841768
100.313711762
100.280671716
100.317841768
100.297191739
100.280671716
100.383921862
100.313711762
100.317841768
100.297191739
100.297191739
100.334361792
100.280671716
100.313711762
100.297191739
100.334361792
100.297191739
100.313711762
100.297191739
100.317841768
100.334361792
100.313711762
100.297191739
100.313711762
100.350881815
100.297191739
100.313711762
100.280671716
100.330231786
100.297191739
100.280671716
100.313711762
100.313711762
100.297191739
100.334361792
100.313711762
100.280671716
100.297191739
100.297191739
100.297191739
100.334361792
100.313711762
100.313711762
100.317841768
100.297191739
100.330231786
100.297191739
100.297191739
100.280671716
100.297191739
100.313711762
100.317841768
100.330231786
100.317841768
100.297191739
100.330231786
100.313711762
100.313711762
100.313711762
100.297191739
100.330231786
100.280671716
100.297191739
100.313711762
100.280671716
100.280671716
100.297191739
100.297191739
100.280671716
100.313711762
100.313711762
100.297191739
100.297191739
100.317841768
100.313711762
100.313711762
100.313711762
100.313711762
100.297191739
100.313711762
100.313711762
100.313711762
100.317841768
100.297191739
100.313711762
100.313711762
100.313711762
100.313711762
100.297191739
100.313711762
100.27654171
100.264151692

Average distance is : 100.313 cm
Average deviation is : 0.095 cm
Block: 9
======================================
101.197533011
100.330231786
101.181012988
100.280671716
101.143842936
100.714322329
99.9172312021
100.313711762
100.317841768
100.297191739
99.9172312021
100.313711762
99.8841911554
99.8800611496
99.793331027
100.334361792
99.8635411263
100.280671716
100.317841768
100.313711762
100.330231786
100.297191739
100.313711762
100.297191739
100.313711762
100.317841768
100.330231786
100.334361792
100.297191739
100.334361792
100.313711762
100.313711762
100.297191739
100.297191739
100.313711762
100.297191739
100.313711762
100.297191739
100.297191739
100.297191739
100.313711762
100.313711762
100.297191739
100.317841768
100.313711762
100.330231786
100.280671716
100.297191739
100.280671716
100.297191739
100.280671716
100.313711762
100.297191739
100.27654171
100.317841768
100.330231786
100.280671716
100.297191739
100.297191739
100.280671716
100.297191739
100.280671716
100.313711762
100.297191739
100.297191739
100.297191739
100.27654171
100.297191739
100.313711762
100.313711762
100.280671716
100.280671716
100.280671716
100.313711762
100.297191739
100.313711762
100.280671716
100.297191739
100.297191739
100.297191739
100.297191739
100.317841768
100.313711762
100.313711762
100.27654171
100.313711762
100.297191739
100.297191739
100.313711762
100.27654171
100.313711762
100.297191739
100.297191739
100.313711762
100.297191739
100.297191739
100.297191739
100.297191739
100.317841768
100.297191739

Average distance is : 100.308 cm
Average deviation is : 0.190 cm
Block: 10
======================================
101.181012988
100.367401838
100.330231786
101.143842936
100.27654171
100.297191739
100.297191739
100.297191739
100.313711762
100.297191739
100.313711762
100.297191739
100.317841768
100.317841768
100.313711762
100.301321745
100.317841768
100.313711762
100.297191739
100.297191739
100.297191739
100.280671716
100.313711762
100.507822037
100.313711762
100.297191739
100.317841768
100.297191739
100.313711762
100.297191739
100.313711762
100.297191739
100.313711762
100.297191739
100.280671716
100.317841768
100.317841768
100.297191739
100.330231786
100.313711762
100.297191739
100.280671716
100.297191739
100.313711762
100.330231786
100.313711762
100.313711762
100.313711762
100.313711762
100.297191739
100.297191739
100.313711762
100.297191739
100.330231786
100.301321745
100.313711762
100.297191739
100.334361792
100.313711762
100.297191739
100.313711762
100.330231786
100.297191739
100.313711762
100.317841768
100.297191739
100.297191739
100.297191739
100.317841768
100.313711762
100.334361792
100.297191739
100.313711762
100.313711762
100.313711762
100.280671716
100.297191739
100.330231786
100.297191739
100.330231786
100.297191739
100.280671716
100.297191739
100.330231786
100.317841768
100.297191739
100.297191739
100.313711762
100.280671716
100.297191739
100.297191739
100.313711762
100.280671716
100.330231786
100.264151692
100.330231786
100.297191739
100.297191739
100.330231786
100.297191739

Average distance is : 100.326 cm
Average deviation is : 0.123 cm
Average distance for 10x100 is : 100.330 cm
Average deviation for 10x100 is : 0.152 cm
 Percentage of values that failed: 0.000