
Block: 1
======================================
100.416961908
100.887782574
101.697263718
100.400441885
100.834092498
101.267743111
100.834092498
100.416961908
100.784532428
101.214053035
100.437611938
100.454131961
101.267743111
100.834092498
101.717913747
100.834092498
100.433481932
100.817572474
100.416961908
100.433481932
100.433481932
100.400441885
100.817572474
100.850612521
100.400441885

Average distance is : 100.772 cm
Average deviation is : 0.399 cm
Block: 2
======================================
100.437611938
100.416961908
100.834092498
100.834092498
100.817572474
100.433481932
101.717913747
100.416961908
100.416961908
100.404571891
100.433481932
100.817572474
100.801052451
100.850612521
101.247093081
100.854742527
100.421091914
100.817572474
100.416961908
100.437611938
101.284263134
101.6848737
100.416961908
100.796922445
100.834092498

Average distance is : 100.754 cm
Average deviation is : 0.386 cm
Block: 3
======================================
100.834092498
101.680743694
100.437611938
101.701393723
101.701393723
100.383921862
100.801052451
100.838222504
100.416961908
101.680743694
100.433481932
100.867132545
100.850612521
100.437611938
101.284263134
100.817572474
100.763882399
100.850612521
100.796922445
100.834092498
100.817572474
100.801052451
101.701393723
100.834092498
101.28839314

Average distance is : 100.954 cm
Average deviation is : 0.438 cm
Block: 4
======================================
100.433481932
100.834092498
100.801052451
100.421091914
101.251223087
100.817572474
100.817572474
100.834092498
100.817572474
100.817572474
100.834092498
100.796922445
101.267743111
100.416961908
100.801052451
100.421091914
101.717913747
100.817572474
100.834092498
100.796922445
101.701393723
100.400441885
100.817572474
100.416961908
101.701393723

Average distance is : 100.863 cm
Average deviation is : 0.391 cm
Block: 5
======================================
101.267743111
100.817572474
101.664223671
101.647703648
101.218183041
100.416961908
100.437611938
101.284263134
101.284263134
100.834092498
100.416961908
101.680743694
100.801052451
100.421091914
101.214053035
100.400441885
100.834092498
100.834092498
100.421091914
100.400441885
101.234703064
100.421091914
100.383921862
100.437611938
100.470651984

Average distance is : 100.850 cm
Average deviation is : 0.456 cm
Block: 6
======================================
101.701393723
101.717913747
100.850612521
101.680743694
101.701393723
100.801052451
101.647703648
101.251223087
100.813442469
100.817572474
100.817572474
100.834092498
100.780402422
100.817572474
101.697263718
100.834092498
100.383921862
100.834092498
101.664223671
101.197533011
100.834092498
100.400441885
100.817572474
100.867132545
100.784532428

Average distance is : 101.062 cm
Average deviation is : 0.433 cm
Block: 7
======================================
100.854742527
100.817572474
101.284263134
100.454131961
100.421091914
100.834092498
100.416961908
100.416961908
100.416961908
100.400441885
101.701393723
100.850612521
100.400441885
100.404571891
100.796922445
101.651833653
100.834092498
100.817572474
101.300783157
100.801052451
100.383921862
101.251223087
101.28839314
100.404571891
100.817572474

Average distance is : 100.801 cm
Average deviation is : 0.407 cm
Block: 8
======================================
100.437611938
100.817572474
100.817572474
100.817572474
100.416961908
100.796922445
100.834092498
100.780402422
100.817572474
100.817572474
100.817572474
100.796922445
100.801052451
100.817572474
101.218183041
100.796922445
100.817572474
100.850612521
101.6848737
100.834092498
100.433481932
100.817572474
100.834092498
100.416961908
101.267743111

Average distance is : 100.822 cm
Average deviation is : 0.269 cm
Block: 9
======================================
100.454131961
100.817572474
100.416961908
100.817572474
101.267743111
100.404571891
100.817572474
101.267743111
100.813442469
100.416961908
100.400441885
100.796922445
100.383921862
100.813442469
100.834092498
100.834092498
100.433481932
100.813442469
101.284263134
100.834092498
100.416961908
100.834092498
100.437611938
100.416961908
100.796922445

Average distance is : 100.713 cm
Average deviation is : 0.285 cm
Block: 10
======================================
101.234703064
100.850612521
101.197533011
101.251223087
100.437611938
100.433481932
100.421091914
100.796922445
100.801052451
100.383921862
101.234703064
101.251223087
100.834092498
100.834092498
100.801052451
100.416961908
101.668353677
101.6848737
101.214053035
100.416961908
100.416961908
100.421091914
100.416961908
100.433481932
101.6848737

Average distance is : 100.862 cm
Average deviation is : 0.447 cm
Average distance for 10x25 is : 100.845 cm
Average deviation for 10x25 is : 0.391 cm
 Percentage of values that failed: 0.000