
Block: 1
======================================
198.198687339
198.198687339
197.836260366
197.396461344
194.883905816
197.84033258
197.380172491
196.964806747
198.214976192
198.178326273

Average distance is : 197.509 cm
Average deviation is : 1.018 cm
Block: 2
======================================
197.803682661
198.214976192
197.84033258
190.237510586
197.872910285
197.819971514
197.824043727
194.883905816
197.429039049
197.836260366

Average distance is : 196.776 cm
Average deviation is : 2.484 cm
Block: 3
======================================
198.26384275
198.25162611
197.84033258
197.84033258
198.178326273
197.824043727
191.108964205
197.84033258
198.194615126
197.771104956

Average distance is : 197.311 cm
Average deviation is : 2.189 cm
Block: 4
======================================
197.803682661
198.26384275
197.84033258
197.872910285
197.359811425
197.412750196
193.996163344
198.231265044
198.267914963
197.872910285

Average distance is : 197.492 cm
Average deviation is : 1.269 cm
Block: 5
======================================
198.25162611
198.284203815
197.819971514
198.210903978
198.214976192
198.214976192
197.787393808
197.819971514
197.819971514
197.819971514

Average distance is : 198.024 cm
Average deviation is : 0.224 cm
Block: 6
======================================
198.235337257
198.231265044
198.267914963
198.198687339
197.803682661
197.803682661
197.856621432
197.803682661
198.178326273
198.26384275

Average distance is : 198.064 cm
Average deviation is : 0.215 cm
Block: 7
======================================
197.771104956
198.214976192
197.803682661
197.771104956
197.836260366
197.819971514
198.182398486
197.803682661
197.856621432
197.734455037

Average distance is : 197.879 cm
Average deviation is : 0.172 cm
Block: 8
======================================
198.25162611
198.194615126
197.824043727
197.824043727
197.771104956
197.359811425
197.836260366
197.803682661
197.84033258
197.771104956

Average distance is : 197.848 cm
Average deviation is : 0.244 cm
Block: 9
======================================
197.807754874
197.787393808
198.182398486
198.267914963
198.198687339
197.771104956
197.343522573
197.380172491
197.771104956
197.84033258

Average distance is : 197.835 cm
Average deviation is : 0.316 cm
Block: 10
======================================
198.214976192
198.182398486
197.819971514
197.836260366
198.247553897
198.214976192
197.771104956
198.145748568
197.807754874
197.754816103

Average distance is : 198.000 cm
Average deviation is : 0.215 cm