
Block: 1
======================================
198.182398486
198.25162611
198.178326273
197.807754874
198.231265044
198.214976192
197.787393808
197.803682661
197.376100278
197.803682661
197.787393808
198.231265044
197.819971514
198.210903978
197.771104956
197.787393808
198.214976192
198.231265044
197.771104956
198.198687339
198.214976192
198.231265044
198.235337257
198.231265044
197.396461344
198.166109633
198.194615126
198.214976192
198.231265044
197.787393808
198.129459715
198.231265044
197.787393808
198.16203742
198.214976192
197.754816103
198.194615126
198.210903978
198.231265044
197.75074389
198.231265044
197.787393808
198.214976192
197.771104956
198.210903978
198.214976192
198.198687339
198.231265044
198.231265044
198.182398486

Block: 2
======================================
198.178326273
198.231265044
198.247553897
198.231265044
198.182398486
198.178326273
198.194615126
198.231265044
197.819971514
197.803682661
197.359811425
197.787393808
197.803682661
198.231265044
197.836260366
198.182398486
198.231265044
198.25162611
198.182398486
198.267914963
197.803682661
198.214976192
197.803682661
197.807754874
197.824043727
197.824043727
198.182398486
198.214976192
198.231265044
198.178326273
198.214976192
198.231265044
198.231265044
198.231265044
197.734455037
198.231265044
197.803682661
198.16203742
198.231265044
197.359811425
197.803682661
197.787393808
198.198687339
198.231265044
198.231265044
198.231265044
198.231265044
197.771104956
198.231265044
197.819971514

Block: 3
======================================
198.182398486
198.214976192
198.194615126
197.819971514
198.25162611
197.310944867
198.214976192
198.214976192
198.231265044
197.803682661
198.214976192
197.771104956
198.231265044
197.754816103
197.819971514
197.75074389
197.803682661
197.75074389
197.787393808
197.787393808
198.214976192
197.824043727
198.16203742
198.210903978
197.803682661
198.247553897
198.231265044
198.16203742
197.819971514
197.803682661
198.231265044
197.819971514
198.25162611
198.231265044
198.231265044
193.173576283
197.787393808
198.214976192
197.787393808
198.194615126
198.198687339
198.214976192
198.231265044
197.75074389
197.380172491
197.380172491
198.214976192
197.819971514
198.231265044
197.359811425

Block: 4
======================================
197.754816103
198.247553897
198.210903978
198.214976192
197.75074389
197.803682661
197.787393808
197.787393808
197.803682661
197.803682661
197.359811425
197.396461344
194.883905816
197.819971514
197.84033258
197.819971514
197.803682661
197.771104956
198.214976192
197.396461344
197.803682661
197.824043727
197.803682661
197.803682661
197.803682661
197.824043727
197.787393808
197.787393808
198.214976192
198.267914963
198.26384275
198.178326273
198.247553897
197.836260366
197.787393808
197.807754874
197.807754874
197.412750196
197.787393808
197.392389131
197.836260366
197.791466022
193.621519732
197.824043727
196.55758543
197.824043727
193.601158667
196.915940189
198.247553897
198.198687339

Block: 5
======================================
197.819971514
198.214976192
198.16203742
197.819971514
197.787393808
197.787393808
197.807754874
197.824043727
195.706492877
197.363883638
197.396461344
197.343522573
197.819971514
197.819971514
197.787393808
197.323161507
197.343522573
194.883905816
196.060775423
197.001456666
193.996163344
197.819971514
197.771104956
197.803682661
197.787393808
198.25162611
197.803682661
198.194615126
197.803682661
197.787393808
198.231265044
198.231265044
197.824043727
197.380172491
197.824043727
197.807754874
197.787393808
197.824043727
193.601158667
197.803682661
198.194615126
198.182398486
197.824043727
197.787393808
198.231265044
197.787393808
198.194615126
197.787393808
193.210226202
197.819971514

Block: 6
======================================
198.198687339
198.231265044
197.819971514
197.787393808
198.214976192
197.32723372
198.231265044
198.214976192
197.343522573
197.803682661
197.376100278
197.787393808
197.803682661
197.359811425
197.787393808
197.376100278
197.856621432
197.807754874
194.44003458
197.376100278
197.807754874
197.787393808
197.787393808
197.803682661
194.01652441
197.807754874
197.803682661
197.819971514
196.113714194
197.819971514
197.787393808
198.210903978
197.787393808
198.214976192
197.84033258
194.818750405
197.819971514
197.803682661
197.359811425
197.343522573
197.819971514
197.359811425
198.25162611
198.214976192
197.819971514
197.803682661
197.803682661
197.803682661
197.803682661
197.803682661

Block: 7
======================================
198.214976192
198.235337257
198.198687339
197.819971514
197.771104956
194.814678192
198.198687339
198.214976192
197.836260366
198.166109633
198.25162611
197.343522573
198.231265044
197.84033258
198.194615126
198.231265044
198.231265044
198.198687339
197.787393808
198.247553897
197.824043727
197.836260366
198.231265044
197.787393808
197.856621432
197.376100278
197.803682661
197.824043727
197.803682661
194.032813263
197.824043727
197.803682661
197.84033258
197.824043727
197.824043727
197.803682661
197.803682661
197.819971514
197.803682661
197.803682661
197.819971514
198.26384275
197.803682661
197.803682661
198.214976192
198.231265044
198.231265044
197.824043727
197.787393808
198.235337257

Block: 8
======================================
198.214976192
198.235337257
198.26384275
198.214976192
198.231265044
197.787393808
197.84033258
197.376100278
198.214976192
198.214976192
198.214976192
198.267914963
197.396461344
197.84033258
197.807754874
197.856621432
197.856621432
197.787393808
197.856621432
198.198687339
197.803682661
197.824043727
197.376100278
197.852549219
197.824043727
197.824043727
197.412750196
198.247553897
197.84033258
197.412750196
197.819971514
197.84033258
197.803682661
197.836260366
197.824043727
197.819971514
197.824043727
197.824043727
198.235337257
197.807754874
197.803682661
198.214976192
197.803682661
198.247553897
198.231265044
197.807754874
197.803682661
197.852549219
197.84033258
198.231265044

Block: 9
======================================
198.214976192
198.247553897
198.711786199
197.754816103
198.231265044
198.214976192
197.803682661
198.231265044
197.856621432
197.807754874
198.214976192
197.824043727
198.210903978
198.247553897
197.824043727
197.836260366
197.819971514
197.396461344
197.803682661
197.803682661
198.284203815
198.210903978
198.26384275
198.280131602
197.380172491
197.84033258
197.889199138
197.396461344
198.214976192
198.214976192
198.26384275
197.803682661
197.824043727
198.247553897
197.803682661
197.856621432
197.787393808
197.84033258
198.210903978
198.25162611
198.25162611
198.214976192
197.824043727
198.231265044
198.214976192
198.231265044
198.231265044
198.26384275
197.872910285
197.787393808

Block: 10
======================================
198.26384275
198.26384275
197.824043727
197.803682661
190.355604768
197.803682661
198.231265044
198.247553897
197.84033258
197.819971514
197.856621432
197.84033258
198.247553897
198.247553897
198.231265044
198.267914963
198.26384275
198.214976192
198.231265044
198.214976192
198.296420455
197.84033258
198.247553897
198.300492668
198.231265044
198.247553897
193.637808585
198.247553897
198.25162611
198.284203815
198.214976192
198.214976192
194.097968674
197.376100278
197.84033258
198.231265044
198.235337257
197.84033258
198.247553897
197.803682661
198.231265044
198.214976192
195.36442697
197.824043727
198.231265044
198.247553897
198.26384275
197.803682661
198.060232091
198.247553897
