
Block: 1
======================================
49.9737697601
50.4010364532
49.9696614265
49.9573364258
49.9860947609
49.9860947609
49.9737697601
49.9696614265
49.9696614265
49.9902030945
49.9902030945
50.3681697845
49.9737697601
49.9532280922
50.3887114525
49.9860947609
49.9737697601
39.9247858047
49.9860947609
49.9737697601
40.6807191849
49.9696614265
50.0066364288
40.2205858231
49.9696614265
49.9737697601
40.5287108421
49.9696614265
50.0066364288
40.6642858505
49.9696614265
49.9737697601
40.6478525162
49.9737697601
49.9860947609
40.7341275215
49.9902030945
49.9573364258
40.6149858475
49.9902030945
49.9860947609
40.7176941872
49.9902030945
49.9573364258
40.4424358368
50.364061451
49.9902030945
40.2164774895
50.0025280952
49.9902030945
40.6642858505
49.9860947609
49.9737697601
40.5985525131
50.0066364288
49.9737697601
40.6149858475
50.0066364288
49.9367947578
40.6848275185
49.9737697601
49.9737697601
40.6642858505
49.9696614265
49.9696614265
40.5656858444
50.0025280952
49.9696614265
40.5122775078
49.9737697601
49.9737697601
41.1326358795
49.9737697601
50.3846031189
39.8385107994

Block: 2
======================================
49.9573364258
50.3681697845
50.4174697876
49.9902030945
50.3681697845
50.4380114555
50.4215781212
50.3517364502
49.9902030945
50.3846031189
50.4051447868
50.364061451
49.9532280922
49.9902030945
49.9696614265
46.4734695435
49.9737697601
49.9696614265
40.8573775291
49.9902030945
49.9860947609
40.6314191818
49.9902030945
49.9902030945
39.63309412
49.9573364258
49.9532280922
40.6642858505
49.9902030945
50.4174697876
40.2164774895
49.9737697601
50.3887114525
40.8039691925
50.3887114525
50.0066364288
40.0973358154
50.3517364502
49.9860947609
40.3725941658
50.3681697845
49.9902030945
39.702935791
49.9902030945
49.9532280922
40.5944441795
49.9696614265
49.9532280922
40.9066775322
49.9573364258
49.9532280922
40.7669941902
49.9737697601
50.3846031189
39.7892107964
49.9696614265
50.3846031189
40.4424358368
50.3846031189
49.9737697601
39.8220774651
50.0066364288
50.3887114525
40.0809024811
49.9367947578
50.3681697845
40.2000441551
49.9532280922
49.9367947578
41.1120942116
49.9532280922
49.9532280922
40.4424358368
50.3846031189
50.0066364288

Block: 3
======================================
10.8049173355
50.4174697876
49.9532280922
36.8394272804
50.3681697845
49.9532280922
37.7514773369
50.4010364532
50.3681697845
36.7901272774
49.9532280922
50.4215781212
39.8590524673
49.9737697601
49.9532280922
40.5821191788
49.9737697601
50.3681697845
40.0809024811
49.9902030945
49.9696614265
40.7012608528
49.9902030945
49.9860947609
40.2205858231
49.9696614265
49.9573364258
40.5985525131
49.9902030945
49.9902030945
40.1836108208
49.9860947609
49.9902030945
40.0809024811
49.9409030914
50.0066364288
40.1507441521
49.9902030945
49.9737697601
40.0767941475
49.9573364258
49.9737697601
40.031602478
49.9573364258
50.4174697876
39.5468191147
50.0066364288
49.9902030945
39.8015357971
49.9367947578
49.9532280922
40.3890275002
49.9902030945
49.9573364258
39.5961191177
49.9737697601
49.9860947609
40.3397274971
49.9737697601
49.9737697601
40.0439274788
50.4215781212
49.9532280922
39.5303857803
50.3681697845
50.4215781212
39.7358024597
49.9696614265
49.9860947609
40.1836108208
49.9860947609
49.9737697601
40.1836108208
49.9532280922
50.4051447868

Block: 4
======================================
49.9532280922
50.3846031189
50.3681697845
49.9696614265
50.3846031189
50.4010364532
50.3681697845
36.584710598
50.4010364532
50.3846031189
38.0842523575
49.9532280922
50.4051447868
39.702935791
50.3476281166
50.4010364532
39.7686691284
50.3681697845
50.3681697845
39.563252449
49.9737697601
49.9860947609
40.1507441521
49.9902030945
49.9902030945
40.5122775078
49.9737697601
49.9902030945
40.5615775108
49.9902030945
49.9902030945
41.1162025452
49.9737697601
49.9532280922
40.1671774864
49.9737697601
49.9737697601
40.5656858444
49.7478114128
49.9696614265
40.3931358337
49.9696614265
49.9902030945
39.7851024628
49.9696614265
49.9737697601
40.6355275154
49.9737697601
49.9902030945
40.7012608528
49.9902030945
50.0066364288
40.5780108452
49.9902030945
49.9532280922
39.961760807
49.9532280922
50.4051447868
40.0151691437
50.4051447868
49.9902030945
40.7012608528
49.9532280922
50.0066364288
39.8220774651
49.9737697601
49.9737697601
40.6355275154
49.9860947609
49.9737697601
40.5780108452
50.0066364288
49.9367947578
40.5615775108
49.9367947578

Block: 5
======================================
50.4215781212
50.8159781456
50.3517364502
50.3681697845
50.4010364532
50.3681697845
49.9696614265
50.3846031189
49.9860947609
50.3681697845
49.9737697601
49.9532280922
49.9737697601
50.0066364288
47.1102612495
50.0066364288
49.9532280922
40.6149858475
49.9737697601
49.9860947609
39.6002274513
50.3846031189
49.9532280922
40.0973358154
49.9532280922
49.9532280922
40.6642858505
49.9532280922
49.9737697601
40.5821191788
49.9532280922
49.9573364258
40.6848275185
49.9737697601
49.9737697601
40.4958441734
50.0066364288
49.9737697601
40.5985525131
49.9902030945
49.9573364258
40.5615775108
50.0230697632
49.9902030945
40.5287108421
49.9737697601
49.9696614265
40.6149858475
50.4215781212
49.9696614265
40.2863191605
50.3681697845
49.9737697601
40.5287108421
49.9902030945
49.9737697601
40.7341275215
49.9902030945
49.9737697601
40.0274941444
49.9737697601
49.9737697601
41.0627942085
49.9902030945
49.9902030945
40.2370191574
49.9696614265
49.9367947578
40.7505608559
49.9860947609
49.9696614265
40.5122775078
49.9737697601
49.9860947609
40.6478525162

Block: 6
======================================
49.9367947578
49.9696614265
50.3188697815
49.9737697601
49.9737697601
50.3681697845
49.9902030945
50.3846031189
50.3846031189
50.4215781212
49.9902030945
49.9532280922
50.3846031189
49.9573364258
49.9696614265
50.3681697845
50.3846031189
49.9902030945
39.961760807
49.9902030945
49.9737697601
40.5780108452
49.9860947609
49.9902030945
40.0973358154
49.9532280922
50.0066364288
40.9765192032
49.9696614265
50.4215781212
40.031602478
50.4215781212
50.3887114525
39.9083524704
49.9860947609
49.9737697601
40.0809024811
50.3846031189
50.4051447868
40.5985525131
50.4339031219
50.8324114799
39.4276774406
50.3681697845
50.3846031189
39.25512743
49.9532280922
50.4010364532
40.1671774864
50.3846031189
50.4010364532
39.7892107964
49.9902030945
50.4010364532
39.6495274544
50.4215781212
50.4010364532
40.1836108208
50.4051447868
50.4010364532
40.2164774895
49.9696614265
49.9902030945
40.6683941841
50.3846031189
50.4010364532
39.3208607674
50.4010364532
49.9737697601
40.2370191574
49.9532280922
49.9367947578
40.2370191574
50.4051447868
50.4010364532

Block: 7
======================================
12.3373257637
50.4174697876
50.3846031189
37.5994689941
50.7995448112
50.3846031189
36.584710598
50.7995448112
49.9737697601
36.9955439568
49.9902030945
50.4010364532
40.5615775108
49.9532280922
49.9573364258
40.5780108452
49.9737697601
50.0066364288
40.2000441551
49.9696614265
50.3517364502
39.7686691284
49.9367947578
49.9902030945
40.6848275185
50.0066364288
49.9532280922
40.4958441734
49.9737697601
50.3846031189
40.0973358154
49.9737697601
49.9860947609
41.2189108849
49.9902030945
49.9902030945
40.0603608131
49.9902030945
49.9532280922
49.9860947609
50.0066364288
50.3681697845
49.9573364258
49.9860947609
49.9696614265
49.9696614265
49.9902030945
49.9902030945
49.9860947609
49.9696614265
50.3846031189
49.9573364258
42.352810955
49.9532280922
49.9737697601
40.2370191574
50.3846031189
49.9902030945
40.1302024841
49.9860947609
50.4010364532
40.6848275185
49.9532280922
50.4010364532
40.3027524948
49.9902030945
50.3846031189
40.1671774864
49.9902030945
50.0230697632
40.4095691681
50.3517364502
50.4174697876
39.8754858017
50.4380114555

Block: 8
======================================
50.4010364532
49.9367947578
49.9532280922
49.9696614265
50.3681697845
50.4051447868
49.9696614265
49.9532280922
49.9737697601
49.9532280922
50.3846031189
49.9737697601
50.4174697876
50.3846031189
49.9532280922
49.9696614265
49.9902030945
41.0299275398
50.3887114525
50.0066364288
40.5780108452
50.0066364288
50.0230697632
40.6807191849
49.9902030945
49.9902030945
40.3027524948
50.0066364288
49.9902030945
40.7341275215
50.0066364288
49.9902030945
40.8409441948
50.0230697632
49.9696614265
39.444110775
49.9902030945
49.9696614265
40.7505608559
49.9902030945
49.9902030945
40.5287108421
49.9696614265
49.9902030945
40.9436525345
49.9532280922
49.9532280922
40.5656858444
49.9902030945
50.0025280952
40.5821191788
49.9532280922
49.9902030945
40.6848275185
49.9737697601
50.0066364288
40.7012608528
49.9902030945
49.9696614265
40.1302024841
50.0066364288
49.9696614265
41.2024775505
50.0066364288
49.9902030945
40.1836108208
49.9860947609
50.0066364288
41.0463608742
49.9902030945
49.9737697601
40.7218025208
49.9573364258
49.9532280922
40.7176941872

Block: 9
======================================
49.9860947609
50.4544447899
50.3353031158
49.9696614265
50.3681697845
49.9696614265
50.3681697845
50.4174697876
49.9409030914
49.9737697601
50.4051447868
49.9532280922
49.9532280922
49.9532280922
49.9902030945
46.5063362122
50.0066364288
49.9860947609
40.1343108177
50.0066364288
49.9696614265
41.0463608742
49.9902030945
49.9696614265
40.290427494
50.0066364288
49.9737697601
40.3931358337
50.4010364532
50.4010364532
40.3767024994
50.4215781212
49.9737697601
40.0809024811
50.2325947762
50.4215781212
40.0644691467
50.3476281166
50.4010364532
39.891919136
50.0066364288
50.4010364532
38.7703440666
50.3311947823
49.9902030945
40.3027524948
49.9737697601
50.3846031189
37.4597856522
50.4010364532
50.4010364532
39.2715607643
50.4380114555
50.3846031189
38.9428940773
50.3846031189
50.8324114799
39.2017190933
50.3846031189
50.4051447868
38.8237524033
50.4215781212
50.4010364532
38.9963024139
50.3846031189
50.3846031189
39.3208607674
49.9696614265
49.9902030945
39.9946274757
50.4051447868
50.4010364532
38.458110714
49.9573364258
49.9902030945

Block: 10
======================================
13.8902758598
50.3846031189
49.9532280922
38.3389690399
50.0066364288
50.0230697632
37.9938690186
50.3681697845
49.9860947609
37.7514773369
49.9737697601
49.9737697601
39.4235691071
49.9696614265
49.9737697601
40.5821191788
49.9902030945
50.3681697845
40.7669941902
50.364061451
50.3887114525
39.304427433
49.9696614265
49.9737697601
41.1983692169
49.9696614265
50.4010364532
39.8549441338
50.4010364532
50.0066364288
39.6659607887
49.9573364258
50.3681697845
40.6519608498
49.9696614265
50.0230697632
40.2205858231
49.9737697601
49.9696614265
41.1162025452
50.3681697845
50.3846031189
39.374269104
49.9860947609
49.9902030945
40.6683941841
49.9696614265
49.9860947609
40.7341275215
50.3681697845
49.9902030945
39.63309412
50.4174697876
50.4051447868
39.7522357941
50.0066364288
50.4174697876
41.0463608742
49.9532280922
49.9902030945
40.2205858231
49.9532280922
50.3681697845
40.2164774895
50.3681697845
50.3846031189
39.9288941383
50.3846031189
50.0066364288
40.290427494
50.4010364532
50.3887114525
39.8015357971
49.9860947609
50.4010364532
