
Block: 1
======================================
201.871823621
200.128916383
199.668756294
200.075977612
200.096338677

Average distance is : 200.368 cm
Average deviation is : 0.861 cm
Block: 2
======================================
200.108555317
200.128916383
200.075977612
200.128916383
194.69658401

Average distance is : 199.028 cm
Average deviation is : 2.421 cm
Block: 3
======================================
200.059688759
200.075977612
199.61174531
200.108555317
200.075977612

Average distance is : 199.986 cm
Average deviation is : 0.210 cm
Block: 4
======================================
200.092266464
200.11262753
200.128916383
199.615817523
199.648395228

Average distance is : 199.920 cm
Average deviation is : 0.263 cm
Block: 5
======================================
200.108555317
200.108555317
200.11262753
200.11262753
200.059688759

Average distance is : 200.100 cm
Average deviation is : 0.023 cm
Block: 6
======================================
200.108555317
199.632106376
200.12484417
200.059688759
200.075977612

Average distance is : 200.000 cm
Average deviation is : 0.207 cm
Block: 7
======================================
200.145205235
200.11262753
200.108555317
200.075977612
200.092266464

Average distance is : 200.107 cm
Average deviation is : 0.026 cm
Block: 8
======================================
200.059688759
200.096338677
200.059688759
200.075977612
200.075977612

Average distance is : 200.074 cm
Average deviation is : 0.015 cm
Block: 9
======================================
200.092266464
200.075977612
199.632106376
200.075977612
200.075977612

Average distance is : 199.990 cm
Average deviation is : 0.200 cm
Block: 1
======================================
200.214432859
200.230721712
200.247010565
200.210360646
200.214432859

Average distance is : 200.223 cm
Average deviation is : 0.015 cm
Block: 2
======================================
200.194071794
200.198144007
200.210360646
200.226649499
200.198144007

Average distance is : 200.205 cm
Average deviation is : 0.013 cm
Block: 3
======================================
200.247010565
200.230721712
200.210360646
200.230721712
200.198144007

Average distance is : 200.223 cm
Average deviation is : 0.019 cm
Block: 4
======================================
200.226649499
200.230721712
200.247010565
200.27958827
200.230721712

Average distance is : 200.243 cm
Average deviation is : 0.022 cm
Block: 5
======================================
200.230721712
200.226649499
200.214432859
200.263299417
200.247010565

Average distance is : 200.236 cm
Average deviation is : 0.019 cm
Block: 6
======================================
200.230721712
200.247010565
199.754272771
200.247010565
200.247010565

Average distance is : 200.145 cm
Average deviation is : 0.219 cm
Block: 7
======================================
200.247010565
200.263299417
200.194071794
200.299949336
200.210360646

Average distance is : 200.243 cm
Average deviation is : 0.042 cm
Block: 8
======================================
200.230721712
200.263299417
200.214432859
199.786850476
199.770561624

Average distance is : 200.053 cm
Average deviation is : 0.251 cm
Block: 9
======================================
200.194071794
200.295877123
199.750200558
200.263299417
200.263299417

Average distance is : 200.153 cm
Average deviation is : 0.228 cm
Block: 10
======================================
200.230721712
200.247010565
200.247010565
200.230721712
199.770561624

Average distance is : 200.145 cm
Average deviation is : 0.210 cm