
Block: 1
======================================
200.247010565
200.27958827
200.263299417
200.299949336
200.283660483
199.835717034
200.295877123
200.263299417
200.247010565
200.247010565
200.247010565
200.27958827
200.299949336
200.247010565
200.263299417
200.214432859
200.226649499
200.247010565
200.27958827
200.247010565
199.803139329
200.247010565
200.267371631
200.283660483
200.299949336
200.247010565
200.27958827
200.230721712
200.263299417
200.27958827
200.299949336
200.267371631
200.230721712
200.230721712
200.27958827
200.27958827
199.819428182
200.247010565
200.226649499
200.230721712
200.247010565
200.247010565
200.27958827
200.247010565
200.230721712
199.782778263
200.27958827
200.27958827
200.263299417
200.230721712
200.299949336
200.230721712
200.283660483
200.299949336
200.230721712
200.27958827
200.263299417
200.283660483
200.263299417
199.803139329
200.247010565
200.230721712
200.247010565
200.263299417
200.263299417
200.247010565
200.247010565
200.247010565
200.230721712
200.247010565
199.750200558
200.247010565
200.247010565
200.263299417
200.247010565
200.283660483
200.247010565
200.247010565
160.791337132
200.263299417
200.267371631
200.247010565
200.263299417
200.230721712
200.27958827
200.299949336
200.263299417
200.283660483
200.263299417
200.27958827
200.263299417
200.251082778
200.27958827
200.27958827
200.251082778
200.247010565
200.247010565
200.247010565
200.247010565
200.230721712

Average distance is : 199.837 cm
Average deviation is : 3.946 cm
Block: 2
======================================
200.283660483
200.283660483
200.194071794
200.247010565
200.263299417
200.247010565
200.263299417
200.210360646
200.247010565
200.263299417
199.750200558
200.283660483
200.263299417
200.267371631
200.247010565
200.267371631
200.230721712
200.263299417
200.247010565
200.27958827
200.267371631
200.263299417
200.247010565
200.263299417
200.247010565
199.76648941
200.263299417
200.263299417
200.230721712
199.803139329
200.27958827
200.230721712
199.803139329
199.803139329
200.295877123
200.230721712
200.247010565
200.214432859
200.267371631
200.263299417
199.770561624
200.263299417
200.299949336
200.247010565
199.803139329
200.267371631
200.295877123
200.263299417
200.283660483
200.27958827
200.263299417
200.263299417
200.283660483
200.283660483
200.263299417
200.283660483
199.803139329
199.786850476
199.76648941
200.230721712
200.27958827
200.230721712
200.283660483
200.247010565
200.230721712
200.27958827
200.27958827
200.263299417
200.283660483
200.263299417
200.263299417
199.819428182
199.819428182
200.247010565
199.819428182
200.230721712
200.27958827
200.263299417
200.263299417
200.283660483
200.247010565
200.299949336
200.230721712
199.803139329
200.230721712
199.803139329
200.267371631
200.263299417
200.226649499
200.299949336
200.247010565
200.263299417
200.295877123
200.247010565
200.283660483
199.803139329
200.283660483
199.835717034
199.819428182
200.247010565

Average distance is : 200.178 cm
Average deviation is : 0.180 cm
Block: 3
======================================
200.247010565
200.295877123
200.27958827
200.247010565
199.803139329
200.299949336
200.283660483
200.267371631
200.267371631
200.299949336
200.263299417
200.263299417
200.27958827
200.27958827
200.230721712
199.819428182
200.247010565
200.299949336
200.247010565
200.283660483
200.263299417
200.299949336
200.27958827
200.299949336
200.247010565
200.263299417
200.27958827
200.267371631
199.803139329
199.819428182
200.27958827
200.247010565
200.283660483
200.27958827
199.786850476
200.27958827
200.263299417
200.263299417
200.295877123
200.316238189
200.283660483
200.247010565
200.295877123
200.299949336
199.835717034
200.263299417
200.263299417
200.299949336
200.283660483
200.27958827
200.316238189
200.263299417
199.888655806
200.27958827
200.283660483
200.299949336
199.786850476
200.27958827
199.835717034
200.27958827
200.247010565
200.27958827
199.823500395
199.835717034
200.267371631
200.27958827
200.27958827
200.299949336
200.263299417
200.295877123
199.799067116
200.263299417
200.295877123
199.819428182
200.263299417
200.27958827
200.27958827
200.263299417
200.263299417
200.299949336
200.299949336
200.247010565
199.819428182
199.803139329
200.263299417
199.803139329
200.27958827
200.283660483
200.299949336
200.283660483
200.316238189
200.267371631
200.295877123
200.295877123
199.819428182
200.247010565
199.786850476
200.263299417
200.283660483
200.263299417

Average distance is : 200.194 cm
Average deviation is : 0.179 cm
Block: 4
======================================
200.283660483
199.835717034
199.803139329
200.267371631
200.283660483
200.263299417
200.283660483
200.230721712
200.295877123
200.247010565
200.27958827
200.283660483
200.283660483
200.283660483
200.247010565
200.283660483
200.283660483
200.27958827
199.819428182
200.247010565
200.27958827
200.263299417
199.803139329
200.247010565
200.283660483
200.27958827
200.283660483
200.295877123
200.295877123
200.247010565
199.819428182
200.247010565
200.27958827
200.27958827
199.803139329
200.263299417
200.267371631
200.251082778
200.283660483
200.283660483
200.283660483
200.247010565
200.247010565
199.803139329
200.27958827
200.299949336
200.247010565
200.27958827
200.27958827
199.819428182
200.299949336
200.230721712
200.316238189
200.295877123
200.263299417
200.299949336
200.247010565
200.27958827
200.299949336
200.316238189
200.247010565
200.247010565
200.283660483
200.263299417
199.803139329
200.263299417
200.27958827
200.27958827
199.819428182
200.226649499
200.230721712
200.247010565
200.267371631
200.263299417
200.230721712
200.267371631
200.263299417
200.283660483
200.295877123
200.27958827
200.27958827
200.230721712
200.263299417
200.27958827
199.786850476
199.803139329
200.263299417
200.247010565
200.27958827
199.803139329
200.27958827
200.263299417
199.953811216
200.263299417
200.247010565
200.295877123
200.283660483
200.247010565
200.230721712
200.247010565

Average distance is : 200.207 cm
Average deviation is : 0.159 cm
Block: 5
======================================
200.27958827
200.247010565
200.263299417
199.819428182
200.283660483
200.247010565
200.214432859
199.782778263
200.27958827
200.247010565
200.230721712
200.230721712
200.27958827
200.27958827
200.263299417
200.230721712
199.803139329
200.27958827
200.226649499
200.230721712
200.27958827
200.27958827
200.263299417
200.247010565
200.299949336
200.247010565
199.770561624
200.263299417
200.230721712
199.803139329
200.247010565
193.039193249
199.839789248
200.283660483
200.230721712
200.299949336
200.247010565
200.263299417
200.283660483
200.283660483
200.230721712
200.247010565
200.247010565
200.263299417
200.226649499
200.247010565
200.210360646
200.263299417
200.263299417
200.247010565
200.247010565
200.247010565
200.263299417
200.230721712
200.247010565
200.267371631
200.230721712
200.263299417
199.770561624
200.283660483
200.230721712
200.214432859
200.263299417
200.226649499
200.230721712
200.247010565
200.247010565
200.263299417
200.247010565
200.226649499
200.27958827
200.247010565
199.782778263
200.230721712
200.283660483
200.230721712
200.247010565
200.247010565
200.263299417
200.247010565
200.230721712
199.819428182
199.803139329
200.226649499
200.230721712
200.247010565
200.230721712
200.210360646
200.267371631
200.263299417
200.263299417
200.690881801
199.819428182
200.247010565
200.247010565
200.27958827
200.267371631
200.299949336
200.283660483
200.247010565

Average distance is : 200.135 cm
Average deviation is : 0.733 cm
Block: 6
======================================
200.247010565
199.803139329
200.214432859
200.247010565
199.803139329
200.263299417
200.230721712
200.247010565
200.283660483
200.27958827
200.267371631
200.27958827
200.230721712
200.295877123
200.247010565
200.267371631
199.786850476
200.312165976
200.263299417
200.247010565
200.299949336
200.247010565
200.247010565
200.263299417
200.27958827
200.247010565
200.247010565
199.799067116
199.803139329
200.27958827
200.283660483
200.230721712
199.819428182
200.27958827
199.819428182
200.230721712
200.27958827
200.263299417
200.263299417
200.283660483
200.27958827
200.263299417
200.263299417
200.230721712
200.263299417
200.230721712
200.263299417
200.247010565
200.299949336
200.263299417
200.27958827
200.263299417
199.819428182
200.27958827
200.27958827
200.27958827
199.803139329
200.194071794
200.27958827
200.247010565
200.267371631
200.263299417
200.210360646
200.27958827
200.295877123
200.247010565
199.786850476
200.299949336
200.247010565
200.247010565
200.247010565
200.27958827
200.247010565
199.782778263
200.263299417
200.230721712
200.263299417
200.267371631
200.247010565
200.230721712
200.230721712
200.263299417
200.263299417
200.247010565
200.27958827
200.263299417
200.267371631
199.803139329
199.803139329
200.283660483
199.786850476
200.263299417
200.263299417
200.267371631
199.786850476
200.267371631
200.283660483
200.263299417
200.230721712
200.247010565

Average distance is : 200.192 cm
Average deviation is : 0.167 cm
Block: 7
======================================
200.247010565
200.299949336
200.247010565
200.226649499
200.230721712
200.263299417
200.27958827
200.263299417
200.247010565
200.332527041
200.263299417
200.263299417
200.267371631
200.247010565
200.247010565
200.299949336
200.283660483
200.295877123
200.263299417
200.263299417
199.782778263
200.263299417
199.786850476
200.283660483
200.263299417
200.27958827
200.27958827
200.247010565
200.295877123
200.267371631
200.283660483
200.247010565
199.803139329
199.819428182
200.247010565
200.299949336
200.247010565
200.283660483
200.27958827
200.27958827
200.263299417
199.770561624
200.27958827
200.295877123
200.267371631
200.299949336
200.283660483
200.247010565
200.214432859
200.263299417
200.247010565
200.27958827
200.226649499
200.247010565
199.803139329
200.299949336
200.27958827
200.299949336
200.299949336
200.283660483
200.263299417
200.27958827
200.283660483
199.803139329
200.299949336
200.283660483
200.27958827
200.27958827
200.316238189
200.283660483
200.283660483
200.27958827
199.819428182
199.8560781
200.247010565
200.27958827
200.263299417
200.283660483
200.299949336
200.27958827
200.230721712
200.267371631
200.27958827
200.27958827
200.247010565
200.263299417
200.230721712
200.263299417
200.230721712
200.295877123
200.295877123
200.263299417
200.226649499
200.247010565
200.263299417
200.263299417
200.263299417
200.247010565
200.295877123
200.27958827

Average distance is : 200.228 cm
Average deviation is : 0.136 cm
Block: 8
======================================
200.247010565
200.263299417
200.247010565
200.247010565
200.27958827
200.230721712
200.247010565
200.247010565
200.247010565
200.299949336
200.27958827
200.27958827
200.214432859
199.803139329
200.247010565
200.27958827
200.295877123
200.230721712
200.263299417
200.27958827
200.263299417
200.226649499
200.263299417
200.226649499
200.263299417
200.247010565
200.263299417
199.819428182
200.247010565
200.295877123
200.27958827
200.27958827
200.27958827
200.230721712
200.299949336
200.263299417
200.263299417
200.267371631
200.263299417
200.226649499
200.263299417
200.247010565
200.27958827
200.247010565
200.267371631
200.263299417
200.247010565
200.247010565
200.230721712
200.226649499
200.27958827
200.263299417
200.316238189
200.267371631
200.247010565
200.247010565
200.247010565
200.267371631
200.299949336
200.230721712
199.786850476
200.283660483
200.247010565
200.226649499
200.247010565
200.283660483
200.230721712
200.27958827
200.263299417
200.27958827
200.263299417
200.283660483
200.283660483
200.283660483
200.230721712
200.263299417
200.263299417
199.803139329
200.263299417
200.263299417
200.267371631
200.295877123
200.27958827
200.226649499
200.263299417
200.267371631
200.263299417
200.27958827
200.267371631
200.263299417
199.803139329
199.819428182
199.76648941
200.247010565
200.263299417
200.230721712
200.230721712
200.299949336
200.251082778
199.786850476

Average distance is : 200.224 cm
Average deviation is : 0.128 cm
Block: 9
======================================
200.312165976
199.819428182
200.230721712
200.230721712
200.247010565
199.819428182
199.819428182
200.283660483
200.247010565
200.316238189
200.299949336
200.210360646
200.283660483
200.230721712
200.247010565
199.835717034
200.263299417
200.27958827
200.263299417
200.230721712
200.263299417
200.267371631
200.263299417
200.263299417
199.839789248
200.27958827
200.27958827
200.27958827
200.283660483
200.247010565
200.267371631
200.263299417
200.27958827
200.27958827
200.263299417
200.283660483
200.247010565
200.263299417
200.27958827
200.210360646
200.263299417
200.299949336
199.803139329
199.819428182
200.299949336
200.247010565
200.267371631
200.230721712
200.27958827
200.267371631
200.230721712
200.263299417
200.247010565
200.263299417
200.230721712
200.299949336
200.27958827
199.803139329
199.803139329
200.247010565
200.316238189
200.316238189
199.819428182
200.283660483
199.819428182
200.295877123
200.226649499
200.247010565
200.263299417
200.247010565
200.247010565
200.299949336
200.251082778
200.230721712
200.263299417
200.263299417
200.27958827
200.247010565
200.247010565
200.27958827
200.247010565
200.283660483
200.263299417
200.267371631
200.283660483
200.283660483
200.247010565
200.230721712
200.230721712
200.27958827
200.267371631
199.835717034
200.263299417
200.263299417
200.263299417
200.283660483
200.27958827
200.247010565
199.803139329
200.247010565

Average distance is : 200.206 cm
Average deviation is : 0.152 cm
Block: 10
======================================
200.267371631
199.835717034
200.230721712
200.247010565
200.283660483
200.226649499
200.247010565
199.786850476
200.247010565
199.615817523
200.295877123
200.316238189
200.299949336
199.786850476
200.27958827
200.299949336
200.283660483
200.299949336
200.263299417
200.27958827
200.263299417
199.819428182
199.819428182
200.263299417
200.295877123
200.263299417
199.835717034
200.247010565
199.819428182
200.247010565
200.247010565
199.819428182
200.247010565
200.230721712
200.283660483
200.247010565
200.283660483
200.230721712
200.230721712
200.226649499
199.803139329
200.283660483
200.263299417
200.247010565
200.230721712
200.295877123
199.819428182
200.247010565
200.247010565
200.247010565
200.299949336
200.283660483
200.247010565
200.247010565
200.263299417
200.263299417
200.247010565
200.263299417
200.263299417
200.267371631
200.283660483
200.27958827
200.247010565
200.230721712
200.263299417
200.230721712
200.299949336
200.247010565
200.267371631
200.263299417
200.247010565
200.247010565
199.786850476
200.247010565
200.263299417
199.803139329
200.230721712
200.247010565
200.299949336
200.247010565
200.27958827
200.263299417
199.579167604
200.267371631
200.247010565
200.27958827
200.247010565
200.214432859
200.230721712
200.230721712
200.247010565
200.263299417
199.803139329
200.27958827
200.247010565
200.226649499
200.247010565
200.263299417
200.263299417
200.247010565

Average distance is : 200.188 cm
Average deviation is : 0.175 cm