
Block: 1
======================================
401.735874701
400.858474946
401.315369749
401.315369749
401.331543016
401.295153165
400.890821481
401.299196482
401.299196482
401.756091285
401.756091285
402.19681282
401.315369749
401.735874701
401.719701433
401.735874701
400.413710093
401.299196482
400.858474946
401.315369749
400.858474946
401.299196482
401.315369749
401.315369749
401.299196482
401.739918017
401.331543016
401.315369749
401.283023214
401.739918017
401.739918017
401.283023214
400.854431629
400.874648213
401.72374475
401.283023214
401.739918017
401.707571483
401.299196482
402.164466286
400.838258362
401.72374475
401.266849947
402.56879797
400.842301679
401.315369749
401.278979897
401.703528166
401.72374475
400.826128411
400.397536826
403.009519506
400.822085094
401.278979897
400.858474946
400.842301679
400.858474946
401.278979897
400.842301679
400.838258362
400.397536826
400.397536826
400.838258362
401.283023214
400.838258362
400.838258362
400.41775341
400.365190291
402.572841287
400.381363559
400.401580143
400.381363559
400.41775341
402.993346238
399.940642023
399.940642023
401.278979897
400.858474946
400.41775341
399.940642023
400.385406876
401.72374475
400.838258362
401.283023214
399.977031875
400.838258362
399.960858607
399.977031875
400.41775341
399.977031875
400.842301679
399.972988558
399.95681529
400.858474946
400.385406876
400.838258362
400.858474946
399.993205142
400.858474946
402.552624702

Average distance is : 401.081 cm
Average deviation is : 0.673 cm
Block: 2
======================================
399.960858607
400.397536826
399.924468756
400.401580143
400.397536826
399.977031875
399.95681529
399.960858607
399.960858607
400.842301679
399.960858607
400.858474946
400.401580143
399.977031875
399.940642023
399.960858607
402.552624702
402.552624702
401.295153165
399.972988558
400.41775341
399.94468534
401.278979897
400.381363559
400.838258362
400.401580143
401.719701433
400.401580143
400.822085094
401.707571483
400.822085094
400.381363559
400.822085094
400.385406876
400.401580143
400.365190291
401.283023214
401.246633363
400.397536826
400.381363559
400.838258362
401.707571483
401.26280663
401.25067668
401.703528166
402.572841287
401.687354898
400.822085094
401.703528166
401.675224948
402.144249701
400.822085094
2788.82118473
2793.13136048
401.246633363
401.72374475
2790.72154365
403.009519506
401.283023214
403.417894506
401.246633363
402.552624702
401.691398215
402.115946484
401.687354898
402.128076434
403.878832626
401.72374475
402.144249701
402.56879797
404.707712579
403.87478931
403.878832626
401.691398215
401.703528166
404.723885846
403.450241041
404.319554162
402.56879797
403.02973609
403.025692773
402.56879797
401.687354898
403.486630893
404.315510845
402.605187821
401.703528166
402.148293018
402.148293018
404.28316431
404.28316431
403.013562822
403.450241041
402.589014554
405.556809115
401.756091285
402.144249701
401.687354898
401.72374475
401.278979897

Average distance is : 473.363 cm
Average deviation is : 409.623 cm
Block: 3
======================================
402.180639553
403.87478931
401.72374475
401.739918017
401.735874701
402.164466286
402.19681282
401.739918017
401.735874701
401.739918017
402.19681282
401.315369749
401.295153165
401.315369749
401.299196482
402.19681282
401.315369749
400.890821481
402.19681282
402.637534356
400.874648213
402.19681282
401.335586333
401.347716284
402.637534356
401.315369749
401.772264552
400.890821481
401.772264552
401.772264552
401.772264552
401.756091285
401.347716284
400.450099945
400.874648213
402.19681282
400.890821481
403.045909357
400.890821481
401.331543016
400.874648213
401.315369749
402.19681282
400.854431629
401.331543016
401.363889551
401.756091285
401.315369749
402.621361089
401.315369749
400.413710093
401.772264552
400.858474946
401.315369749
400.48244648
400.890821481
400.890821481
402.212986088
401.347716284
401.347716284
401.756091285
401.756091285
401.331543016
401.335586333
402.217029405
402.200856137
401.335586333
400.874648213
401.331543016
401.315369749
400.838258362
401.331543016
401.772264552
401.315369749
401.331543016
401.315369749
401.315369749
401.315369749
401.331543016
401.315369749
401.278979897
401.756091285
401.315369749
403.878832626
401.739918017
401.772264552
402.19681282
401.739918017
400.874648213
401.315369749
401.315369749
401.295153165
401.776307869
401.331543016
401.788437819
401.772264552
401.792481136
400.923168015
401.788437819
401.347716284

Average distance is : 401.561 cm
Average deviation is : 0.598 cm
Block: 4
======================================
401.772264552
400.894864798
401.772264552
401.295153165
401.776307869
403.486630893
402.19681282
401.367932868
401.331543016
401.788437819
403.50280416
401.315369749
400.890821481
402.621361089
402.212986088
401.739918017
401.776307869
401.776307869
401.756091285
401.331543016
401.756091285
401.756091285
401.776307869
401.331543016
402.19681282
401.756091285
405.572982383
403.486630893
402.229159355
401.315369749
402.229159355
402.637534356
401.792481136
401.772264552
401.792481136
401.772264552
401.772264552
401.347716284
402.653707623
401.347716284
402.669880891
402.212986088
402.229159355
401.808654404
401.351759601
401.772264552
401.347716284
401.347716284
401.347716284
401.788437819
401.351759601
402.212986088
401.331543016
401.792481136
400.870604897
401.351759601
401.347716284
401.788437819
401.315369749
402.212986088
401.331543016
401.363889551
402.212986088
402.217029405
401.792481136
401.788437819
401.347716284
401.347716284
400.911038065
400.894864798
401.335586333
400.870604897
401.772264552
401.347716284
401.347716284
402.653707623
401.776307869
401.331543016
400.894864798
401.792481136
401.351759601
401.347716284
401.331543016
400.890821481
402.212986088
401.792481136
401.792481136
403.082299209
401.772264552
402.164466286
403.062082624
401.735874701
401.331543016
401.335586333
401.351759601
401.756091285
403.486630893
403.486630893
402.212986088
401.335586333

Average distance is : 401.815 cm
Average deviation is : 0.720 cm
Block: 5
======================================
401.315369749
402.249375939
402.164466286
401.347716284
401.315369749
404.315510845
401.772264552
401.772264552
401.299196482
402.212986088
401.315369749
401.295153165
403.045909357
401.299196482
402.176596236
404.723885846
401.299196482
404.299337578
401.739918017
401.72374475
401.72374475
401.735874701
402.621361089
402.164466286
402.217029405
401.756091285
401.739918017
401.739918017
402.180639553
403.045909357
402.160422969
401.72374475
402.621361089
401.331543016
402.19681282
402.212986088
402.19681282
403.486630893
402.212986088
402.19681282
401.739918017
401.756091285
401.760134602
404.760275698
401.283023214
401.299196482
402.180639553
402.212986088
401.739918017
401.776307869
402.160422969
401.776307869
401.756091285
402.19681282
400.890821481
401.772264552
402.19681282
402.212986088
403.045909357
401.756091285
401.756091285
402.212986088
401.295153165
401.735874701
400.874648213
401.315369749
402.637534356
401.739918017
401.756091285
401.315369749
401.756091285
401.331543016
401.315369749
401.756091285
401.335586333
402.180639553
401.776307869
401.776307869
401.756091285
400.927211332
401.315369749
402.621361089
401.363889551
403.486630893
402.621361089
401.792481136
400.906994748
401.772264552
400.890821481
400.906994748
402.212986088
401.367932868
401.351759601
401.788437819
400.927211332
402.180639553
401.347716284
401.788437819
400.906994748
401.788437819

Average distance is : 401.921 cm
Average deviation is : 0.761 cm
Block: 6
======================================
401.315369749
401.347716284
402.621361089
401.756091285
402.19681282
401.351759601
401.347716284
401.772264552
402.653707623
401.756091285
401.331543016
402.217029405
400.890821481
403.486630893
401.335586333
401.335586333
401.331543016
403.470457625
401.756091285
401.315369749
401.315369749
403.02973609
400.858474946
401.739918017
401.739918017
401.299196482
401.295153165
401.756091285
401.299196482
401.315369749
401.772264552
402.164466286
401.299196482
401.315369749
400.842301679
402.19681282
401.299196482
401.756091285
400.842301679
402.621361089
401.299196482
401.315369749
403.045909357
402.180639553
401.315369749
402.164466286
401.707571483
402.180639553
401.283023214
401.703528166
404.266991043
402.164466286
403.450241041
401.72374475
401.72374475
402.164466286
402.164466286
402.164466286
402.621361089
402.164466286
402.621361089
401.72374475
401.72374475
402.148293018
402.56879797
403.466414309
401.707571483
403.009519506
401.283023214
402.148293018
402.584971237
401.719701433
401.691398215
402.128076434
401.739918017
402.144249701
403.450241041
401.719701433
401.72374475
401.72374475
401.283023214
402.164466286
401.278979897
403.02973609
401.703528166
402.180639553
401.72374475
401.283023214
401.719701433
401.283023214
401.283023214
401.278979897
401.283023214
401.735874701
401.266849947
401.278979897
401.283023214
401.26280663
402.164466286
403.434067774

Average distance is : 401.881 cm
Average deviation is : 0.689 cm
Block: 7
======================================
401.703528166
401.230460095
401.283023214
401.691398215
401.266849947
401.266849947
405.095870996
401.703528166
401.283023214
401.230460095
401.687354898
402.148293018
402.164466286
403.009519506
402.164466286
402.160422969
401.703528166
401.246633363
401.719701433
401.72374475
401.707571483
400.822085094
401.72374475
401.283023214
400.842301679
401.295153165
402.132119751
400.838258362
402.164466286
402.160422969
401.315369749
400.842301679
400.858474946
401.72374475
401.72374475
403.450241041
402.164466286
400.874648213
400.838258362
401.719701433
401.72374475
401.299196482
401.299196482
402.148293018
400.842301679
406.333125949
402.160422969
400.838258362
403.434067774
400.858474946
401.719701433
401.719701433
400.858474946
403.434067774
400.433926678
400.874648213
400.401580143
400.41775341
401.72374475
400.854431629
401.756091285
401.739918017
400.413710093
400.413710093
400.413710093
400.397536826
400.874648213
400.874648213
400.842301679
401.299196482
400.858474946
400.413710093
400.397536826
402.589014554
400.397536826
400.401580143
400.401580143
401.283023214
400.397536826
401.739918017
400.401580143
400.397536826
403.401721239
401.299196482
401.299196482
401.72374475
400.41775341
400.858474946
400.413710093
403.397677922
400.874648213
400.413710093
400.41775341
400.41775341
402.997389555
401.299196482
400.822085094
401.283023214
400.397536826
400.842301679

Average distance is : 401.426 cm
Average deviation is : 1.005 cm
Block: 8
======================================
400.826128411
401.25067668
401.278979897
401.25067668
401.246633363
401.246633363
400.822085094
401.72374475
2799.15185926
401.266849947
401.266849947
401.246633363
401.266849947
402.56879797
400.401580143
401.671181631
401.687354898
2801.18969095
401.687354898
401.278979897
402.111903167
401.26280663
401.719701433
401.25067668
402.128076434
400.842301679
2779.92184436
2802.09943724
2784.19158695
404.760275698
408.45586729
406.401862335
405.58915565
404.319554162
403.895005894
405.148434114
404.319554162
404.740059114
401.719701433
403.438111091
2800.40528748
2778.02148545
2786.97338893
2799.25294218
401.687354898
401.703528166
402.160422969
401.707571483
404.28316431
401.703528166
402.180639553
402.56879797
401.691398215
403.013562822
401.703528166
402.552624702
403.013562822
403.895005894
404.707712579
403.878832626
407.622944021
408.419477439
405.144390798
2799.38637164
405.148434114
403.895005894
405.9611408
403.858616042
403.470457625
403.878832626
403.907135844
404.315510845
404.740059114
406.3695158
403.895005894
404.299337578
404.707712579
403.434067774
403.434067774
403.417894506
404.28316431
404.299337578
403.858616042
402.552624702
404.28316431
407.998972487
406.3695158
405.132260847
404.28316431
404.723885846
403.009519506
405.981357384
404.707712579
403.062082624
403.890962577
404.299337578
403.450241041
403.045909357
403.878832626
403.895005894

Average distance is : 642.361 cm
Average deviation is : 720.519 cm
Block: 9
======================================
404.723885846
404.28316431
403.045909357
404.28316431
404.299337578
402.605187821
403.025692773
403.02973609
404.315510845
402.589014554
402.589014554
402.584971237
403.025692773
402.584971237
402.164466286
402.164466286
404.315510845
403.02973609
404.315510845
403.878832626
402.128076434
402.144249701
401.72374475
401.719701433
402.164466286
402.148293018
402.584971237
403.858616042
402.164466286
402.180639553
402.164466286
402.164466286
402.164466286
404.691539311
403.009519506
402.601144505
402.621361089
402.164466286
402.605187821
403.87478931
403.045909357
403.025692773
401.72374475
403.045909357
402.160422969
402.180639553
402.160422969
402.589014554
401.719701433
403.911179161
402.605187821
401.719701433
402.621361089
402.621361089
401.760134602
401.72374475
401.756091285
402.164466286
402.605187821
401.739918017
401.756091285
402.605187821
401.72374475
402.605187821
402.605187821
402.605187821
401.703528166
401.315369749
402.180639553
402.180639553
401.719701433
402.176596236
402.621361089
401.283023214
404.28316431
401.299196482
401.299196482
400.838258362
401.739918017
401.772264552
401.739918017
400.858474946
401.735874701
401.295153165
401.760134602
401.315369749
401.772264552
401.331543016
401.756091285
400.838258362
400.842301679
400.890821481
401.315369749
401.739918017
400.858474946
400.890821481
400.858474946
400.858474946
401.299196482
400.842301679

Average distance is : 402.297 cm
Average deviation is : 0.968 cm
Block: 10
======================================
401.283023214
404.315510845
401.315369749
402.160422969
402.148293018
401.299196482
401.299196482
401.72374475
401.707571483
401.72374475
401.739918017
401.295153165
401.266849947
401.739918017
401.739918017
401.283023214
401.278979897
401.72374475
401.295153165
402.164466286
402.621361089
401.760134602
401.299196482
401.739918017
401.756091285
401.283023214
401.278979897
401.739918017
401.299196482
402.641577673
401.756091285
402.212986088
402.164466286
402.605187821
401.776307869
403.045909357
401.739918017
402.200856137
401.772264552
401.299196482
402.180639553
402.637534356
401.295153165
401.772264552
402.212986088
401.735874701
402.180639553
401.756091285
403.062082624
402.621361089
401.72374475
402.621361089
402.180639553
402.212986088
402.180639553
403.470457625
402.176596236
402.19681282
403.078255892
403.062082624
401.72374475
402.176596236
402.176596236
402.637534356
402.19681282
403.911179161
403.927352428
401.772264552
401.772264552
401.756091285
401.776307869
401.776307869
401.772264552
401.331543016
403.486630893
401.363889551
401.331543016
401.331543016
401.315369749
403.470457625
402.229159355
401.772264552
401.331543016
401.315369749
401.299196482
401.315369749
402.301939058
403.062082624
403.911179161
401.756091285
401.335586333
401.335586333
401.776307869
401.756091285
401.315369749
401.756091285
402.229159355
403.927352428
401.331543016
403.50280416

Average distance is : 402.024 cm
Average deviation is : 0.734 cm