
Block: 1
======================================
50.1422114372
50.0888031006
50.1463197708
50.1298864365
50.1093447685
50.1257781029
37.2913439751
50.1093447685
50.1093447685
34.7236354828

Block: 2
======================================
50.0929114342
50.1093447685
49.7108364105
50.1586447716
50.1627531052
50.0929114342
50.1422114372
50.1257781029
50.1093447685
50.1093447685

Block: 3
======================================
50.1093447685
50.0888031006
32.6037353516
50.1093447685
50.1257781029
36.3587522507
50.1257781029
50.1093447685
38.2362607002
50.1257781029

Block: 4
======================================
50.1257781029
50.1257781029
50.1463197708
50.1093447685
50.1586447716
50.1791864395
50.0929114342
50.1093447685
50.0600447655
50.1463197708

Block: 5
======================================
50.1093447685
33.445943737
50.1257781029
50.1257781029
39.63309412
50.0929114342
50.1257781029
40.4588691711
50.1093447685
50.1093447685

Block: 6
======================================
12.6495591164
50.0929114342
50.1627531052
38.2568023682
50.1257781029
50.1463197708
37.3406439781
50.1093447685
50.1298864365
50.1298864365

Block: 7
======================================
50.0929114342
50.1422114372
50.1257781029
50.1093447685
50.0723697662
50.0764780998
37.2050689697
50.1257781029
50.1093447685
38.8237524033

Block: 8
======================================
50.1422114372
50.0929114342
50.0929114342
50.1093447685
50.0929114342
50.1093447685
50.1093447685
50.1422114372
50.1257781029
50.1093447685

Block: 9
======================================
50.1257781029
50.1093447685
37.4269189835
50.1463197708
50.0929114342
40.1507441521
50.1298864365
50.1257781029
39.7193691254
50.1093447685

Block: 10
======================================
50.1257781029
50.1257781029
50.1298864365
50.0888031006
50.1093447685
50.0888031006
50.1257781029
50.1093447685
50.1257781029
50.1422114372
