
Block: 1
======================================
400.688655639
401.553925443
400.741218758
401.553925443
401.57009871

Block: 2
======================================
403.231901932
403.252118516
401.113203907
401.125333858
401.553925443

Block: 3
======================================
401.161723709
401.129377174
401.129377174
400.704828906
400.672482371

Block: 4
======================================
400.672482371
400.656309104
400.652265787
401.942083859
401.09703064

Block: 5
======================================
401.533708858
401.080857372
401.517535591
401.485189056
401.076814055

Block: 6
======================================
401.485189056
404.048651934
402.334285593
401.893564057
401.889520741

Block: 7
======================================
402.366632128
401.909737325
401.893564057
401.942083859
401.925910592

Block: 8
======================================
401.501362324
401.501362324
401.505405641
401.044467521
401.080857372

Block: 9
======================================
401.925910592
401.044467521
401.040424204
401.537752175
402.775007129

Block: 10
======================================
400.599702668
401.517535591
401.060640788
400.672482371
402.35045886
