
Block: 1
======================================
401.113203907
401.974430394
401.10916059
402.403021979
400.668439054
401.10916059
401.549882126
401.113203907
401.113203907
400.688655639
400.652265787
401.537752175
400.688655639
401.129377174
400.672482371
401.553925443
401.161723709
402.41515193
401.113203907
401.57009871
400.704828906
402.010820246
400.704828906
400.688655639
402.403021979
400.704828906
400.668439054
400.704828906
400.684612322
401.129377174
400.26410737
400.280280638
400.688655639
401.590315294
401.129377174
400.688655639
400.260064054
400.26410737
400.721002173
401.553925443
400.688655639
401.566055393
400.721002173
400.704828906
400.721002173
400.704828906
400.243890786
400.26410737
400.227717519
400.672482371
401.129377174
402.398978662
400.704828906
400.672482371
400.26410737
400.688655639
401.113203907
400.227717519
401.125333858
400.227717519
400.672482371
400.688655639
401.549882126
400.247934103
400.227717519
401.113203907
400.668439054
400.243890786
401.978473711
400.672482371
400.656309104
400.688655639
400.652265787
401.533708858
401.113203907

Block: 2
======================================
401.060640788
401.080857372
401.060640788
401.080857372
401.521578908
403.215728664
401.501362324
401.517535591
401.485189056
402.35045886
401.517535591
401.501362324
401.485189056
402.334285593
401.485189056
402.754790545
401.942083859
404.064825201
402.35045886
401.485189056
403.636233616
402.330242276
401.909737325
403.215728664
402.758833861
402.366632128
401.946127176
401.925910592
401.942083859
403.640276933
401.962300444
401.958257127
401.942083859
402.791180396
401.942083859
402.791180396
401.925910592
402.35045886
401.521578908
401.946127176
403.231901932
403.6564502
401.942083859
401.962300444
401.517535591
401.501362324
401.09703064
401.521578908
401.925910592
403.636233616
401.09703064
401.962300444
401.080857372
401.533708858
401.517535591
401.962300444
401.537752175
401.517535591
401.09703064
400.672482371
401.076814055
401.092987323
401.09703064
401.521578908
401.092987323
403.231901932
400.672482371
400.668439054
401.962300444
400.672482371
401.080857372
401.553925443
402.403021979
400.672482371
401.113203907

Block: 3
======================================
401.10916059
401.092987323
401.537752175
401.517535591
401.113203907
401.533708858
401.080857372
401.501362324
401.080857372
401.129377174
401.044467521
403.268291783
400.822085094
401.129377174
401.09703064
400.668439054
401.537752175
401.113203907
401.076814055
401.537752175
401.076814055
402.807353663
401.080857372
401.092987323
401.946127176
401.537752175
400.652265787
401.080857372
401.517535591
401.076814055
401.501362324
401.10916059
401.09703064
401.113203907
400.656309104
401.946127176
400.656309104
401.10916059
401.09703064
401.521578908
401.533708858
400.672482371
400.688655639
401.942083859
400.656309104
400.668439054
401.092987323
400.672482371
401.549882126
401.533708858
401.942083859
401.113203907
401.533708858
401.092987323
401.076814055
401.09703064
401.09703064
401.909737325
401.080857372
400.652265787
401.076814055
402.403021979
401.092987323
403.231901932
401.09703064
401.537752175
401.533708858
402.791180396
400.684612322
401.09703064
401.125333858
400.672482371
400.672482371
402.807353663
400.668439054

Block: 4
======================================
401.553925443
401.10916059
402.823526931
400.704828906
400.684612322
401.958257127
400.704828906
401.145550442
400.704828906
401.57009871
401.129377174
401.113203907
400.704828906
400.688655639
400.704828906
400.688655639
401.10916059
401.586271977
400.704828906
401.57009871
401.549882126
400.704828906
401.553925443
400.688655639
401.57009871
400.672482371
401.553925443
401.57009871
401.57009871
401.10916059
401.129377174
400.704828906
401.994646978
401.129377174
401.129377174
401.553925443
400.684612322
401.113203907
401.129377174
401.57009871
401.145550442
402.010820246
403.264248466
400.704828906
400.704828906
400.688655639
402.41515193
402.839700198
402.855873466
400.704828906
403.300638318
401.57009871
401.553925443
401.129377174
401.57009871
401.129377174
401.57009871
401.553925443
402.006776929
403.300638318
401.994646978
401.129377174
401.129377174
402.839700198
401.553925443
401.145550442
401.553925443
401.113203907
401.113203907
401.553925443
401.549882126
401.57009871
401.129377174
401.586271977
401.958257127

Block: 5
======================================
401.553925443
402.010820246
401.10916059
401.994646978
401.586271977
402.839700198
401.165767026
400.737175441
401.145550442
400.721002173
400.704828906
401.161723709
401.57009871
400.688655639
401.165767026
401.145550442
400.688655639
400.721002173
400.721002173
401.161723709
401.145550442
400.704828906
401.994646978
401.990603662
401.145550442
401.145550442
401.129377174
401.129377174
401.129377174
400.721002173
400.704828906
400.721002173
400.704828906
400.688655639
401.586271977
400.704828906
400.704828906
400.72504549
401.129377174
400.684612322
400.704828906
403.688796735
402.010820246
401.129377174
401.129377174
401.113203907
401.129377174
400.26410737
400.704828906
400.704828906
401.113203907
402.435368514
402.41515193
400.688655639
401.113203907
400.704828906
401.145550442
401.129377174
400.704828906
401.129377174
400.688655639
402.398978662
400.704828906
401.537752175
401.092987323
401.129377174
401.113203907
400.688655639
401.092987323
401.113203907
400.704828906
401.994646978
401.549882126
400.688655639
400.704828906

Block: 6
======================================
402.398978662
401.57009871
400.668439054
401.113203907
401.942083859
401.092987323
402.807353663
401.076814055
401.09703064
401.501362324
401.113203907
401.092987323
401.092987323
401.533708858
401.537752175
401.958257127
401.517535591
402.791180396
401.962300444
401.092987323
400.672482371
401.925910592
401.09703064
402.807353663
401.113203907
401.517535591
401.537752175
401.09703064
401.113203907
401.129377174
401.113203907
400.656309104
402.382805395
400.688655639
401.962300444
401.092987323
400.656309104
401.958257127
400.668439054
401.553925443
401.958257127
400.672482371
400.652265787
402.386848712
400.684612322
401.537752175
401.092987323
400.652265787
401.946127176
401.129377174
400.668439054
402.403021979
402.04316678
400.668439054
400.652265787
400.672482371
400.652265787
400.688655639
400.668439054
401.57009871
400.231760836
400.672482371
401.09703064
400.688655639
400.672482371
401.942083859
400.668439054
401.978473711
402.382805395
400.688655639
401.549882126
400.688655639
401.10916059
400.231760836
400.640135837

Block: 7
======================================
401.958257127
400.688655639
401.076814055
401.113203907
400.688655639
400.688655639
401.113203907
401.129377174
401.113203907
401.10916059
401.09703064
401.10916059
401.994646978
401.553925443
402.419195247
401.533708858
400.688655639
400.688655639
401.09703064
401.10916059
401.129377174
400.704828906
400.688655639
400.684612322
400.704828906
400.688655639
402.010820246
400.688655639
401.994646978
400.688655639
401.586271977
400.668439054
401.553925443
402.398978662
400.672482371
402.010820246
401.10916059
400.672482371
400.672482371
401.125333858
400.684612322
401.553925443
400.688655639
401.113203907
400.688655639
401.09703064
400.688655639
400.672482371
401.129377174
400.672482371
400.704828906
401.553925443
400.704828906
401.129377174
402.010820246
401.129377174
401.129377174
401.129377174
401.10916059
400.688655639
400.688655639
400.688655639
400.672482371
400.688655639
400.704828906
400.656309104
401.10916059
401.125333858
400.704828906
400.721002173
401.994646978
401.129377174
401.958257127
400.704828906
400.688655639

Block: 8
======================================
400.688655639
402.843743515
401.113203907
401.533708858
401.129377174
402.398978662
402.403021979
400.688655639
400.688655639
400.684612322
400.247934103
400.704828906
401.129377174
400.243890786
400.704828906
401.994646978
400.26410737
400.280280638
401.129377174
400.26410737
400.26410737
400.704828906
401.145550442
401.113203907
400.688655639
400.688655639
401.57009871
400.704828906
400.688655639
402.839700198
400.280280638
401.553925443
400.688655639
400.247934103
400.247934103
400.26410737
401.129377174
400.721002173
401.549882126
400.247934103
400.704828906
401.57009871
400.280280638
400.704828906
400.684612322
400.704828906
400.247934103
400.704828906
400.231760836
400.26410737
400.704828906
400.26410737
400.704828906
400.704828906
400.704828906
400.684612322
400.704828906
400.721002173
401.09703064
401.145550442
400.668439054
401.533708858
400.247934103
401.129377174
401.10916059
401.129377174
400.231760836
400.672482371
401.145550442
400.721002173
400.243890786
402.403021979
400.688655639
401.537752175
400.688655639

Block: 9
======================================
402.807353663
401.113203907
401.113203907
400.688655639
401.10916059
400.672482371
401.113203907
401.57009871
401.10916059
401.113203907
400.688655639
400.688655639
401.962300444
402.403021979
400.656309104
401.113203907
401.092987323
401.092987323
402.839700198
401.113203907
400.704828906
400.688655639
401.113203907
400.672482371
401.10916059
400.668439054
401.113203907
400.688655639
401.076814055
401.962300444
401.57009871
401.09703064
401.10916059
401.113203907
400.668439054
400.684612322
401.113203907
400.227717519
400.684612322
401.113203907
401.129377174
401.10916059
400.227717519
401.076814055
400.672482371
400.672482371
400.688655639
400.63609252
400.672482371
400.652265787
400.227717519
401.113203907
400.247934103
400.684612322
401.129377174
402.419195247
400.247934103
400.247934103
401.974430394
402.823526931
401.586271977
400.688655639
400.672482371
400.668439054
401.113203907
402.41515193
402.41515193
401.533708858
400.668439054
400.652265787
402.403021979
400.668439054
401.942083859
401.113203907
400.652265787

Block: 10
======================================
401.958257127
401.533708858
401.080857372
401.080857372
402.827570248
401.076814055
401.09703064
401.076814055
401.521578908
401.537752175
401.974430394
401.076814055
401.113203907
404.113345003
401.942083859
401.978473711
401.092987323
401.092987323
402.366632128
401.978473711
401.080857372
401.092987323
401.09703064
402.807353663
401.09703064
401.553925443
401.092987323
400.668439054
402.403021979
401.533708858
401.533708858
402.807353663
400.668439054
401.57009871
401.09703064
401.113203907
402.81139698
401.113203907
400.668439054
401.145550442
400.656309104
401.553925443
400.704828906
401.537752175
401.553925443
401.10916059
400.672482371
400.688655639
400.672482371
401.553925443
401.09703064
401.962300444
400.688655639
401.080857372
400.672482371
400.668439054
401.501362324
400.688655639
402.403021979
401.113203907
401.129377174
401.533708858
401.533708858
401.113203907
400.672482371
402.823526931
400.688655639
401.962300444
400.704828906
401.537752175
401.962300444
401.113203907
400.704828906
402.403021979
401.994646978
