
Block: 1
======================================
199.921233511
199.852005887
200.401754665
200.3813936
199.904944658
200.348815894
199.904944658
199.925305724
200.401754665
199.925305724
199.921233511
199.904944658
199.925305724
201.252847219
200.365104747
200.348815894
199.925305724
199.925305724
200.348815894
200.348815894
199.888655806
199.904944658
200.348815894
199.925305724
199.904944658
199.904944658
201.256919432
199.921233511
200.829337049
200.3813936
200.348815894
199.904944658
200.36917696
201.236558366
199.921233511
199.904944658
199.904944658
199.937522364
200.397682452
200.365104747
201.236558366
200.348815894
200.401754665
200.365104747
200.365104747
199.953811216
200.365104747
200.365104747
200.36917696
201.220269513
200.36917696
199.925305724
199.941594577
200.348815894
200.36917696
200.385465813
200.385465813
199.904944658
200.3813936
200.36917696
200.3813936
200.36917696
200.365104747
200.3813936
200.79268713
200.841553688
200.808975983
200.829337049
201.256919432
200.825264835
200.845625901
200.36917696
200.829337049
200.808975983
199.974172282
200.418043518
200.808975983
199.937522364
200.808975983
200.829337049
200.825264835
199.937522364
200.829337049
200.813048196
200.36917696
200.845625901
200.861914754
200.813048196
200.829337049
201.256919432
200.808975983
200.36917696
199.921233511
200.36917696
200.3813936
199.95788343
200.401754665
200.352888107
199.925305724
200.3813936

Average distance is : 200.379 cm
Average deviation is : 0.402 cm
Block: 2
======================================
199.941594577
199.925305724
200.845625901
200.776398277
199.514012194
200.365104747
199.921233511
200.365104747
200.825264835
200.841553688
199.937522364
200.808975983
200.348815894
200.829337049
199.990461135
200.825264835
200.829337049
200.3813936
200.365104747
200.829337049
200.813048196
200.829337049
200.79268713
200.365104747
201.220269513
200.352888107
200.352888107
199.925305724
200.348815894
200.365104747
200.79268713
200.348815894
200.365104747
200.385465813
199.909016871
199.888655806
200.365104747
200.813048196
200.36917696
201.220269513
200.3813936
200.36917696
200.365104747
199.941594577
200.352888107
200.36917696
200.3813936
199.733911705
199.904944658
199.921233511
199.925305724
200.385465813
200.36917696
199.937522364
199.904944658
200.3813936
199.941594577
200.348815894
200.385465813
199.888655806
200.365104747
200.36917696
200.365104747
200.845625901
199.925305724
199.937522364
200.385465813
200.365104747
201.224341726
200.365104747
200.365104747
199.941594577
199.921233511
199.904944658
199.925305724
199.941594577
200.365104747
200.3813936
199.925305724
200.36917696
200.36917696
199.904944658
199.925305724
200.365104747
200.365104747
200.36917696
200.36917696
200.401754665
200.36917696
199.921233511
199.925305724
200.36917696
199.921233511
200.385465813
199.937522364
199.941594577
199.937522364
199.904944658
199.921233511
200.348815894

Average distance is : 200.296 cm
Average deviation is : 0.356 cm
Block: 3
======================================
199.941594577
199.921233511
199.904944658
199.884583592
200.401754665
199.941594577
199.937522364
199.888655806
199.925305724
200.796759343
199.904944658
199.941594577
200.418043518
199.904944658
200.385465813
199.921233511
199.921233511
199.921233511
199.925305724
200.397682452
200.760109425
199.888655806
199.904944658
199.925305724
199.921233511
200.3813936
199.925305724
200.385465813
201.647851896
200.79268713
199.921233511
200.3813936
199.904944658
199.921233511
200.365104747
200.332527041
200.79268713
199.925305724
199.921233511
199.904944658
199.904944658
199.925305724
199.937522364
200.776398277
199.937522364
199.904944658
199.904944658
199.904944658
199.904944658
199.941594577
200.829337049
199.937522364
199.937522364
199.937522364
201.20398066
199.953811216
199.941594577
199.921233511
200.813048196
199.941594577
200.79268713
199.888655806
199.941594577
199.921233511
200.813048196
199.921233511
200.808975983
200.808975983
200.332527041
200.348815894
200.332527041
199.974172282
200.79268713
199.888655806
200.796759343
199.921233511
200.365104747
200.776398277
199.904944658
199.904944658
199.904944658
200.776398277
200.776398277
199.921233511
199.937522364
199.921233511
199.904944658
199.925305724
199.884583592
200.760109425
200.365104747
200.813048196
200.79268713
199.921233511
199.909016871
200.796759343
199.904944658
200.796759343
200.776398277
199.925305724

Average distance is : 200.205 cm
Average deviation is : 0.404 cm
Block: 4
======================================
199.904944658
199.941594577
200.316238189
200.348815894
200.79268713
199.921233511
200.79268713
200.348815894
200.36917696
200.79268713
199.941594577
199.925305724
200.79268713
199.904944658
200.385465813
199.888655806
199.888655806
199.888655806
199.904944658
199.921233511
199.86829474
199.909016871
200.776398277
199.888655806
199.888655806
200.776398277
200.776398277
200.348815894
199.921233511
200.776398277
200.776398277
199.937522364
199.925305724
199.921233511
199.888655806
199.579167604
200.776398277
200.776398277
199.904944658
200.776398277
200.776398277
200.760109425
199.909016871
200.299949336
200.79268713
199.904944658
199.904944658
199.909016871
200.813048196
200.760109425
200.756037211
200.776398277
199.888655806
199.888655806
200.776398277
200.776398277
200.776398277
199.888655806
200.365104747
200.316238189
200.332527041
199.888655806
199.872366953
200.760109425
199.904944658
200.776398277
199.888655806
199.888655806
200.352888107
200.756037211
200.776398277
200.316238189
200.348815894
200.760109425
200.312165976
200.79268713
200.776398277
200.760109425
199.888655806
200.312165976
200.316238189
200.776398277
200.760109425
200.776398277
200.79268713
199.888655806
200.760109425
200.776398277
200.743820572
199.872366953
200.348815894
199.888655806
200.776398277
200.572787619
199.888655806
200.316238189
201.183619595
199.888655806
200.299949336
200.739748359

Average distance is : 200.340 cm
Average deviation is : 0.405 cm
Block: 5
======================================
200.79268713
200.27958827
200.723459506
199.888655806
200.283660483
200.316238189
200.743820572
200.316238189
199.852005887
200.605365324
200.295877123
200.332527041
199.835717034
200.299949336
199.86829474
200.299949336
200.312165976
201.20398066
199.888655806
199.852005887
200.316238189
199.835717034
199.8560781
200.295877123
200.316238189
200.316238189
199.8560781
199.888655806
199.872366953
199.872366953
200.743820572
199.872366953
199.888655806
199.8560781
201.167330742
200.316238189
199.8560781
200.776398277
200.332527041
200.316238189
199.8560781
200.316238189
200.316238189
200.348815894
200.332527041
200.332527041
200.365104747
200.316238189
200.79268713
199.86829474
200.332527041
200.312165976
200.332527041
200.316238189
200.348815894
199.852005887
199.888655806
199.852005887
200.295877123
200.316238189
199.86829474
199.904944658
200.316238189
200.813048196
200.79268713
200.776398277
200.776398277
199.888655806
200.332527041
200.332527041
200.316238189
200.332527041
199.888655806
199.904944658
200.316238189
199.86829474
200.739748359
200.332527041
201.187691808
200.348815894
200.78047049
200.348815894
199.872366953
200.348815894
200.332527041
200.316238189
200.332527041
199.852005887
200.776398277
199.909016871
200.776398277
200.760109425
200.79268713
200.760109425
200.332527041
200.760109425
200.79268713
199.904944658
199.904944658
200.79268713

Average distance is : 200.297 cm
Average deviation is : 0.360 cm
Block: 6
======================================
199.872366953
199.888655806
200.36917696
199.884583592
199.904944658
199.921233511
199.925305724
199.921233511
199.904944658
200.760109425
199.921233511
199.921233511
200.36917696
199.888655806
199.904944658
201.240630579
199.888655806
199.904944658
199.904944658
199.904944658
199.904944658
200.776398277
199.904944658
199.921233511
199.909016871
200.3813936
199.925305724
199.904944658
199.941594577
200.79268713
199.921233511
200.79268713
200.332527041
199.888655806
199.888655806
199.888655806
199.888655806
199.904944658
199.904944658
199.872366953
199.921233511
199.904944658
199.904944658
199.904944658
200.365104747
199.904944658
200.829337049
200.36917696
199.888655806
200.760109425
201.220269513
199.925305724
199.921233511
201.220269513
200.808975983
199.921233511
199.888655806
199.904944658
200.36917696
199.937522364
199.921233511
199.925305724
199.904944658
200.79268713
199.909016871
199.921233511
199.921233511
200.79268713
200.79268713
200.796759343
199.925305724
199.937522364
200.36917696
199.888655806
201.220269513
200.385465813
200.210360646
201.236558366
200.348815894
200.3813936
199.904944658
201.20398066
200.348815894
200.385465813
200.348815894
200.3813936
200.3813936
201.240630579
200.348815894
199.95788343
199.921233511
200.365104747
200.36917696
200.365104747
200.401754665
200.385465813
199.904944658
200.385465813
199.921233511
199.941594577

Average distance is : 200.208 cm
Average deviation is : 0.412 cm
Block: 7
======================================
200.385465813
199.937522364
199.95788343
200.829337049
200.829337049
200.36917696
200.385465813
200.385465813
199.904944658
200.352888107
200.36917696
200.401754665
200.36917696
200.79268713
199.921233511
200.365104747
200.348815894
200.796759343
200.36917696
201.236558366
200.365104747
200.36917696
200.813048196
200.813048196
200.365104747
199.909016871
200.348815894
200.3813936
200.365104747
199.904944658
200.825264835
200.365104747
200.3813936
200.825264835
200.401754665
200.385465813
200.401754665
200.365104747
200.36917696
200.365104747
200.385465813
200.365104747
200.3813936
200.365104747
199.904944658
200.365104747
199.888655806
199.904944658
200.365104747
199.904944658
199.925305724
200.385465813
200.36917696
199.888655806
199.925305724
199.941594577
199.921233511
199.937522364
200.385465813
199.909016871
199.904944658
199.925305724
199.888655806
200.36917696
199.921233511
199.925305724
199.909016871
200.36917696
199.904944658
199.888655806
200.401754665
200.348815894
199.884583592
199.921233511
200.385465813
200.348815894
200.36917696
200.365104747
200.348815894
199.909016871
200.365104747
200.348815894
200.352888107
199.921233511
200.79268713
199.904944658
199.921233511
200.365104747
200.332527041
200.808975983
199.888655806
199.904944658
199.888655806
200.348815894
200.348815894
200.348815894
200.385465813
200.348815894
200.348815894
200.365104747

Average distance is : 200.266 cm
Average deviation is : 0.298 cm
Block: 8
======================================
200.813048196
200.348815894
199.888655806
199.904944658
199.888655806
200.36917696
199.925305724
200.385465813
199.888655806
200.397682452
200.36917696
200.348815894
201.252847219
200.36917696
199.921233511
200.365104747
199.921233511
199.904944658
200.348815894
200.845625901
200.365104747
200.365104747
200.348815894
199.921233511
200.385465813
200.365104747
200.365104747
200.348815894
199.904944658
199.888655806
199.925305724
200.401754665
199.904944658
200.365104747
199.941594577
200.365104747
200.796759343
199.925305724
199.925305724
199.941594577
199.909016871
199.888655806
200.385465813
199.925305724
199.921233511
201.252847219
199.925305724
200.401754665
200.3813936
199.941594577
199.888655806
199.888655806
199.904944658
199.904944658
199.921233511
200.796759343
200.348815894
199.904944658
199.904944658
199.904944658
199.888655806
199.921233511
199.904944658
200.796759343
200.385465813
199.925305724
199.941594577
199.888655806
199.937522364
199.921233511
200.385465813
199.925305724
200.776398277
200.401754665
200.365104747
199.921233511
199.937522364
199.921233511
199.921233511
200.348815894
200.36917696
199.909016871
199.904944658
199.888655806
200.365104747
200.385465813
200.776398277
199.937522364
199.904944658
199.925305724
199.925305724
200.776398277
199.925305724
199.904944658
199.904944658
200.365104747
199.941594577
200.365104747
200.348815894
199.904944658

Average distance is : 200.167 cm
Average deviation is : 0.326 cm
Block: 9
======================================
199.904944658
200.348815894
200.776398277
200.79268713
200.332527041
200.348815894
200.79268713
200.352888107
200.808975983
200.348815894
200.36917696
200.348815894
199.904944658
199.888655806
199.921233511
200.332527041
200.332527041
201.220269513
199.872366953
200.348815894
199.921233511
200.365104747
200.348815894
200.332527041
200.316238189
199.925305724
199.888655806
199.884583592
200.332527041
200.352888107
199.921233511
199.888655806
200.348815894
200.36917696
200.365104747
199.86829474
200.332527041
199.86829474
200.79268713
200.332527041
200.365104747
200.332527041
200.813048196
199.904944658
200.348815894
199.921233511
200.348815894
199.904944658
201.20398066
199.888655806
199.925305724
199.904944658
200.79268713
199.941594577
201.631563044
199.941594577
199.888655806
199.904944658
199.904944658
199.888655806
199.904944658
199.925305724
200.365104747
199.921233511
200.776398277
200.79268713
200.776398277
199.921233511
199.904944658
199.888655806
199.921233511
199.921233511
199.921233511
199.904944658
199.904944658
199.904944658
199.909016871
199.941594577
199.888655806
199.921233511
199.904944658
199.904944658
199.921233511
199.941594577
200.776398277
200.813048196
199.904944658
199.904944658
200.385465813
200.3813936
199.904944658
201.220269513
199.904944658
199.904944658
199.941594577
200.36917696
199.925305724
200.365104747
200.36917696
201.167330742

Average distance is : 200.221 cm
Average deviation is : 0.394 cm
Block: 10
======================================
200.829337049
200.348815894
200.829337049
200.829337049
200.332527041
200.3813936
200.796759343
200.385465813
199.904944658
199.904944658
200.352888107
200.332527041
200.365104747
200.365104747
200.385465813
200.348815894
200.348815894
199.888655806
199.904944658
199.888655806
200.348815894
199.888655806
199.872366953
200.348815894
200.348815894
199.904944658
200.36917696
199.921233511
199.904944658
199.904944658
199.909016871
199.921233511
200.365104747
199.888655806
199.925305724
200.352888107
201.20398066
200.385465813
200.332527041
200.385465813
200.332527041
201.664140749
200.348815894
200.352888107
200.348815894
200.36917696
199.921233511
200.36917696
199.904944658
200.348815894
200.365104747
199.904944658
199.904944658
200.3813936
200.36917696
199.904944658
201.236558366
199.904944658
200.348815894
200.348815894
200.365104747
199.904944658
199.904944658
199.904944658
199.904944658
200.332527041
200.365104747
200.365104747
199.884583592
200.332527041
200.365104747
199.904944658
199.872366953
199.904944658
199.921233511
200.365104747
200.348815894
199.904944658
199.904944658
199.921233511
200.348815894
200.79268713
200.332527041
199.925305724
200.776398277
200.79268713
199.904944658
200.365104747
199.904944658
200.36917696
199.909016871
199.884583592
199.888655806
199.925305724
201.220269513
199.86829474
199.884583592
200.348815894
199.921233511
199.888655806

Average distance is : 200.228 cm
Average deviation is : 0.359 cm