
Block: 1
======================================
200.813048196
200.332527041
199.904944658
199.904944658
200.776398277
200.332527041
200.808975983
199.921233511
200.332527041
200.813048196
199.921233511
200.348815894
199.921233511
199.904944658
200.78047049
200.813048196
200.332527041
200.316238189
200.825264835
200.808975983
200.776398277
200.79268713
200.332527041
200.365104747
200.776398277
200.365104747
200.79268713
200.348815894
200.79268713
200.808975983
199.888655806
200.332527041
200.348815894
199.872366953
200.365104747
200.79268713
199.904944658
200.760109425
200.776398277
199.904944658
200.332527041
200.79268713
200.348815894
200.295877123
200.332527041
199.921233511
200.79268713
200.348815894
200.332527041
199.872366953

Block: 2
======================================
200.332527041
200.776398277
199.921233511
199.937522364
199.904944658
199.909016871
199.888655806
199.888655806
200.332527041
200.352888107
201.631563044
200.365104747
200.332527041
201.167330742
200.332527041
199.888655806
200.332527041
200.332527041
200.332527041
200.352888107
199.921233511
199.909016871
200.348815894
199.884583592
200.348815894
200.332527041
200.348815894
199.884583592
200.365104747
200.776398277
200.348815894
200.776398277
200.295877123
199.909016871
200.332527041
200.332527041
200.776398277
200.316238189
200.332527041
200.348815894
200.813048196
200.760109425
200.79268713
200.776398277
200.79268713
200.348815894
200.332527041
200.348815894
200.352888107
200.808975983

Block: 3
======================================
199.95788343
199.921233511
200.332527041
200.813048196
199.888655806
200.348815894
200.365104747
200.312165976
199.904944658
199.921233511
200.813048196
200.36917696
200.365104747
200.776398277
201.187691808
200.365104747
200.776398277
200.316238189
201.20398066
201.20398066
200.316238189
200.776398277
200.332527041
200.348815894
200.79268713
200.316238189
200.316238189
200.316238189
199.888655806
200.348815894
200.332527041
200.808975983
200.332527041
199.888655806
200.348815894
200.332527041
200.365104747
200.365104747
199.888655806
199.888655806
199.904944658
199.904944658
200.808975983
200.332527041
199.872366953
200.348815894
200.365104747
199.888655806
200.348815894
200.348815894

Block: 4
======================================
200.332527041
200.808975983
200.776398277
199.909016871
200.813048196
200.36917696
199.909016871
199.904944658
200.348815894
200.312165976
200.348815894
200.348815894
199.904944658
201.20398066
199.904944658
200.796759343
201.220269513
200.365104747
200.776398277
200.348815894
200.796759343
200.365104747
200.813048196
200.79268713
199.921233511
199.937522364
199.925305724
200.829337049
199.921233511
199.941594577
200.348815894
199.921233511
200.813048196
200.79268713
199.921233511
200.808975983
200.776398277
200.825264835
199.937522364
200.78047049
200.79268713
201.20398066
200.36917696
200.348815894
200.776398277
200.79268713
200.365104747
200.348815894
199.904944658
200.796759343

Block: 5
======================================
199.904944658
199.888655806
200.776398277
199.904944658
200.776398277
200.776398277
199.888655806
200.776398277
199.921233511
199.937522364
199.904944658
199.921233511
199.937522364
200.79268713
200.79268713
201.20398066
200.808975983
200.332527041
200.332527041
200.808975983
200.79268713
199.921233511
200.365104747
200.365104747
200.808975983
199.921233511
199.904944658
199.941594577
200.365104747
200.365104747
199.904944658
199.904944658
200.3813936
201.647851896
199.937522364
200.808975983
200.813048196
199.904944658
199.941594577
199.937522364
199.941594577
200.385465813
199.904944658
199.937522364
199.921233511
200.348815894
199.937522364
199.921233511
199.937522364
199.921233511

Block: 6
======================================
199.921233511
199.925305724
199.904944658
200.385465813
199.904944658
199.95788343
199.921233511
199.921233511
201.664140749
199.941594577
199.937522364
199.925305724
199.921233511
199.941594577
200.3813936
200.385465813
199.921233511
200.418043518
200.385465813
200.385465813
199.921233511
200.385465813
199.925305724
199.888655806
200.36917696
200.348815894
199.925305724
199.937522364
199.941594577
200.3813936
200.348815894
199.937522364
200.385465813
200.401754665
200.365104747
201.289497137
200.365104747
200.829337049
200.845625901
200.3813936
200.365104747
200.401754665
201.236558366
200.385465813
200.3813936
199.904944658
199.921233511
199.941594577
200.385465813
200.397682452

Block: 7
======================================
199.994533348
199.953811216
200.878203607
200.829337049
200.3813936
200.401754665
199.921233511
200.385465813
200.365104747
200.829337049
200.829337049
200.365104747
200.385465813
200.841553688
201.252847219
200.829337049
200.365104747
200.3813936
200.401754665
200.401754665
199.921233511
200.365104747
200.450621223
199.941594577
199.921233511
201.236558366
200.401754665
200.3813936
200.829337049
200.348815894
200.365104747
200.36917696
200.075977612
200.365104747
200.829337049
200.3813936
200.829337049
200.845625901
200.841553688
200.401754665
200.401754665
199.953811216
200.3813936
200.385465813
199.941594577
200.401754665
200.401754665
200.401754665
199.904944658
200.401754665

Block: 8
======================================
200.401754665
200.434332371
200.418043518
199.95788343
199.974172282
200.813048196
200.36917696
200.861914754
200.841553688
200.808975983
199.941594577
199.95788343
199.990461135
200.418043518
199.953811216
200.808975983
200.385465813
200.845625901
199.909016871
200.397682452
199.921233511
199.95788343
199.921233511
200.401754665
199.937522364
199.95788343
199.937522364
200.3813936
200.418043518
200.36917696
200.3813936
199.941594577
199.925305724
200.385465813
200.845625901
199.921233511
201.236558366
200.365104747
200.3813936
199.904944658
199.925305724
199.904944658
199.921233511
199.937522364
200.829337049
200.813048196
200.845625901
200.3813936
200.397682452
199.921233511

Block: 9
======================================
199.904944658
199.921233511
200.385465813
199.904944658
199.921233511
199.921233511
199.95788343
199.941594577
199.888655806
201.664140749
199.921233511
199.941594577
199.937522364
199.941594577
199.937522364
200.79268713
199.941594577
200.348815894
200.348815894
200.352888107
199.904944658
200.36917696
200.79268713
200.79268713
200.776398277
200.813048196
199.888655806
200.813048196
200.776398277
199.95788343
200.808975983
199.921233511
200.808975983
200.813048196
200.808975983
200.776398277
200.776398277
200.808975983
200.808975983
200.348815894
199.953811216
199.909016871
200.776398277
199.941594577
200.829337049
199.937522364
200.79268713
200.796759343
200.776398277
200.348815894

Block: 10
======================================
200.36917696
200.385465813
199.95788343
200.365104747
200.79268713
200.36917696
200.776398277
199.909016871
199.941594577
200.813048196
200.397682452
199.937522364
199.941594577
200.385465813
200.808975983
200.79268713
199.909016871
201.220269513
200.332527041
200.332527041
200.79268713
200.348815894
200.332527041
199.941594577
199.95788343
201.664140749
200.348815894
199.921233511
199.937522364
200.796759343
200.776398277
200.79268713
200.348815894
200.348815894
200.348815894
200.829337049
200.808975983
200.829337049
199.941594577
200.365104747
199.888655806
200.365104747
201.065525413
199.921233511
200.808975983
199.921233511
199.937522364
199.904944658
200.808975983
199.937522364
