
Block: 1
======================================
199.925305724
199.888655806
200.332527041
199.888655806
199.925305724
199.921233511
200.79268713
199.909016871
199.904944658
200.796759343
200.332527041
199.921233511
199.937522364
199.925305724
200.808975983
199.921233511
200.796759343
200.332527041
199.904944658
199.921233511
200.332527041
199.909016871
200.776398277
199.941594577
199.904944658
200.776398277
199.904944658
199.904944658
199.925305724
200.776398277
200.776398277
200.776398277
199.904944658
200.332527041
200.79268713
200.776398277
200.776398277
200.352888107
200.796759343
201.20398066
200.352888107
200.796759343
199.888655806
200.332527041
200.348815894
200.776398277
200.348815894
199.941594577
199.86829474
200.796759343
200.813048196
199.937522364
200.332527041
200.332527041
200.348815894
200.332527041
200.332527041
201.187691808
200.332527041
199.904944658
199.904944658
200.348815894
200.79268713
199.888655806
199.872366953
200.332527041
200.332527041
200.79268713
200.776398277
200.776398277
200.79268713
199.648395228
199.904944658
200.776398277
200.312165976

Average distance is : 200.324 cm
Average deviation is : 0.401 cm
Block: 2
======================================
200.776398277
200.332527041
200.332527041
200.332527041
200.312165976
200.348815894
200.348815894
200.365104747
201.199908447
200.332527041
200.813048196
200.796759343
200.332527041
200.947431231
200.316238189
199.86829474
200.332527041
200.312165976
200.813048196
200.776398277
200.332527041
200.776398277
200.332527041
200.332527041
200.316238189
200.36917696
199.888655806
200.776398277
200.78047049
200.79268713
200.316238189
200.316238189
199.888655806
200.312165976
200.316238189
200.312165976
199.872366953
200.756037211
200.78047049
200.316238189
200.796759343
199.904944658
199.888655806
200.796759343
200.299949336
200.776398277
200.316238189
200.332527041
200.332527041
200.316238189
200.316238189
200.348815894
200.316238189
199.872366953
199.904944658
200.348815894
199.872366953
200.348815894
200.316238189
200.332527041
200.299949336
200.756037211
201.20398066
200.348815894
200.760109425
200.348815894
200.332527041
199.941594577
200.348815894
200.316238189
200.332527041
200.332527041
200.348815894
200.36917696
201.20398066

Average distance is : 200.411 cm
Average deviation is : 0.316 cm
Block: 3
======================================
200.808975983
199.888655806
199.888655806
200.760109425
200.743820572
200.348815894
200.312165976
199.888655806
200.332527041
200.332527041
199.888655806
200.316238189
200.760109425
200.332527041
200.332527041
201.187691808
200.312165976
200.316238189
199.888655806
199.852005887
200.332527041
199.888655806
200.348815894
199.904944658
200.776398277
200.776398277
200.776398277
200.332527041
200.332527041
200.352888107
200.352888107
200.365104747
200.808975983
200.332527041
199.925305724
200.776398277
200.312165976
200.316238189
199.872366953
200.332527041
199.86829474
200.332527041
199.872366953
200.348815894
200.332527041
200.348815894
199.888655806
200.808975983
200.316238189
199.904944658
199.888655806
200.760109425
200.348815894
200.332527041
200.332527041
201.187691808
199.872366953
200.332527041
200.365104747
200.760109425
200.352888107
200.332527041
199.852005887
200.316238189
200.316238189
201.171402955
200.332527041
200.776398277
200.796759343
200.332527041
200.776398277
201.20398066
199.904944658
199.872366953
199.8560781

Average distance is : 200.348 cm
Average deviation is : 0.366 cm
Block: 4
======================================
200.743820572
200.332527041
200.776398277
200.79268713
200.776398277
199.904944658
200.776398277
200.332527041
200.813048196
200.78047049
199.888655806
200.79268713
200.365104747
200.776398277
200.79268713
200.79268713
200.332527041
200.79268713
200.776398277
200.808975983
200.348815894
199.904944658
200.348815894
200.385465813
200.332527041
199.925305724
200.79268713
199.904944658
200.796759343
199.904944658
200.385465813
199.904944658
199.941594577
200.385465813
199.921233511
199.937522364
200.365104747
201.647851896
199.921233511
199.937522364
200.365104747
200.813048196
199.921233511
199.941594577
200.36917696
200.845625901
200.397682452
199.925305724
199.904944658
199.925305724
199.941594577
200.776398277
199.937522364
199.937522364
199.921233511
200.401754665
200.808975983
199.921233511
199.888655806
199.925305724
199.937522364
199.941594577
200.332527041
200.829337049
200.3813936
200.825264835
200.796759343
200.352888107
200.808975983
199.904944658
201.664140749
199.921233511
199.941594577
199.921233511
200.796759343

Average distance is : 200.365 cm
Average deviation is : 0.433 cm
Block: 5
======================================
199.95788343
200.36917696
200.36917696
199.921233511
200.36917696
200.397682452
199.909016871
199.904944658
200.808975983
200.808975983
200.79268713
200.813048196
199.904944658
199.941594577
199.921233511
200.813048196
199.921233511
200.79268713
200.776398277
199.941594577
200.813048196
199.904944658
199.941594577
200.808975983
200.813048196
200.79268713
200.348815894
199.937522364
200.365104747
199.904944658
201.199908447
200.776398277
200.79268713
200.813048196
200.825264835
200.813048196
200.79268713
200.796759343
199.909016871
199.904944658
199.888655806
199.921233511
199.888655806
199.904944658
200.36917696
200.348815894
201.236558366
200.348815894
200.829337049
200.332527041
200.813048196
200.348815894
200.316238189
200.776398277
200.808975983
199.925305724
200.348815894
200.332527041
200.332527041
200.316238189
199.904944658
200.365104747
200.332527041
200.813048196
200.829337049
200.401754665
199.925305724
199.953811216
199.904944658
199.921233511
200.808975983
199.909016871
200.332527041
200.348815894
200.365104747

Average distance is : 200.376 cm
Average deviation is : 0.394 cm
Block: 6
======================================
199.925305724
199.953811216
200.79268713
201.220269513
199.888655806
200.348815894
200.813048196
200.813048196
200.808975983
200.808975983
200.3813936
200.776398277
200.813048196
199.937522364
201.668212962
199.904944658
199.921233511
200.365104747
199.921233511
199.937522364
199.925305724
200.365104747
199.95788343
200.776398277
200.808975983
199.941594577
200.813048196
200.825264835
200.808975983
200.79268713
199.941594577
200.365104747
200.825264835
200.348815894
200.348815894
199.888655806
200.348815894
200.348815894
200.813048196
200.332527041
199.925305724
200.808975983
200.348815894
200.332527041
200.36917696
200.36917696
199.904944658
199.937522364
199.904944658
200.808975983
200.332527041
200.36917696
200.79268713
200.36917696
200.813048196
200.348815894
199.921233511
200.813048196
200.385465813
199.937522364
200.348815894
200.352888107
199.904944658
199.904944658
200.79268713
200.348815894
200.79268713
200.316238189
200.348815894
199.888655806
200.348815894
199.909016871
201.647851896
200.348815894
200.36917696

Average distance is : 200.400 cm
Average deviation is : 0.416 cm
Block: 7
======================================
200.808975983
200.316238189
200.332527041
200.760109425
200.348815894
199.888655806
200.348815894
199.888655806
200.352888107
199.888655806
199.888655806
200.348815894
200.332527041
200.352888107
200.808975983
200.352888107
199.904944658
200.365104747
199.921233511
200.348815894
199.888655806
200.348815894
200.348815894
201.220269513
200.348815894
200.3813936
199.852005887
200.348815894
199.904944658
199.904944658
200.332527041
200.332527041
199.904944658
199.888655806
199.941594577
200.348815894
199.904944658
199.888655806
199.872366953
199.888655806
200.348815894
199.884583592
199.872366953
199.888655806
199.872366953
200.352888107
200.332527041
200.348815894
199.872366953
200.332527041
200.332527041
200.316238189
200.365104747
200.316238189
200.776398277
200.348815894
199.888655806
200.332527041
200.332527041
199.904944658
200.348815894
199.8560781
200.316238189
200.348815894
199.888655806
199.904944658
200.813048196
200.348815894
199.872366953
201.187691808
200.316238189
201.187691808
200.348815894
200.348815894
199.872366953

Average distance is : 200.232 cm
Average deviation is : 0.334 cm
Block: 8
======================================
200.316238189
199.888655806
200.316238189
200.79268713
199.872366953
200.332527041
199.904944658
199.872366953
200.348815894
200.365104747
200.352888107
200.365104747
199.904944658
199.904944658
200.352888107
200.348815894
199.921233511
200.332527041
200.332527041
200.312165976
201.220269513
200.348815894
200.776398277
200.776398277
201.187691808
199.921233511
200.332527041
200.79268713
200.332527041
201.20398066
199.888655806
201.187691808
200.365104747
200.348815894
200.348815894
201.199908447
199.925305724
200.808975983
200.796759343
199.86829474
200.78047049
200.348815894
200.776398277
200.760109425
200.295877123
199.941594577
200.79268713
200.348815894
199.937522364
201.240630579
201.199908447
200.348815894
200.332527041
200.79268713
199.888655806
199.888655806
200.796759343
200.796759343
200.348815894
200.776398277
200.808975983
200.348815894
200.348815894
200.312165976
200.332527041
201.20398066
200.348815894
200.79268713
199.904944658
200.352888107
200.760109425
200.796759343
200.332527041
200.796759343
200.796759343

Average distance is : 200.459 cm
Average deviation is : 0.403 cm
Block: 9
======================================
199.921233511
199.921233511
200.332527041
200.808975983
200.79268713
199.921233511
199.95788343
199.925305724
200.813048196
200.79268713
200.776398277
200.776398277
200.776398277
200.316238189
199.888655806
200.79268713
200.332527041
200.316238189
200.316238189
200.348815894
200.348815894
200.332527041
200.332527041
200.348815894
200.295877123
200.332527041
200.760109425
201.187691808
200.332527041
200.332527041
200.316238189
200.760109425
199.888655806
199.925305724
199.872366953
200.316238189
199.872366953
200.760109425
199.921233511
200.79268713
200.79268713
200.776398277
200.332527041
199.888655806
199.888655806
200.348815894
200.79268713
200.316238189
200.332527041
199.904944658
200.348815894
200.312165976
201.20398066
200.312165976
200.352888107
200.332527041
199.872366953
199.904944658
200.332527041
200.776398277
200.79268713
200.316238189
201.20398066
200.760109425
200.776398277
200.776398277
199.925305724
200.348815894
200.79268713
200.332527041
199.921233511
199.941594577
200.776398277
199.925305724
200.79268713

Average distance is : 200.391 cm
Average deviation is : 0.372 cm
Block: 10
======================================
200.79268713
199.921233511
200.365104747
200.79268713
200.79268713
200.348815894
200.332527041
200.79268713
199.925305724
200.808975983
200.332527041
200.776398277
199.888655806
200.348815894
199.872366953
199.872366953
200.332527041
200.348815894
200.348815894
200.79268713
200.332527041
201.220269513
200.332527041
200.332527041
201.20398066
200.79268713
199.8560781
200.79268713
200.348815894
200.36917696
200.332527041
199.888655806
200.348815894
199.888655806
199.872366953
200.352888107
199.904944658
200.348815894
200.332527041
199.904944658
200.348815894
200.332527041
200.332527041
200.36917696
200.36917696
200.79268713
200.348815894
200.316238189
200.79268713
200.348815894
200.79268713
199.904944658
200.808975983
200.796759343
200.332527041
199.937522364
200.776398277
200.808975983
200.79268713
200.796759343
199.921233511
200.776398277
199.925305724
200.348815894
199.904944658
200.79268713
199.921233511
199.941594577
199.925305724
200.808975983
199.904944658
199.921233511
199.921233511
200.776398277
199.904944658

Average distance is : 200.365 cm
Average deviation is : 0.374 cm