
Block: 1
======================================
200.36917696
200.352888107
200.776398277
200.813048196
199.95788343
199.904944658
199.904944658
200.385465813
199.921233511
199.925305724
199.904944658
199.904944658
199.925305724
199.941594577
199.921233511
200.3813936
199.925305724
200.385465813
199.904944658
199.904944658
199.925305724
199.888655806
200.365104747
199.921233511
199.941594577
199.937522364
199.937522364
200.36917696
199.921233511
200.385465813
199.921233511
200.385465813
199.941594577
199.937522364
199.921233511
200.365104747
200.385465813
200.348815894
200.348815894
200.365104747
200.829337049
199.937522364
200.365104747
199.941594577
200.365104747
200.385465813
200.385465813
200.401754665
200.3813936
200.3813936

Block: 2
======================================
200.418043518
199.921233511
199.941594577
200.397682452
199.95788343
200.36917696
200.365104747
200.401754665
199.941594577
200.36917696
200.3813936
200.385465813
200.825264835
200.829337049
200.3813936
200.36917696
200.385465813
200.825264835
200.825264835
199.970100069
200.845625901
199.95788343
200.813048196
199.95788343
200.829337049
200.401754665
199.937522364
200.3813936
199.937522364
200.3813936
200.365104747
200.845625901
201.252847219
200.845625901
200.365104747
200.845625901
200.845625901
200.825264835
200.813048196
199.95788343
200.36917696
199.937522364
199.937522364
199.95788343
199.95788343
200.841553688
200.841553688
199.953811216
200.829337049
200.845625901

Block: 3
======================================
199.925305724
199.904944658
199.95788343
199.953811216
199.95788343
199.953811216
199.95788343
199.974172282
199.95788343
199.974172282
200.825264835
199.95788343
200.401754665
199.95788343
200.845625901
200.841553688
200.845625901
199.974172282
200.845625901
199.95788343
200.845625901
199.970100069
200.829337049
199.974172282
200.845625901
199.974172282
200.841553688
199.95788343
200.825264835
200.825264835
200.825264835
200.841553688
200.808975983
199.974172282
199.514012194
200.845625901
199.974172282
199.904944658
200.861914754
200.3813936
200.845625901
200.3813936
200.845625901
201.269136071
199.974172282
200.3813936
200.365104747
200.829337049
200.36917696
200.401754665

Block: 4
======================================
200.385465813
199.994533348
200.861914754
199.974172282
200.861914754
200.3813936
199.937522364
199.95788343
199.974172282
199.941594577
199.970100069
199.974172282
199.974172282
200.434332371
199.974172282
199.95788343
200.418043518
199.953811216
199.95788343
199.95788343
199.937522364
201.680429602
199.941594577
199.95788343
199.95788343
200.845625901
199.974172282
200.434332371
199.974172282
200.418043518
200.825264835
199.990461135
200.825264835
199.953811216
200.829337049
200.841553688
201.269136071
201.256919432
200.845625901
200.3813936
200.365104747
200.401754665
200.861914754
200.845625901
199.974172282
199.974172282
200.845625901
199.974172282
199.974172282
200.397682452

Block: 5
======================================
200.418043518
200.861914754
200.841553688
200.397682452
199.974172282
200.401754665
200.845625901
200.3813936
199.974172282
199.95788343
199.974172282
200.841553688
199.95788343
200.418043518
199.974172282
200.845625901
199.974172282
199.974172282
199.95788343
199.937522364
199.953811216
200.401754665
200.36917696
200.808975983
199.974172282
200.829337049
199.974172282
199.953811216
199.974172282
200.825264835
199.974172282
200.434332371
200.845625901
199.974172282
199.974172282
199.974172282
200.845625901
199.974172282
199.974172282
199.974172282
199.974172282
199.95788343
200.365104747
200.401754665
199.974172282
199.974172282
199.953811216
199.95788343
199.95788343
200.845625901

Block: 6
======================================
200.808975983
199.974172282
200.845625901
200.845625901
200.878203607
200.878203607
199.990461135
199.937522364
200.401754665
200.418043518
199.953811216
199.974172282
201.700790668
199.974172282
199.95788343
199.974172282
201.269136071
199.95788343
199.95788343
200.397682452
200.401754665
200.385465813
200.418043518
200.401754665
199.95788343
199.953811216
200.434332371
200.401754665
199.941594577
199.974172282
200.413971305
200.401754665
200.401754665
199.95788343
199.921233511
200.418043518
199.937522364
199.974172282
200.401754665
199.95788343
199.937522364
199.941594577
199.974172282
199.95788343
201.696718454
199.953811216
199.95788343
201.273208284
200.401754665
199.953811216

Block: 7
======================================
199.990461135
200.829337049
199.95788343
200.845625901
200.861914754
199.953811216
199.95788343
201.680429602
199.95788343
199.95788343
200.413971305
199.974172282
199.95788343
199.941594577
200.401754665
200.434332371
199.941594577
199.941594577
199.95788343
199.953811216
199.925305724
199.937522364
200.401754665
199.974172282
199.974172282
199.95788343
199.937522364
199.937522364
199.95788343
200.829337049
199.953811216
200.825264835
199.974172282
199.95788343
200.845625901
199.974172282
200.845625901
199.974172282
199.953811216
199.95788343
199.941594577
199.953811216
200.401754665
199.95788343
199.95788343
199.941594577
200.418043518
199.95788343
200.3813936
200.401754665

Block: 8
======================================
199.95788343
199.937522364
199.974172282
200.3813936
199.974172282
200.690881801
199.941594577
199.974172282
200.418043518
199.941594577
199.953811216
199.95788343
199.937522364
199.95788343
200.401754665
199.974172282
199.95788343
200.401754665
200.829337049
199.974172282
199.95788343
200.825264835
199.974172282
199.95788343
199.937522364
199.974172282
200.825264835
199.974172282
200.401754665
200.845625901
200.829337049
199.941594577
199.970100069
199.941594577
199.941594577
200.829337049
199.953811216
200.825264835
200.845625901
200.397682452
199.937522364
199.925305724
200.813048196
200.829337049
200.3813936
200.829337049
200.36917696
199.937522364
200.401754665
200.385465813

Block: 9
======================================
200.845625901
200.385465813
199.95788343
200.813048196
199.904944658
201.269136071
200.36917696
199.95788343
199.953811216
200.3813936
199.937522364
199.974172282
199.937522364
200.829337049
200.3813936
200.365104747
199.937522364
199.953811216
199.941594577
199.953811216
200.845625901
199.95788343
200.418043518
199.953811216
200.829337049
199.941594577
200.845625901
199.941594577
199.95788343
200.3813936
200.845625901
200.808975983
199.974172282
200.813048196
199.925305724
199.937522364
200.808975983
200.808975983
200.829337049
199.95788343
200.3813936
200.829337049
200.825264835
200.385465813
200.829337049
200.36917696
199.937522364
200.3813936
200.813048196
199.941594577

Block: 10
======================================
199.921233511
199.904944658
199.904944658
199.937522364
200.385465813
200.352888107
200.385465813
199.921233511
199.95788343
199.925305724
200.829337049
200.829337049
199.937522364
199.941594577
200.79268713
200.829337049
199.941594577
199.953811216
200.845625901
199.974172282
200.401754665
200.825264835
200.845625901
199.925305724
200.401754665
200.365104747
199.921233511
200.829337049
201.236558366
200.36917696
200.365104747
200.829337049
200.813048196
199.974172282
199.921233511
199.95788343
199.953811216
200.813048196
200.825264835
200.385465813
200.808975983
199.95788343
200.829337049
200.808975983
200.813048196
200.365104747
200.825264835
200.813048196
200.365104747
200.385465813
