
Block: 1
======================================
399.297754645
399.297754645
399.33010118
399.33010118
399.738476181
399.346274447
399.33010118
399.33010118
399.297754645
399.33010118
399.334144497
399.33010118
399.350317764
399.313927913
399.313927913
399.313927913
399.334144497
399.31797123
398.889379644
399.362447715
399.366491032
399.346274447
399.350317764
399.313927913
399.33010118
399.313927913
399.362447715
399.346274447
399.313927913
399.366491032
399.366491032
398.905552912
399.334144497
399.382664299
399.382664299
399.346274447
399.313927913
399.382664299
399.346274447
398.893422961
399.313927913
399.350317764
398.921726179
399.33010118
399.362447715
399.366491032
399.366491032
399.313927913
399.366491032
399.33010118
399.362447715
398.958116031
399.350317764
398.481004643
398.958116031
398.448658109
398.464831376
398.941942763
398.905552912
398.941942763
398.909596229
398.925769496
399.313927913
398.925769496
399.297754645
398.925769496
399.33010118
399.33010118
399.313927913
399.346274447
399.382664299
399.362447715
399.334144497
399.313927913
399.366491032

Average distance is : 399.237 cm
Average deviation is : 0.231 cm
Block: 2
======================================
398.941942763
398.941942763
399.362447715
398.958116031
398.925769496
398.941942763
398.941942763
399.297754645
399.362447715
398.974289298
398.468874693
398.909596229
398.905552912
398.941942763
398.941942763
398.941942763
398.925769496
398.481004643
398.941942763
398.941942763
398.905552912
398.921726179
398.48504796
398.921726179
398.464831376
398.517394495
398.905552912
398.905552912
398.978332615
398.941942763
398.893422961
398.889379644
398.941942763
398.937899446
398.921726179
398.941942763
398.905552912
398.889379644
399.382664299
398.941942763
398.905552912
398.905552912
398.905552912
399.33010118
399.313927913
398.925769496
398.889379644
399.346274447
399.366491032
399.350317764
398.889379644
399.334144497
399.346274447
399.346274447
399.334144497
399.313927913
399.31797123
398.873206377
399.297754645
399.293711329
399.754649448
399.738476181
399.734432864
399.313927913
399.297754645
399.738476181
399.754649448
399.722302914
399.277538061
399.313927913
399.281581378
399.33010118
399.738476181
399.718259597
399.722302914

Average distance is : 399.116 cm
Average deviation is : 0.327 cm
Block: 3
======================================
399.738476181
399.738476181
399.722302914
399.718259597
399.669739795
400.142807865
399.673783112
400.146851182
400.179197717
399.738476181
399.722302914
400.163024449
400.163024449
399.758692765
399.702086329
400.163024449
399.722302914
399.758692765
399.754649448
400.163024449
400.163024449
400.179197717
400.179197717
399.738476181
399.754649448
400.179197717
399.738476181
399.754649448
399.685913062
399.706129646
399.758692765
399.702086329
399.702086329
399.706129646
399.738476181
399.722302914
399.722302914
399.722302914
399.738476181
399.702086329
399.706129646
399.722302914
399.754649448
399.770822716
399.738476181
399.758692765
399.718259597
399.786995983
399.7910393
399.7910393
399.718259597
399.754649448
399.807212567
399.770822716
399.313927913
399.7910393
399.807212567
399.754649448
399.754649448
399.7910393
399.80316925
400.163024449
399.774866033
399.7910393
399.774866033
399.7910393
399.774866033
399.786995983
399.807212567
399.313927913
399.786995983
399.80316925
399.33010118
399.770822716
399.313927913

Average distance is : 399.792 cm
Average deviation is : 0.193 cm
Block: 4
======================================
399.754649448
400.227717519
400.163024449
399.738476181
399.7910393
399.819342518
399.823385835
399.770822716
399.366491032
399.7910393
399.80316925
399.823385835
399.823385835
399.807212567
399.786995983
399.350317764
398.921726179
399.346274447
399.366491032
399.382664299
399.313927913
399.33010118
399.366491032
398.905552912
399.350317764
399.334144497
399.362447715
399.33010118
399.33010118
399.7910393
399.362447715
399.362447715
399.346274447
399.334144497
399.738476181
398.889379644
399.398837566
399.33010118
399.382664299
399.346274447
399.350317764
399.334144497
399.346274447
399.770822716
399.313927913
399.33010118
399.758692765
399.770822716
399.770822716
399.7910393
399.313927913
399.738476181
399.297754645
399.722302914
399.738476181
399.754649448
399.313927913
399.754649448
399.754649448
399.770822716
399.770822716
399.738476181
399.706129646
399.770822716
399.754649448
399.722302914
399.722302914
399.770822716
399.738476181
399.722302914
399.754649448
399.754649448
399.734432864
399.722302914
399.297754645

Average distance is : 399.573 cm
Average deviation is : 0.265 cm
Block: 5
======================================
399.689956379
399.722302914
399.669739795
399.281581378
399.734432864
399.722302914
399.261364794
399.706129646
399.685913062
399.653566527
399.718259597
399.702086329
399.685913062
399.702086329
399.277538061
399.685913062
399.722302914
399.706129646
399.706129646
399.718259597
399.685913062
399.685913062
399.689956379
399.669739795
399.689956379
399.669739795
399.265408111
399.669739795
399.706129646
399.706129646
399.229018259
399.653566527
399.212844992
399.673783112
399.653566527
399.689956379
399.212844992
399.673783112
399.229018259
399.196671724
399.229018259
399.212844992
399.653566527
399.633349943
399.653566527
399.212844992
399.702086329
399.669739795
399.706129646
399.702086329
399.669739795
399.281581378
399.249234843
399.212844992
399.233061576
399.261364794
399.245191526
399.702086329
399.261364794
399.212844992
398.751906872
399.245191526
399.245191526
399.297754645
399.229018259
399.245191526
398.768080139
399.277538061
399.277538061
399.245191526
399.229018259
398.804469991
399.249234843
399.229018259
399.249234843

Average distance is : 399.462 cm
Average deviation is : 0.261 cm
Block: 6
======================================
399.265408111
399.229018259
399.229018259
398.788296723
399.245191526
399.245191526
399.297754645
399.208801675
399.245191526
398.788296723
398.840859842
399.281581378
399.229018259
399.229018259
399.261364794
399.192628407
399.245191526
399.212844992
399.212844992
399.281581378
398.840859842
399.212844992
399.229018259
399.265408111
399.233061576
399.229018259
398.804469991
399.261364794
399.245191526
399.208801675
398.327358603
399.245191526
399.249234843
399.265408111
399.261364794
399.229018259
398.788296723
398.804469991
398.804469991
398.820643258
399.265408111
399.281581378
399.265408111
399.265408111
398.840859842
399.245191526
399.245191526
399.265408111
399.313927913
399.297754645
399.281581378
399.297754645
399.313927913
399.265408111
399.281581378
399.685913062
399.334144497
399.297754645
399.31797123
399.265408111
399.754649448
399.738476181
399.738476181
399.722302914
399.297754645
399.297754645
399.33010118
399.754649448
399.722302914
399.297754645
399.297754645
399.281581378
399.706129646
399.313927913
399.277538061

Average distance is : 399.240 cm
Average deviation is : 0.251 cm
Block: 7
======================================
399.33010118
399.297754645
399.366491032
399.346274447
399.31797123
399.281581378
399.297754645
399.313927913
399.33010118
399.313927913
399.297754645
399.277538061
399.281581378
399.313927913
399.281581378
399.313927913
399.297754645
398.808513308
399.313927913
399.261364794
399.297754645
399.245191526
399.281581378
399.265408111
399.265408111
398.772123456
399.281581378
399.261364794
398.788296723
399.297754645
399.297754645
399.245191526
399.265408111
399.249234843
399.281581378
399.702086329
399.669739795
399.297754645
399.265408111
399.245191526
399.669739795
399.249234843
399.685913062
399.669739795
399.653566527
399.689956379
399.245191526
399.249234843
399.229018259
399.653566527
399.702086329
399.673783112
399.669739795
399.669739795
399.689956379
399.706129646
399.706129646
399.653566527
399.722302914
399.706129646
399.669739795
399.229018259
399.265408111
399.261364794
399.297754645
399.685913062
399.277538061
399.229018259
399.689956379
399.245191526
399.722302914
399.229018259
399.293711329
399.669739795
399.229018259

Average distance is : 399.384 cm
Average deviation is : 0.224 cm
Block: 8
======================================
398.804469991
399.245191526
399.233061576
399.277538061
399.265408111
399.245191526
399.277538061
399.245191526
399.281581378
399.277538061
399.245191526
398.788296723
399.233061576
399.261364794
399.229018259
399.265408111
399.249234843
399.265408111
398.755950189
399.233061576
399.229018259
399.196671724
399.653566527
398.772123456
399.229018259
399.245191526
399.277538061
399.277538061
399.229018259
399.233061576
399.297754645
398.808513308
399.281581378
399.265408111
398.804469991
399.281581378
399.229018259
399.249234843
398.840859842
399.249234843
398.85703311
399.245191526
398.820643258
399.229018259
399.281581378
399.281581378
398.824686575
398.808513308
399.229018259
399.261364794
398.804469991
398.804469991
399.265408111
398.788296723
399.281581378
398.840859842
399.265408111
398.804469991
399.261364794
398.840859842
398.820643258
398.824686575
398.85703311
398.820643258
398.873206377
398.85703311
398.840859842
398.905552912
398.852989793
398.820643258
398.836816525
398.85703311
399.313927913
399.277538061
399.261364794

Average distance is : 399.095 cm
Average deviation is : 0.222 cm
Block: 9
======================================
399.722302914
399.722302914
399.346274447
399.265408111
399.281581378
399.313927913
399.281581378
399.261364794
400.397536826
399.754649448
399.722302914
399.313927913
399.297754645
399.281581378
399.297754645
399.297754645
399.754649448
399.277538061
399.718259597
399.722302914
399.261364794
399.261364794
399.758692765
399.277538061
399.261364794
399.738476181
399.706129646
399.261364794
399.738476181
399.758692765
399.738476181
399.685913062
399.738476181
399.722302914
399.738476181
399.706129646
399.754649448
399.281581378
399.265408111
399.718259597
399.718259597
399.754649448
399.754649448
399.738476181
399.718259597
399.738476181
399.722302914
399.261364794
399.754649448
399.770822716
399.738476181
399.738476181
399.702086329
399.738476181
399.738476181
399.758692765
399.738476181
399.702086329
399.706129646
399.722302914
399.685913062
399.722302914
399.297754645
399.738476181
399.734432864
399.738476181
399.738476181
399.722302914
399.722302914
399.261364794
399.754649448
399.738476181
399.265408111
399.738476181
399.702086329

Average distance is : 399.602 cm
Average deviation is : 0.229 cm
Block: 10
======================================
399.702086329
399.685913062
399.738476181
399.689956379
399.722302914
399.685913062
399.706129646
399.281581378
399.297754645
399.297754645
399.313927913
399.702086329
399.738476181
399.653566527
399.685913062
399.738476181
399.669739795
399.722302914
399.669739795
399.718259597
399.738476181
399.702086329
399.249234843
399.734432864
399.689956379
399.245191526
399.277538061
399.245191526
399.245191526
399.702086329
399.689956379
399.722302914
399.689956379
399.722302914
399.669739795
399.702086329
400.126634598
399.722302914
399.685913062
399.722302914
400.158981133
400.146851182
399.754649448
399.722302914
399.685913062
399.702086329
399.702086329
399.702086329
399.722302914
399.261364794
399.754649448
399.738476181
399.281581378
399.722302914
399.293711329
399.758692765
399.738476181
399.754649448
399.702086329
399.702086329
399.734432864
399.738476181
399.722302914
399.706129646
399.754649448
399.706129646
399.297754645
399.722302914
399.718259597
399.738476181
399.265408111
399.706129646
399.706129646
399.685913062
399.297754645

Average distance is : 399.643 cm
Average deviation is : 0.204 cm