
Block: 1
======================================
399.706129646
399.722302914
399.754649448
399.702086329
399.738476181

Block: 2
======================================
399.754649448
399.774866033
399.261364794
399.718259597
399.722302914

Block: 3
======================================
399.718259597
399.722302914
399.706129646
399.718259597
399.770822716

Block: 4
======================================
399.313927913
399.722302914
399.265408111
399.722302914
399.673783112

Block: 5
======================================
399.281581378
399.313927913
399.281581378
399.33010118
399.31797123

Block: 6
======================================
399.346274447
399.382664299
399.738476181
399.738476181
399.754649448

Block: 7
======================================
399.378620982
399.398837566
399.33010118
398.905552912
399.398837566

Block: 8
======================================
399.362447715
399.7910393
399.382664299
399.366491032
399.382664299

Block: 9
======================================
399.334144497
399.366491032
399.33010118
399.738476181
399.80316925

Block: 10
======================================
399.382664299
399.398837566
399.754649448
399.334144497
399.770822716
