
Block: 1
======================================
299.223846912
178.444891071
299.736035538
177.676608133
299.272626781
179.396098518
298.012480164
178.989599609
298.829542971
177.623763275

Average distance is : 238.721 cm
Average deviation is : 63.559 cm
Block: 2
======================================
299.703515625
175.749803305
299.650670767
178.237576628
296.646643829
178.526190853
297.943375349
179.892027187
298.353939247
299.614085865

Average distance is : 250.432 cm
Average deviation is : 62.267 cm
Block: 3
======================================
299.666930723
180.611530256
298.882387829
181.103393936
296.276729822
179.261953878
297.31330204
299.256366825
177.794492817
298.577513647

Average distance is : 250.874 cm
Average deviation is : 61.277 cm
Block: 4
======================================
299.650670767
178.900169849
299.68319068
180.660310125
298.423044062
180.627790213
298.882387829
299.223846912
180.778194809
295.199507713

Average distance is : 251.203 cm
Average deviation is : 61.089 cm
Block: 5
======================================
299.223846912
175.595333719
299.240106869
177.741647959
298.866127872
177.20100441
298.797023058
178.119691944
298.797023058
180.249746227

Average distance is : 238.383 cm
Average deviation is : 63.890 cm
Block: 6
======================================
299.276691771
179.176589108
300.057169676
178.969274664
297.975895262
180.644050169
295.353977299
180.798519754
296.614123917
178.099366999

Average distance is : 238.697 cm
Average deviation is : 62.377 cm
Block: 7
======================================
299.646605778
177.965222359
299.703515625
179.363578606
298.423044062
182.298500729
297.211677313
181.034289122
298.455563974
179.363578606

Average distance is : 239.347 cm
Average deviation is : 62.565 cm
Block: 8
======================================
299.614085865
177.538398504
300.110014534
176.03841753
297.979960251
179.668452787
297.260457182
180.558685398
297.67102108
180.965184307

Average distance is : 238.740 cm
Average deviation is : 63.042 cm
Block: 9
======================================
299.68319068
179.635932875
297.297042084
183.066783667
294.756423903
181.631842518
299.191327
178.221316671
297.931180382
177.69286809

Average distance is : 238.911 cm
Average deviation is : 62.077 cm
Block: 10
======================================
299.687255669
178.40830617
299.292951727
179.79040246
299.244171858
180.200966358
298.012480164
180.676570082
297.077532673
182.981418896

Average distance is : 239.537 cm
Average deviation is : 62.338 cm