
Block: 1
======================================
299.666930723
299.666930723
176.859545326
299.292951727
178.546515799
299.752295494
178.440826082
298.045000076
179.774142504
298.866127872
180.676570082
296.736073589
184.107420874
293.736111641
183.67653203
294.14261055
184.135875797
292.760514259
185.501712132
291.890606594
185.944795942
294.020660877
184.61554451
292.776774216
185.469192219
292.35401535
185.91227603
293.646681881
185.896016073
291.520692587
185.448867273
292.813359118
185.432607317
291.923126507
187.619571447
291.923126507
185.448867273
293.667006826
184.156200743
292.386535263
184.070835972
293.309287786
186.217150211
292.061336136
187.087057877
291.191428471
188.774028349
288.142686653
190.103279781
287.715862799

Average distance is : 241.358 cm
Average deviation is : 55.446 cm
Block: 2
======================================
299.687255669
175.766063261
299.175067043
179.156264162
297.89459548
179.278213835
299.288886738
179.396098518
298.406784105
181.513957834
298.849867916
178.099366999
299.256366825
180.932664394
296.46371932
184.038316059
294.484069633
185.416347361
294.093830681
183.713116932
293.236117983
186.306579971
299.207586956
179.892027187
298.370199203
181.599322605
298.337679291
299.630345821
177.761972904
299.223846912
178.18473177
298.337679291
179.892027187
297.910855436
181.205018663
297.057207727
179.43268342
298.829542971
180.286331129
296.683228731
184.152135754
294.536914492
183.692791986
295.390562201
182.042406416
295.353977299
182.005821514
295.370237255
182.46923027
298.797023058

Average distance is : 241.602 cm
Average deviation is : 58.769 cm
Block: 3
======================================
299.650670767
176.668490839
299.581565952
176.61971097
298.780763102
177.196939421
299.272626781
178.973339653
298.882387829
180.692830038
296.699488688
182.82694931
294.553174448
183.302553034
294.553174448
182.432645369
297.963700294
178.989599609
298.38645916
179.448943377
298.797023058
178.172536802
298.797023058
179.875767231
298.406784105
180.745674896
297.532811451
179.892027187
298.817348003
179.892027187
297.553136396
180.725349951
298.406784105
181.546477747
298.016545153
180.644050169
299.292951727
179.412358475
298.727918243
182.944833994
294.878373575
182.501750183
297.89459548
182.091186285
295.79706111
181.615582561
297.077532673
180.335110998
297.931180382
179.928612089

Average distance is : 239.075 cm
Average deviation is : 59.396 cm
Block: 4
======================================
299.703515625
179.213174009
298.25231452
177.896117544
298.353939247
299.191327
177.729452991
299.63441081
178.221316671
299.207586956
178.615620613
298.845802927
181.562737703
296.292989779
182.400125456
296.752333546
182.416385412
297.963700294
179.875767231
297.975895262
179.416423464
298.882387829
180.660310125
297.638501167
181.099328947
298.032805109
178.509930897
298.731983232
179.912352133
298.370199203
178.579035711
298.406784105
179.875767231
298.423044062
179.005859566
298.439304018
180.623725224
297.691346025
181.001769209
296.37428956
181.461112976
296.394614506
181.461112976
299.703515625
179.396098518
298.83360796
299.650670767
179.448943377
298.780763102
181.615582561

Average distance is : 241.531 cm
Average deviation is : 59.729 cm
Block: 5
======================================
299.63441081
177.879857588
298.679138374
180.009911871
294.191390419
184.359450197
292.589784718
186.969173193
292.146700907
187.395997047
290.000386667
187.822820902
290.443470478
189.119552422
289.593887758
189.131747389
288.260571337
189.526051331
289.18332386
188.229319811
290.955659103
186.473244524
292.268650579
185.587076902
291.809306812
188.180539942
289.658927584
188.180539942
259.976377249
217.26553688
258.984519911
218.83055768
259.037364769
220.505333185
258.171522093
219.672010422
259.427603722
220.147614145
258.134937191
220.131354189
257.740633249
220.980936909
256.838205671
221.86710453
255.508954239
221.86710453
255.508954239
224.050003672
253.785398865
223.997158813

Average distance is : 239.214 cm
Average deviation is : 41.914 cm
Block: 6
======================================
299.666930723
175.221354723
299.203521967
176.412396526
299.223846912
178.818870068
299.699450636
178.087172031
298.866127872
178.920494795
298.902712774
177.623763275
298.898647785
178.087172031
298.898647785
178.103431988
298.032805109
178.509930897
299.32547164
177.69286809
299.256366825
178.172536802
298.83360796
177.709128046
298.845802927
178.152211857
298.797023058
179.892027187
297.910855436
180.798519754
296.187300062
181.205018663
295.321457386
181.205018663
295.764541197
181.631842518
294.024725866
186.371619797
290.849969387
186.574869251
290.410950565
187.034213018
290.817449474
186.168370342
291.671097183
187.022018051
292.097921038
185.737481499
291.68735714
186.574869251

Average distance is : 238.698 cm
Average deviation is : 58.526 cm
Block: 7
======================================
299.699450636
177.115639639
300.073429632
176.12784729
298.866127872
175.579073763
299.240106869
176.892065239
299.256366825
179.042444468
298.439304018
178.1359519
298.83360796
177.745712948
299.223846912
179.481463289
298.374264193
179.465203333
297.996220207
179.448943377
298.406784105
179.448943377
297.943375349
178.631880569
298.849867916
177.741647959
298.390524149
179.875767231
297.979960251
180.741609907
297.53687644
180.351370955
298.38645916
179.448943377
297.975895262
180.778194809
295.760476208
180.847299623
296.870218229
181.412333107
296.475914288
180.526165485
297.349886942
180.522100496
296.939323044
181.798507071
296.459654331
181.375748205
296.528759146
181.786312103

Average distance is : 238.724 cm
Average deviation is : 59.971 cm
Block: 8
======================================
299.223846912
177.095314693
299.614085865
175.270134592
299.223846912
176.652230883
299.666930723
178.168471813
298.760438156
179.875767231
298.406784105
179.859507275
298.439304018
179.737557602
299.736035538
179.43268342
298.423044062
181.103393936
296.341769648
182.347280598
296.341769648
182.229395914
295.626331568
182.213135958
295.626331568
183.932626343
293.480017328
299.63441081
179.497723246
298.337679291
180.335110998
298.406784105
179.005859566
298.829542971
299.207586956
179.485528278
298.764503145
179.481463289
298.353939247
179.9245471
298.801088047
135.002352667
40.2555869579
133.018637991
42.8978298664
130.396720028
45.048209095
128.282925701
47.1416784763
126.205716276

Average distance is : 216.063 cm
Average deviation is : 81.898 cm
Block: 9
======================================
299.63441081
299.207586956
178.648140526
297.943375349
299.666930723
178.835130024
298.47588892
180.63998518
296.752333546
183.639947128
295.475926971
184.066770983
294.601954317
184.957003593
294.175130463
186.200890255
298.813283014
180.28226614
298.83360796
181.562737703
296.683228731
181.123718882
297.589721298
181.083068991
297.573461342
180.656245136
297.110052586
181.172498751
298.817348003
180.266006184
297.963700294
180.713154984
296.256404877
181.57899766
296.666968775
183.729376888
295.353977299
182.058666372
296.837698317
299.650670767
176.448981428
299.223846912
179.022119522
298.390524149
179.448943377
298.849867916
180.709089994
298.849867916
299.666930723
177.709128046

Average distance is : 244.072 cm
Average deviation is : 58.773 cm
Block: 10
======================================
299.650670767
177.11157465
300.089689589
299.687255669
177.351409006
300.093754578
178.530255842
298.423044062
180.28226614
298.370199203
180.302591085
298.423044062
180.266006184
298.849867916
181.135913849
297.569396353
179.416423464
298.764503145
181.188758707
298.353939247
181.595257616
297.504356527
181.188758707
296.634448862
182.038341427
296.634448862
183.335072947
299.614085865
180.351370955
297.024687815
182.518010139
295.284872484
182.944833994
295.727956295
181.680622387
299.175067043
179.497723246
299.618150854
299.256366825
180.709089994
298.83360796
299.68319068
178.546515799
298.83360796
299.191327
178.611555624
298.797023058
181.139978838
297.553136396
179.826987362

Average distance is : 244.144 cm
Average deviation is : 59.433 cm