
Block: 1
======================================
100.796922445
100.834092498
100.421091914
100.834092498
101.631183624
100.834092498
100.834092498
100.834092498
100.834092498
100.834092498
100.796922445
100.834092498
100.400441885
100.383921862
100.817572474
100.801052451
101.230573058
100.57390213
100.400441885
100.416961908
101.230573058
100.813442469
100.400441885
100.834092498
101.680743694
100.834092498
101.697263718
101.267743111
100.813442469
100.416961908
100.801052451
101.234703064
100.780402422
100.817572474
100.780402422
100.817572474
100.834092498
100.834092498
100.834092498
101.668353677
100.400441885
101.251223087
100.801052451
100.834092498
100.850612521
100.801052451
100.817572474
101.267743111
101.6848737
101.717913747
100.437611938
100.801052451
100.834092498
100.801052451
100.421091914
100.817572474
100.416961908
100.383921862
100.813442469
100.784532428
100.834092498
101.284263134
101.197533011
101.701393723
100.817572474
101.251223087
100.817572474
101.6848737
100.437611938
100.813442469
100.817572474
101.701393723
100.421091914
100.850612521
100.801052451

Average distance is : 100.895 cm
Average deviation is : 0.375 cm
Block: 2
======================================
100.796922445
100.400441885
101.251223087
100.813442469
100.437611938
100.383921862
100.437611938
101.284263134
100.834092498
100.416961908
100.854742527
100.416961908
100.416961908
100.421091914
100.813442469
100.763882399
100.801052451
100.817572474
100.801052451
100.780402422
100.400441885
100.817572474
100.796922445
100.796922445
100.421091914
100.796922445
101.234703064
101.664223671
101.680743694
100.87126255
101.247093081
100.834092498
100.834092498
100.817572474
100.801052451
100.813442469
100.796922445
100.796922445
100.834092498
100.400441885
100.454131961
100.796922445
100.817572474
100.433481932
100.400441885
101.664223671
100.817572474
100.400441885
100.796922445
100.383921862
100.400441885
100.796922445
100.817572474
100.817572474
101.668353677
100.400441885
100.813442469
101.251223087
100.433481932
101.697263718
101.680743694
100.817572474
100.817572474
100.817572474
100.801052451
101.247093081
100.416961908
100.400441885
100.400441885
100.801052451
101.6848737
100.801052451
101.251223087
101.230573058
100.801052451

Average distance is : 100.822 cm
Average deviation is : 0.373 cm
Block: 3
======================================
100.421091914
100.817572474
100.400441885
100.763882399
101.631183624
100.796922445
101.234703064
100.780402422
101.247093081
100.834092498
100.784532428
100.817572474
100.383921862
100.801052451
100.813442469
101.680743694
100.834092498
101.214053035
100.834092498
101.664223671
100.801052451
100.780402422
100.400441885
100.817572474
101.214053035
100.834092498
100.801052451
100.850612521
100.796922445
100.801052451
100.801052451
100.813442469
100.416961908
100.801052451
100.784532428
100.850612521
100.834092498
100.834092498
101.218183041
100.416961908
100.817572474
101.267743111
100.383921862
100.801052451
100.404571891
100.854742527
100.801052451
100.437611938
101.701393723
101.664223671
100.834092498
100.817572474
100.834092498
100.367401838
101.680743694
101.664223671
100.813442469
101.267743111
100.817572474
100.850612521
100.834092498
101.28839314
100.817572474
100.367401838
100.400441885
100.801052451
100.416961908
100.834092498
100.796922445
100.817572474
100.796922445
100.838222504
100.817572474
100.817572474
100.854742527

Average distance is : 100.869 cm
Average deviation is : 0.341 cm
Block: 4
======================================
100.763882399
100.747362375
100.813442469
100.433481932
100.817572474
101.230573058
100.813442469
101.668353677
100.817572474
100.813442469
100.784532428
100.801052451
100.416961908
101.284263134
101.668353677
100.404571891
101.680743694
101.668353677
100.784532428
101.061242819
100.400441885
101.230573058
100.817572474
100.850612521
100.813442469
101.664223671
100.850612521
100.796922445
100.834092498
100.404571891
100.817572474
100.801052451
101.664223671
100.801052451
101.6848737
100.801052451
100.817572474
100.400441885
100.834092498
100.801052451
100.817572474
100.817572474
100.801052451
100.400441885
101.6848737
101.267743111
101.263613105
100.834092498
100.850612521
100.437611938
101.197533011
101.267743111
101.680743694
100.421091914
101.680743694
101.214053035
100.817572474
101.284263134
100.817572474
100.780402422
100.404571891
100.796922445
100.383921862
100.801052451
100.784532428
101.701393723
100.834092498
100.834092498
101.234703064
100.801052451
100.834092498
100.796922445
101.197533011
100.817572474
100.416961908

Average distance is : 100.940 cm
Average deviation is : 0.387 cm
Block: 5
======================================
100.850612521
100.801052451
100.768012404
100.801052451
100.780402422
101.267743111
100.404571891
100.400441885
100.817572474
100.801052451
100.817572474
101.234703064
101.664223671
101.664223671
100.834092498
100.813442469
101.680743694
100.817572474
100.850612521
101.201663017
100.400441885
101.664223671
101.267743111
100.817572474
100.834092498
100.400441885
100.817572474
100.780402422
100.383921862
100.813442469
100.854742527
100.421091914
100.801052451
100.817572474
101.668353677
100.817572474
100.801052451
101.214053035
100.784532428
100.437611938
100.404571891
101.234703064
100.813442469
100.850612521
100.817572474
100.433481932
100.817572474
101.267743111
100.400441885
100.834092498
100.400441885
100.796922445
100.400441885
100.801052451
101.680743694
101.230573058
100.834092498
100.817572474
100.817572474
100.400441885
100.400441885
100.834092498
100.421091914
100.817572474
100.400441885
100.817572474
100.801052451
100.763882399
100.813442469
100.780402422
100.784532428
101.701393723
101.201663017
100.834092498
100.400441885

Average distance is : 100.852 cm
Average deviation is : 0.359 cm
Block: 6
======================================
101.6848737
100.780402422
101.680743694
100.817572474
100.834092498
100.421091914
101.214053035
101.247093081
100.796922445
100.801052451
100.834092498
100.817572474
101.263613105
100.850612521
100.404571891
100.834092498
100.834092498
100.834092498
100.404571891
100.796922445
100.784532428
100.87126255
100.813442469
100.817572474
101.197533011
100.796922445
100.400441885
100.796922445
101.664223671
100.796922445
100.784532428
100.796922445
100.784532428
100.817572474
100.801052451
100.834092498
100.400441885
101.267743111
101.284263134
100.801052451
100.817572474
100.416961908
100.416961908
101.664223671
100.404571891
100.437611938
100.813442469
100.433481932
101.647703648
100.780402422
100.850612521
101.701393723
100.834092498
100.850612521
101.230573058
100.780402422
101.197533011
101.701393723
100.796922445
101.267743111
100.796922445
100.400441885
101.680743694
100.421091914
101.247093081
100.416961908
101.717913747
101.664223671
100.817572474
101.680743694
100.784532428
100.421091914
100.801052451
101.267743111
100.400441885

Average distance is : 100.923 cm
Average deviation is : 0.400 cm
Block: 7
======================================
100.801052451
100.817572474
100.834092498
100.801052451
101.717913747
100.383921862
100.817572474
100.437611938
100.817572474
101.6848737
100.817572474
101.680743694
100.416961908
101.647703648
100.784532428
100.850612521
100.801052451
100.801052451
100.813442469
100.796922445
100.834092498
100.400441885
100.416961908
100.817572474
100.784532428
100.367401838
100.834092498
101.251223087
100.404571891
100.437611938
101.717913747
100.838222504
100.801052451
100.834092498
101.6848737
100.854742527
100.834092498
101.664223671
100.433481932
101.247093081
101.647703648
101.6848737
100.817572474
100.784532428
100.796922445
100.784532428
100.780402422
100.867132545
100.817572474
100.817572474
100.400441885
100.400441885
100.817572474
100.400441885
101.697263718
101.701393723
100.780402422
100.433481932
100.817572474
100.801052451
100.850612521
100.834092498
100.421091914
100.817572474
100.834092498
100.801052451
101.251223087
100.801052451
100.780402422
100.834092498
100.801052451
100.796922445
100.801052451
100.834092498
100.813442469

Average distance is : 100.884 cm
Average deviation is : 0.383 cm
Block: 8
======================================
100.817572474
101.267743111
100.780402422
100.421091914
100.784532428
100.367401838
100.433481932
101.197533011
101.647703648
100.400441885
100.383921862
100.421091914
101.247093081
100.416961908
100.780402422
100.383921862
100.801052451
100.416961908
100.784532428
101.284263134
100.850612521
100.817572474
101.251223087
100.796922445
100.433481932
100.834092498
100.834092498
100.400441885
100.437611938
100.817572474
100.850612521
101.267743111
100.834092498
99.9667912722
100.850612521
100.850612521
100.796922445
100.817572474
100.834092498
101.197533011
100.817572474
100.817572474
100.817572474
100.834092498
101.160362959
100.421091914
101.267743111
100.400441885
100.416961908
100.400441885
101.263613105
100.404571891
100.437611938
100.87126255
100.400441885
101.664223671
100.780402422
101.230573058
101.664223671
101.680743694
101.717913747
101.701393723
100.784532428
100.817572474
100.834092498
100.817572474
100.796922445
101.267743111
100.801052451
101.251223087
100.850612521
100.437611938
100.834092498
101.230573058
100.817572474

Average distance is : 100.847 cm
Average deviation is : 0.385 cm
Block: 9
======================================
101.701393723
100.87126255
100.367401838
100.817572474
100.834092498
100.850612521
100.817572474
100.817572474
100.813442469
101.263613105
100.801052451
101.234703064
100.416961908
100.433481932
100.817572474
100.768012404
101.214053035
100.421091914
100.850612521
100.801052451
100.416961908
100.416961908
100.416961908
100.796922445
100.834092498
100.817572474
101.214053035
100.796922445
100.801052451
101.284263134
100.817572474
101.267743111
101.664223671
101.267743111
101.214053035
100.834092498
100.780402422
101.6848737
101.701393723
101.664223671
101.267743111
100.834092498
101.680743694
100.404571891
100.796922445
100.834092498
101.267743111
100.421091914
101.701393723
100.817572474
101.701393723
100.817572474
100.817572474
100.796922445
101.701393723
100.400441885
100.796922445
101.251223087
101.267743111
101.251223087
100.433481932
100.834092498
101.668353677
100.801052451
100.834092498
100.817572474
100.813442469
100.817572474
100.404571891
101.267743111
101.214053035
100.834092498
100.817572474
100.784532428
100.383921862

Average distance is : 100.949 cm
Average deviation is : 0.390 cm
Block: 10
======================================
100.796922445
101.664223671
101.647703648
101.680743694
100.416961908
100.400441885
100.834092498
101.230573058
100.834092498
101.251223087
100.817572474
100.834092498
100.813442469
101.28839314
100.817572474
100.437611938
100.817572474
101.251223087
100.801052451
101.251223087
100.834092498
100.801052451
100.817572474
100.796922445
100.801052451
101.214053035
100.780402422
100.801052451
100.801052451
100.850612521
100.850612521
100.763882399
100.780402422
100.817572474
100.854742527
100.834092498
100.801052451
100.801052451
100.437611938
100.817572474
101.668353677
100.404571891
100.400441885
100.383921862
100.421091914
100.867132545
100.817572474
100.834092498
100.416961908
100.817572474
100.780402422
100.801052451
100.780402422
100.433481932
100.796922445
100.850612521
100.834092498
101.284263134
100.334361792
101.701393723
100.780402422
100.400441885
101.251223087
100.400441885
100.817572474
100.850612521
100.404571891
100.437611938
101.6848737
100.854742527
100.780402422
100.817572474
100.400441885
100.400441885
100.817572474

Average distance is : 100.838 cm
Average deviation is : 0.345 cm
Average distance for 10x75 is : 100.882 cm
Average deviation for 10x75 is : 0.374 cm
 Percentage of values that failed: 0.000