
Block: 1
======================================
401.335586333
401.331543016
401.739918017
401.315369749
402.180639553
403.025692773
401.739918017
401.756091285
402.19681282
401.295153165
403.062082624
401.707571483
402.148293018
403.045909357
402.164466286
403.009519506
402.605187821
402.589014554
401.703528166
402.148293018
402.180639553
402.164466286
402.584971237
402.160422969
402.144249701
401.735874701
402.160422969
401.299196482
401.283023214
401.703528166
401.739918017
401.739918017
400.842301679
401.719701433
402.589014554
402.180639553
401.707571483
402.164466286
401.278979897
401.266849947
401.278979897
401.299196482
401.703528166
401.283023214
402.164466286
401.703528166
402.584971237
402.144249701
401.703528166
401.707571483

Block: 2
======================================
401.299196482
403.401721239
400.413710093
401.266849947
400.826128411
400.41775341
400.401580143
400.809955144
399.95681529
401.246633363
401.26280663
401.266849947
400.41775341
400.826128411
400.381363559
400.838258362
2799.72601025
2794.97915628
2802.18839021
2784.85469091
2787.04212532
2821.81060684
401.687354898
401.687354898
2795.98189886
400.381363559
400.822085094
400.413710093
403.450241041
400.413710093
405.148434114
404.315510845
403.450241041
405.180780649
404.740059114
404.776448965
404.760275698
403.486630893
403.486630893
402.621361089
403.486630893
402.180639553
404.335727429
401.739918017
401.735874701
401.739918017
402.180639553
402.160422969
402.653707623
402.180639553

Block: 3
======================================
401.315369749
402.164466286
401.719701433
401.756091285
401.299196482
400.890821481
403.486630893
401.72374475
400.858474946
401.315369749
401.315369749
403.911179161
401.295153165
401.772264552
401.299196482
401.739918017
403.911179161
402.19681282
400.858474946
401.739918017
400.842301679
403.470457625
401.299196482
401.756091285
401.756091285
401.756091285
400.858474946
401.335586333
401.347716284
400.890821481
400.854431629
400.911038065
400.874648213
401.315369749
403.486630893
401.331543016
402.637534356
401.335586333
400.858474946
402.180639553
402.229159355
401.760134602
403.009519506
402.19681282
401.756091285
401.72374475
403.450241041
400.858474946
402.19681282
402.19681282

Block: 4
======================================
401.739918017
402.605187821
401.707571483
401.299196482
401.278979897
401.299196482
402.164466286
402.160422969
402.584971237
401.299196482
401.315369749
401.315369749
402.164466286
402.148293018
402.605187821
404.723885846
402.621361089
402.132119751
402.148293018
401.278979897
401.26280663
402.148293018
401.691398215
403.454284358
402.601144505
402.148293018
405.148434114
401.72374475
402.605187821
403.013562822
402.56879797
401.26280663
401.278979897
401.687354898
401.707571483
402.164466286
400.854431629
403.434067774
401.703528166
401.703528166
400.805911827
401.703528166
401.26280663
402.56879797
401.687354898
401.246633363
2794.16644959
404.299337578
403.454284358
403.025692773

Block: 5
======================================
402.164466286
402.621361089
402.621361089
401.739918017
401.776307869
402.200856137
401.739918017
402.19681282
403.923309112
402.65775094
401.739918017
401.772264552
402.180639553
402.233202672
402.65775094
401.331543016
401.331543016
402.229159355
401.788437819
402.229159355
402.249375939
402.249375939
402.673924208
401.792481136
401.788437819
402.245332623
401.384106135
401.367932868
401.788437819
402.245332623
401.808654404
402.229159355
402.233202672
402.265549207
402.265549207
402.265549207
401.384106135
401.400279403
401.400279403
401.824827671
401.363889551
401.824827671
402.690097475
401.384106135
400.975731134
401.857174206
400.991904402
401.400279403
401.384106135
402.249375939

Block: 6
======================================
401.384106135
401.400279403
401.824827671
400.959557867
400.9433846
401.792481136
401.804611087
401.792481136
401.367932868
401.363889551
401.380062819
402.265549207
401.347716284
400.9433846
401.367932868
401.841000938
401.347716284
402.669880891
400.923168015
400.906994748
402.249375939
401.351759601
400.927211332
400.927211332
401.776307869
401.351759601
401.776307869
400.890821481
401.792481136
400.906994748
401.331543016
401.331543016
401.315369749
401.315369749
401.315369749
401.315369749
401.347716284
400.874648213
400.874648213
400.854431629
403.482587576
401.315369749
401.315369749
401.756091285
402.180639553
402.200856137
401.72374475
401.315369749
402.164466286
402.180639553

Block: 7
======================================
402.128076434
401.278979897
401.739918017
402.180639553
402.164466286
401.739918017
402.605187821
403.062082624
400.874648213
401.331543016
402.180639553
400.858474946
400.874648213
401.315369749
401.315369749
401.299196482
401.299196482
400.890821481
403.911179161
401.315369749
401.299196482
401.756091285
401.331543016
400.874648213
403.470457625
400.858474946
401.315369749
401.315369749
400.858474946
401.739918017
400.874648213
400.858474946
401.735874701
402.180639553
401.315369749
402.653707623
400.890821481
403.434067774
400.470316529
401.331543016
400.450099945
401.315369749
401.335586333
401.335586333
401.331543016
400.874648213
401.315369749
401.331543016
400.854431629
405.536592531

Block: 8
======================================
400.911038065
402.245332623
401.739918017
401.756091285
401.772264552
401.792481136
401.772264552
400.906994748
400.890821481
400.874648213
400.894864798
401.788437819
401.315369749
401.772264552
401.788437819
400.874648213
401.756091285
400.923168015
402.229159355
401.792481136
401.331543016
402.229159355
401.772264552
400.911038065
400.874648213
401.772264552
401.772264552
400.911038065
402.212986088
401.331543016
401.347716284
401.772264552
401.315369749
401.772264552
403.50280416
401.772264552
401.776307869
401.335586333
401.347716284
401.808654404
401.331543016
401.347716284
403.062082624
401.756091285
400.894864798
401.315369749
401.331543016
400.842301679
401.756091285
400.450099945

Block: 9
======================================
401.703528166
401.266849947
402.176596236
400.805911827
402.180639553
401.299196482
402.164466286
402.180639553
403.045909357
402.180639553
401.299196482
402.164466286
402.160422969
401.703528166
401.72374475
401.739918017
402.621361089
404.723885846
401.739918017
402.180639553
402.164466286
402.621361089
402.160422969
402.164466286
401.719701433
401.703528166
402.584971237
402.19681282
401.719701433
401.295153165
401.299196482
401.719701433
402.164466286
401.719701433
401.739918017
402.180639553
402.19681282
402.621361089
402.164466286
401.72374475
401.72374475
402.605187821
403.062082624
402.200856137
401.739918017
403.062082624
402.605187821
403.045909357
401.739918017
403.045909357

Block: 10
======================================
402.673924208
401.367932868
401.335586333
401.384106135
402.059340048
402.217029405
401.351759601
402.233202672
402.249375939
401.347716284
401.367932868
401.808654404
400.9433846
401.792481136
401.351759601
401.367932868
401.384106135
402.669880891
401.363889551
401.772264552
402.229159355
402.245332623
402.249375939
401.363889551
401.351759601
401.384106135
401.331543016
401.347716284
401.363889551
401.367932868
401.363889551
401.384106135
401.363889551
401.367932868
401.824827671
400.927211332
401.384106135
401.808654404
401.804611087
401.363889551
401.841000938
401.808654404
401.824827671
400.9433846
400.939341283
401.367932868
401.808654404
401.380062819
403.094429159
401.808654404
