
Block: 1
======================================
200.316238189
78.329020381
200.401754665
78.8258303881
199.546589899
79.6972840071
198.247553897
81.0288977146
197.819971514
81.4890578032
196.284747148
80.756059432
196.011908865
81.1307030439
195.547676563
81.6438019037
195.547676563
82.2261283875
196.162580752
83.1138708591
195.291127133
83.9853244781
195.12009418
84.1197075129
194.712872863

Block: 2
======================================
200.348815894
79.3063515425
199.086429811
80.1737329483
198.25162611
81.1144141912
196.04448657
81.5582854271
195.225971723
82.3605114222
194.403384662
82.7880938053
195.103805327
84.1563574314
194.232351708
85.0603887558
193.364970303
85.4676100731
192.477227831
86.3390636921
192.509805536
86.3064859867
191.622063065
87.6543885469
190.766898298

Block: 3
======================================
199.583239818
77.7833438158
199.375556946
78.1783484936
199.017202187
78.5529921055
198.642558575
81.0126088619
197.836260366
81.4401912451
197.429039049
81.8311237097
196.712329531
83.0079933167
195.771648288
83.675836277
195.173032951
84.0667687416
194.712872863
85.0278110504
193.804769325
85.8789036036
192.921099067
86.3064859867
192.477227831

Block: 4
======================================
200.401754665
77.2539561033
198.968335629
79.082379818
197.701877332
80.3121881962
196.386552477
81.1469918966
196.252169442
83.4559367657
194.492973351
84.3558958769
194.081679821
85.1784829378
193.621519732
85.6223541737
193.177648497
86.0336477041
192.762282753
86.9376790285
191.483607817
87.8254215002
190.323027062
88.9697134018
189.862866974

Block: 5
======================================
200.332527041
77.5430832386
199.135296369
78.4674756289
198.760652757
79.0457298994
197.209139538
81.9492178917
195.97933116
83.2645427465
195.124166393
84.1889351368
194.220135069
85.0115221977
193.841419244
85.4350323677
193.417909074
85.842253685
192.562744308
86.2535472155
192.118873072
87.161650753
190.766898298
88.4891922474
189.932094598

Block: 6
======================================
199.888655806
77.9380879164
198.300492668
79.2330517054
197.925849056
80.3814158201
197.139911914
81.248797226
196.317324853
82.0876731396
195.449943447
83.1301597118
195.258549428
83.9649634123
194.387095809
84.8201281786
193.568580961
85.6386430264
192.729705048
86.4938077927
191.846034789
86.9539678812
191.418452406
87.3815502644
191.434741259

Block: 7
======================================
200.295877123
77.3028226614
199.033491039
78.1091208696
198.386009145
79.1516074419
197.58378315
80.1940940142
198.182398486
81.0818364859
197.359811425
81.8840624809
196.525007725
82.7514438868
195.686131811
83.557742095
194.867616963
83.981252265
194.851328111
84.0138299704
194.44003458
84.8364170313
193.568580961
84.4780622721
193.910646868

Block: 8
======================================
200.348815894
77.0992120028
199.615817523
78.4348979235
198.353431439
79.2167628527
197.771104956
80.9922477961
196.985167813
82.2749949455
196.1462919
83.1301597118
194.765811634
84.4617734194
193.910646868
85.3658047438
193.039193249
86.2006084442
192.204389548
87.0231955051
191.247419453
87.9964544535
151.551485443
127.281094933
150.631165266

Block: 9
======================================
200.3813936
77.33947258
199.310401535
78.1946373463
198.93168571
79.5099622011
197.771104956
80.2429605722
196.867073631
81.4198301792
197.380172491
81.8514847755
196.968878961
82.2749949455
196.488357806
83.2319650412
195.584326482
84.0545521021
194.321940398
84.8893558025
193.483064485
86.1843195915
192.631971931
87.043556571
191.760518312

Block: 10
======================================
200.332527041
78.4511867762
198.609980869
79.766511631
197.73852725
80.2225995064
196.439491248
81.7293183804
197.050323224
82.5641220808
195.78793714
83.8468692303
157.855271435
121.404891324
157.000106668
121.795823789
156.470718956
122.276344943
156.556235433
122.703927326
156.112364197
123.131509709
155.530037713
121.645151901
157.000106668
