
Block: 1
======================================
200.352888107
76.1585307598
199.632106376
77.5267943859
198.41858685
78.2801538229
196.696040678
80.2958993435
198.09688201
81.1307030439
197.221356177
82.0184455156
196.353974771
82.8736102819
195.054938769
83.7409916878
155.004722214
123.367698073
153.721975064
124.666734076
153.274031615
124.670806289
153.738263917
124.63415637
153.326970387
124.585289812
114.144135237
125.468960071
150.358326983
126.804645991
151.653290772
126.698768449
151.673651838
126.788357139
151.63700192
126.784284925
151.588135362
126.389280248
151.995356679
126.360774755
151.974995613
126.409641314
151.995356679
126.409641314
113.191237354
164.769889402
112.384939146
126.75170722
151.229780602
125.912831306
152.04829545
126.34041369
113.667686296
164.721022844
111.073686504
167.298733783
110.658320761
167.726316166
110.609454203
167.758893871
110.202232885
168.170187402
110.271460509
168.133537483
110.234810591
168.170187402
110.198160672
168.170187402
109.774650502
169.041641021
109.379645824
168.561119866
110.251099443
168.137609696
110.234810591

Block: 2
======================================
200.352888107
76.5698242903
199.990461135
77.5105055332
157.000106668
120.570087624
156.075714278
123.062282085
155.77029829
123.082643151
155.737720585
122.671349621
155.701070666
123.111148643
155.705142879
123.078570938
155.717359519
123.062282085
155.306065989
123.522442174
155.342715907
123.457286763
155.77029829
123.469503403
154.919205737
124.292090464
154.454973435
124.361318088
154.064040971
124.308379316
154.540489912
124.308379316
154.438684583
123.970385623
154.829617047
123.982602262
154.711522865
124.035541034
154.316518188
124.532351041
153.787130475
125.452671218
153.39619801
125.811025977
153.39619801
125.81509819
153.416559076
125.847675896
152.952326775
125.383443594
153.428775716
125.831387043
152.919749069
125.863964748
153.379909158
125.041377687
154.198424006
125.061738753
153.326970387
125.489321136
153.701613998
125.078027606
153.75455277
124.63415637
154.609717536
124.650445223
154.626006389
124.528278828
154.748172784
124.923283505
153.888935804
125.350865889
154.300229335
124.955861211
153.840069246

Block: 3
======================================
200.332527041
78.0561820984
199.44478457
78.9439245701
198.691425133
80.1574440956
197.412750196
82.6129886389
196.659390759
82.9754156113
194.969422293
85.113327527
193.702963996
85.9318423748
193.295742679
86.3390636921
192.440577912
87.2268061638
191.996706676
88.0656820774
191.157830763
88.5258421659
190.701742887
88.973785615
189.773278284
199.8560781
79.8805335999
199.750200558
80.2958993435
198.524464393
82.0184455156
196.81413486
83.3011926651
195.906031322
83.7450639009
195.482521152
84.1359963655
194.643645239
85.0237388372
193.77219162
85.4513212204
193.328320384
85.8626147509
192.937387919
86.2698360682
192.558672094
86.6485518932
192.118873072
87.4996444464
191.316647077
87.9272268295
189.997250009
89.1773962736
189.12579639
90.1140053034
187.847121453
91.3804636002
187.456188989
91.7713960648
186.991956687
92.2315561533
186.157152987
93.1070819855
185.713281751
93.5143033028
184.858116984
94.3531792164
184.483473372
94.7604005337
184.072179842
94.744111681
183.612019753
95.6114930868
183.180365157
96.0431476831

Block: 4
======================================
200.401754665
77.5105055332
199.151585221
78.7891804695
197.734455037
80.2592494249
196.899651337
80.8578647614
197.909560204
81.7293183804
196.610524201
83.0446432352
196.337685919
82.8898991346
195.926392388
83.7287750483
195.103805327
84.5310010433
194.69658401
84.970800066
194.301579332
84.9545112133
194.305651546
85.3861658096
193.466775632
86.2046806574
192.969965625
86.6811295986
192.102584219
87.5688720703
191.670929623
87.9964544535
191.227058387
88.4403256893
190.339315915
89.3158515215
189.451573443
90.2158106327
188.140320802
91.0506143332
187.301444888
92.365939188
186.104214215
93.7179139614
185.082088709
94.5934397936
184.670795178
94.5201399565
184.312440419
94.8825669289
183.917435741
95.3427270174
183.473564506
96.1612418652
182.174528503
97.0815620422
181.799884892
97.4399168015
180.91214242
98.0914709091
180.708531761
98.5190532923
180.297238231
98.9466356754
179.46243453
99.7488616705
179.034852147
100.616243076
177.735816145
101.951928997
176.896940231
102.363222528
176.00919776
103.198026228
175.618265295

Block: 5
======================================
176.558946538
200.348815894
77.33947258
199.632106376
78.210926199
198.178326273
79.2330517054
197.872910285
80.0556387663
198.605908656
81.0126088619
197.75074389
81.8474125624
196.077064276
83.1260874987
195.225971723
84.429195714
193.894358015
85.7608094215
192.151450777
87.0557732105
191.74422946
87.4996444464
191.279997158
87.467066741
190.441121244
88.76203053
189.980961156
89.209973979
189.573739839
89.1040964365
189.675545168
89.5479676723
189.215385079
89.9796222687
188.820380402
90.3705547333
188.425375724
90.3379770279
187.639438581
91.5840742588
186.788346028
92.4188779593
186.360763645
92.8627491951
185.949470115
93.237392807
184.687084031
94.1292074919
183.355470324
95.4241712809
182.92788794
96.2793360472
182.109373093
96.7069184303
181.645140791
97.171150732
181.254208326
97.5783720493
180.789976025
98.0059544325
180.39904356
98.3846702576
179.98775003
98.7918915749
179.596817565
99.219473958
178.741652799
100.074638724
177.853910327
100.958308983
177.44668901
100.925731277
176.591524243
101.748318338

Block: 6
======================================
200.348815894
76.2318305969
199.135296369
77.5634443045
197.958426762
78.7403139114
196.317324853
80.3773436069
197.530844378
81.6804518223
158.706363988
119.238473916
158.743013906
119.645695233
158.726725054
119.238473916
158.722652841
120.073277617
157.460266757
120.484571147
157.871560287
120.50086
157.443977904
120.891792464
119.185535145
158.637136364
118.859758091
157.818621516
120.553798771
156.556235433
122.276344943
155.701070666
123.115220857
155.273488283
123.522442174
154.182135153
124.426473498
153.941874576
124.357245874
154.027391052
124.756322765
153.705686212
125.061738753
153.632386374
125.159471869
153.208876204
124.715600634
152.760932755
125.574837613
152.781293821
125.574837613
152.830160379
125.554476547
152.781293821
125.623704171
153.176298499
125.350865889
153.514292192
125.249060559
153.550942111
125.265349412
153.530581045
125.281638265
153.49800334
125.334577036
153.481714487
125.297927117
153.465425634
124.923283505
153.925585723
124.8907058
153.925585723
125.318288183
153.005265546
125.82731483

Block: 7
======================================
200.365104747
76.6024019957
199.583239818
77.9706656218
198.300492668
78.141698575
197.376100278
80.1207941771
198.642558575
81.0126088619
197.787393808
81.8962791204
197.32723372
82.3238615036
195.653554106
84.0016133308
194.814678192
84.8364170313
194.354518104
84.8893558025
193.483064485
85.7404483557
192.615683079
86.5793242693
192.220678401
87.4833555937
191.300358224
88.33852036
189.997250009
89.209973979
189.162446308
90.0977164507
188.70228622
90.5252988338
188.254342771
90.9854589224
187.354383659
91.8732013941
186.922729063
91.8406236887
185.644054127
93.567242074
184.78888936
94.4183346272
183.970374513
94.8296281576
183.970374513
94.7929782391
182.707988429
96.0268588305
182.361850309
96.4707300663
181.901690221
96.8779513836
181.527046609
97.2363061428
181.132041931
97.6842495918
180.211721754
98.1077597618
179.820789289
98.9629245281
179.442073464
99.3742180586
178.554330993
100.229382825
177.255294991
101.556924319
176.815495968
102.000795555
175.956258988
102.823382616
175.565326524
103.198026228
174.323301506

Block: 8
======================================
200.312165976
76.8426625729
201.631563044
75.2707882881
200.434332371
76.516885519
199.481434488
79.6443452358
198.609980869
80.5850264788
197.359811425
81.8474125624
196.525007725
82.2749949455
196.077064276
83.1668096304
195.173032951
84.0016133308
193.910646868
85.3169381857
192.766354966
86.0336477041
192.306194878
86.9051013231
191.467318964
87.7765549421
190.56328764
88.2000651121
189.708122873
89.022652173
189.227601719
89.564256525
189.211312866
90.0488498926
188.323570395
90.4723600626
187.879699159
90.4397823572
187.93263793
90.8510758877
187.521344399
91.2420083523
186.702829552
92.5573332071
186.153080773
92.6102719784
186.002408886
92.7813049316
185.607404208
93.2251761675
184.719661736
94.5405010223
184.259501648
94.9640111923
183.884858036
95.3060770988
182.6061831
96.1449530125
182.227467275
96.1286641598
182.243756127
96.9471790075
181.441530132
97.3910502434
181.013947749
97.8186326265
180.961008978
98.2625038624
180.504921103
98.3113704205
180.040688801
99.1502463341
179.62939527
99.1502463341
179.633467484

Block: 9
======================================
200.348815894
77.1155008554
199.514012194
78.4634034157
198.658847427
79.2697016239
197.909560204
82.0347343683
197.086973143
82.1365396976
195.78793714
83.4722256184
194.883905816
84.3762569427
194.012452197
85.2314217091
193.601158667
85.6386430264
193.210226202
86.029575491
192.306194878
86.9539678812
191.841962576
200.332527041
79.1353185892
199.632106376
79.5588287592
198.781013823
80.9067313194
197.872910285
80.9270923853
197.889199138
81.3546747684
196.610524201
82.991704464
195.840875912
83.370420289
194.558128762
84.7020339966
193.686675143
85.5897764683
192.851871443
86.4286523819
191.980417824
87.2960337877
191.14154191
87.6543885469
190.73024838
88.4891922474
189.911733532
89.3443570137
189.040279913
90.2035939932
188.152537441
91.1239141703
187.281083822
91.5352077007
186.869790292
91.8894902468
186.499218893
92.3170726299
186.104214215
92.7446550131
185.660342979
93.1722373962
185.200182891
93.6690474033
184.292079353
94.9680834055
183.404336882
95.3753047228
183.493925571
94.8947835684
183.510214424
95.3060770988

Block: 10
======================================
199.904944658
76.8589514256
198.947974563
78.1905651331
197.787393808
79.3877958059
196.883362484
82.3238615036
196.011908865
82.7351550341
196.130003047
82.686288476
196.150364113
83.109798646
195.311488199
83.9323857069
194.407456875
84.8160559654
193.161359644
86.0825142622
192.371350288
86.8521625519
191.589485359
87.2430950165
191.194480681
87.6218108416
190.766898298
88.5095533133
189.932094598
89.3443570137
189.520801067
89.7352894783
189.11357975
90.0977164507
188.734863925
90.5578765392
188.274703836
90.9854589224
187.863410306
90.9691700697
187.472477841
91.8406236887
187.028606606
91.8202626228
187.012317753
91.8406236887
186.58473537
92.1989784479
186.64989078
92.1501118898
186.686540699
92.5736220598
186.295608234
92.9849155903
185.880242491
93.9215246201
184.927344608
93.9215246201
184.911055756
94.1984351158
183.762691641
95.546337676
183.339181471
95.9046924353
182.960465646
96.3322748184
182.532883263
96.7435683489
181.677718496
97.6150219679
181.254208326
97.5987331152
181.290858245
97.9570878744
180.932503486
