
Block: 1
======================================
299.394576454
178.40830617
299.463681269
178.546515799
298.593773603
180.692830038
298.203534651
178.973339653
298.988077545
179.038379478
298.577513647
179.416423464
297.776710796
299.410836411
178.18473177
298.114104891
298.935232687
299.447421312
177.20100441
299.427096367
299.362056541
179.156264162
298.882387829
177.831077719
297.622241211
179.570893049
298.097844934
179.957067013
298.081584978
298.9677526
179.054639435
297.244197226
179.465203333
297.687281036
180.28226614
296.870218229
180.355435944
297.248262215
180.574945354
296.175105095
181.904196787
296.581604004
180.131861544
297.500291538
180.554620409
298.370199203
178.375786257
299.341731596
177.383928919
298.951492643
179.054639435
298.573448658
179.058704424
298.150689793
299.362056541
177.794492817
298.951492643
178.27416153
298.065325022
179.07496438
298.524668789
178.237576628
298.134429836
180.351370955
296.394614506
182.518010139
295.967790651
299.427096367
177.33514905
298.540928745
179.107484293
298.540928745
179.550568104
298.065325022
178.664400482
298.097844934
180.814779711
297.232002258
180.387955856
296.378354549
181.241603565
295.508446884
182.96109395
294.638539219
184.290345383
292.028816223
186.867548466
292.48815999
184.25782547
292.48815999
185.139928102
292.04507618
186.013900757
291.622317314
187.343152189
289.866242027
188.619558764
287.699602842
189.050447607
288.569510508

Block: 2
======================================
299.4149014
175.802648163
299.32547164
175.286394548
298.577513647
177.115639639
299.870180178
176.774180555
299.443356323
178.953014708
298.577513647
179.43268342
298.573448658
177.676608133
298.504343843
178.440826082
300.211639261
178.237576628
298.492148876
181.717207289
296.362094593
182.465165281
294.707644033
183.371657848
294.248300266
183.387917805
292.898723888
185.587076902
290.732084703
187.310632277
290.293065882
187.786236
290.272740936
188.245579767
290.293065882
186.526089382
291.467847729
186.643974066
290.83777442
187.188682604
290.459730434
299.410836411
179.107484293
297.675086069
181.717207289
295.914945793
183.867586517
293.752371597
184.322865295
292.894658899
184.770014095
292.471900034
186.050485659
290.780864573
187.274047375
290.358105707
187.310632277
290.768669605
185.587076902
290.732084703
187.343152189
290.74834466
187.790300989
289.45161314
189.046382618
287.784967613
190.737418079
287.752447701
189.88377037
288.175206566
189.050447607
287.305298901
190.749613047
286.402871323
192.509753323
286.419131279
190.343114138
288.158946609
191.196761847
287.268713999
189.867510414
288.191466522
189.013862705
289.097959089
188.981342793
289.524782944
187.274047375
291.264598274
185.928535986
291.68735714
186.830963564
291.654837227
298.951492643
179.111549282
298.081584978
178.680660439
298.524668789
178.257901573
298.524668789
178.27416153

Block: 3
======================================
299.378316498
178.509930897
299.004337502
180.339175987
298.528733778
179.416423464
298.577513647
179.892027187
297.707605982
298.914907742
180.420475769
296.752333546
181.733467245
298.045000076
180.009911871
298.47588892
179.107484293
298.081584978
179.961132002
295.833646011
181.733467245
297.110052586
180.948924351
296.203560019
299.427096367
180.3716959
295.914945793
182.144031143
294.126350594
183.489542532
292.833684063
185.213097906
292.813359118
185.229357862
293.276767874
183.078978634
293.219858027
184.855378866
291.382482958
186.233410168
291.788981867
298.931167698
178.237576628
298.081584978
179.912352133
298.577513647
179.465203333
298.557188702
180.318851042
297.297042084
180.335110998
297.707605982
179.481463289
297.264522171
181.595257616
296.410874462
182.944833994
294.260495234
183.814741659
292.508484936
185.143993092
292.931243801
185.091148233
293.394652557
184.668389368
293.817411423
184.241565514
293.821476412
183.351332903
294.671059132
182.501750183
295.114142942
182.091186285
295.065363073
182.977353907
294.996258259
185.176513004
293.736111641
185.570816946
292.898723888
186.440724611
290.752409649
187.290307331
291.622317314
185.534232044
291.004438972
187.887860727
290.134531307
189.627676058
289.691447496
189.660195971
287.561393213
190.924407578
286.695550537
190.904082632
286.691485548
190.891887665
285.398819017
193.038201904
284.13460741

Block: 4
======================================
299.378316498
174.079092789
298.984012556
177.286369181
297.719800949
177.229459333
299.000272512
180.200966358
296.532824135
182.73751955
295.248287582
182.331020641
296.085675335
182.363540554
293.902776194
184.066770983
293.764566565
185.501712132
292.914983845
185.550492001
291.618252325
299.378316498
179.944872046
296.459654331
181.940781689
294.809268761
183.168408394
293.955621052
183.591167259
293.545057154
184.48139987
294.841788673
182.347280598
294.36618495
183.627752161
295.301132441
181.424528074
295.284872484
182.298500729
297.435251713
180.591205311
299.805140352
178.221316671
298.508408833
180.831039667
296.292989779
182.107446241
295.049103117
183.013938808
295.423082113
181.753792191
296.683228731
183.115563536
294.402769852
184.924483681
293.118233299
184.904158735
292.71173439
184.887898779
294.447484732
184.038316059
293.171078157
183.969211245
294.057245779
183.558647346
293.171078157
186.152110386
291.004438972
187.017953062
290.150791264
299.394576454
180.826974678
297.638501167
181.225343609
297.227937269
299.410836411
179.054639435
298.524668789
180.794454765
296.362094593
182.550530052
294.601954317
186.062680626
289.849982071
189.489466429
288.585770464
187.753716087
289.882501984
187.326892233
290.699564791
186.879743433
292.455640078
299.362056541
299.394576454
178.27416153
298.049065065
181.733467245
295.88242588
299.357991552
179.160329151

Block: 5
======================================
298.902712774
178.558710766
299.020597458
180.318851042
298.150689793
179.294473791
299.837660265
177.729452991
299.004337502
299.410836411
178.221316671
298.508408833
180.826974678
297.638501167
179.981456947
298.508408833
179.550568104
298.097844934
179.123744249
298.524668789
177.249784279
299.447421312
179.465203333
296.853958273
179.9245471
298.045000076
180.798519754
295.919010782
182.554595041
295.065363073
183.404177761
299.004337502
179.940807056
295.947465706
183.404177761
294.622279263
183.404177761
293.325547743
184.770014095
292.435315132
185.603336859
289.849982071
187.375672102
290.715824747
185.656181717
290.240221024
186.969173193
289.776812267
190.001655054
287.630498028
189.5748312
287.630498028
189.969135141
286.350026464
191.265866661
286.350026464
189.103292465
288.516665649
188.192734909
288.976009417
189.505726385
287.252454042
190.839042807
286.386611366
190.412218952
285.906942654
191.688625526
284.187452269
193.855264711
283.350064516
193.875589657
282.906980705
193.428440857
282.906980705
194.298348522
283.370389462
192.509753323
283.862253141
194.21704874
282.549261665
194.607287693
283.024865389
194.586962748
282.581781578
194.660132551
283.419169331
194.229243708
282.996410465
193.32681613
282.565521622
196.395882893
279.459869957
198.627561903
278.065578699
199.790148783
277.862329245
198.920241117
278.679392052
198.456832361
278.813536692

Block: 6
======================================
299.410836411
175.290459538
298.862062883
176.635970926
297.601916265
178.018067217
299.853920221
178.200991726
299.000272512
178.664400482
297.67102108
178.733505297
297.569396353
178.339201355
298.902712774
176.550606155
298.931167698
178.237576628
298.114104891
178.221316671
298.557188702
179.65625782
297.227937269
180.01397686
298.097844934
179.144069195
297.638501167
179.176589108
297.175092411
180.896079493
295.88242588
181.339163303
295.866165924
180.489580584
294.927153444
181.001769209
296.203560019
181.018029165
295.947465706
182.02208147
296.073480368
181.152173805
295.642591524
181.562737703
296.053155422
180.761934853
295.951530695
181.241603565
295.967790651
181.684687376
295.540966797
182.11151123
295.540966797
182.1602911
295.028778172
181.31070838
294.175130463
183.473282576
293.748306608
183.879781485
292.439380121
184.339125252
291.565407467
185.229357862
291.532887554
185.668376684
291.1060637
185.635856771
292.435315132
184.530179739
292.252390623
185.229357862
291.093868732
186.538284349
289.776812267
187.42851696
289.813397169
187.395997047
288.927229548
186.952913237
288.95974946
187.806560946
289.845917082
187.363477135
290.272740936
186.920393324
288.95974946
188.692728567
288.073581839
189.969135141
288.106101751
189.08296752
287.679277897
189.505726385
288.138621664
190.359374094
286.882540035
191.143916988
285.56548357
192.050409555

Block: 7
======================================
299.394576454
299.410836411
178.168471813
298.984012556
177.387993908
298.971817589
178.237576628
298.524668789
178.241641617
298.081584978
181.22127862
294.622279263
299.378316498
179.107484293
298.524668789
178.290421486
298.918972731
177.831077719
298.02874012
180.046496773
296.634448862
178.867649937
298.439304018
179.619672918
298.02874012
178.684725428
298.049065065
182.229395914
294.569434404
183.932626343
292.813359118
183.985471201
296.24014492
182.704999638
295.813321066
299.394576454
178.648140526
299.004337502
298.935232687
178.241641617
298.524668789
299.394576454
299.374251509
178.680660439
298.504343843
179.587153006
298.902712774
178.700985384
299.853920221
298.914907742
178.05058713
299.394576454
179.127809238
298.492148876
299.394576454
299.378316498
178.241641617
298.508408833
180.404215813
298.049065065
298.951492643
180.383890867
297.248262215
180.387955856
296.378354549
182.107446241
295.93120575
182.107446241
295.488121939
181.237538576
297.248262215
182.534270096
298.9677526
180.318851042
299.004337502
179.892027187
298.134429836
179.912352133
297.297042084
180.335110998
299.752295494
299.374251509
299.362056541
178.867649937
299.801075363
177.404253864
298.984012556
151.811082554
299.378316498
178.034327173
299.394576454
181.119653893
296.443394375
182.875729179
296.443394375
180.266006184
298.902712774
179.326993704
299.853920221
179.908287144

Block: 8
======================================
298.951492643
176.668490839
299.805140352
175.701023436
298.150689793
177.623763275
298.984012556
177.78229785
298.951492643
180.387955856
297.211677313
180.387955856
295.898685837
182.1602911
296.715748644
180.452995682
298.423044062
180.86355958
297.126312542
180.473320627
296.7320086
180.847299623
298.065325022
179.957067013
297.195417356
180.831039667
297.175092411
179.997716904
298.02874012
180.452995682
297.589721298
181.290383434
295.435277081
181.306643391
296.719813633
180.489580584
297.093792629
179.583088017
296.069415379
181.493632889
295.691371393
181.034289122
297.382406855
181.924521732
295.284872484
181.018029165
296.191365051
180.558685398
296.890543175
179.822922373
296.459654331
182.009886503
295.166987801
181.562737703
295.610071611
182.448905325
295.166987801
182.452970314
295.166987801
181.562737703
296.069415379
180.656245136
299.853920221
178.156276846
298.150689793
179.892027187
297.740125895
179.026184511
299.036857414
178.595295668
298.150689793
180.558685398
296.154780149
181.871676874
295.744216251
182.331020641
295.301132441
181.018029165
297.04501276
180.542425442
297.093792629
181.322903347
297.585656309
180.489580584
296.719813633
180.900144482
297.142572498
180.009911871
295.88242588
182.176551056
295.866165924
182.180616045
294.585694361
184.753754139
293.29302783
185.587076902
291.142648602
186.062680626
290.679239845
186.35535984

Block: 9
======================================
298.918972731
178.14001689
298.524668789
179.091224337
297.654761124
179.705037689
297.040947771
180.985509253
297.471836615
179.672517776
297.979960251
180.046496773
297.110052586
180.981444263
297.500291538
176.790440512
298.561253691
179.469268322
296.853958273
181.205018663
296.345834637
184.25782547
291.638577271
185.55455699
293.801151466
183.371657848
293.801151466
185.570816946
292.04507618
186.440724611
292.061336136
186.387879753
289.915021896
188.607363796
288.142686653
189.493531418
289.419093227
187.786236
290.240221024
186.509829426
290.662979889
186.505764437
290.236156034
187.802495956
288.106101751
189.93255024
286.809370232
191.245541716
286.37035141
190.855302763
287.187414217
190.859367752
287.187414217
190.054499912
287.988217068
190.087019825
286.675225592
190.530103636
286.626445723
190.550428581
287.289038944
189.030122662
289.028854275
187.749651098
289.028854275
189.030122662
289.028854275
189.456946516
289.028854275
188.607363796
289.435353184
188.176474953
288.142686653
190.310594225
285.020775032
192.526013279
285.07361989
192.936577177
284.679315948
192.920317221
284.167127323
193.428440857
283.776888371
194.298348522
282.463896894
194.70891242
283.350064516
193.704860115
284.785005665
192.814627504
283.947617912
193.278036261
284.764680719
190.717093134
286.467911148
191.603260756
285.581743526
192.034149599
286.028892326
191.623585701

Block: 10
======================================
298.935232687
177.538398504
299.821400309
177.831077719
298.081584978
299.362056541
179.485528278
298.577513647
180.318851042
296.378354549
180.318851042
298.540928745
179.465203333
298.561253691
179.481463289
298.557188702
180.798519754
296.784853458
182.107446241
296.772658491
181.696882343
295.032843161
184.717169237
295.032843161
182.993613863
295.065363073
183.013938808
295.43934207
181.733467245
296.768593502
182.587114954
296.341769648
183.883846474
296.752333546
179.997716904
297.158832455
182.144031143
296.325509691
180.86355958
297.211677313
180.847299623
297.638501167
180.404215813
298.097844934
178.62781558
298.561253691
179.518048191
298.540928745
179.518048191
298.540928745
179.501788235
298.524668789
180.387955856
297.654761124
179.957067013
297.996220207
179.176589108
298.439304018
179.176589108
298.882387829
180.436735725
298.012480164
178.700985384
298.492148876
299.394576454
178.237576628
298.540928745
179.961132002
298.508408833
180.387955856
298.524668789
299.394576454
179.961132002
298.081584978
179.957067013
298.081584978
179.518048191
297.638501167
179.534308147
298.524668789
178.205056715
298.9677526
180.761934853
296.37428956
182.091186285
298.540928745
178.477410984
299.821400309
179.465203333
298.561253691
180.351370955
298.097844934
180.351370955
297.691346025
299.394576454
179.481463289
298.577513647
178.579035711
298.577513647
299.394576454
