
Block: 1
======================================
198.247553897
76.1259530544
197.054395437
77.4087002039
196.284747148

Average distance is : 149.024 cm
Average deviation is : 65.967 cm
Block: 2
======================================
198.194615126
79.0620187521
197.017745519
79.5425399065
196.13407526

Average distance is : 149.990 cm
Average deviation is : 64.533 cm
Block: 3
======================================
198.214976192
75.5762042761
199.086429811
75.6983706713
155.261271644

Average distance is : 140.767 cm
Average deviation is : 62.039 cm
Block: 4
======================================
198.214976192
78.6344363689
197.445327902
79.1353185892
197.017745519

Average distance is : 150.090 cm
Average deviation is : 65.002 cm
Block: 5
======================================
198.247553897
76.1788918257
197.310944867
78.4634034157
196.028197718

Average distance is : 149.246 cm
Average deviation is : 65.668 cm
Block: 6
======================================
198.26384275
76.2969860077
196.964806747
76.6879184723
196.577946496

Average distance is : 148.958 cm
Average deviation is : 66.155 cm
Block: 7
======================================
198.214976192
78.4674756289
199.477362275
77.9910266876
196.899651337

Average distance is : 150.210 cm
Average deviation is : 65.716 cm
Block: 8
======================================
198.198687339
75.7024428844
198.300492668
76.2481194496
197.001456666

Average distance is : 149.090 cm
Average deviation is : 66.747 cm
Block: 9
======================================
198.194615126
78.5692809582
198.728075051
78.2801538229
197.424966836

Average distance is : 150.239 cm
Average deviation is : 65.559 cm
Block: 10
======================================
198.194615126
76.2603360891
196.968878961
77.0299843788
196.231808376

Average distance is : 148.937 cm
Average deviation is : 65.998 cm