
Block: 1
======================================
100.784532428
100.280671716
99.8470211029
99.8635411263
99.4133704901
100.297191739
100.297191739
100.280671716
100.280671716
99.8470211029
100.27654171
99.4340205193
100.297191739
99.8470211029
99.7396409512
100.264151692
99.8635411263
99.4133704901
100.280671716
100.297191739
99.8676711321
100.313711762
100.330231786
100.313711762
100.297191739
99.4298905134
100.313711762
100.297191739
100.313711762
99.4464105368
99.4175004959
100.280671716
100.264151692
100.280671716
99.8635411263
100.297191739
99.8470211029
101.614663601
99.4340205193
99.8470211029
99.8305010796
99.9337512255
99.8841911554
99.8635411263
100.297191739
100.317841768
99.8305010796
100.317841768
99.3968504667
100.280671716

Block: 2
======================================
99.8305010796
100.330231786
99.8139810562
100.313711762
100.280671716
100.297191739
99.3803304434
101.197533011
99.4133704901
100.747362375
99.8800611496
99.8841911554
100.768012404
100.297191739
99.8470211029
99.4505405426
101.197533011
99.3968504667
100.297191739
100.313711762
100.317841768
99.4464105368
100.330231786
100.280671716
100.747362375
100.780402422
99.8470211029
100.297191739
99.8800611496
99.8305010796
100.780402422
99.8635411263
99.8800611496
100.313711762
99.8800611496
99.8800611496
100.313711762
100.297191739
100.313711762
100.313711762
101.181012988
99.8635411263
99.8470211029
99.8470211029
99.8635411263
100.313711762
99.8800611496
99.8305010796
99.4133704901
99.4464105368

Block: 3
======================================
99.8965811729
99.8470211029
100.433481932
99.8139810562
99.4298905134
100.297191739
99.4133704901
100.297191739
100.317841768
101.197533011
99.8635411263
99.8800611496
100.313711762
99.8800611496
99.8139810562
99.4298905134
99.4298905134
99.3803304434
101.176882982
100.297191739
99.8841911554
99.8800611496
99.4133704901
99.4340205193
99.8263710737
100.313711762
100.313711762
100.297191739
99.8470211029
99.8470211029
100.334361792
99.4505405426
99.4298905134
101.197533011
100.297191739
100.297191739
100.280671716
100.747362375
99.9007111788
99.8470211029
99.3968504667
100.27654171
99.4175004959
100.297191739
100.280671716
99.4175004959
99.4298905134
100.313711762
100.264151692
100.768012404

Block: 4
======================================
99.8635411263
101.181012988
99.8139810562
100.264151692
99.9007111788
100.280671716
99.8470211029
100.301321745
99.8841911554
100.317841768
100.297191739
99.3968504667
99.8635411263
99.9007111788
99.8800611496
99.8305010796
100.330231786
100.313711762
99.4464105368
100.27654171
100.280671716
99.8635411263
100.747362375
99.8676711321
100.346751809
100.346751809
99.8841911554
100.280671716
99.8263710737
99.4298905134
99.4133704901
99.8263710737
99.4505405426
99.8470211029
99.8800611496
99.3968504667
99.3762004375
99.8800611496
100.297191739
99.8305010796
99.4133704901
99.4133704901
99.4340205193
100.280671716
99.8676711321
99.4133704901
100.747362375
99.8635411263
99.8470211029
99.4133704901

Block: 5
======================================
100.313711762
100.280671716
99.3968504667
100.297191739
99.8635411263
100.330231786
100.297191739
100.313711762
100.297191739
99.8800611496
100.297191739
99.8800611496
99.8841911554
100.330231786
99.8470211029
99.4133704901
99.8305010796
99.4464105368
100.297191739
100.784532428
100.763882399
99.8470211029
100.313711762
100.297191739
99.8139810562
100.297191739
100.297191739
100.297191739
100.280671716
100.317841768
99.4133704901
100.627592206
100.313711762
99.4175004959
99.3968504667
100.313711762
99.8800611496
99.8470211029
99.4133704901
100.313711762
100.317841768
99.3968504667
100.297191739
100.280671716
99.4133704901
100.297191739
100.297191739
100.297191739
100.317841768
99.8305010796

Block: 6
======================================
99.8139810562
100.313711762
99.8676711321
100.297191739
99.8635411263
100.763882399
100.297191739
100.763882399
99.4133704901
100.297191739
100.313711762
101.197533011
99.8800611496
100.297191739
99.4298905134
99.3968504667
99.8470211029
100.297191739
99.4464105368
100.334361792
99.4298905134
99.4175004959
99.8965811729
99.8800611496
100.747362375
100.747362375
99.8635411263
100.784532428
99.4133704901
100.297191739
99.8470211029
99.8635411263
100.330231786
99.8800611496
99.8635411263
100.313711762
99.4133704901
99.4464105368
99.8635411263
99.4629305601
100.313711762
100.768012404
99.8800611496
100.280671716
99.4298905134
100.280671716
99.8800611496
99.8635411263
100.313711762
99.8470211029

Block: 7
======================================
99.8098510504
99.4670605659
100.313711762
99.8305010796
100.730842352
100.317841768
100.297191739
100.297191739
99.8139810562
99.8635411263
100.297191739
100.330231786
100.317841768
100.313711762
99.4340205193
99.8841911554
99.8635411263
100.297191739
100.297191739
99.5372706652
100.780402422
99.4175004959
100.330231786
100.784532428
100.747362375
99.8470211029
100.27654171
99.8263710737
100.313711762
100.317841768
99.4298905134
100.297191739
100.297191739
100.313711762
100.313711762
99.4133704901
99.4133704901
100.297191739
100.27654171
100.297191739
99.8470211029
99.8965811729
100.264151692
99.8841911554
100.280671716
99.8676711321
99.8965811729
99.8470211029
100.313711762
100.317841768

Block: 8
======================================
100.297191739
100.313711762
99.8635411263
99.8428910971
100.313711762
101.164492965
100.317841768
99.4340205193
100.297191739
99.8635411263
99.3927204609
99.8635411263
99.8800611496
100.763882399
99.8305010796
99.3762004375
100.260021687
100.334361792
100.747362375
99.8635411263
100.763882399
99.3803304434
99.8800611496
100.367401838
99.8139810562
99.4175004959
99.4133704901
94.1476130486
99.8800611496
100.313711762
101.197533011
100.313711762
99.8800611496
100.330231786
99.8139810562
99.8635411263
99.4505405426
99.4298905134
100.747362375
100.280671716
101.614663601
99.4133704901
99.8841911554
100.297191739
100.280671716
100.297191739
100.313711762
100.763882399
99.9007111788
100.297191739

Block: 9
======================================
99.8305010796
99.8305010796
100.747362375
99.8470211029
99.8470211029
100.297191739
100.780402422
99.9007111788
99.4340205193
99.3968504667
101.181012988
99.4133704901
99.4133704901
100.297191739
100.334361792
100.280671716
100.313711762
99.4464105368
100.784532428
100.317841768
99.8098510504
100.297191739
100.297191739
99.4133704901
99.8305010796
99.8470211029
99.9007111788
100.313711762
100.297191739
99.8635411263
99.3968504667
100.334361792
99.9172312021
100.280671716
99.8470211029
100.297191739
100.313711762
100.317841768
100.297191739
99.8098510504
99.4298905134
99.8635411263
99.8800611496
100.796922445
99.4133704901
99.8841911554
100.317841768
100.784532428
100.297191739
99.8305010796

Block: 10
======================================
99.8470211029
99.8305010796
100.747362375
99.8305010796
99.8470211029
99.8098510504
100.313711762
99.4298905134
100.768012404
99.8841911554
99.8635411263
100.768012404
100.313711762
100.313711762
99.8470211029
99.9007111788
100.260021687
100.747362375
99.8635411263
100.768012404
100.454131961
99.8635411263
100.768012404
99.8800611496
100.768012404
99.9007111788
100.297191739
100.297191739
99.4133704901
100.313711762
100.27654171
100.317841768
99.4298905134
101.614663601
99.8470211029
99.4133704901
99.9172312021
99.8470211029
100.330231786
100.334361792
100.280671716
100.297191739
100.780402422
99.8635411263
100.297191739
100.297191739
100.313711762
100.313711762
99.9337512255
99.4133704901
