
Block: 1
======================================
99.5001006126
99.1160100698
99.516620636
99.136660099
99.516620636
99.136660099
99.1036200523
99.1201400757
99.1201400757
99.1036200523

Block: 2
======================================
99.1738301516
99.136660099
99.1036200523
99.1036200523
99.087100029
99.516620636
99.136660099
99.5537906885
99.1201400757
99.0664499998

Block: 3
======================================
99.1036200523
98.3395689726
99.5207506418
99.5703107119
99.1201400757
99.5331406593
99.0994900465
99.1531801224
99.5537906885
99.5496606827

Block: 4
======================================
99.136660099
99.0994900465
99.1160100698
99.4670605659
99.1201400757
99.0994900465
99.1201400757
99.087100029
99.5537906885
99.136660099

Block: 5
======================================
99.136660099
99.1036200523
99.0994900465
99.0994900465
99.1036200523
99.1160100698
99.1201400757
99.0994900465
99.1160100698
99.5537906885

Block: 6
======================================
99.1201400757
99.1036200523
99.516620636
99.1036200523
99.5537906885
99.0994900465
99.5331406593
99.136660099
99.136660099
99.087100029

Block: 7
======================================
99.4835805893
99.5496606827
99.5537906885
99.5001006126
99.5331406593
99.1036200523
99.1201400757
99.087100029
99.1201400757
99.0994900465

Block: 8
======================================
99.5496606827
99.4835805893
99.1160100698
99.1160100698
99.5496606827
99.136660099
99.136660099
99.1036200523
99.5537906885
99.4794505835

Block: 9
======================================
99.136660099
99.4835805893
99.0994900465
99.1036200523
99.0994900465
99.136660099
99.087100029
99.1201400757
99.1201400757
99.1201400757

Block: 10
======================================
99.5496606827
99.516620636
99.0829700232
99.1036200523
99.136660099
99.1201400757
99.1036200523
99.136660099
99.0829700232
99.1036200523
