
Block: 1
======================================
400.211544251
400.704828906
400.215587568
400.652265787
401.129377174

Average distance is : 400.583 cm
Average deviation is : 0.384 cm
Block: 2
======================================
401.925910592
400.652265787
400.603745985
400.704828906
400.63609252

Average distance is : 400.905 cm
Average deviation is : 0.572 cm
Block: 3
======================================
401.028294253
401.060640788
401.044467521
401.452842522
401.485189056

Average distance is : 401.214 cm
Average deviation is : 0.233 cm
Block: 4
======================================
401.452842522
401.028294253
401.432625937
401.076814055
401.452842522

Average distance is : 401.289 cm
Average deviation is : 0.216 cm
Block: 5
======================================
401.384106135
401.861217523
400.995947719
401.464972472
401.452842522

Average distance is : 401.432 cm
Average deviation is : 0.307 cm
Block: 6
======================================
401.517535591
401.008077669
401.452842522
401.044467521
401.044467521

Average distance is : 401.213 cm
Average deviation is : 0.250 cm
Block: 7
======================================
401.044467521
401.432625937
401.092987323
401.464972472
401.028294253

Average distance is : 401.213 cm
Average deviation is : 0.217 cm
Block: 8
======================================
400.619919252
401.501362324
401.501362324
401.028294253
400.619919252

Average distance is : 401.054 cm
Average deviation is : 0.441 cm
Block: 9
======================================
401.076814055
401.064684105
400.704828906
400.63609252
400.619919252

Average distance is : 400.820 cm
Average deviation is : 0.231 cm
Block: 10
======================================
401.092987323
400.656309104
400.63609252
401.537752175
400.619919252

Average distance is : 400.909 cm
Average deviation is : 0.403 cm