
Block: 1
======================================
177.19013958
200.11262753
200.572787619
199.241173911
199.224885058
199.701334
200.605365324
200.096338677
200.128916383
200.108555317
200.128916383
199.685045147
199.717622852
199.685045147
200.11262753
200.572787619
200.585004258
200.145205235
200.556498766
199.685045147
199.701334
200.145205235
199.701334
199.685045147
199.701334
200.589076471
199.668756294
199.664684081
199.701334
200.108555317
200.589076471
199.241173911
200.128916383
199.701334
199.680972934
199.717622852
200.11262753
200.12484417
199.701334
199.680972934
199.701334
199.717622852
199.668756294
199.668756294
199.241173911
199.685045147
200.145205235
199.717622852
199.697261786
200.12484417

Average distance is : 199.451 cm
Average deviation is : 3.234 cm
Block: 2
======================================
200.11262753
199.717622852
199.253390551
200.12484417
200.128916383
199.685045147
199.685045147
199.290040469
200.556498766
200.128916383
200.145205235
200.12484417
199.685045147
200.12484417
199.701334
199.717622852
199.680972934
199.717622852
199.717622852
199.664684081
199.701334
199.680972934
200.161494088
200.161494088
199.717622852
199.680972934
200.145205235
200.145205235
199.685045147
200.145205235
199.680972934
200.145205235
200.12484417
200.177782941
199.717622852
201.000370002
200.145205235
201.016658854
199.652467442
199.737983918
199.685045147
199.717622852
199.237101698
199.701334
199.701334
200.128916383
199.685045147
200.12484417
201.032947707
199.685045147

Average distance is : 199.926 cm
Average deviation is : 0.390 cm
Block: 3
======================================
199.750200558
200.12484417
199.701334
200.145205235
200.141133022
199.717622852
200.12484417
199.701334
200.145205235
199.680972934
200.092266464
199.290040469
199.685045147
200.145205235
199.701334
199.717622852
200.568715405
200.572787619
199.237101698
199.701334
199.273751616
199.257462764
199.273751616
199.717622852
199.701334
200.145205235
199.717622852
199.717622852
199.685045147
199.701334
200.145205235
200.161494088
199.701334
200.141133022
200.589076471
200.128916383
199.717622852
200.145205235
199.701334
199.257462764
200.572787619
199.701334
199.701334
199.253390551
199.717622852
199.733911705
199.701334
199.701334
199.717622852
199.717622852

Average distance is : 199.827 cm
Average deviation is : 0.353 cm
Block: 4
======================================
200.161494088
199.290040469
200.161494088
199.733911705
200.161494088
199.241173911
200.605365324
199.701334
199.717622852
199.701334
199.697261786
199.733911705
199.701334
200.161494088
199.680972934
199.717622852
200.161494088
199.717622852
199.701334
201.032947707
199.701334
199.717622852
200.161494088
200.177782941
199.697261786
200.177782941
199.717622852
201.444241238
199.685045147
199.733911705
200.145205235
199.701334
199.257462764
199.253390551
199.717622852
199.257462764
200.177782941
199.717622852
199.273751616
199.717622852
200.161494088
200.181855154
200.589076471
200.161494088
200.177782941
200.181855154
199.717622852
199.253390551
200.161494088
199.717622852

Average distance is : 199.890 cm
Average deviation is : 0.440 cm
Block: 5
======================================
199.294112682
199.717622852
200.145205235
201.273208284
199.306329322
201.493107796
199.257462764
199.717622852
199.701334
199.257462764
200.177782941
199.717622852
201.46053009
199.733911705
200.161494088
199.733911705
199.733911705
199.754272771
199.717622852
199.733911705
200.589076471
199.733911705
200.161494088
199.733911705
199.733911705
199.273751616
199.697261786
199.273751616
199.737983918
200.161494088
199.733911705
200.621654177
199.733911705
200.177782941
200.145205235
200.177782941
201.032947707
199.733911705
199.737983918
199.685045147
200.177782941
199.273751616
199.717622852
199.717622852
199.290040469
200.177782941
200.605365324
199.733911705
199.717622852
200.198144007

Average distance is : 199.931 cm
Average deviation is : 0.539 cm
Block: 6
======================================
199.770561624
199.717622852
200.161494088
200.145205235
199.257462764
199.701334
199.685045147
199.717622852
199.750200558
201.04923656
199.737983918
199.273751616
199.737983918
199.733911705
199.733911705
199.717622852
199.717622852
200.621654177
199.701334
200.145205235
200.621654177
200.165566301
200.161494088
199.717622852
199.737983918
200.145205235
199.701334
199.697261786
200.128916383
200.161494088
199.733911705
199.290040469
199.257462764
199.737983918
199.290040469
199.237101698
200.589076471
200.145205235
199.733911705
200.177782941
200.141133022
199.733911705
199.701334
200.145205235
199.701334
200.145205235
199.701334
199.697261786
199.733911705
199.737983918

Average distance is : 199.859 cm
Average deviation is : 0.374 cm
Block: 7
======================================
200.589076471
199.685045147
199.697261786
200.161494088
201.012586641
199.717622852
199.685045147
199.717622852
199.717622852
199.717622852
200.589076471
200.145205235
199.273751616
200.161494088
199.701334
200.12484417
199.737983918
199.241173911
199.733911705
199.701334
200.12484417
199.701334
201.000370002
199.701334
201.032947707
199.754272771
199.697261786
199.306329322
200.161494088
200.141133022
200.572787619
199.697261786
200.128916383
199.717622852
200.177782941
199.290040469
200.589076471
199.717622852
200.161494088
200.12484417
200.145205235
199.680972934
199.733911705
200.177782941
199.737983918
199.273751616
200.621654177
200.589076471
200.161494088
199.733911705

Average distance is : 199.975 cm
Average deviation is : 0.450 cm
Block: 8
======================================
199.701334
199.733911705
199.733911705
200.642015243
200.161494088
199.701334
199.290040469
199.701334
199.717622852
199.754272771
200.605365324
199.733911705
200.161494088
199.701334
200.12484417
199.733911705
200.145205235
200.177782941
199.701334
200.12484417
200.589076471
199.241173911
200.589076471
199.717622852
200.145205235
200.145205235
200.161494088
200.589076471
199.717622852
201.032947707
200.605365324
199.717622852
199.697261786
200.145205235
199.717622852
199.717622852
200.621654177
201.032947707
199.701334
199.717622852
200.145205235
199.717622852
200.62572639
199.737983918
200.605365324
199.701334
199.737983918
199.664684081
199.733911705
201.032947707

Average distance is : 200.033 cm
Average deviation is : 0.448 cm
Block: 9
======================================
199.680972934
200.161494088
199.733911705
199.701334
199.754272771
199.717622852
199.754272771
199.737983918
200.589076471
199.717622852
199.290040469
199.717622852
201.016658854
200.128916383
200.181855154
199.717622852
200.145205235
199.733911705
199.770561624
199.701334
200.161494088
199.701334
199.717622852
199.697261786
199.733911705
199.701334
199.717622852
200.177782941
200.145205235
199.717622852
199.717622852
200.161494088
200.585004258
199.701334
199.717622852
199.685045147
199.717622852
200.145205235
201.028875494
200.145205235
199.701334
199.290040469
201.444241238
199.717622852
199.717622852
200.145205235
199.717622852
199.717622852
199.701334
199.737983918

Average distance is : 199.918 cm
Average deviation is : 0.413 cm
Block: 10
======================================
199.685045147
200.621654177
199.680972934
200.161494088
199.717622852
200.145205235
200.605365324
199.701334
199.717622852
200.145205235
200.161494088
200.145205235
200.177782941
200.161494088
199.717622852
199.685045147
200.141133022
199.717622852
199.701334
200.605365324
200.145205235
199.685045147
199.680972934
200.605365324
199.717622852
199.680972934
199.685045147
199.701334
199.701334
200.145205235
200.161494088
200.556498766
199.685045147
200.128916383
200.128916383
200.145205235
200.141133022
199.733911705
199.664684081
200.141133022
199.701334
201.032947707
200.589076471
200.177782941
200.128916383
200.161494088
200.572787619
199.717622852
199.701334
200.572787619

Average distance is : 200.040 cm
Average deviation is : 0.356 cm