
Block: 1
======================================
198.178326273
197.754816103
198.182398486
197.771104956
197.771104956
198.16203742
198.16203742
198.214976192
198.16203742
197.754816103

Average distance is : 198.011 cm
Average deviation is : 0.214 cm
Block: 2
======================================
197.75074389
197.73852725
197.75074389
198.166109633
198.166109633
198.182398486
198.198687339
198.198687339
198.231265044
198.198687339

Average distance is : 198.058 cm
Average deviation is : 0.216 cm
Block: 3
======================================
198.182398486
198.198687339
198.16203742
198.182398486
197.718166184
198.198687339
197.73852725
198.178326273
198.214976192
198.182398486

Average distance is : 198.096 cm
Average deviation is : 0.194 cm
Block: 4
======================================
198.198687339
198.145748568
198.145748568
198.129459715
198.182398486
197.734455037
198.194615126
198.194615126
198.149820781
197.701877332

Average distance is : 198.078 cm
Average deviation is : 0.191 cm
Block: 5
======================================
198.129459715
198.145748568
198.194615126
198.16203742
198.182398486
197.701877332
198.182398486
198.145748568
198.178326273
198.198687339

Average distance is : 198.122 cm
Average deviation is : 0.149 cm
Block: 6
======================================
198.129459715
197.734455037
198.145748568
198.182398486
197.754816103
198.194615126
198.182398486
198.145748568
198.149820781
198.145748568

Average distance is : 198.077 cm
Average deviation is : 0.176 cm
Block: 7
======================================
198.178326273
198.16203742
198.182398486
198.16203742
198.194615126
198.178326273
197.685588479
198.214976192
198.182398486
198.214976192

Average distance is : 198.136 cm
Average deviation is : 0.159 cm
Block: 8
======================================
198.178326273
198.25162611
198.198687339
198.198687339
198.182398486
198.214976192
197.754816103
198.16203742
198.182398486
198.198687339

Average distance is : 198.152 cm
Average deviation is : 0.142 cm
Block: 9
======================================
198.198687339
198.194615126
198.198687339
198.16203742
198.182398486
198.182398486
198.16203742
198.166109633
197.718166184
198.214976192

Average distance is : 198.138 cm
Average deviation is : 0.149 cm
Block: 10
======================================
198.178326273
197.73852725
198.214976192
198.16203742
197.73852725
197.771104956
198.198687339
197.718166184
197.787393808
198.194615126

Average distance is : 197.970 cm
Average deviation is : 0.233 cm