
Block: 1
======================================
199.8560781
199.803139329
199.819428182
199.8560781
200.707170653
200.295877123
200.727531719
199.835717034
199.8560781
199.872366953
199.8560781
200.316238189
199.852005887
200.332527041
199.86829474
200.743820572
199.835717034
199.8560781
199.852005887
199.839789248
199.852005887
199.835717034
200.316238189
199.888655806
200.723459506
200.723459506
200.727531719
200.723459506
200.727531719
200.739748359
200.743820572
200.727531719
200.263299417
200.332527041
200.707170653
201.151041889
200.743820572
199.835717034
199.8560781
200.711242867
199.839789248
199.852005887
200.723459506
199.835717034
199.835717034
200.727531719
200.27958827
200.727531719
200.247010565
200.263299417
200.743820572
200.723459506
199.819428182
200.711242867
200.723459506
200.707170653
200.707170653
200.707170653
199.8560781
199.8560781
199.8560781
199.872366953
199.8560781
200.723459506
199.835717034
200.743820572
200.723459506
200.727531719
200.739748359
199.852005887
199.8560781
200.739748359
200.707170653
199.839789248
200.723459506
200.727531719
200.263299417
200.707170653
199.839789248
200.723459506
200.727531719
199.8560781
200.707170653
199.8560781
200.739748359
199.8560781
200.739748359
199.8560781
199.835717034
200.723459506
199.872366953
200.267371631
200.263299417
200.27958827
200.727531719
199.872366953
200.723459506
200.727531719
200.690881801
199.839789248

Block: 2
======================================
199.872366953
199.852005887
199.819428182
199.835717034
199.803139329
200.295877123
200.690881801
199.852005887
199.819428182
199.872366953
199.872366953
199.839789248
199.872366953
200.312165976
200.743820572
200.316238189
200.707170653
199.839789248
199.852005887
200.711242867
199.86829474
200.690881801
199.835717034
199.839789248
199.835717034
199.819428182
199.839789248
200.316238189
199.835717034
200.263299417
199.872366953
199.872366953
200.723459506
199.852005887
199.839789248
199.823500395
199.839789248
199.872366953
199.8560781
199.8560781
200.723459506
199.819428182
200.707170653
199.835717034
200.295877123
199.839789248
199.835717034
199.819428182
199.835717034
199.819428182
200.295877123
199.835717034
200.711242867
199.819428182
200.707170653
199.835717034
199.819428182
201.582696486
200.690881801
200.727531719
200.263299417
200.247010565
200.727531719
199.872366953
199.819428182
199.819428182
199.835717034
199.839789248
199.839789248
200.283660483
199.839789248
199.823500395
199.835717034
199.819428182
199.835717034
199.819428182
201.56233542
200.711242867
201.167330742
199.8560781
200.283660483
200.27958827
200.690881801
200.707170653
200.711242867
199.819428182
200.316238189
200.295877123
199.835717034
199.835717034
199.839789248
199.839789248
199.819428182
200.295877123
199.819428182
200.690881801
199.819428182
199.835717034
199.803139329
200.727531719

Block: 3
======================================
199.852005887
199.803139329
199.819428182
199.839789248
200.727531719
199.835717034
199.872366953
200.723459506
200.299949336
200.27958827
200.707170653
200.727531719
199.86829474
200.739748359
200.27958827
200.299949336
199.819428182
200.27958827
200.739748359
199.839789248
199.835717034
199.8560781
201.167330742
199.852005887
199.8560781
199.835717034
199.819428182
199.819428182
199.835717034
200.723459506
200.707170653
200.739748359
199.819428182
200.707170653
200.299949336
200.727531719
200.743820572
199.872366953
199.8560781
199.835717034
199.839789248
200.332527041
199.8560781
199.8560781
199.8560781
200.332527041
199.852005887
199.86829474
199.872366953
200.316238189
199.835717034
199.839789248
199.835717034
199.852005887
199.835717034
199.819428182
199.839789248
200.263299417
200.295877123
200.283660483
199.823500395
200.332527041
199.835717034
201.56233542
199.8560781
199.8560781
199.823500395
199.872366953
200.299949336
199.8560781
199.8560781
199.835717034
199.8560781
199.835717034
199.835717034
199.835717034
199.872366953
201.56233542
199.8560781
200.283660483
199.8560781
199.819428182
199.819428182
199.8560781
199.819428182
200.707170653
199.839789248
199.852005887
199.8560781
199.852005887
199.823500395
199.839789248
199.872366953
199.835717034
199.835717034
199.835717034
199.872366953
199.872366953
199.835717034
199.819428182

Block: 4
======================================
200.316238189
200.727531719
199.819428182
199.839789248
200.299949336
199.835717034
199.852005887
201.134753036
199.8560781
201.155114102
200.299949336
199.8560781
200.312165976
200.283660483
199.835717034
199.852005887
200.316238189
199.852005887
199.8560781
199.835717034
200.312165976
200.711242867
199.884583592
199.852005887
201.187691808
200.295877123
200.299949336
200.295877123
200.27958827
200.743820572
200.316238189
200.283660483
199.835717034
200.299949336
200.316238189
199.86829474
200.27958827
200.316238189
200.312165976
200.743820572
200.299949336
200.299949336
199.852005887
200.299949336
200.723459506
199.835717034
199.8560781
199.839789248
200.295877123
199.8560781
200.332527041
199.819428182
199.835717034
199.8560781
200.295877123
200.295877123
200.332527041
200.295877123
199.852005887
200.27958827
199.819428182
200.27958827
200.316238189
201.151041889
200.739748359
200.299949336
200.295877123
200.27958827
200.723459506
200.27958827
200.27958827
199.852005887
199.852005887
200.316238189
199.8560781
200.295877123
200.299949336
200.263299417
199.852005887
199.835717034
200.27958827
200.263299417
199.835717034
200.263299417
200.263299417
199.835717034
199.835717034
200.739748359
200.727531719
200.283660483
199.835717034
199.835717034
199.852005887
199.835717034
199.852005887
201.578624272
200.27958827
199.852005887
199.819428182
200.295877123

Block: 5
======================================
200.727531719
200.707170653
199.819428182
199.803139329
200.295877123
200.263299417
201.134753036
200.263299417
200.727531719
200.283660483
200.743820572
200.723459506
199.852005887
200.295877123
199.852005887
201.134753036
200.690881801
199.839789248
200.316238189
199.835717034
199.835717034
200.707170653
199.835717034
200.727531719
200.743820572
200.230721712
199.8560781
200.299949336
200.707170653
200.267371631
200.263299417
200.263299417
200.727531719
200.707170653
200.690881801
200.727531719
200.723459506
199.835717034
200.727531719
200.690881801
200.295877123
200.707170653
199.823500395
199.823500395
199.839789248
199.823500395
200.694954014
199.8560781
200.723459506
199.835717034
199.839789248
200.263299417
199.835717034
199.835717034
199.852005887
199.8560781
199.839789248
201.134753036
199.852005887
200.707170653
199.8560781
199.819428182
199.852005887
199.8560781
199.8560781
199.835717034
200.739748359
200.727531719
200.316238189
200.723459506
200.707170653
200.316238189
199.852005887
199.852005887
199.835717034
199.8560781
199.835717034
200.707170653
200.727531719
199.852005887
199.8560781
200.247010565
200.690881801
199.839789248
200.295877123
200.690881801
200.861914754
200.723459506
200.247010565
200.690881801
200.727531719
199.839789248
200.295877123
199.835717034
199.803139329
199.835717034
199.839789248
200.299949336
199.839789248
201.56233542

Block: 6
======================================
200.247010565
199.803139329
199.839789248
199.803139329
199.819428182
199.819428182
199.819428182
200.707170653
199.852005887
199.839789248
199.8560781
200.727531719
200.743820572
200.690881801
199.819428182
200.295877123
200.707170653
199.819428182
200.707170653
200.707170653
199.852005887
200.723459506
199.835717034
199.835717034
200.690881801
200.707170653
200.247010565
199.803139329
199.819428182
200.263299417
201.102175331
200.707170653
200.690881801
200.690881801
200.707170653
200.723459506
200.723459506
200.707170653
200.247010565
200.690881801
200.707170653
199.819428182
200.743820572
200.707170653
200.690881801
200.727531719
200.727531719
200.690881801
200.263299417
200.694954014
199.819428182
199.835717034
199.839789248
199.852005887
200.263299417
200.283660483
199.872366953
200.723459506
200.711242867
199.823500395
199.852005887
200.283660483
199.819428182
199.835717034
199.835717034
199.835717034
199.852005887
199.835717034
200.743820572
199.8560781
199.852005887
200.316238189
199.823500395
200.760109425
199.819428182
200.263299417
199.835717034
200.299949336
199.803139329
199.823500395
199.839789248
199.803139329
199.8560781
199.823500395
200.727531719
200.727531719
200.312165976
200.723459506
199.852005887
200.723459506
200.247010565
199.835717034
199.8560781
199.835717034
200.727531719
200.707170653
200.723459506
199.803139329
199.835717034
200.707170653

Block: 7
======================================
200.674592948
200.299949336
200.690881801
200.727531719
200.263299417
200.727531719
200.263299417
200.707170653
200.707170653
200.247010565
200.707170653
200.230721712
200.251082778
200.247010565
200.707170653
200.247010565
200.690881801
200.690881801
199.803139329
200.263299417
200.247010565
200.210360646
200.247010565
200.247010565
199.819428182
200.251082778
199.819428182
200.263299417
200.263299417
200.247010565
200.247010565
199.8560781
200.267371631
200.283660483
200.247010565
199.852005887
200.727531719
199.835717034
200.230721712
200.727531719
200.690881801
200.723459506
199.872366953
200.263299417
200.263299417
200.707170653
199.839789248
199.852005887
200.690881801
199.823500395
200.247010565
200.283660483
200.690881801
200.247010565
200.707170653
200.694954014
200.247010565
200.690881801
199.839789248
200.711242867
200.707170653
199.835717034
200.299949336
200.707170653
200.674592948
200.723459506
200.263299417
199.819428182
199.803139329
199.819428182
199.8560781
199.823500395
200.711242867
200.727531719
200.694954014
200.267371631
200.690881801
200.727531719
199.839789248
200.711242867
199.835717034
200.707170653
200.247010565
199.819428182
199.823500395
199.819428182
199.839789248
199.819428182
199.835717034
200.707170653
199.852005887
199.819428182
200.727531719
199.819428182
200.707170653
200.711242867
199.835717034
200.707170653
200.247010565
200.230721712

Block: 8
======================================
199.8560781
199.823500395
199.835717034
199.835717034
200.707170653
200.707170653
200.711242867
200.247010565
200.707170653
200.727531719
199.803139329
199.835717034
200.210360646
200.707170653
200.690881801
200.727531719
199.819428182
199.8560781
200.690881801
200.247010565
200.690881801
200.247010565
200.694954014
200.263299417
200.226649499
200.690881801
199.8560781
200.674592948
201.118464184
200.263299417
200.690881801
199.839789248
199.839789248
200.267371631
201.134753036
200.723459506
200.267371631
200.727531719
200.230721712
200.247010565
200.711242867
201.134753036
200.690881801
200.711242867
200.247010565
200.247010565
200.267371631
200.230721712
200.247010565
200.267371631
199.803139329
200.247010565
199.823500395
199.819428182
199.786850476
200.247010565
200.263299417
199.799067116
199.803139329
199.803139329
201.118464184
200.263299417
199.782778263
200.247010565
200.230721712
199.803139329
199.819428182
199.786850476
200.283660483
200.27958827
200.263299417
200.263299417
200.263299417
200.711242867
199.835717034
200.247010565
200.230721712
200.723459506
200.247010565
200.27958827
199.803139329
200.283660483
200.247010565
200.247010565
199.839789248
200.263299417
199.823500395
200.263299417
199.819428182
199.803139329
200.27958827
200.247010565
199.803139329
199.8560781
200.743820572
200.263299417
199.823500395
200.247010565
200.247010565
199.819428182

Block: 9
======================================
200.674592948
199.803139329
199.823500395
200.690881801
200.247010565
200.267371631
200.707170653
200.707170653
200.247010565
201.102175331
199.819428182
200.267371631
200.283660483
200.27958827
200.27958827
200.707170653
200.295877123
200.690881801
200.670520735
200.263299417
199.782778263
200.299949336
199.803139329
199.819428182
201.118464184
200.283660483
200.267371631
200.263299417
200.263299417
200.263299417
200.263299417
200.727531719
200.727531719
200.247010565
200.727531719
200.263299417
200.723459506
199.888655806
199.872366953
200.711242867
200.739748359
200.727531719
200.247010565
200.690881801
201.56233542
200.723459506
200.707170653
200.316238189
199.852005887
199.8560781
200.690881801
200.707170653
200.690881801
199.839789248
200.690881801
200.690881801
200.707170653
199.835717034
199.819428182
199.835717034
199.819428182
200.707170653
199.835717034
200.707170653
200.690881801
200.760109425
199.872366953
199.819428182
199.8560781
199.839789248
200.283660483
199.839789248
199.819428182
199.819428182
199.852005887
200.299949336
200.711242867
200.27958827
201.134753036
200.247010565
200.711242867
200.711242867
200.723459506
199.852005887
200.690881801
200.247010565
200.707170653
200.283660483
199.823500395
200.247010565
200.727531719
200.230721712
200.707170653
200.707170653
200.723459506
199.835717034
199.839789248
199.819428182
200.727531719
199.839789248

Block: 10
======================================
200.674592948
199.823500395
200.263299417
200.263299417
199.803139329
200.230721712
200.690881801
199.839789248
200.247010565
200.226649499
200.711242867
200.690881801
200.690881801
201.118464184
200.210360646
200.263299417
200.711242867
200.283660483
201.134753036
200.247010565
200.707170653
201.134753036
200.247010565
200.263299417
199.786850476
200.694954014
200.267371631
200.707170653
200.247010565
200.263299417
200.690881801
200.267371631
201.118464184
201.098103118
200.230721712
200.247010565
200.263299417
200.263299417
200.247010565
200.263299417
200.247010565
200.247010565
199.819428182
200.27958827
200.263299417
199.819428182
200.723459506
200.247010565
200.723459506
199.839789248
200.690881801
200.674592948
200.247010565
200.694954014
200.711242867
200.263299417
200.711242867
200.230721712
200.727531719
199.852005887
200.230721712
200.247010565
199.835717034
199.786850476
200.263299417
200.263299417
200.263299417
200.690881801
201.134753036
199.424423504
200.247010565
200.723459506
201.098103118
200.263299417
200.226649499
199.782778263
200.711242867
199.823500395
199.835717034
200.27958827
201.118464184
199.803139329
200.263299417
200.27958827
199.819428182
199.786850476
200.230721712
199.803139329
199.819428182
200.707170653
200.263299417
200.247010565
200.263299417
199.819428182
200.230721712
199.823500395
200.267371631
200.674592948
200.230721712
200.247010565
