
Block: 1
======================================
200.299949336
200.283660483
200.316238189
200.263299417
199.424423504
200.299949336
200.27958827
200.743820572
200.723459506
200.727531719
200.295877123
200.707170653
199.8560781
200.295877123
199.835717034
200.299949336
201.989917803
199.8560781
200.723459506
200.723459506
199.8560781
200.27958827
200.707170653
200.739748359
200.299949336

Average distance is : 200.393 cm
Average deviation is : 0.486 cm
Block: 2
======================================
200.263299417
201.134753036
199.835717034
200.27958827
200.263299417
200.707170653
200.707170653
200.711242867
200.707170653
200.707170653
200.263299417
200.247010565
200.690881801
200.690881801
200.711242867
200.263299417
200.776398277
199.872366953
199.839789248
199.819428182
199.835717034
200.711242867
200.707170653
199.819428182
200.299949336

Average distance is : 200.395 cm
Average deviation is : 0.389 cm
Block: 3
======================================
199.819428182
199.803139329
200.247010565
199.819428182
199.819428182
199.819428182
199.819428182
199.835717034
199.835717034
199.819428182
200.760109425
199.872366953
200.727531719
199.835717034
200.723459506
200.723459506
200.760109425
199.852005887
200.690881801
200.27958827
199.888655806
200.707170653
200.743820572
200.723459506
200.727531719

Average distance is : 200.226 cm
Average deviation is : 0.435 cm
Block: 4
======================================
199.803139329
199.803139329
199.803139329
200.263299417
200.295877123
201.578624272
199.852005887
199.872366953
199.8560781
199.819428182
199.888655806
199.835717034
200.743820572
199.8560781
199.872366953
199.835717034
200.27958827
200.299949336
199.835717034
201.594913125
199.852005887
199.819428182
199.835717034
199.835717034
199.803139329

Average distance is : 200.085 cm
Average deviation is : 0.509 cm
Block: 5
======================================
200.723459506
199.823500395
199.839789248
199.835717034
200.727531719
199.839789248
199.839789248
201.187691808
199.819428182
199.852005887
200.743820572
199.852005887
199.872366953
199.852005887
199.839789248
200.263299417
200.723459506
199.852005887
199.835717034
199.852005887
199.8560781
201.578624272
200.743820572
200.743820572
200.263299417

Average distance is : 200.214 cm
Average deviation is : 0.520 cm
Block: 6
======================================
199.872366953
199.835717034
200.743820572
199.819428182
199.8560781
200.743820572
199.8560781
199.8560781
199.819428182
199.8560781
199.8560781
199.835717034
199.823500395
199.835717034
200.760109425
200.723459506
199.8560781
200.723459506
200.707170653
200.723459506
199.835717034
200.283660483
199.872366953
200.743820572
200.707170653

Average distance is : 200.182 cm
Average deviation is : 0.429 cm
Block: 7
======================================
199.872366953
199.8560781
199.8560781
199.839789248
199.8560781
200.760109425
200.27958827
200.283660483
200.723459506
201.155114102
200.247010565
200.295877123
200.263299417
200.283660483
199.786850476
200.27958827
200.267371631
199.819428182
199.835717034
199.872366953
199.872366953
200.27958827
199.803139329
200.267371631
200.27958827

Average distance is : 200.157 cm
Average deviation is : 0.349 cm
Block: 8
======================================
200.263299417
199.872366953
200.247010565
200.743820572
200.299949336
200.27958827
200.743820572
200.283660483
199.839789248
199.839789248
199.803139329
200.27958827
200.263299417
200.283660483
199.8560781
199.835717034
200.247010565
199.819428182
200.299949336
199.823500395
199.8560781
200.263299417
201.151041889
200.283660483
200.283660483

Average distance is : 200.190 cm
Average deviation is : 0.339 cm
Block: 9
======================================
201.151041889
200.707170653
200.247010565
199.819428182
199.391845798
199.819428182
201.134753036
200.267371631
200.27958827
200.283660483
200.247010565
200.263299417
200.263299417
200.263299417
200.263299417
199.819428182
200.707170653
200.283660483
200.739748359
200.743820572
200.283660483
200.263299417
200.263299417
199.803139329
200.283660483

Average distance is : 200.304 cm
Average deviation is : 0.404 cm
Block: 10
======================================
199.786850476
200.247010565
199.839789248
199.803139329
199.835717034
201.118464184
200.263299417
201.151041889
199.803139329
199.835717034
199.803139329
199.76648941
200.263299417
200.27958827
200.283660483
200.27958827
200.247010565
199.819428182
199.803139329
199.819428182
200.247010565
200.263299417
199.803139329
199.819428182
200.295877123

Average distance is : 200.099 cm
Average deviation is : 0.383 cm