
Block: 1
======================================
197.824043727
198.214976192
198.247553897
198.247553897
198.231265044

Block: 2
======================================
198.214976192
197.84033258
198.25162611
197.84033258
198.316781521

Block: 3
======================================
197.787393808
198.214976192
198.300492668
198.333070374
198.284203815

Block: 4
======================================
198.26384275
197.856621432
198.267914963
198.284203815
198.26384275

Block: 5
======================================
198.316781521
198.247553897
198.247553897
198.284203815
198.300492668

Block: 6
======================================
198.26384275
197.852549219
198.247553897
198.214976192
198.231265044

Block: 7
======================================
197.767032743
197.824043727
198.300492668
198.300492668
198.300492668

Block: 8
======================================
198.247553897
197.872910285
197.856621432
198.284203815
198.267914963

Block: 9
======================================
198.284203815
197.856621432
198.316781521
198.26384275
198.284203815

Block: 10
======================================
198.267914963
197.803682661
198.284203815
198.300492668
198.300492668
