
Block: 1
======================================
100.400441885
100.834092498
100.801052451
100.801052451
101.701393723
100.437611938
101.267743111
100.834092498
100.768012404
101.234703064

Block: 2
======================================
100.421091914
100.801052451
100.416961908
99.9502712488
100.784532428
99.9544012547
101.230573058
101.234703064
101.234703064
101.251223087

Block: 3
======================================
100.834092498
100.350881815
100.367401838
100.780402422
100.400441885
100.813442469
101.680743694
100.433481932
99.9874413013
100.801052451

Block: 4
======================================
100.813442469
100.796922445
100.850612521
100.834092498
100.796922445
100.383921862
100.784532428
100.834092498
100.801052451
100.817572474

Block: 5
======================================
100.416961908
100.400441885
100.416961908
100.813442469
99.9667912722
101.247093081
99.9874413013
101.251223087
101.234703064
100.817572474

Block: 6
======================================
100.404571891
100.416961908
100.850612521
100.367401838
100.796922445
100.363271832
100.796922445
100.817572474
100.796922445
99.9874413013

Block: 7
======================================
100.421091914
100.470651984
100.367401838
101.251223087
101.218183041
100.350881815
100.834092498
100.834092498
100.416961908
100.850612521

Block: 8
======================================
100.416961908
100.813442469
100.796922445
100.780402422
101.247093081
100.367401838
100.854742527
100.433481932
101.230573058
100.421091914

Block: 9
======================================
100.400441885
100.834092498
100.834092498
100.346751809
100.450001955
101.251223087
99.9998313189
100.817572474
100.834092498
100.850612521

Block: 10
======================================
100.400441885
100.796922445
100.383921862
100.834092498
100.416961908
100.400441885
100.780402422
100.817572474
100.383921862
100.801052451
