
Block: 1
======================================
48.8187450886
48.8310917616
48.8845940113
48.8187450886
48.8845940113
48.8845940113
48.8352073193
48.8352073193
48.8352073193
48.8681317806
48.8475539923
48.8681317806
48.8310917616
48.8516695499
48.8516695499
48.8722473383
48.8681317806
48.8516695499
48.8681317806
48.8516695499
48.8516695499
48.8310917616
48.8845940113
48.8187450886
48.8187450886
48.8681317806
48.8681317806
48.8310917616
48.8681317806
48.8516695499
48.8352073193
48.8516695499
48.8681317806
48.8516695499
48.888709569
48.8516695499
48.8516695499
48.8475539923
48.8681317806
48.8516695499
48.8516695499
48.8310917616
48.8352073193
48.8845940113
48.8516695499
48.901056242
48.8681317806
48.8681317806
48.8475539923
48.8516695499
48.8516695499
48.8681317806
48.8681317806
48.8681317806
49.1109496832
48.8352073193
48.8681317806
48.8681317806
48.8516695499
48.8516695499
48.8681317806
48.8681317806
48.8352073193
48.8352073193
48.8516695499
48.8681317806
48.8681317806
48.8352073193
48.8681317806
48.8516695499
48.8352073193
48.8310917616
48.8516695499
48.8310917616
48.8722473383

Block: 2
======================================
48.8681317806
48.8722473383
48.8845940113
48.8516695499
48.8681317806
48.8516695499
48.8681317806
48.8516695499
48.8516695499
48.8516695499
48.8352073193
48.8681317806
48.8352073193
48.8310917616
48.538887167
48.8681317806
48.8516695499
48.8722473383
48.8516695499
48.8681317806
48.8845940113
48.8352073193
48.8681317806
48.8516695499
48.8681317806
48.8681317806
48.8475539923
48.8516695499
48.8681317806
48.8516695499
48.8681317806
48.8516695499
48.8722473383
48.8681317806
48.8681317806
48.8352073193
48.8681317806
48.8681317806
48.8516695499
48.8516695499
48.8475539923
48.8681317806
48.8352073193
48.8310917616
48.8845940113
48.8352073193
48.888709569
48.8352073193
48.8516695499
48.8681317806
48.8310917616
49.300265336
48.8352073193
48.8516695499
48.8516695499
48.8516695499
48.8681317806
48.8681317806
48.8516695499
48.8516695499
49.3167275667
48.8681317806
48.8475539923
48.8722473383
48.8516695499
48.8681317806
48.8681317806
48.8310917616
48.8681317806
48.8516695499
48.8516695499
48.8516695499
48.8352073193
48.888709569
48.8516695499

Block: 3
======================================
48.8516695499
48.8681317806
48.888709569
48.8516695499
48.8352073193
48.8352073193
48.8681317806
48.8516695499
48.8516695499
48.8516695499
48.8516695499
48.8681317806
48.8845940113
48.8681317806
48.8310917616
48.8681317806
48.8681317806
48.8681317806
48.8681317806
48.8681317806
48.8681317806
48.8516695499
48.901056242
48.8516695499
48.8310917616
48.8516695499
48.8516695499
48.8681317806
48.8681317806
48.8516695499
48.8845940113
48.8681317806
48.8681317806
48.8681317806
48.8516695499
48.8475539923
48.8681317806
48.8681317806
48.8352073193
48.8516695499
48.8516695499
48.8681317806
48.8516695499
48.8516695499
48.8352073193
49.3331897974
48.888709569
48.8681317806
48.8516695499
48.8681317806
48.8681317806
48.8516695499
48.8845940113
48.8845940113
48.8516695499
48.8352073193
48.8516695499
48.8475539923
48.8681317806
48.8516695499
48.8352073193
48.8845940113
48.8681317806
48.8516695499
48.8516695499
48.8516695499
48.8187450886
48.8681317806
48.8516695499
48.8681317806
48.8352073193
48.8681317806
49.300265336
48.8681317806
48.8352073193

Block: 4
======================================
48.8722473383
48.8681317806
48.8310917616
48.8310917616
48.8681317806
48.8845940113
48.8516695499
48.8516695499
48.8681317806
48.8352073193
48.8516695499
48.8845940113
48.888709569
48.8681317806
48.8352073193
48.8681317806
48.8516695499
48.8681317806
48.8681317806
48.8352073193
48.8516695499
48.8681317806
48.8310917616
48.8475539923
48.8516695499
48.8352073193
48.8516695499
48.8516695499
48.8516695499
48.8516695499
48.8681317806
48.8516695499
48.8681317806
48.8352073193
48.8310917616
48.8681317806
48.8516695499
48.8516695499
48.8681317806
48.8352073193
48.8352073193
48.8681317806
48.8681317806
48.8516695499
48.8681317806
48.8516695499
48.8516695499
48.8352073193
48.8681317806
48.8681317806
48.8516695499
48.8516695499
48.8681317806
48.8475539923
49.0903718948
48.8845940113
48.8681317806
48.8681317806
48.8722473383
48.8845940113
48.8516695499
48.888709569
48.8516695499
48.8475539923
48.8722473383
48.8352073193
48.8516695499
48.8516695499
48.8681317806
48.8516695499
48.8516695499
48.8681317806
48.8722473383
48.8516695499
48.8516695499

Block: 5
======================================
48.8681317806
48.8681317806
48.8681317806
48.8681317806
48.8516695499
48.8845940113
48.8310917616
48.8352073193
48.8681317806
48.8681317806
48.8352073193
48.8681317806
48.8516695499
48.8516695499
48.8516695499
48.8516695499
48.8516695499
48.8845940113
48.8845940113
48.8681317806
48.8681317806
48.8516695499
48.8516695499
48.8516695499
48.8516695499
48.8681317806
48.8352073193
48.8187450886
48.8681317806
48.8352073193
48.8516695499
48.8681317806
48.8352073193
48.8681317806
48.8516695499
48.8516695499
48.8516695499
48.8516695499
48.888709569
48.8681317806
48.8681317806
48.8516695499
48.8516695499
48.8516695499
48.8516695499
48.8352073193
48.8681317806
48.8681317806
48.8845940113
48.8681317806
48.888709569
48.8352073193
48.8516695499
48.8681317806
48.8516695499
48.8516695499
48.8845940113
48.8516695499
48.8681317806
48.8516695499
48.8516695499
48.8516695499
48.8516695499
48.8516695499
48.8352073193
48.8310917616
48.8146295309
48.8681317806
48.8352073193
48.8516695499
48.8516695499
48.8516695499
48.8681317806
48.8845940113
48.8681317806

Block: 6
======================================
48.8352073193
48.888709569
48.8845940113
48.8187450886
48.8681317806
48.8516695499
48.8516695499
48.8310917616
48.8681317806
48.8681317806
48.8681317806
49.0944874525
48.8681317806
48.8845940113
48.8722473383
48.8516695499
48.8516695499
48.8516695499
48.8475539923
48.8516695499
48.8516695499
48.8475539923
48.8681317806
48.8681317806
48.8681317806
48.8681317806
48.8516695499
48.8352073193
48.8516695499
48.8681317806
48.8845940113
48.8516695499
48.8516695499
48.8516695499
48.8516695499
48.8352073193
48.8352073193
48.8681317806
48.8681317806
48.8516695499
48.8516695499
48.8681317806
48.8352073193
48.8516695499
48.888709569
48.8516695499
48.8352073193
48.8516695499
48.8516695499
48.8516695499
48.8681317806
48.8352073193
49.2303008556
48.8681317806
48.8516695499
48.8516695499
48.8516695499
48.8516695499
48.8146295309
48.8681317806
48.8352073193
48.8310917616
48.8681317806
48.8845940113
48.8516695499
48.8681317806
48.8516695499
48.8516695499
48.8516695499
48.8352073193
48.8681317806
48.9710207224
48.8516695499
48.8681317806
48.8310917616

Block: 7
======================================
48.8681317806
49.2673408747
48.8681317806
48.888709569
48.8845940113
48.8681317806
48.8310917616
48.8516695499
48.901056242
48.8516695499
48.8475539923
48.8681317806
48.8681317806
48.8681317806
48.8516695499
48.8516695499
48.8681317806
48.8681317806
48.8516695499
48.8516695499
48.8681317806
48.8722473383
48.8681317806
48.8681317806
48.8352073193
48.8681317806
48.8681317806
48.8516695499
48.8516695499
48.888709569
48.8352073193
48.8681317806
48.8681317806
48.8681317806
48.8516695499
48.8681317806
48.8681317806
48.8516695499
48.8516695499
48.8516695499
48.8681317806
48.8681317806
48.8516695499
48.8681317806
48.8516695499
48.8516695499
48.8352073193
48.8516695499
48.8516695499
48.8516695499
48.8516695499
48.8681317806
48.8516695499
48.8681317806
48.8681317806
48.8516695499
48.8310917616
48.8681317806
48.8516695499
48.8681317806
48.8516695499
48.8516695499
48.8516695499
48.8516695499
48.8516695499
48.8516695499
48.8516695499
48.8516695499
48.8681317806
48.8475539923
48.8310917616
48.8310917616
48.8681317806
48.8352073193
48.8516695499

Block: 8
======================================
48.8681317806
48.8352073193
48.8187450886
48.8681317806
48.8516695499
48.8516695499
48.8352073193
48.888709569
48.8516695499
48.8146295309
48.8516695499
48.8681317806
48.8681317806
48.8681317806
48.8516695499
48.8310917616
48.8845940113
48.8681317806
48.8516695499
48.8516695499
48.8516695499
48.8681317806
48.8475539923
48.8516695499
48.8352073193
48.8681317806
48.8681317806
48.8681317806
48.8681317806
48.8475539923
48.8681317806
48.8475539923
48.8722473383
48.888709569
48.8681317806
48.8516695499
48.8516695499
48.8516695499
48.8681317806
48.8310917616
48.8310917616
48.8352073193
48.8516695499
48.8681317806
48.8516695499
48.8681317806
48.8475539923
48.8516695499
48.8681317806
48.8352073193
48.8722473383
48.8516695499
48.8352073193
48.8516695499
48.8516695499
48.8681317806
48.8352073193
48.8516695499
48.8681317806
48.8516695499
48.8516695499
48.8516695499
48.8681317806
48.8681317806
48.8516695499
48.8516695499
48.8681317806
48.8516695499
48.888709569
48.8310917616
48.8310917616
48.8475539923
48.8516695499
48.8352073193
48.8352073193

Block: 9
======================================
48.8352073193
48.8352073193
48.8681317806
48.8516695499
48.9216340303
48.8352073193
48.8516695499
48.8516695499
48.8722473383
48.8516695499
48.8845940113
48.8681317806
48.8516695499
48.8681317806
48.8681317806
48.8681317806
48.8681317806
48.8681317806
48.8681317806
48.8681317806
48.8681317806
48.8146295309
48.8681317806
48.8475539923
48.8845940113
48.8681317806
48.8845940113
48.8516695499
48.8516695499
48.8516695499
48.8681317806
48.8722473383
48.8475539923
48.8681317806
48.8681317806
48.8516695499
48.8845940113
48.8352073193
48.8681317806
48.8516695499
48.8681317806
48.8681317806
48.8516695499
48.8352073193
48.8845940113
48.8681317806
48.8845940113
48.8681317806
48.8516695499
48.8352073193
48.8352073193
48.8310917616
48.8681317806
48.8310917616
48.8681317806
48.8681317806
48.8681317806
48.8681317806
48.8475539923
48.8681317806
48.8516695499
48.8681317806
48.8681317806
48.8310917616
48.8352073193
48.8516695499
48.8681317806
48.8681317806
48.8681317806
48.8516695499
48.8352073193
48.8516695499
48.8681317806
48.8475539923
48.8352073193

Block: 10
======================================
48.8187450886
48.8516695499
48.8516695499
48.8681317806
48.8310917616
48.8516695499
48.8516695499
48.8681317806
48.8681317806
48.8310917616
48.8516695499
48.8516695499
48.8516695499
48.8681317806
48.8681317806
48.8681317806
48.8681317806
48.8516695499
48.888709569
48.8516695499
48.8516695499
48.8352073193
48.8310917616
48.8475539923
48.8516695499
48.8516695499
48.8475539923
48.8516695499
48.8516695499
48.8146295309
48.8681317806
48.8681317806
48.8681317806
48.8516695499
48.8310917616
48.8516695499
48.8681317806
48.8516695499
48.8681317806
48.8516695499
48.8845940113
48.8516695499
48.8516695499
48.8516695499
48.8516695499
48.8352073193
48.8516695499
48.8681317806
48.8516695499
48.8681317806
48.8516695499
48.8352073193
48.8475539923
48.8681317806
48.8516695499
48.8681317806
48.8516695499
48.8516695499
48.8681317806
48.8681317806
48.8681317806
48.8722473383
48.8681317806
48.8516695499
48.888709569
48.8845940113
48.8681317806
48.8516695499
48.8681317806
48.8516695499
48.8352073193
48.8681317806
48.8352073193
48.8516695499
48.8681317806
