
Block: 1
======================================
49.2673408747
49.213838625
48.8516695499
49.2303008556
49.2838031054
48.8516695499
48.888709569
49.2467630863
49.2961497784
48.8845940113

Block: 2
======================================
49.2673408747
49.263225317
48.8516695499
48.8516695499
48.8516695499
48.8845940113
49.300265336
48.8681317806
48.8681317806
48.8681317806

Block: 3
======================================
48.8516695499
48.888709569
48.8310917616
48.8845940113
48.8681317806
48.8516695499
48.8681317806
48.8681317806
48.8681317806
48.8681317806

Block: 4
======================================
48.8845940113
48.8352073193
48.8681317806
48.8146295309
48.8516695499
48.8681317806
48.8352073193
48.8516695499
48.8310917616
48.8516695499

Block: 5
======================================
48.8681317806
48.8516695499
48.8352073193
48.8352073193
48.8681317806
48.8516695499
48.8681317806
48.8681317806
48.8681317806
48.8845940113

Block: 6
======================================
48.8516695499
48.8310917616
48.8475539923
48.8516695499
48.8352073193
48.8681317806
48.9051717997
48.8352073193
48.8516695499
48.8516695499

Block: 7
======================================
48.8516695499
48.8352073193
48.888709569
48.8310917616
48.8516695499
48.8681317806
48.8516695499
48.8681317806
48.8681317806
48.8352073193

Block: 8
======================================
48.8352073193
48.8352073193
48.8516695499
48.8516695499
48.8681317806
48.8681317806
48.8475539923
48.8352073193
48.8516695499
48.8310917616

Block: 9
======================================
48.8845940113
48.888709569
48.8845940113
48.8516695499
48.8722473383
48.8352073193
48.8352073193
48.8516695499
48.8352073193
48.8516695499

Block: 10
======================================
45.6909212589
48.8516695499
48.8516695499
48.8310917616
48.8475539923
48.8516695499
48.8516695499
48.8516695499
48.8516695499
48.8681317806
