
Block: 1
======================================
48.9051717997
48.8352073193
48.8681317806
48.901056242
48.8352073193
48.8681317806
48.8845940113
48.8681317806
48.8845940113
48.8475539923
48.8681317806
48.8845940113
48.8475539923
48.8516695499
48.8681317806
48.8516695499
48.8310917616
48.8681317806
48.8516695499
48.8352073193
48.8681317806
48.8516695499
48.8681317806
48.8352073193
48.8516695499
48.888709569
48.8516695499
48.8681317806
48.8681317806
48.8516695499
48.8475539923
48.8845940113
48.8845940113
48.8681317806
48.9051717997
48.8516695499
48.8845940113
48.8722473383
48.8516695499
48.8352073193
48.8722473383
48.8681317806
48.8845940113
48.8516695499
48.8681317806
48.8681317806
48.8516695499
48.8681317806
48.8516695499
48.8187450886

Block: 2
======================================
48.8310917616
48.8681317806
48.8845940113
48.8310917616
48.8516695499
48.8681317806
48.8352073193
48.8681317806
48.8681317806
48.8352073193
48.8516695499
48.8681317806
48.8475539923
48.8310917616
48.8352073193
48.8681317806
48.888709569
48.8516695499
48.8516695499
48.8352073193
48.8516695499
48.8516695499
48.8681317806
48.8516695499
48.8516695499
48.8310917616
48.8310917616
48.8722473383
48.8352073193
48.8681317806
48.8681317806
48.8310917616
48.8516695499
48.8516695499
48.8352073193
48.8352073193
48.8352073193
48.8352073193
48.8516695499
48.8516695499
48.8516695499
48.8352073193
48.8352073193
48.8845940113
48.8681317806
48.8146295309
48.8681317806
48.8516695499
48.8516695499
48.8475539923

Block: 3
======================================
48.8475539923
48.8310917616
48.8352073193
48.8310917616
48.8516695499
48.8187450886
48.8352073193
48.8146295309
48.8516695499
48.8310917616
48.8516695499
48.8681317806
48.8516695499
48.8516695499
48.8352073193
48.8516695499
48.8352073193
48.8681317806
48.8352073193
48.8681317806
48.8310917616
48.8310917616
48.8516695499
48.8516695499
48.888709569
48.8516695499
48.8516695499
48.8516695499
48.8352073193
48.8681317806
48.8352073193
48.8352073193
48.8352073193
48.8352073193
48.8845940113
49.300265336
48.8516695499
48.8516695499
48.8516695499
48.8310917616
48.8516695499
48.8516695499
48.8681317806
48.8681317806
48.8516695499
48.8352073193
48.8845940113
48.8516695499
48.8516695499
48.8681317806

Block: 4
======================================
48.8352073193
48.8681317806
48.8146295309
48.8187450886
48.8681317806
48.8516695499
48.8352073193
48.8681317806
48.8146295309
48.8681317806
48.8146295309
48.8681317806
48.8845940113
48.8475539923
48.8516695499
48.8352073193
48.8516695499
48.8722473383
48.8681317806
48.8310917616
48.8352073193
48.8516695499
48.8475539923
48.8516695499
48.8516695499
48.8516695499
48.8681317806
48.8516695499
48.8516695499
48.8516695499
48.8516695499
48.8516695499
48.8516695499
48.901056242
48.8681317806
48.8516695499
48.8475539923
48.8681317806
48.8845940113
48.8310917616
48.8516695499
48.8516695499
48.8475539923
48.8722473383
48.8187450886
48.8516695499
48.8475539923
48.8681317806
48.8681317806
48.8310917616

Block: 5
======================================
48.8352073193
48.8516695499
48.8722473383
48.8516695499
48.8681317806
48.8845940113
48.8310917616
48.8681317806
48.8722473383
48.8516695499
48.8310917616
48.8681317806
48.8352073193
48.8352073193
48.8845940113
48.8516695499
48.8845940113
48.8146295309
48.8310917616
48.8516695499
48.8516695499
48.8516695499
48.8516695499
48.8516695499
48.8310917616
48.8681317806
48.8681317806
48.8516695499
48.8516695499
48.8516695499
48.8516695499
48.8681317806
48.8681317806
48.8475539923
48.8310917616
48.8352073193
48.8516695499
48.8681317806
48.8681317806
48.8681317806
48.8310917616
48.8516695499
48.8681317806
48.8681317806
48.8845940113
48.8310917616
48.8352073193
48.8516695499
48.8310917616
48.8516695499

Block: 6
======================================
48.8516695499
48.8187450886
48.8352073193
48.8681317806
48.8146295309
48.8516695499
48.8516695499
48.8681317806
48.8516695499
48.8681317806
48.8681317806
48.8681317806
48.8681317806
48.8681317806
48.8516695499
48.8722473383
48.8681317806
48.8310917616
48.8516695499
48.8681317806
48.8681317806
48.8681317806
48.8681317806
48.8516695499
48.8845940113
48.8681317806
48.8681317806
48.8845940113
48.8475539923
48.8352073193
48.8352073193
48.8352073193
48.5059627056
48.8681317806
48.8516695499
48.8352073193
48.8352073193
48.8352073193
48.8516695499
48.8516695499
48.8475539923
48.8352073193
48.8516695499
48.8681317806
48.8681317806
48.8310917616
48.8681317806
48.8310917616
48.8352073193
48.8681317806

Block: 7
======================================
48.8516695499
48.8516695499
48.8352073193
48.8516695499
48.8516695499
48.8681317806
48.8310917616
48.8516695499
48.8681317806
48.8352073193
48.8352073193
48.8681317806
48.8352073193
48.8187450886
48.8516695499
48.8845940113
48.8681317806
48.8352073193
48.8681317806
48.8516695499
48.8516695499
48.8722473383
48.888709569
48.8187450886
48.8516695499
48.8516695499
48.8516695499
48.8516695499
48.8516695499
48.8681317806
48.8681317806
48.8310917616
48.8352073193
48.8681317806
48.8681317806
48.8516695499
48.8516695499
48.8352073193
48.8516695499
48.8516695499
48.8681317806
48.8681317806
48.8681317806
48.8681317806
48.8352073193
48.8516695499
48.8681317806
48.8352073193
48.8516695499
48.8310917616

Block: 8
======================================
48.8681317806
48.8722473383
48.8352073193
48.8352073193
48.8681317806
48.8516695499
48.8352073193
48.8681317806
48.8845940113
48.8516695499
48.8681317806
48.8845940113
48.8681317806
48.8845940113
48.8516695499
48.8681317806
48.8722473383
48.8845940113
48.8352073193
48.8845940113
48.8516695499
48.8681317806
48.8681317806
48.8681317806
48.888709569
48.8681317806
48.8310917616
48.8516695499
48.8516695499
48.8516695499
48.8516695499
48.8681317806
48.8516695499
48.8516695499
48.8845940113
48.8681317806
48.8516695499
48.8516695499
48.8681317806
48.8681317806
48.8845940113
48.888709569
48.8681317806
48.8681317806
48.8681317806
48.8681317806
48.8681317806
48.8516695499
48.8516695499
48.8516695499

Block: 9
======================================
48.8310917616
48.8475539923
48.888709569
48.901056242
48.9051717997
48.8681317806
48.888709569
48.8722473383
48.8516695499
48.8516695499
48.8516695499
48.8681317806
48.8681317806
48.8681317806
48.8681317806
48.8681317806
48.901056242
48.8681317806
49.2467630863
49.2838031054
48.8681317806
48.8516695499
48.8681317806
48.8681317806
49.2673408747
49.300265336
48.8845940113
48.8845940113
48.888709569
48.8681317806
48.8845940113
48.8845940113
48.8516695499
48.888709569
49.300265336
48.888709569
48.8516695499
48.8681317806
48.8516695499
48.8845940113
48.888709569
48.8681317806
48.8681317806
48.8681317806
48.8681317806
48.8722473383
48.8681317806
48.8845940113
48.8681317806
48.8516695499

Block: 10
======================================
48.8845940113
48.8310917616
48.8516695499
48.8352073193
48.8845940113
48.8845940113
48.8352073193
48.8681317806
48.888709569
48.8475539923
48.8516695499
48.8722473383
48.8681317806
48.8681317806
48.8146295309
48.8475539923
48.8516695499
48.8681317806
48.8310917616
48.8681317806
48.8516695499
48.8722473383
48.8681317806
48.8681317806
48.8516695499
48.8681317806
48.8681317806
48.9051717997
48.8681317806
48.8681317806
48.8681317806
48.8516695499
48.8516695499
48.8516695499
48.8516695499
48.8516695499
48.8681317806
48.8516695499
48.8681317806
48.8516695499
48.8352073193
48.8681317806
48.8516695499
48.8681317806
48.8516695499
48.8516695499
48.8516695499
48.8516695499
48.8516695499
48.8516695499
