
Block: 1
======================================
50.3168080807
50.7324794054
50.30034585
50.7695194244
50.3168080807
50.7324794054
50.2838836193
50.7324794054
50.3209236383
50.3168080807
50.30034585
50.2674213886
50.3209236383
50.2674213886
50.30034585
50.30034585
50.30034585
50.3168080807
50.7160171747
50.3168080807
50.2838836193
50.3168080807
50.3168080807
50.3168080807
50.30034585

Block: 2
======================================
50.3332703114
50.337385869
50.3168080807
50.30034585
50.2509591579
50.3209236383
50.337385869
50.337385869
50.3209236383
50.337385869
50.337385869
50.3168080807
50.3044614077
50.337385869
50.7160171747
50.3209236383
50.3209236383
50.3044614077
50.30034585
50.3209236383
50.3168080807
50.2838836193
50.2674213886
50.30034585
50.30034585

Block: 3
======================================
50.7324794054
50.7160171747
50.2674213886
50.7160171747
50.30034585
50.2509591579
50.2674213886
50.7654038668
50.3044614077
50.3044614077
50.2674213886
50.7160171747
50.3209236383
50.30034585
50.699554944
50.3168080807
50.337385869
50.2838836193
50.30034585
50.30034585
50.7324794054
50.3168080807
50.2674213886
50.7489416361
50.3209236383

Block: 4
======================================
50.2838836193
50.3168080807
50.337385869
50.3209236383
50.3538480997
50.3044614077
50.3168080807
50.30034585
50.30034585
50.3044614077
50.30034585
50.3044614077
50.2838836193
50.30034585
50.3209236383
50.3168080807
50.30034585
50.30034585
50.30034585
50.30034585
50.30034585
50.3044614077
50.3168080807
50.3044614077
50.30034585

Block: 5
======================================
50.3168080807
50.3168080807
50.3044614077
50.30034585
50.0781057358
50.30034585
50.2468436003
50.6954393864
50.30034585
50.30034585
50.30034585
50.2838836193
50.30034585
50.3168080807
50.3209236383
50.30034585
50.30034585
50.2838836193
50.3209236383
50.3168080807
50.3168080807
50.3209236383
50.2838836193
50.337385869
50.2838836193

Block: 6
======================================
50.30034585
50.2838836193
50.3044614077
50.2838836193
50.2838836193
50.30034585
50.2674213886
50.3168080807
50.3044614077
50.3168080807
50.2838836193
50.30034585
50.3209236383
50.2838836193
50.3209236383
50.30034585
50.2838836193
50.2838836193
50.3209236383
50.3332703114
50.2838836193
50.30034585
50.3044614077
50.30034585
50.2838836193

Block: 7
======================================
50.3168080807
50.7489416361
50.337385869
50.3044614077
50.2838836193
50.2838836193
50.30034585
50.2468436003
50.2838836193
50.337385869
50.30034585
50.2838836193
50.2838836193
50.2838836193
50.3209236383
50.3209236383
50.3044614077
50.30034585
50.30034585
50.337385869
50.30034585
50.30034585
50.30034585
50.30034585
50.2838836193

Block: 8
======================================
50.2838836193
50.30034585
50.349732542
50.3538480997
50.7324794054
50.2838836193
50.2838836193
50.337385869
50.263305831
50.3209236383
50.2838836193
50.30034585
50.3168080807
50.7530571938
50.7489416361
50.3168080807
50.30034585
50.3044614077
50.3168080807
50.337385869
50.7324794054
50.3209236383
50.3332703114
50.2838836193
50.30034585

Block: 9
======================================
50.2838836193
50.2674213886
50.3332703114
50.2838836193
50.2838836193
50.30034585
50.3209236383
50.2838836193
50.2838836193
50.337385869
50.2838836193
50.7489416361
50.30034585
50.3538480997
50.7530571938
50.3332703114
50.337385869
50.3209236383
50.30034585
50.337385869
50.3332703114
50.30034585
50.3044614077
50.7489416361
50.7324794054

Block: 10
======================================
50.3332703114
50.2838836193
50.3538480997
50.2674213886
50.30034585
50.3168080807
50.2468436003
50.2674213886
50.30034585
50.30034585
50.7160171747
50.30034585
50.2674213886
50.30034585
50.30034585
50.30034585
50.3209236383
50.3168080807
50.30034585
50.2674213886
50.2838836193
50.30034585
50.3168080807
50.30034585
50.7160171747
