
Block: 1
======================================
50.3168080807
50.3209236383
50.2674213886
50.3168080807
50.3044614077
50.3168080807
50.3168080807
50.3538480997
50.3209236383
50.3168080807
50.2838836193
50.3044614077
50.337385869
50.2838836193
50.3044614077
50.2838836193
50.3044614077
50.3332703114
50.2838836193
50.30034585
50.2838836193
50.7160171747
50.30034585
50.3168080807
50.2674213886
50.3209236383
50.2838836193
50.2838836193
50.2838836193
50.30034585
50.3168080807
50.30034585
50.3168080807
50.7654038668
50.699554944
50.3168080807
50.7160171747
50.7119016171
50.3044614077
50.2838836193
50.3209236383
50.30034585
50.3168080807
50.7160171747
50.2838836193
50.3168080807
50.30034585
50.30034585
50.3332703114
50.30034585
50.337385869
50.2838836193
50.3332703114
50.30034585
50.3168080807
50.30034585
50.30034585
50.2838836193
50.30034585
50.3332703114
51.1810751915
50.30034585
50.30034585
50.7654038668
50.2838836193
50.2838836193
50.30034585
50.3209236383
50.3168080807
50.337385869
50.337385869
50.3209236383
50.3332703114
50.30034585
50.337385869
50.3168080807
50.30034585
50.337385869
50.7489416361
50.3168080807
50.3538480997
50.30034585
50.30034585
50.7489416361
50.7489416361
50.2838836193
50.7489416361
50.30034585
50.7530571938
50.3332703114
50.3168080807
50.7695194244
50.7654038668
50.6830927134
50.7160171747
50.3332703114
50.30034585
50.7489416361
50.3168080807
50.2838836193

Average distance is : 50.390 cm
Average deviation is : 0.181 cm
Block: 2
======================================
50.337385869
50.337385869
50.337385869
50.7160171747
50.30034585
50.7160171747
50.7695194244
50.2838836193
50.3209236383
50.3209236383
50.3168080807
50.3168080807
50.7654038668
50.3168080807
50.30034585
50.3168080807
50.3209236383
50.7489416361
51.1646129608
50.7489416361
50.3168080807
50.7530571938
50.7489416361
50.30034585
50.30034585
50.3209236383
50.3209236383
50.3538480997
50.7489416361
50.3168080807
50.3168080807
50.7654038668
50.7654038668
50.3168080807
50.7324794054
50.3209236383
50.30034585
50.337385869
50.3209236383
50.30034585
50.7654038668
50.7530571938
50.7654038668
50.30034585
50.3168080807
50.30034585
50.30034585
50.3168080807
50.337385869
50.7654038668
50.2838836193
50.7695194244
50.30034585
50.699554944
50.3332703114
50.7530571938
50.3538480997
50.7654038668
50.30034585
50.6789771557
50.7695194244
50.3168080807
50.7489416361
50.337385869
50.3168080807
50.3538480997
50.3209236383
50.7489416361
50.3168080807
50.3168080807
50.3332703114
50.2838836193
50.30034585
50.6954393864
50.30034585
50.7654038668
50.3168080807
50.30034585
50.7695194244
50.3168080807
50.337385869
50.7489416361
50.2838836193
50.7489416361
50.30034585
50.3168080807
50.3538480997
50.3332703114
50.30034585
50.30034585
50.30034585
50.30034585
50.30034585
50.3209236383
50.30034585
50.2838836193
50.30034585
50.3168080807
50.3168080807
50.3538480997

Average distance is : 50.449 cm
Average deviation is : 0.211 cm
Block: 3
======================================
50.337385869
50.30034585
50.3209236383
50.30034585
50.30034585
50.7489416361
50.7489416361
50.3168080807
50.3168080807
50.3168080807
50.3168080807
50.7324794054
50.3209236383
50.7489416361
50.3538480997
50.3168080807
50.7489416361
50.3168080807
50.3332703114
50.7695194244
50.3044614077
50.2139191389
50.337385869
50.30034585
50.7489416361
50.6954393864
50.7160171747
50.7324794054
50.7489416361
50.337385869
50.337385869
50.30034585
50.337385869
50.349732542
50.30034585
50.337385869
50.2838836193
50.2838836193
50.3168080807
50.7489416361
50.30034585
50.337385869
50.337385869
50.699554944
50.3209236383
50.7489416361
50.3332703114
50.3332703114
50.3538480997
50.3209236383
50.30034585
50.3168080807
50.3168080807
50.30034585
50.3209236383
50.337385869
50.337385869
50.349732542
50.3209236383
50.3332703114
50.30034585
50.3332703114
50.337385869
50.3168080807
50.3168080807
50.3168080807
50.7489416361
50.30034585
50.7489416361
50.3209236383
50.3168080807
50.3538480997
50.7324794054
50.3332703114
50.3044614077
50.337385869
50.3538480997
50.7489416361
50.7160171747
50.3168080807
50.3332703114
50.7489416361
50.337385869
50.3209236383
50.3538480997
50.30034585
50.3168080807
50.30034585
50.337385869
50.337385869
50.3209236383
50.337385869
50.3209236383
50.3044614077
50.7654038668
50.3168080807
50.7489416361
50.3209236383
50.3168080807
50.30034585

Average distance is : 50.413 cm
Average deviation is : 0.176 cm
Block: 4
======================================
50.3538480997
50.30034585
50.3168080807
50.3538480997
50.3044614077
50.3209236383
50.3168080807
50.337385869
50.30034585
50.7324794054
50.2838836193
50.3209236383
50.7324794054
50.6789771557
50.7324794054
50.337385869
50.3168080807
50.3168080807
50.30034585
50.3209236383
50.3168080807
50.7489416361
50.7695194244
50.3168080807
50.3332703114
50.3332703114
50.3168080807
50.3538480997
50.7324794054
50.7489416361
50.3044614077
50.7324794054
50.3332703114
50.2674213886
50.7654038668
50.6954393864
50.7530571938
50.7324794054
50.30034585
50.3168080807
50.7324794054
50.7654038668
50.3332703114
50.3044614077
50.7160171747
50.7489416361
50.7324794054
50.7859816551
50.3209236383
50.3168080807
50.7654038668
50.3538480997
50.9382572889
50.3209236383
50.3209236383
50.7489416361
50.7489416361
50.337385869
50.30034585
50.337385869
50.337385869
50.337385869
50.3044614077
50.7324794054
50.3209236383
50.3538480997
50.337385869
50.30034585
50.7654038668
50.337385869
50.7530571938
50.30034585
50.3209236383
50.7530571938
50.3332703114
50.3209236383
50.337385869
50.7324794054
50.30034585
50.7654038668
50.3168080807
50.3168080807
50.7489416361
50.30034585
50.3209236383
50.7489416361
50.263305831
50.2674213886
50.2838836193
50.7489416361
50.3168080807
50.7324794054
50.7324794054
50.337385869
50.7818660975
50.6954393864
50.3332703114
50.3168080807
50.30034585
50.7160171747

Average distance is : 50.477 cm
Average deviation is : 0.210 cm
Block: 5
======================================
50.3332703114
50.3168080807
50.3168080807
50.30034585
50.3044614077
50.337385869
50.30034585
50.30034585
50.2838836193
50.7654038668
50.30034585
50.337385869
50.3044614077
50.3168080807
50.3332703114
50.3538480997
50.3332703114
50.3332703114
50.3168080807
50.3044614077
50.337385869
50.337385869
50.30034585
50.30034585
50.30034585
50.3209236383
50.3209236383
50.3168080807
50.337385869
50.3168080807
50.3209236383
50.3168080807
50.3168080807
50.337385869
50.3168080807
50.3044614077
50.2838836193
50.3044614077
50.30034585
50.3044614077
50.3044614077
50.3044614077
50.30034585
50.3168080807
50.2838836193
50.337385869
50.3168080807
50.30034585
50.3168080807
50.3168080807
50.30034585
50.3168080807
50.3168080807
50.3209236383
50.337385869
50.30034585
50.3168080807
50.30034585
50.3168080807
50.30034585
51.012337327
50.30034585
50.3209236383
50.3044614077
50.30034585
50.30034585
50.3209236383
50.337385869
50.30034585
50.30034585
50.3044614077
50.7324794054
50.337385869
50.30034585
50.30034585
50.3168080807
50.337385869
50.3209236383
50.3209236383
50.3209236383
50.3168080807
50.30034585
50.337385869
50.30034585
50.3044614077
50.3168080807
50.2838836193
50.2838836193
50.2838836193
50.3168080807
50.3168080807
50.3332703114
50.30034585
50.30034585
50.30034585
50.30034585
50.3168080807
50.6954393864
50.337385869
50.337385869

Average distance is : 50.333 cm
Average deviation is : 0.100 cm
Block: 6
======================================
50.3332703114
50.3209236383
50.3168080807
50.7160171747
50.337385869
50.2838836193
50.2838836193
50.30034585
50.30034585
50.3168080807
50.3209236383
50.2838836193
50.337385869
50.337385869
50.30034585
50.3332703114
50.3209236383
50.2838836193
50.3168080807
50.7695194244
50.337385869
50.2838836193
50.3209236383
50.3168080807
50.30034585
50.3044614077
50.3168080807
50.3168080807
50.30034585
50.2838836193
50.7489416361
50.30034585
50.3044614077
50.3168080807
50.2838836193
50.3168080807
50.30034585
50.7160171747
50.30034585
50.3332703114
50.3168080807
50.337385869
50.3044614077
50.337385869
50.2838836193
50.3209236383
50.3168080807
50.3209236383
50.30034585
50.3168080807
50.30034585
50.3044614077
50.30034585
50.337385869
50.3209236383
50.3332703114
50.30034585
50.3209236383
50.3168080807
50.3168080807
50.3044614077
50.3044614077
50.3168080807
50.3332703114
50.7324794054
50.3168080807
50.3332703114
50.3332703114
50.3332703114
50.7489416361
50.7654038668
50.30034585
50.3209236383
50.3168080807
50.7160171747
50.3209236383
50.337385869
50.7324794054
50.3332703114
50.2838836193
50.30034585
50.3209236383
50.337385869
50.3209236383
50.3168080807
50.3209236383
50.7324794054
50.2838836193
50.3168080807
50.3168080807
50.337385869
50.7489416361
50.7489416361
50.7695194244
50.7489416361
50.7489416361
50.7695194244
50.7489416361
50.3168080807
50.3168080807

Average distance is : 50.387 cm
Average deviation is : 0.163 cm
Block: 7
======================================
50.3209236383
50.3168080807
50.30034585
50.3209236383
50.3168080807
50.7489416361
50.7654038668
50.3168080807
50.2838836193
50.349732542
50.7654038668
50.2838836193
50.7324794054
50.3168080807
50.3209236383
50.3044614077
50.337385869
50.3209236383
50.7324794054
50.7119016171
50.3044614077
50.2674213886
50.2838836193
50.2838836193
50.3168080807
50.30034585
50.7654038668
50.7489416361
50.7324794054
50.7489416361
50.7160171747
50.7324794054
50.7489416361
50.7324794054
50.7530571938
50.2838836193
50.2674213886
50.7324794054
50.30034585
50.7160171747
50.30034585
50.7489416361
50.7324794054
50.3168080807
50.2838836193
50.3044614077
50.3168080807
50.3168080807
50.3209236383
50.337385869
50.3168080807
50.337385869
50.30034585
50.7695194244
50.7489416361
50.3168080807
50.7489416361
50.3209236383
50.30034585
50.2838836193
50.3209236383
50.30034585
50.3209236383
50.3209236383
50.3168080807
50.3168080807
50.337385869
50.7324794054
50.7489416361
50.30034585
50.3538480997
50.7160171747
50.3168080807
50.3209236383
50.7654038668
50.30034585
50.337385869
50.699554944
50.7489416361
50.30034585
50.3209236383
50.7160171747
50.2838836193
50.3044614077
50.7530571938
50.30034585
50.7324794054
50.7324794054
50.6954393864
50.3168080807
50.7489416361
50.6954393864
50.337385869
50.7489416361
50.1110301971
50.7489416361
50.699554944
50.2838836193
50.30034585
50.7489416361

Average distance is : 50.475 cm
Average deviation is : 0.213 cm
Block: 8
======================================
50.3538480997
50.30034585
50.3332703114
50.3168080807
50.3168080807
50.337385869
50.3538480997
50.3168080807
50.337385869
50.30034585
50.3044614077
50.30034585
50.3044614077
50.2674213886
50.3209236383
50.2838836193
50.3168080807
50.3168080807
50.3209236383
50.3209236383
50.3168080807
50.3332703114
50.30034585
50.3168080807
50.3044614077
50.7324794054
50.30034585
50.2838836193
50.7489416361
50.3044614077
50.30034585
50.699554944
50.30034585
50.30034585
50.2838836193
50.3168080807
50.30034585
50.3044614077
50.2838836193
50.7489416361
50.30034585
50.3168080807
50.30034585
50.30034585
50.7695194244
50.30034585
50.30034585
50.699554944
50.3044614077
50.3209236383
50.30034585
50.30034585
50.3168080807
50.30034585
50.3332703114
50.3209236383
50.699554944
50.2838836193
50.337385869
50.30034585
50.337385869
50.3168080807
50.3168080807
50.2838836193
50.3168080807
50.2838836193
50.3209236383
50.2838836193
50.3209236383
50.30034585
50.30034585
50.7859816551
50.7160171747
50.2838836193
50.2838836193
50.30034585
50.30034585
50.3168080807
50.30034585
50.2838836193
50.3209236383
50.30034585
50.3168080807
50.30034585
50.3332703114
50.3168080807
50.2838836193
50.2838836193
50.699554944
50.30034585
50.30034585
50.3168080807
50.30034585
50.3044614077
50.30034585
50.3168080807
50.2838836193
50.3332703114
50.30034585
50.30034585

Average distance is : 50.350 cm
Average deviation is : 0.129 cm
Block: 9
======================================
50.2674213886
50.2838836193
50.3044614077
50.3332703114
50.337385869
50.30034585
50.3209236383
50.30034585
50.30034585
50.3209236383
50.3209236383
50.30034585
50.3209236383
50.3332703114
50.2838836193
50.30034585
50.3209236383
50.30034585
50.3209236383
50.30034585
50.3332703114
50.3209236383
50.3332703114
50.3209236383
50.2838836193
50.337385869
50.3209236383
50.3332703114
50.30034585
50.2838836193
50.7324794054
50.7695194244
50.3209236383
50.3168080807
50.337385869
50.3209236383
50.3168080807
50.3168080807
50.2838836193
50.3168080807
50.337385869
50.3168080807
50.3168080807
50.3332703114
50.3168080807
50.3332703114
50.30034585
50.3044614077
50.2838836193
50.337385869
50.3209236383
50.3044614077
50.3538480997
50.30034585
50.3168080807
50.3168080807
50.30034585
50.3209236383
50.3168080807
50.30034585
50.30034585
50.30034585
50.7489416361
50.3044614077
50.2838836193
50.3168080807
50.30034585
50.30034585
50.3168080807
50.2838836193
50.2838836193
50.3332703114
50.337385869
50.30034585
50.3209236383
50.3209236383
50.7160171747
50.337385869
50.3209236383
50.30034585
50.2838836193
50.2838836193
50.30034585
50.30034585
50.2838836193
50.3168080807
50.30034585
50.3168080807
50.3209236383
50.3332703114
50.30034585
50.30034585
50.337385869
50.30034585
50.3168080807
50.337385869
50.3209236383
50.30034585
50.30034585
50.3168080807

Average distance is : 50.329 cm
Average deviation is : 0.086 cm
Block: 10
======================================
50.2838836193
50.30034585
50.337385869
50.3168080807
50.3209236383
50.2674213886
50.3209236383
50.3168080807
50.2838836193
50.7489416361
50.3044614077
50.3168080807
50.337385869
50.3168080807
50.337385869
50.2838836193
50.7654038668
50.30034585
50.3332703114
50.3044614077
50.2838836193
50.3044614077
50.3332703114
50.337385869
50.3044614077
50.30034585
50.337385869
50.2838836193
50.3209236383
50.30034585
50.30034585
50.3168080807
50.7489416361
50.30034585
50.30034585
50.2838836193
50.7324794054
50.30034585
50.3044614077
50.30034585
50.30034585
50.30034585
50.7489416361
50.2838836193
50.30034585
50.30034585
50.30034585
50.3168080807
50.30034585
50.30034585
50.2838836193
50.30034585
50.2838836193
50.30034585
50.337385869
50.30034585
50.30034585
50.7818660975
50.30034585
50.3044614077
50.2674213886
50.30034585
50.7160171747
50.3209236383
50.337385869
50.30034585
50.337385869
50.2674213886
50.3168080807
50.30034585
50.3168080807
50.30034585
50.3168080807
50.3168080807
50.337385869
50.3168080807
50.3168080807
50.30034585
50.3168080807
50.3538480997
50.3209236383
50.337385869
50.337385869
50.3209236383
50.3044614077
50.3168080807
50.2838836193
50.3332703114
50.3332703114
50.3209236383
50.7324794054
50.337385869
50.3538480997
50.3209236383
50.3044614077
50.30034585
50.337385869
50.3168080807
50.3209236383
50.3168080807

Average distance is : 50.345 cm
Average deviation is : 0.120 cm