
Block: 1
======================================
401.57009871
401.586271977
401.113203907
400.668439054
401.57009871
401.129377174
401.09703064
401.092987323
400.652265787
400.688655639
401.129377174
400.688655639
401.113203907
401.129377174
401.113203907
401.113203907
400.668439054
401.994646978
401.129377174
401.553925443
400.688655639
401.553925443
401.113203907
401.092987323
401.113203907

Average distance is : 401.135 cm
Average deviation is : 0.350 cm
Block: 2
======================================
401.060640788
401.09703064
401.537752175
402.419195247
400.652265787
401.076814055
401.946127176
401.092987323
401.060640788
401.076814055
401.521578908
401.060640788
401.942083859
401.060640788
401.485189056
401.925910592
402.403021979
401.044467521
401.469015789
401.060640788
400.599702668
401.076814055
400.63609252
402.366632128
400.619919252

Average distance is : 401.332 cm
Average deviation is : 0.554 cm
Block: 3
======================================
400.652265787
400.63609252
401.076814055
401.092987323
401.076814055
400.652265787
401.09703064
401.129377174
401.092987323
400.63609252
401.092987323
401.533708858
400.247934103
400.672482371
400.231760836
400.668439054
401.978473711
400.215587568
401.549882126
400.672482371
400.26410737
400.668439054
400.688655639
400.688655639
401.129377174

Average distance is : 400.858 cm
Average deviation is : 0.436 cm
Block: 4
======================================
399.843602419
400.247934103
399.823385835
400.684612322
399.839559102
399.839559102
401.566055393
400.280280638
400.26410737
400.247934103
400.721002173
399.823385835
400.280280638
399.839559102
402.010820246
400.26410737
399.839559102
400.721002173
400.721002173
399.823385835
400.280280638
400.280280638
400.247934103
399.819342518
401.553925443

Average distance is : 400.355 cm
Average deviation is : 0.602 cm
Block: 5
======================================
400.247934103
400.704828906
400.684612322
400.247934103
400.26410737
400.231760836
400.684612322
400.26410737
400.280280638
400.704828906
400.704828906
400.721002173
400.26410737
400.260064054
400.72504549
400.704828906
400.721002173
400.704828906
400.704828906
400.72504549
401.161723709
400.243890786
400.296453905
400.737175441
401.586271977

Average distance is : 400.583 cm
Average deviation is : 0.329 cm
Block: 6
======================================
400.688655639
401.145550442
400.652265787
400.668439054
401.994646978
401.129377174
401.129377174
401.145550442
401.125333858
400.688655639
401.113203907
401.092987323
401.553925443
401.092987323
401.092987323
400.688655639
401.09703064
401.076814055
401.113203907
401.113203907
401.553925443
401.092987323
401.10916059
401.990603662
401.129377174

Average distance is : 401.131 cm
Average deviation is : 0.347 cm
Block: 7
======================================
401.10916059
401.994646978
401.553925443
400.668439054
401.092987323
401.553925443
400.668439054
401.10916059
401.974430394
400.63609252
401.145550442
400.688655639
401.129377174
401.092987323
401.553925443
401.553925443
401.553925443
401.958257127
401.553925443
401.553925443
401.553925443
401.553925443
401.129377174
401.537752175
401.553925443

Average distance is : 401.339 cm
Average deviation is : 0.402 cm
Block: 8
======================================
402.419195247
401.57009871
400.656309104
400.72504549
401.145550442
400.672482371
401.57009871
400.721002173
400.704828906
400.247934103
400.280280638
400.280280638
401.113203907
400.688655639
400.704828906
400.243890786
401.994646978
400.26410737
401.974430394
401.145550442
401.125333858
402.435368514
400.721002173
401.129377174
401.129377174

Average distance is : 401.027 cm
Average deviation is : 0.652 cm
Block: 9
======================================
401.129377174
400.684612322
401.994646978
400.280280638
400.688655639
401.10916059
400.247934103
401.57009871
400.247934103
401.129377174
400.704828906
400.688655639
400.672482371
400.247934103
400.704828906
400.688655639
400.247934103
400.26410737
400.247934103
400.260064054
400.656309104
400.688655639
400.688655639
400.688655639
400.672482371

Average distance is : 400.688 cm
Average deviation is : 0.435 cm
Block: 10
======================================
400.26410737
400.247934103
400.688655639
401.113203907
401.537752175
400.672482371
401.113203907
400.668439054
400.688655639
400.26410737
401.537752175
400.688655639
401.129377174
401.129377174
400.26410737
401.129377174
402.398978662
400.211544251
400.247934103
400.247934103
400.652265787
400.211544251
400.215587568
400.688655639
400.672482371

Average distance is : 400.747 cm
Average deviation is : 0.541 cm