
Block: 1
======================================
401.113203907
401.076814055
400.9433846
400.63609252
400.668439054
400.215587568
400.211544251
401.092987323
400.211544251
400.672482371
400.652265787
400.652265787
400.652265787
400.704828906
401.076814055
400.753348708
401.113203907
400.63609252
400.231760836
401.161723709
401.517535591
400.672482371
401.09703064
400.672482371
401.092987323

Average distance is : 400.781 cm
Average deviation is : 0.343 cm
Block: 2
======================================
400.672482371
400.672482371
401.09703064
401.537752175
400.652265787
400.640135837
401.10916059
401.09703064
400.63609252
400.668439054
401.060640788
400.63609252
401.10916059
400.656309104
400.656309104
401.092987323
401.602445245
401.586271977
401.129377174
401.09703064
400.652265787
400.721002173
401.978473711
400.672482371
400.688655639

Average distance is : 400.965 cm
Average deviation is : 0.381 cm
Block: 3
======================================
400.227717519
400.227717519
400.227717519
400.672482371
400.652265787
401.09703064
400.741218758
400.211544251
400.231760836
400.231760836
400.753348708
400.231760836
401.092987323
400.741218758
400.227717519
400.227717519
400.211544251
400.211544251
401.161723709
400.280280638
400.215587568
401.958257127
400.215587568
400.211544251
400.195370984

Average distance is : 400.498 cm
Average deviation is : 0.444 cm
Block: 4
======================================
400.668439054
400.656309104
400.652265787
401.161723709
400.672482371
400.215587568
400.652265787
400.619919252
400.63609252
400.179197717
400.640135837
400.619919252
401.145550442
400.619919252
400.603745985
400.211544251
400.640135837
400.656309104
400.195370984
400.672482371
400.721002173
400.195370984
400.199414301
400.211544251
401.145550442

Average distance is : 400.584 cm
Average deviation is : 0.293 cm
Block: 5
======================================
401.092987323
400.619919252
401.09703064
400.619919252
401.060640788
400.163024449
401.076814055
400.227717519
400.63609252
400.640135837
400.195370984
401.076814055
401.076814055
401.060640788
401.060640788
400.688655639
400.652265787
400.672482371
401.501362324
400.63609252
400.587572718
401.092987323
401.549882126
400.603745985
400.619919252

Average distance is : 400.812 cm
Average deviation is : 0.362 cm
Block: 6
======================================
400.619919252
401.501362324
401.145550442
400.656309104
400.619919252
400.63609252
400.619919252
401.044467521
401.553925443
401.092987323
400.63609252
400.640135837
401.080857372
402.382805395
401.060640788
401.076814055
401.080857372
401.113203907
401.485189056
401.505405641
401.060640788
401.129377174
401.060640788
401.064684105
401.044467521

Average distance is : 401.076 cm
Average deviation is : 0.401 cm
Block: 7
======================================
401.501362324
401.501362324
401.044467521
401.553925443
401.925910592
401.909737325
401.485189056
401.028294253
401.485189056
401.485189056
401.925910592
402.35045886
401.060640788
401.469015789
401.909737325
401.044467521
401.469015789
401.485189056
401.533708858
401.028294253
401.044467521
401.549882126
402.366632128
401.044467521
401.485189056

Average distance is : 401.508 cm
Average deviation is : 0.390 cm
Block: 8
======================================
401.505405641
401.028294253
401.501362324
401.044467521
401.501362324
401.521578908
401.060640788
401.537752175
401.942083859
401.080857372
401.517535591
401.080857372
401.533708858
401.533708858
401.145550442
400.63609252
400.672482371
401.092987323
400.652265787
401.113203907
401.092987323
401.10916059
400.63609252
401.09703064
401.129377174

Average distance is : 401.191 cm
Average deviation is : 0.338 cm
Block: 9
======================================
400.652265787
402.398978662
400.672482371
400.652265787
400.688655639
401.10916059
400.656309104
401.113203907
400.668439054
400.684612322
400.688655639
400.672482371
400.757392025
400.247934103
400.247934103
400.243890786
400.704828906
400.26410737
400.688655639
400.247934103
400.247934103
400.688655639
400.243890786
400.688655639
400.26410737

Average distance is : 400.648 cm
Average deviation is : 0.446 cm
Block: 10
======================================
400.672482371
400.312627172
400.332843757
401.194070244
400.316670489
400.296453905
400.316670489
401.129377174
400.247934103
401.145550442
400.704828906
400.247934103
400.688655639
402.010820246
400.704828906
400.704828906
400.260064054
400.688655639
400.704828906
400.231760836
400.231760836
400.704828906
400.26410737
400.231760836
400.773565292

Average distance is : 400.605 cm
Average deviation is : 0.424 cm