
Block: 1
======================================
200.027111053
200.075977612
200.075977612
199.904944658
200.059688759
200.096338677
200.043399906
200.503559995
200.055616546
200.059688759
200.947431231
200.927070165
200.503559995
200.910781312
200.027111053
200.055616546
200.043399906
199.59952867
200.075977612
200.914853525
200.503559995
200.466910076
200.487271142
200.943359017
200.080049825
200.059688759
200.914853525
200.02303884
200.931142378
200.947431231
200.910781312
200.947431231
200.483198929
200.910781312
200.947431231
200.059688759
200.059688759
200.914853525
200.931142378
200.519848847
200.006749988
200.059688759
200.503559995
200.963720083
200.963720083
200.914853525
200.043399906
200.931142378
200.947431231
200.043399906
200.059688759
200.947431231
200.059688759
200.059688759
200.043399906
200.039327693
200.059688759
200.947431231
200.043399906
200.499487782
200.02303884
200.043399906
200.043399906
200.963720083
200.931142378
200.059688759
200.470982289
200.487271142
200.470982289
200.487271142
200.967792296
200.963720083
200.010822201
200.931142378
200.027111053

Average distance is : 200.426 cm
Average deviation is : 0.413 cm
Block: 2
======================================
199.990461135
200.02303884
200.059688759
200.075977612
200.075977612
200.487271142
200.02303884
200.519848847
200.519848847
200.043399906
200.02303884
200.043399906
200.02303884
200.02303884
200.059688759
200.5361377
200.503559995
200.043399906
200.540209913
200.519848847
200.075977612
200.503559995
200.043399906
200.039327693
200.503559995
200.075977612
199.632106376
200.059688759
200.503559995
200.039327693
200.519848847
200.5361377
200.059688759
200.483198929
200.540209913
200.059688759
200.075977612
200.027111053
200.039327693
200.503559995
200.043399906
200.02303884
200.487271142
200.984081149
200.075977612
200.059688759
200.075977612
200.059688759
200.947431231
200.059688759
200.947431231
200.043399906
200.039327693
200.947431231
200.059688759
200.055616546
200.039327693
200.059688759
200.043399906
200.075977612
199.615817523
200.043399906
200.059688759
200.059688759
200.059688759
200.503559995
200.075977612
200.043399906
200.059688759
200.043399906
200.059688759
200.059688759
200.059688759
200.927070165
200.075977612

Average distance is : 200.204 cm
Average deviation is : 0.292 cm
Block: 3
======================================
200.487271142
200.470982289
200.043399906
200.483198929
200.059688759
200.059688759
200.503559995
200.059688759
200.043399906
200.487271142
200.947431231
200.914853525
200.963720083
200.947431231
200.487271142
200.931142378
200.059688759
200.043399906
200.043399906
200.02303884
200.075977612
200.059688759
200.931142378
200.503559995
200.059688759
200.947431231
200.487271142
200.487271142
200.503559995
200.02303884
200.027111053
200.075977612
200.931142378
200.931142378
200.927070165
200.075977612
200.927070165
200.931142378
200.02303884
200.059688759
200.02303884
200.02303884
200.059688759
200.059688759
200.059688759
200.02303884
200.059688759
200.059688759
200.059688759
200.043399906
199.59952867
200.043399906
200.519848847
200.059688759
200.963720083
200.043399906
200.039327693
199.615817523
200.5361377
200.096338677
200.059688759
200.043399906
200.059688759
200.075977612
200.059688759
200.059688759
200.039327693
200.059688759
200.043399906
200.947431231
200.043399906
201.407591319
200.059688759
200.043399906
200.075977612

Average distance is : 200.295 cm
Average deviation is : 0.389 cm
Block: 4
======================================
200.039327693
200.519848847
200.503559995
200.503559995
200.487271142
200.466910076
200.075977612
200.059688759
200.039327693
200.059688759
200.519848847
200.519848847
200.059688759
199.925305724
200.043399906
200.075977612
200.519848847
200.02303884
200.043399906
200.043399906
200.059688759
200.519848847
200.487271142
200.059688759
200.059688759
200.059688759
200.043399906
200.519848847
200.043399906
200.523921061
200.519848847
200.503559995
200.519848847
200.963720083
199.835717034
200.540209913
200.503559995
200.5361377
200.996297789
200.519848847
200.519848847
200.059688759
200.039327693
200.503559995
200.984081149
200.075977612
200.523921061
200.5361377
200.980008936
200.519848847
200.075977612
200.5361377
200.5361377
200.996297789
200.540209913
200.499487782
200.059688759
200.5361377
200.519848847
200.5361377
200.075977612
200.043399906
200.503559995
200.059688759
200.075977612
200.963720083
200.5361377
200.519848847
200.996297789
200.059688759
200.075977612
200.963720083
200.519848847
200.5361377
200.487271142

Average distance is : 200.378 cm
Average deviation is : 0.308 cm
Block: 5
======================================
200.075977612
200.059688759
200.075977612
200.5361377
200.059688759
200.540209913
200.556498766
200.075977612
200.11262753
201.000370002
200.503559995
200.523921061
200.963720083
200.984081149
200.963720083
200.055616546
200.075977612
200.11262753
200.984081149
200.980008936
200.963720083
200.980008936
200.552426553
200.059688759
200.519848847
200.499487782
200.984081149
199.648395228
200.967792296
200.519848847
200.503559995
200.092266464
200.075977612
200.503559995
200.027111053
200.519848847
200.059688759
200.503559995
200.963720083
200.487271142
200.096338677
200.727531719
200.5361377
200.519848847
200.503559995
200.075977612
200.519848847
200.059688759
200.059688759
200.092266464
200.043399906
200.075977612
200.540209913
200.075977612
200.519848847
200.092266464
200.075977612
200.059688759
200.096338677
200.483198929
201.000370002
200.059688759
200.519848847
200.523921061
200.075977612
200.519848847
200.503559995
200.5361377
200.556498766
200.556498766
200.967792296
200.963720083
200.963720083
200.503559995
200.519848847

Average distance is : 200.436 cm
Average deviation is : 0.349 cm
Block: 6
======================================
200.947431231
200.947431231
200.947431231
200.947431231
200.963720083
200.963720083
200.519848847
200.963720083
200.963720083
200.092266464
200.096338677
200.963720083
200.108555317
200.980008936
200.963720083
200.980008936
200.519848847
200.5361377
200.996297789
201.000370002
200.055616546
201.012586641
200.11262753
200.096338677
200.980008936
200.980008936
200.963720083
201.000370002
200.075977612
200.947431231
200.984081149
200.523921061
200.092266464
200.5361377
200.092266464
200.519848847
200.519848847
200.963720083
200.984081149
200.572787619
200.059688759
200.540209913
200.503559995
200.519848847
201.000370002
200.519848847
200.075977612
200.108555317
200.878203607
200.980008936
200.108555317
200.984081149
200.996297789
200.519848847
200.5361377
201.016658854
200.552426553
200.519848847
200.519848847
200.5361377
200.503559995
200.963720083
200.503559995
201.000370002
200.963720083
200.996297789
199.615817523
200.523921061
200.519848847
200.523921061
200.963720083
200.503559995
200.075977612
200.963720083
200.503559995

Average distance is : 200.640 cm
Average deviation is : 0.359 cm
Block: 7
======================================
200.503559995
200.043399906
200.006749988
200.556498766
200.503559995
200.059688759
200.947431231
200.059688759
200.540209913
200.519848847
200.043399906
200.027111053
200.519848847
200.519848847
200.039327693
200.043399906
200.075977612
200.043399906
200.059688759
200.075977612
200.059688759
200.519848847
200.059688759
200.059688759
200.059688759
200.075977612
200.967792296
200.503559995
200.075977612
200.059688759
200.059688759
200.075977612
200.059688759
200.075977612
200.075977612
200.039327693
200.059688759
200.043399906
200.043399906
200.059688759
200.075977612
200.059688759
200.02303884
200.075977612
200.075977612
200.059688759
200.043399906
200.02303884
200.059688759
200.055616546
200.027111053
200.5361377
200.043399906
200.5361377
200.059688759
200.02303884
200.059688759
200.075977612
200.914853525
200.947431231
200.043399906
200.519848847
200.947431231
200.947431231
200.931142378
200.931142378
200.043399906
200.963720083
200.039327693
200.947431231
200.043399906
200.943359017
200.931142378
200.947431231
200.043399906

Average distance is : 200.283 cm
Average deviation is : 0.349 cm
Block: 8
======================================
200.039327693
200.059688759
200.043399906
200.503559995
200.059688759
200.055616546
200.927070165
200.980008936
200.043399906
200.043399906
200.519848847
200.059688759
200.503559995
200.059688759
200.055616546
200.963720083
200.059688759
200.043399906
200.519848847
200.914853525
200.963720083
200.02303884
200.967792296
200.059688759
200.075977612
200.931142378
200.043399906
200.075977612
200.059688759
200.027111053
200.963720083
200.043399906
200.059688759
200.043399906
200.499487782
200.519848847
200.043399906
200.503559995
200.043399906
200.075977612
200.039327693
200.931142378
200.059688759
200.043399906
200.519848847
200.927070165
200.043399906
200.910781312
200.043399906
200.947431231
200.931142378
200.910781312
200.927070165
200.931142378
200.914853525
200.470982289
200.519848847
200.931142378
200.059688759
200.914853525
200.470982289
200.470982289
200.470982289
200.914853525
200.450621223
200.454693437
200.470982289
200.487271142
200.450621223
200.894492459
200.894492459
200.006749988
200.470982289
200.006749988
200.487271142

Average distance is : 200.425 cm
Average deviation is : 0.376 cm
Block: 9
======================================
200.454693437
199.990461135
200.454693437
200.454693437
200.006749988
200.470982289
200.010822201
200.487271142
200.010822201
200.010822201
200.02303884
199.994533348
200.02303884
200.039327693
200.006749988
199.990461135
200.006749988
200.914853525
200.487271142
200.450621223
200.487271142
200.470982289
200.006749988
200.027111053
199.994533348
200.454693437
200.466910076
200.466910076
200.931142378
200.438404584
199.990461135
200.02303884
199.990461135
200.931142378
200.470982289
200.470982289
200.006749988
200.487271142
200.483198929
199.990461135
200.487271142
200.434332371
200.059688759
199.990461135
200.470982289
200.487271142
200.006749988
200.450621223
200.914853525
200.931142378
200.454693437
200.470982289
200.931142378
200.470982289
199.990461135
200.006749988
200.434332371
200.006749988
200.910781312
200.450621223
200.450621223
200.010822201
200.470982289
200.931142378
200.02303884
200.02303884
200.914853525
200.450621223
200.927070165
200.894492459
200.02303884
200.914853525
200.02303884
200.059688759
200.466910076

Average distance is : 200.344 cm
Average deviation is : 0.329 cm
Block: 10
======================================
200.027111053
200.010822201
200.02303884
200.059688759
200.027111053
200.910781312
200.914853525
200.914853525
200.914853525
200.039327693
200.931142378
200.02303884
200.039327693
200.519848847
200.039327693
200.931142378
200.540209913
200.059688759
200.006749988
200.075977612
200.039327693
200.055616546
200.027111053
200.059688759
200.043399906
200.503559995
200.02303884
200.02303884
200.027111053
200.043399906
200.043399906
200.059688759
200.059688759
200.043399906
200.523921061
200.503559995
200.059688759
200.503559995
200.519848847
199.632106376
200.963720083
200.503559995
200.059688759
200.519848847
200.503559995
200.519848847
200.967792296
200.059688759
200.552426553
200.523921061
200.059688759
200.080049825
200.996297789
200.980008936
199.632106376
200.963720083
200.075977612
200.503559995
200.980008936
200.075977612
200.039327693
200.980008936
200.059688759
200.059688759
200.519848847
200.519848847
200.075977612
200.967792296
200.947431231
200.503559995
200.043399906
200.059688759
200.059688759
200.519848847
200.503559995

Average distance is : 200.336 cm
Average deviation is : 0.378 cm