
Block: 1
======================================
398.824686575
398.840859842
398.873206377
398.836816525
398.804469991

Block: 2
======================================
398.840859842
399.261364794
399.261364794
398.840859842
399.277538061

Block: 3
======================================
398.873206377
399.277538061
399.313927913
399.313927913
399.313927913

Block: 4
======================================
399.265408111
399.33010118
399.297754645
399.265408111
399.281581378

Block: 5
======================================
398.379921722
398.824686575
399.265408111
398.840859842
398.400138307

Block: 6
======================================
398.315228653
398.755950189
398.282882118
398.804469991
398.33140192

Block: 7
======================================
398.311185336
398.33140192
398.755950189
398.327358603
398.315228653

Block: 8
======================================
398.719560337
398.311185336
398.278838801
398.735733604
398.70338707

Block: 9
======================================
397.821943998
398.311185336
398.278838801
398.230318999
398.723603654

Block: 10
======================================
397.821943998
398.24244895
398.262665534
398.278838801
397.821943998
