
Block: 1
======================================
101.218183041
100.850612521
100.383921862
100.350881815
100.817572474
100.383921862
100.400441885
100.383921862
100.817572474
100.367401838
100.383921862
100.784532428
100.780402422
100.801052451
100.784532428
100.421091914
100.367401838
100.817572474
100.363271832
100.801052451
100.784532428
100.383921862
100.383921862
100.780402422
100.763882399
100.817572474
100.801052451
100.784532428
100.404571891
100.784532428
100.784532428
100.796922445
101.218183041
100.780402422
100.796922445
100.383921862
100.346751809
100.363271832
100.813442469
100.784532428
100.801052451
100.780402422
100.780402422
100.801052451
100.801052451
100.784532428
100.801052451
100.780402422
101.247093081
100.817572474

Average distance is : 100.689 cm
Average deviation is : 0.238 cm
Block: 2
======================================
100.367401838
100.801052451
100.780402422
100.796922445
100.796922445
100.834092498
100.801052451
100.421091914
100.817572474
100.817572474
100.763882399
100.796922445
100.813442469
100.801052451
100.400441885
100.404571891
100.421091914
100.817572474
100.780402422
100.780402422
100.780402422
100.796922445
100.780402422
100.817572474
100.780402422
100.780402422
100.784532428
100.801052451
100.817572474
100.796922445
100.801052451
100.383921862
100.801052451
100.367401838
100.383921862
100.747362375
101.267743111
100.784532428
100.433481932
100.784532428
100.784532428
100.780402422
100.817572474
100.780402422
100.801052451
100.801052451
100.763882399
100.801052451
100.796922445
100.784532428

Average distance is : 100.732 cm
Average deviation is : 0.173 cm
Block: 3
======================================
100.383921862
100.813442469
100.850612521
100.383921862
100.801052451
100.801052451
100.784532428
100.817572474
100.817572474
100.817572474
100.400441885
100.383921862
100.801052451
100.817572474
100.801052451
100.763882399
100.780402422
100.796922445
100.350881815
100.796922445
100.801052451
100.817572474
100.383921862
100.400441885
100.400441885
100.367401838
100.796922445
100.801052451
100.801052451
100.817572474
100.834092498
100.796922445
100.817572474
100.763882399
100.801052451
100.817572474
100.383921862
100.404571891
100.383921862
100.404571891
100.801052451
100.796922445
100.784532428
100.784532428
100.784532428
100.784532428
100.784532428
100.801052451
100.796922445
100.780402422

Average distance is : 100.693 cm
Average deviation is : 0.184 cm
Block: 4
======================================
100.437611938
100.850612521
100.796922445
100.404571891
100.400441885
100.784532428
100.784532428
100.801052451
100.817572474
100.784532428
100.796922445
100.367401838
100.780402422
100.780402422
100.784532428
100.763882399
100.400441885
100.747362375
100.801052451
100.801052451
100.796922445
100.400441885
100.383921862
100.383921862
100.768012404
100.801052451
100.780402422
100.780402422
100.763882399
100.801052451
100.817572474
100.367401838
100.404571891
100.817572474
100.780402422
100.796922445
100.801052451
100.801052451
100.801052451
100.780402422
100.383921862
100.400441885
100.367401838
100.383921862
100.383921862
100.416961908
100.400441885
100.383921862
100.780402422
100.796922445

Average distance is : 100.648 cm
Average deviation is : 0.194 cm
Block: 5
======================================
100.796922445
100.383921862
100.834092498
100.768012404
101.251223087
100.801052451
100.817572474
101.218183041
100.801052451
100.780402422
100.834092498
100.801052451
100.796922445
100.796922445
100.383921862
101.247093081
101.251223087
100.801052451
101.6848737
101.251223087
100.834092498
100.801052451
100.796922445
100.780402422
100.400441885
100.801052451
100.796922445
100.433481932
101.230573058
100.404571891
100.801052451
100.801052451
100.801052451
100.747362375
100.796922445
100.817572474
100.801052451
100.850612521
101.717913747
100.400441885
101.230573058
101.214053035
100.796922445
100.400441885
101.6848737
101.664223671
101.680743694
100.763882399
100.813442469
101.230573058

Average distance is : 100.912 cm
Average deviation is : 0.354 cm
Block: 6
======================================
100.801052451
100.751492381
100.400441885
100.834092498
100.780402422
100.796922445
100.817572474
100.437611938
101.267743111
101.251223087
100.780402422
100.817572474
100.801052451
100.796922445
100.383921862
101.077762842
101.267743111
100.850612521
101.234703064
101.230573058
100.404571891
101.251223087
101.267743111
100.780402422
100.784532428
100.801052451
100.796922445
100.780402422
100.383921862
100.784532428
100.780402422
101.197533011
100.796922445
100.780402422
100.400441885
101.251223087
101.267743111
100.404571891
101.251223087
100.801052451
100.763882399
101.267743111
101.267743111
100.801052451
101.668353677
100.796922445
100.780402422
100.817572474
101.251223087
101.267743111

Average distance is : 100.901 cm
Average deviation is : 0.304 cm
Block: 7
======================================
100.400441885
100.383921862
100.433481932
100.796922445
101.197533011
101.28839314
100.780402422
101.267743111
100.400441885
101.251223087
101.234703064
101.267743111
100.416961908
100.801052451
100.817572474
100.437611938
100.400441885
101.697263718
100.784532428
100.784532428
100.801052451
100.400441885
100.433481932
100.796922445
100.801052451
101.234703064
101.230573058
101.251223087
101.234703064
100.784532428
101.284263134
101.247093081
101.09015286
100.763882399
100.801052451
100.801052451
100.817572474
100.751492381
101.230573058
100.817572474
100.817572474
100.801052451
100.383921862
100.801052451
100.817572474
100.817572474
100.784532428
100.796922445
101.230573058
101.251223087

Average distance is : 100.878 cm
Average deviation is : 0.323 cm
Block: 8
======================================
100.801052451
100.817572474
100.22698164
100.796922445
100.367401838
100.763882399
100.780402422
101.267743111
100.801052451
100.796922445
100.768012404
100.796922445
100.801052451
100.784532428
100.817572474
100.796922445
100.383921862
100.796922445
100.400441885
100.780402422
100.400441885
100.796922445
100.784532428
100.801052451
100.784532428
100.801052451
100.780402422
100.763882399
100.796922445
100.801052451
100.400441885
100.346751809
100.400441885
101.701393723
100.784532428
100.801052451
100.784532428
100.780402422
101.230573058
101.284263134
101.234703064
101.230573058
100.801052451
100.780402422
100.801052451
100.383921862
100.400441885
101.680743694
100.780402422
101.218183041

Average distance is : 100.798 cm
Average deviation is : 0.308 cm
Block: 9
======================================
100.383921862
100.400441885
100.817572474
100.421091914
100.780402422
100.796922445
100.763882399
100.801052451
100.817572474
100.383921862
100.780402422
100.801052451
100.813442469
101.267743111
100.784532428
100.796922445
100.796922445
100.817572474
100.780402422
100.854742527
100.796922445
100.383921862
100.813442469
100.383921862
101.214053035
100.801052451
100.784532428
100.817572474
100.780402422
100.763882399
100.784532428
100.784532428
100.780402422
100.379791856
100.801052451
101.267743111
100.817572474
100.780402422
100.801052451
100.780402422
100.768012404
100.768012404
100.817572474
100.801052451
100.784532428
101.251223087
100.796922445
100.801052451
100.796922445
100.801052451

Average distance is : 100.775 cm
Average deviation is : 0.200 cm
Block: 10
======================================
100.400441885
100.834092498
100.784532428
100.383921862
100.784532428
100.367401838
100.796922445
100.763882399
100.817572474
100.796922445
100.801052451
100.796922445
100.817572474
100.367401838
100.817572474
100.817572474
100.763882399
100.817572474
100.780402422
100.817572474
100.850612521
100.400441885
100.383921862
100.400441885
100.801052451
100.780402422
100.780402422
100.817572474
100.796922445
100.801052451
100.796922445
100.817572474
100.784532428
100.801052451
100.817572474
100.780402422
100.383921862
100.400441885
100.383921862
100.421091914
100.367401838
100.416961908
100.433481932
100.817572474
100.801052451
100.780402422
100.796922445
100.784532428
100.383921862
100.383921862

Average distance is : 100.670 cm
Average deviation is : 0.193 cm
Average distance for 10x50 is : 100.770 cm
Average deviation for 10x50 is : 0.247 cm
 Percentage of values that failed: 0.000