
Block: 1
======================================
100.400441885
100.350881815
101.664223671
100.400441885
100.383921862
100.817572474
100.383921862
100.796922445
100.796922445
100.801052451

Block: 2
======================================
100.400441885
100.400441885
100.400441885
100.383921862
100.421091914
100.730842352
100.801052451
100.763882399
100.784532428
100.780402422

Block: 3
======================================
100.367401838
100.780402422
100.763882399
100.416961908
100.834092498
100.367401838
100.817572474
100.817572474
100.780402422
100.383921862

Block: 4
======================================
100.400441885
100.780402422
100.784532428
100.383921862
100.367401838
100.784532428
100.801052451
100.367401838
100.350881815
100.751492381

Block: 5
======================================
100.404571891
100.400441885
100.834092498
100.400441885
100.404571891
100.784532428
100.780402422
100.780402422
100.346751809
100.817572474

Block: 6
======================================
100.404571891
100.780402422
100.796922445
100.404571891
100.780402422
100.801052451
100.784532428
100.784532428
100.383921862
100.367401838

Block: 7
======================================
100.404571891
100.400441885
101.267743111
100.801052451
100.784532428
100.796922445
100.796922445
100.801052451
100.801052451
100.404571891

Block: 8
======================================
100.363271832
100.416961908
87.4817836285
100.834092498
100.503692031
100.813442469
100.801052451
101.647703648
100.796922445
100.404571891

Block: 9
======================================
100.784532428
100.400441885
15.3471016884
100.400441885
100.801052451
100.817572474
100.784532428
101.057112813
100.751492381
100.784532428

Block: 10
======================================
100.383921862
100.780402422
100.747362375
100.383921862
100.817572474
100.784532428
100.784532428
100.763882399
100.784532428
100.817572474
