
Block: 1
======================================
200.295877123
200.299949336
200.808975983
201.171402955
201.631563044
201.171402955
201.167330742
200.27958827
200.263299417
200.263299417
200.295877123
200.829337049
200.739748359
200.760109425
200.283660483
200.283660483
200.739748359
200.27958827
200.295877123
200.739748359
201.151041889
200.743820572
200.312165976
201.167330742
200.332527041
201.171402955
200.299949336
200.27958827
200.332527041
200.813048196
201.631563044
200.299949336
200.263299417
200.295877123
200.316238189
200.27958827
200.299949336
200.263299417
200.295877123
200.808975983
200.743820572
200.813048196
201.220269513
200.27958827
200.760109425
200.27958827
200.27958827
200.78047049
200.813048196
201.187691808

Block: 2
======================================
200.760109425
200.316238189
200.743820572
200.756037211
200.707170653
200.760109425
200.283660483
201.171402955
201.187691808
200.27958827
201.20398066
201.187691808
200.727531719
200.825264835
200.776398277
200.316238189
200.690881801
201.187691808
200.808975983
200.263299417
200.299949336
200.283660483
201.187691808
201.187691808
201.183619595
201.167330742
200.263299417
200.299949336
200.283660483
201.151041889
201.187691808
200.316238189
201.155114102
201.171402955
201.187691808
201.171402955
201.183619595
200.348815894
201.151041889
201.151041889
201.183619595
200.723459506
200.348815894
201.199908447
201.187691808
201.134753036
200.813048196
200.27958827
201.187691808
201.171402955

Block: 3
======================================
201.167330742
200.727531719
200.247010565
200.295877123
200.27958827
200.27958827
201.187691808
200.230721712
201.151041889
201.187691808
200.27958827
201.171402955
201.151041889
201.171402955
200.743820572
200.776398277
200.79268713
201.199908447
200.79268713
200.776398277
200.825264835
200.283660483
200.348815894
200.332527041
200.332527041
200.776398277
200.283660483
201.187691808
200.36917696
201.187691808
201.171402955
201.187691808
200.694954014
201.151041889
200.299949336
200.295877123
200.743820572
201.183619595
200.267371631
200.776398277
201.171402955
200.760109425
200.299949336
200.263299417
201.155114102
200.27958827
200.312165976
200.295877123
201.187691808
200.776398277

Block: 4
======================================
200.263299417
200.283660483
200.247010565
200.707170653
200.316238189
200.743820572
200.723459506
200.332527041
200.263299417
200.295877123
200.796759343
200.27958827
200.27958827
200.283660483
200.27958827
200.283660483
200.27958827
201.167330742
200.295877123
200.813048196
200.299949336
200.27958827
200.27958827
200.332527041
200.283660483
200.348815894
200.79268713
200.27958827
200.739748359
200.295877123
201.187691808
200.332527041
200.813048196
200.295877123
200.27958827
200.813048196
200.299949336
200.723459506
200.727531719
200.711242867
200.247010565
200.299949336
200.36917696
200.295877123
200.796759343
200.79268713
200.299949336
200.27958827
200.813048196
201.171402955

Block: 5
======================================
200.711242867
200.760109425
200.210360646
200.299949336
200.776398277
200.27958827
200.808975983
201.151041889
200.813048196
200.796759343
200.267371631
201.151041889
200.348815894
200.295877123
201.151041889
201.187691808
200.263299417
201.171402955
201.155114102
200.332527041
201.151041889
201.187691808
200.690881801
201.171402955
200.727531719
200.690881801
200.263299417
200.690881801
200.690881801
200.707170653
200.711242867
200.723459506
200.707170653
200.711242867
200.690881801
200.707170653
201.187691808
200.690881801
200.690881801
200.707170653
200.813048196
201.151041889
201.187691808
200.707170653
201.615274191
200.711242867
200.690881801
201.187691808
200.727531719
200.707170653

Block: 6
======================================
200.312165976
200.263299417
200.690881801
200.690881801
200.316238189
200.690881801
200.760109425
200.743820572
201.167330742
200.27958827
200.316238189
200.79268713
200.27958827
200.813048196
201.151041889
200.348815894
200.707170653
200.283660483
201.171402955
200.690881801
201.171402955
201.187691808
200.707170653
200.690881801
201.183619595
200.230721712
200.711242867
200.332527041
200.299949336
200.723459506
201.155114102
200.283660483
201.187691808
200.299949336
201.187691808
200.707170653
201.151041889
201.187691808
201.167330742
201.151041889
201.187691808
201.151041889
200.808975983
200.263299417
201.155114102
200.690881801
201.187691808
201.167330742
201.187691808
201.171402955

Block: 7
======================================
200.723459506
200.743820572
200.283660483
201.134753036
200.096338677
201.151041889
200.743820572
200.247010565
200.707170653
200.739748359
200.263299417
200.263299417
200.723459506
200.723459506
200.674592948
200.247010565
200.690881801
200.690881801
201.171402955
200.263299417
200.727531719
200.230721712
200.707170653
200.707170653
200.723459506
200.707170653
200.727531719
200.690881801
200.267371631
200.214432859
200.723459506
200.247010565
200.247010565
200.727531719
200.674592948
200.263299417
200.247010565
201.151041889
200.707170653
200.247010565
200.690881801
201.167330742
200.247010565
201.171402955
200.707170653
200.690881801
200.226649499
200.707170653
200.247010565
200.707170653

Block: 8
======================================
201.167330742
201.151041889
201.134753036
200.743820572
200.674592948
200.226649499
201.171402955
200.727531719
200.348815894
201.151041889
201.167330742
201.167330742
201.167330742
201.167330742
200.727531719
200.707170653
200.813048196
201.171402955
200.299949336
201.155114102
200.332527041
200.332527041
200.283660483
200.283660483
201.171402955
200.247010565
201.155114102
201.171402955
200.283660483
200.299949336
200.247010565
200.79268713
200.711242867
201.167330742
200.707170653
200.332527041
201.187691808
200.283660483
201.187691808
200.707170653
201.155114102
201.187691808
201.183619595
200.707170653
201.20398066
200.352888107
200.707170653
200.690881801
200.711242867
200.743820572

Block: 9
======================================
200.711242867
200.723459506
200.295877123
201.134753036
200.674592948
200.723459506
200.723459506
200.711242867
200.711242867
200.690881801
200.316238189
201.151041889
200.230721712
201.155114102
201.167330742
201.167330742
201.187691808
201.167330742
200.723459506
201.187691808
200.263299417
200.312165976
201.167330742
201.167330742
201.151041889
200.316238189
200.365104747
201.151041889
201.183619595
201.151041889
201.167330742
200.27958827
200.332527041
200.332527041
200.27958827
201.187691808
201.167330742
200.316238189
201.167330742
201.171402955
201.20398066
200.332527041
200.743820572
201.187691808
200.707170653
200.332527041
200.727531719
201.171402955
200.352888107
201.171402955

Block: 10
======================================
200.727531719
201.187691808
201.155114102
200.707170653
200.707170653
201.151041889
200.332527041
200.727531719
201.171402955
201.134753036
200.796759343
200.723459506
200.348815894
201.155114102
200.312165976
200.312165976
200.312165976
200.739748359
200.295877123
200.27958827
200.295877123
200.27958827
200.263299417
200.299949336
200.727531719
200.295877123
200.27958827
201.171402955
201.171402955
200.711242867
200.36917696
201.134753036
200.247010565
200.707170653
200.760109425
201.151041889
200.332527041
200.796759343
201.171402955
200.247010565
200.332527041
201.171402955
201.151041889
201.171402955
200.690881801
201.171402955
201.171402955
200.707170653
200.674592948
200.690881801
