
Block: 1
======================================
400.991904402
401.452842522
400.959557867
402.738617277
401.448799205
401.008077669
402.281722474
402.26150589
400.995947719
400.995947719
403.146992278
401.41645267
401.873347473
401.008077669
401.41645267
402.281722474
401.41645267
401.41645267
401.841000938
401.41645267
401.400279403
401.420495987
401.012120986
401.857174206
402.72244401
401.873347473
400.975731134
401.41645267
401.41645267
401.436669254
401.873347473
401.008077669
401.41645267
401.432625937
401.008077669
400.991904402
401.432625937
400.991904402
401.012120986
401.432625937
401.028294253
400.975731134
401.012120986
401.028294253
401.448799205
403.163165545
401.008077669
403.163165545
403.163165545
400.57139945
401.432625937
401.432625937
401.012120986
401.41645267
400.991904402
402.706270742
401.008077669
400.587572718
400.991904402
401.012120986
400.567356133
400.995947719
401.452842522
400.975731134
401.873347473
400.991904402
400.539052916
400.567356133
400.57139945
401.432625937
402.281722474
400.959557867
400.535009599
400.567356133
400.975731134
400.587572718
401.41645267
400.555226183
401.41645267
402.281722474
400.57139945
400.551182866
401.420495987
401.432625937
400.551182866
401.012120986
400.551182866
400.551182866
401.012120986
400.975731134
401.857174206
400.995947719
400.995947719
401.432625937
401.012120986
402.265549207
400.991904402
400.975731134
402.265549207
401.857174206

Block: 2
======================================
401.384106135
400.959557867
401.841000938
401.857174206
401.432625937
400.95551455
401.384106135
401.841000938
402.686054158
400.975731134
401.400279403
401.841000938
401.400279403
401.400279403
401.400279403
400.9433846
400.9433846
400.838258362
401.824827671
401.380062819
401.824827671
401.400279403
400.927211332
400.959557867
400.95551455
401.380062819
400.927211332
400.959557867
401.841000938
401.820784354
401.436669254
401.841000938
400.959557867
400.959557867
400.959557867
400.959557867
401.824827671
400.95551455
400.9433846
402.265549207
401.824827671
400.9433846
401.384106135
401.363889551
402.229159355
400.959557867
400.9433846
400.9433846
400.959557867
402.245332623
400.95551455
400.975731134
400.975731134
400.959557867
400.959557867
401.841000938
403.098472476
400.959557867
400.9433846
401.808654404
400.9433846
401.788437819
401.384106135
401.347716284
401.367932868
400.911038065
400.9433846
401.804611087
401.363889551
401.367932868
401.384106135
401.351759601
401.380062819
401.384106135
401.808654404
401.384106135
402.249375939
401.400279403
401.363889551
401.400279403
401.384106135
401.367932868
401.808654404
401.824827671
401.367932868
401.824827671
401.820784354
401.384106135
402.245332623
402.245332623
401.808654404
401.400279403
402.249375939
401.808654404
403.114645743
402.265549207
404.368073964
402.265549207
401.824827671
401.792481136

Block: 3
======================================
401.824827671
401.808654404
401.857174206
401.824827671
403.551323962
401.857174206
401.857174206
401.841000938
402.706270742
402.285765791
401.857174206
401.41645267
401.400279403
401.41645267
402.297895741
403.146992278
403.587713814
401.841000938
401.857174206
401.87739079
401.841000938
403.146992278
403.167208862
403.571540546
401.857174206
402.297895741
403.571540546
403.571540546
401.841000938
401.41645267
401.841000938
402.297895741
402.738617277
403.551323962
402.706270742
404.012262082
401.841000938
402.281722474
401.824827671
402.281722474
401.841000938
402.314069009
402.297895741
401.861217523
401.400279403
401.420495987
402.318112326
401.824827671
402.706270742
401.857174206
402.281722474
402.281722474
401.824827671
402.281722474
402.265549207
401.841000938
402.285765791
401.820784354
401.41645267
401.857174206
402.706270742
402.706270742
401.380062819
401.400279403
401.384106135
401.824827671
402.686054158
402.245332623
401.384106135
402.249375939
402.249375939
402.706270742
401.841000938
401.820784354
403.571540546
401.804611087
402.281722474
402.726487327
401.824827671
402.265549207
401.824827671
401.804611087
401.824827671
402.249375939
401.841000938
401.384106135
401.824827671
401.841000938
401.824827671
402.26150589
401.824827671
402.26150589
401.841000938
402.265549207
401.824827671
401.820784354
401.384106135
401.347716284
401.841000938
401.808654404

Block: 4
======================================
401.384106135
401.841000938
401.824827671
403.555367279
402.281722474
401.808654404
401.824827671
403.523020744
401.347716284
401.367932868
401.363889551
401.347716284
402.245332623
401.367932868
401.788437819
402.265549207
402.669880891
402.673924208
402.229159355
401.804611087
401.808654404
401.788437819
401.772264552
401.804611087
401.808654404
402.690097475
402.233202672
402.641577673
402.217029405
402.673924208
401.792481136
403.098472476
402.637534356
402.212986088
401.735874701
403.066125941
401.756091285
401.756091285
403.078255892
402.637534356
402.637534356
403.907135844
402.637534356
402.212986088
402.180639553
402.653707623
403.482587576
402.641577673
401.756091285
403.062082624
402.212986088
402.200856137
402.200856137
402.200856137
402.212986088
403.927352428
402.19681282
402.212986088
402.653707623
403.518977427
402.65775094
402.653707623
402.653707623
402.212986088
402.637534356
402.229159355
402.233202672
403.110602427
403.110602427
403.50280416
402.669880891
403.094429159
402.641577673
401.792481136
402.673924208
403.50280416
401.788437819
402.653707623
402.690097475
401.788437819
401.808654404
403.078255892
401.804611087
402.669880891
402.265549207
401.384106135
402.265549207
401.384106135
402.245332623
402.249375939
401.380062819
401.687354898
401.841000938
401.841000938
400.939341283
400.939341283
401.400279403
400.95551455
400.95551455
401.380062819

Block: 5
======================================
402.265549207
400.9433846
401.384106135
400.9433846
400.927211332
400.9433846
400.9433846
401.400279403
400.9433846
401.384106135
401.841000938
401.824827671
401.820784354
401.384106135
401.824827671
400.939341283
401.420495987
402.229159355
401.400279403
400.959557867
400.939341283
400.9433846
400.959557867
400.923168015
401.772264552
400.906994748
400.939341283
401.808654404
401.804611087
401.351759601
401.367932868
401.347716284
401.804611087
401.331543016
401.808654404
401.351759601
401.347716284
401.808654404
402.233202672
401.788437819
401.331543016
401.367932868
402.229159355
402.212986088
402.233202672
400.906994748
401.772264552
402.229159355
401.792481136
401.315369749
403.518977427
401.367932868
401.363889551
401.347716284
401.363889551
402.212986088
400.906994748
400.668439054
401.347716284
402.233202672
402.212986088
403.943525696
402.245332623
401.331543016
401.792481136
401.788437819
402.229159355
403.082299209
401.772264552
401.792481136
402.212986088
402.212986088
401.772264552
401.760134602
402.229159355
402.212986088
401.756091285
401.772264552
402.217029405
402.212986088
401.351759601
402.653707623
401.347716284
402.233202672
402.212986088
401.351759601
401.808654404
402.229159355
401.788437819
401.331543016
401.788437819
401.315369749
401.772264552
401.756091285
401.776307869
401.347716284
402.245332623
401.363889551
402.690097475
403.078255892

Block: 6
======================================
402.229159355
402.669880891
402.212986088
402.233202672
402.673924208
404.315510845
404.368073964
402.65775094
402.249375939
402.233202672
401.452842522
402.690097475
402.233202672
401.808654404
402.249375939
402.265549207
402.265549207
401.841000938
402.265549207
402.265549207
402.281722474
402.281722474
401.384106135
403.555367279
401.820784354
401.857174206
401.400279403
403.110602427
401.824827671
401.384106135
401.420495987
401.400279403
401.824827671
401.380062819
401.400279403
401.861217523
401.400279403
401.400279403
402.281722474
401.400279403
401.400279403
401.400279403
402.26150589
402.297895741
401.857174206
402.281722474
401.804611087
402.249375939
402.265549207
402.281722474
401.824827671
402.265549207
402.265549207
402.690097475
401.824827671
401.808654404
402.690097475
402.281722474
402.690097475
402.690097475
401.363889551
403.110602427
401.367932868
403.130819011
402.690097475
401.824827671
402.285765791
401.857174206
401.363889551
401.841000938
401.384106135
401.841000938
402.26150589
401.824827671
402.706270742
400.995947719
401.857174206
401.400279403
401.824827671
401.841000938
401.824827671
401.861217523
401.400279403
402.26150589
401.824827671
401.861217523
401.400279403
400.959557867
401.347716284
401.347716284
401.820784354
402.26150589
402.281722474
401.792481136
400.9433846
402.686054158
400.939341283
400.927211332
400.939341283
400.927211332

Block: 7
======================================
401.824827671
403.927352428
401.351759601
402.245332623
402.233202672
401.792481136
403.943525696
401.804611087
401.788437819
401.788437819
402.265549207
401.788437819
401.380062819
402.249375939
402.233202672
402.233202672
402.249375939
401.400279403
401.772264552
402.229159355
402.249375939
402.690097475
401.363889551
402.249375939
401.792481136
402.706270742
401.384106135
401.384106135
401.824827671
401.808654404
404.368073964
401.841000938
402.281722474
401.367932868
401.824827671
401.384106135
402.281722474
401.400279403
401.400279403
401.363889551
400.975731134
402.281722474
400.991904402
400.95551455
403.571540546
401.400279403
401.841000938
401.400279403
400.959557867
400.9433846
402.297895741
401.41645267
402.281722474
400.9433846
402.281722474
401.41645267
403.146992278
400.9433846
402.265549207
401.384106135
401.400279403
401.824827671
401.824827671
401.857174206
401.824827671
400.9433846
401.41645267
400.979774451
401.841000938
401.841000938
400.979774451
401.841000938
401.841000938
403.114645743
401.400279403
401.384106135
401.824827671
400.923168015
400.959557867
403.539194012
401.804611087
400.9433846
400.939341283
400.939341283
401.384106135
402.265549207
401.808654404
402.690097475
401.380062819
401.384106135
401.384106135
402.706270742
401.363889551
401.808654404
400.959557867
400.927211332
401.41645267
401.824827671
401.841000938
402.285765791

Block: 8
======================================
401.841000938
400.975731134
402.690097475
401.400279403
400.95551455
400.9433846
401.384106135
401.857174206
401.384106135
400.959557867
402.690097475
401.400279403
401.400279403
401.400279403
401.367932868
401.400279403
400.959557867
400.9433846
401.400279403
400.9433846
400.9433846
401.400279403
400.959557867
400.9433846
400.9433846
401.804611087
401.367932868
401.841000938
402.249375939
401.367932868
401.820784354
401.804611087
400.9433846
401.788437819
401.824827671
400.923168015
400.927211332
400.927211332
400.927211332
400.9433846
402.233202672
400.9433846
401.363889551
401.824827671
401.384106135
401.824827671
400.9433846
401.367932868
401.804611087
400.911038065
401.400279403
400.502663064
400.927211332
400.923168015
400.923168015
401.824827671
400.927211332
401.367932868
401.367932868
402.637534356
401.351759601
401.363889551
401.788437819
400.911038065
401.363889551
400.894864798
400.890821481
401.808654404
401.331543016
401.756091285
401.788437819
403.482587576
400.906994748
402.217029405
401.315369749
403.045909357
402.653707623
401.772264552
400.927211332
401.792481136
401.331543016
403.486630893
401.351759601
402.233202672
402.229159355
401.367932868
400.927211332
401.808654404
401.804611087
401.792481136
401.808654404
401.788437819
402.249375939
401.384106135
401.824827671
401.792481136
401.824827671
401.804611087
401.347716284
402.249375939

Block: 9
======================================
403.078255892
401.367932868
401.351759601
401.367932868
401.804611087
401.808654404
402.229159355
400.923168015
402.245332623
401.384106135
401.363889551
400.923168015
400.911038065
401.384106135
401.384106135
401.824827671
401.384106135
400.923168015
401.367932868
401.363889551
401.384106135
401.384106135
401.824827671
401.824827671
402.669880891
401.792481136
402.669880891
401.400279403
402.249375939
400.923168015
401.384106135
400.923168015
401.384106135
401.367932868
401.808654404
401.804611087
401.772264552
401.044467521
402.653707623
401.347716284
401.788437819
401.824827671
400.9433846
401.804611087
401.363889551
400.923168015
400.9433846
401.367932868
401.384106135
401.367932868
400.9433846
400.927211332
401.41645267
401.824827671
400.939341283
400.939341283
401.808654404
400.927211332
400.923168015
400.923168015
400.9433846
401.347716284
401.384106135
401.788437819
402.265549207
401.351759601
403.518977427
401.788437819
401.808654404
401.351759601
401.824827671
401.792481136
401.351759601
401.804611087
403.094429159
401.384106135
402.265549207
402.249375939
402.281722474
401.824827671
401.824827671
401.824827671
401.384106135
401.363889551
401.384106135
401.363889551
402.281722474
401.824827671
401.400279403
402.281722474
401.384106135
401.857174206
401.873347473
401.861217523
401.841000938
402.726487327
401.420495987
401.436669254
402.297895741
401.820784354

Block: 10
======================================
400.975731134
400.979774451
401.41645267
402.334285593
400.991904402
402.301939058
402.297895741
403.571540546
402.301939058
403.587713814
400.995947719
402.318112326
400.991904402
401.893564057
401.873347473
400.975731134
401.452842522
401.41645267
400.991904402
403.587713814
401.893564057
401.452842522
400.959557867
401.420495987
400.959557867
401.432625937
401.889520741
401.909737325
403.146992278
402.742660594
401.873347473
401.41645267
401.452842522
401.87739079
401.436669254
401.889520741
403.18338213
401.448799205
401.909737325
402.35045886
401.889520741
401.893564057
401.905694008
402.35045886
401.909737325
401.889520741
401.452842522
401.893564057
401.012120986
401.028294253
401.469015789
401.893564057
401.889520741
401.448799205
401.452842522
401.028294253
401.469015789
401.448799205
401.893564057
401.452842522
401.893564057
401.448799205
401.432625937
401.469015789
402.72244401
402.318112326
401.436669254
401.044467521
402.742660594
401.448799205
401.448799205
401.008077669
401.889520741
401.893564057
401.044467521
401.028294253
401.024250937
401.432625937
401.893564057
401.893564057
401.432625937
401.028294253
400.991904402
403.163165545
401.008077669
401.873347473
400.995947719
400.975731134
401.857174206
401.41645267
401.452842522
400.995947719
400.975731134
400.995947719
401.012120986
401.432625937
401.841000938
400.975731134
400.995947719
401.448799205
