
Block: 1
======================================
401.756091285
402.180639553
402.19681282
401.315369749
401.299196482
401.299196482
402.180639553
402.589014554
402.621361089
401.295153165
402.621361089
403.078255892
402.601144505
402.148293018
401.756091285
404.331684113
403.078255892
403.045909357
401.756091285
402.180639553
403.066125941
402.19681282
402.19681282
402.621361089
402.605187821

Average distance is : 402.321 cm
Average deviation is : 0.708 cm
Block: 2
======================================
402.19681282
402.180639553
401.735874701
401.315369749
402.212986088
403.062082624
401.315369749
401.760134602
401.739918017
401.756091285
401.756091285
401.299196482
401.756091285
401.299196482
401.756091285
402.653707623
401.299196482
402.180639553
402.19681282
402.621361089
402.601144505
402.621361089
403.911179161
402.164466286
402.164466286

Average distance is : 402.062 cm
Average deviation is : 0.624 cm
Block: 3
======================================
402.621361089
403.013562822
402.536451435
402.621361089
402.605187821
402.621361089
401.719701433
403.04186604
402.180639553
403.062082624
401.756091285
403.911179161
404.319554162
403.895005894
402.180639553
404.319554162
402.621361089
402.637534356
402.19681282
402.19681282
401.739918017
403.02973609
403.062082624
402.180639553
401.315369749

Average distance is : 402.695 cm
Average deviation is : 0.785 cm
Block: 4
======================================
403.062082624
400.874648213
400.894864798
400.890821481
401.315369749
401.315369749
403.04186604
401.756091285
401.351759601
401.331543016
400.874648213
400.890821481
400.874648213
400.890821481
400.890821481
401.756091285
401.756091285
400.874648213
401.739918017
401.739918017
401.315369749
400.854431629
400.854431629
401.299196482
400.858474946

Average distance is : 401.332 cm
Average deviation is : 0.622 cm
Block: 5
======================================
402.164466286
401.295153165
400.838258362
400.429883361
401.295153165
401.295153165
400.826128411
401.283023214
400.842301679
401.26280663
401.283023214
402.997389555
400.805911827
401.299196482
401.719701433
400.822085094
401.230460095
401.210243511
401.707571483
401.671181631
403.434067774
401.671181631
402.552624702
2773.55766366
403.417894506

Average distance is : 496.437 cm
Average deviation is : 474.401 cm
Block: 6
======================================
400.858474946
400.854431629
401.299196482
401.299196482
402.451541781
401.739918017
400.874648213
400.41775341
400.413710093
401.735874701
400.858474946
400.413710093
400.874648213
400.858474946
401.295153165
400.854431629
401.295153165
400.858474946
401.299196482
400.858474946
400.858474946
400.858474946
400.858474946
400.858474946
400.890821481

Average distance is : 401.029 cm
Average deviation is : 0.452 cm
Block: 7
======================================
402.148293018
402.180639553
402.637534356
402.180639553
402.148293018
403.094429159
403.062082624
402.621361089
402.621361089
402.621361089
405.552765799
402.621361089
404.351900697
403.062082624
403.943525696
402.621361089
402.164466286
402.217029405
403.078255892
402.637534356
402.621361089
403.506847477
403.486630893
402.621361089
402.19681282

Average distance is : 402.880 cm
Average deviation is : 0.801 cm
Block: 8
======================================
401.792481136
401.315369749
401.315369749
401.788437819
404.351900697
401.347716284
402.669880891
402.212986088
402.653707623
402.65775094
402.641577673
401.315369749
402.233202672
401.804611087
401.788437819
403.062082624
402.653707623
402.229159355
401.808654404
401.331543016
401.788437819
401.792481136
401.788437819
401.331543016
401.347716284

Average distance is : 402.041 cm
Average deviation is : 0.719 cm
Block: 9
======================================
401.400279403
401.400279403
402.249375939
401.400279403
401.808654404
401.804611087
402.65775094
403.098472476
401.804611087
401.351759601
401.804611087
401.841000938
401.367932868
401.367932868
401.380062819
402.229159355
402.249375939
403.045909357
401.367932868
402.229159355
402.65775094
401.363889551
400.890821481
401.347716284
403.482587576

Average distance is : 401.904 cm
Average deviation is : 0.667 cm
Block: 10
======================================
400.890821481
401.367932868
400.923168015
400.874648213
401.384106135
401.804611087
401.347716284
403.062082624
400.890821481
401.351759601
403.486630893
401.299196482
401.788437819
401.776307869
400.906994748
400.874648213
402.637534356
401.772264552
401.315369749
401.772264552
400.450099945
400.906994748
400.890821481
401.788437819
400.911038065

Average distance is : 401.459 cm
Average deviation is : 0.726 cm