
Block: 1
======================================
200.963720083
200.984081149
200.519848847
200.503559995
200.02303884
200.963720083
200.503559995
200.5361377
200.075977612
200.059688759
200.059688759
200.055616546
200.963720083
200.963720083
200.503559995
200.980008936
200.963720083
200.980008936
200.963720083
200.572787619
200.075977612
200.075977612
200.092266464
200.075977612
200.092266464

Block: 2
======================================
199.648395228
200.984081149
200.980008936
200.984081149
200.075977612
201.000370002
200.519848847
201.000370002
200.108555317
200.108555317
200.996297789
200.572787619
200.092266464
200.11262753
200.108555317
200.092266464
200.092266464
200.108555317
200.572787619
200.075977612
200.092266464
200.11262753
200.552426553
200.092266464
200.523921061

Block: 3
======================================
200.519848847
200.519848847
200.519848847
200.519848847
200.980008936
200.075977612
200.059688759
200.075977612
200.075977612
200.092266464
200.092266464
200.980008936
200.519848847
200.996297789
200.980008936
200.075977612
200.059688759
200.059688759
200.075977612
200.519848847
200.552426553
200.556498766
200.096338677
200.963720083
200.5361377

Block: 4
======================================
200.059688759
200.059688759
200.483198929
200.096338677
200.963720083
200.096338677
200.984081149
200.096338677
200.108555317
200.519848847
200.092266464
200.519848847
200.980008936
200.075977612
200.984081149
200.963720083
200.092266464
200.5361377
200.556498766
200.092266464
200.080049825
200.947431231
200.059688759
200.096338677
200.11262753

Block: 5
======================================
200.947431231
200.519848847
201.444241238
201.016658854
200.980008936
200.075977612
200.075977612
200.092266464
200.075977612
200.075977612
200.556498766
200.5361377
199.632106376
200.075977612
200.075977612
200.092266464
200.075977612
200.092266464
200.059688759
200.572787619
200.108555317
200.092266464
200.092266464
200.092266464
200.075977612

Block: 6
======================================
200.540209913
200.059688759
200.080049825
200.075977612
200.963720083
200.080049825
200.075977612
201.81888485
200.075977612
200.556498766
200.075977612
200.075977612
200.096338677
200.963720083
200.963720083
200.075977612
200.980008936
200.556498766
200.947431231
200.075977612
200.055616546
200.540209913
200.963720083
200.092266464
200.503559995

Block: 7
======================================
200.519848847
200.059688759
200.075977612
199.566950965
200.039327693
200.059688759
200.487271142
200.039327693
200.043399906
200.043399906
200.519848847
200.039327693
200.519848847
200.043399906
200.519848847
200.02303884
200.503559995
200.043399906
200.02303884
200.963720083
200.075977612
200.967792296
200.487271142
200.503559995
200.503559995

Block: 8
======================================
200.092266464
200.914853525
200.931142378
200.910781312
200.075977612
200.043399906
200.043399906
200.043399906
200.02303884
200.010822201
200.503559995
200.059688759
200.503559995
200.503559995
200.503559995
200.027111053
200.039327693
200.043399906
200.947431231
200.059688759
200.059688759
200.503559995
200.963720083
200.947431231
200.059688759

Block: 9
======================================
200.043399906
200.039327693
200.039327693
200.059688759
200.039327693
200.556498766
200.556498766
200.947431231
200.075977612
200.963720083
200.963720083
200.043399906
200.963720083
200.947431231
200.947431231
200.963720083
200.963720083
200.963720083
200.947431231
200.5361377
200.075977612
200.523921061
200.075977612
200.075977612
200.984081149

Block: 10
======================================
199.648395228
200.519848847
199.615817523
200.980008936
200.967792296
200.092266464
200.540209913
200.075977612
200.075977612
200.059688759
200.096338677
200.059688759
200.075977612
200.059688759
200.092266464
200.075977612
200.059688759
200.108555317
200.552426553
200.092266464
200.075977612
200.5361377
200.092266464
200.075977612
200.092266464
