
Block: 1
======================================
201.000370002
200.108555317
200.059688759
200.11262753
200.080049825
200.080049825
200.092266464
200.096338677
199.664684081
200.092266464
200.092266464
200.092266464
200.5361377
200.5361377
200.075977612
200.552426553
200.128916383
200.5361377
200.075977612
200.075977612
200.096338677
200.519848847
200.075977612
200.552426553
200.059688759
200.5361377
200.556498766
200.096338677
200.552426553
200.5361377
200.519848847
200.540209913
200.075977612
200.5361377
200.075977612
200.963720083
200.540209913
200.092266464
200.980008936
200.540209913
200.556498766
200.5361377
200.075977612
200.092266464
200.075977612
200.075977612
200.556498766
200.540209913
200.108555317
200.556498766

Average distance is : 200.314 cm
Average deviation is : 0.291 cm
Block: 2
======================================
200.092266464
200.12484417
200.075977612
200.11262753
201.012586641
200.5361377
201.012586641
200.552426553
200.075977612
200.096338677
200.556498766
200.092266464
200.075977612
200.556498766
200.5361377
200.5361377
200.075977612
200.540209913
199.664684081
201.016658854
200.096338677
200.552426553
199.664684081
200.075977612
200.5361377
200.092266464
200.540209913
199.648395228
200.5361377
199.668756294
200.556498766
199.664684081
200.5361377
200.552426553
199.648395228
201.016658854
200.552426553
200.540209913
200.552426553
199.685045147
200.568715405
200.556498766
199.664684081
199.648395228
200.556498766
199.664684081
200.572787619
199.648395228
199.668756294
200.568715405

Average distance is : 200.264 cm
Average deviation is : 0.423 cm
Block: 3
======================================
200.128916383
200.128916383
200.12484417
200.145205235
201.888112473
200.5361377
200.556498766
200.145205235
199.664684081
199.685045147
201.012586641
200.128916383
201.012586641
200.556498766
199.664684081
201.000370002
199.648395228
200.996297789
201.032947707
201.032947707
200.556498766
200.572787619
199.664684081
199.668756294
199.664684081
200.572787619
200.568715405
200.552426553
200.556498766
201.012586641
199.685045147
201.016658854
200.568715405
200.572787619
200.572787619
200.568715405
199.685045147
199.685045147
200.12484417
199.685045147
199.685045147
199.664684081
200.145205235
200.552426553
199.685045147
199.664684081
200.556498766
200.572787619
199.664684081
200.11262753

Average distance is : 200.299 cm
Average deviation is : 0.539 cm
Block: 4
======================================
199.668756294
199.648395228
199.477362275
200.141133022
200.11262753
200.108555317
200.556498766
200.11262753
200.572787619
199.664684081
199.664684081
200.572787619
200.128916383
200.552426553
200.145205235
201.016658854
199.680972934
201.016658854
200.5361377
199.664684081
200.128916383
199.664684081
200.556498766
199.680972934
199.685045147
199.685045147
199.685045147
199.668756294
199.680972934
199.648395228
200.5361377
200.540209913
201.016658854
200.5361377
199.680972934
199.648395228
200.128916383
200.108555317
200.11262753
200.092266464
200.5361377
200.092266464
200.568715405
199.664684081
199.664684081
200.572787619
200.096338677
200.552426553
199.648395228
200.572787619

Average distance is : 200.110 cm
Average deviation is : 0.437 cm
Block: 5
======================================
200.128916383
200.11262753
200.092266464
200.092266464
200.092266464
200.5361377
200.108555317
200.108555317
199.648395228
200.556498766
200.108555317
199.648395228
200.092266464
200.552426553
200.556498766
200.556498766
200.108555317
200.5361377
200.092266464
200.092266464
200.556498766
200.092266464
200.556498766
199.680972934
200.096338677
200.5361377
200.572787619
200.556498766
200.092266464
200.540209913
200.096338677
200.5361377
200.556498766
200.096338677
200.5361377
200.5361377
200.552426553
200.092266464
200.108555317
200.096338677
199.685045147
200.568715405
200.556498766
201.012586641
199.668756294
201.000370002
200.996297789
200.984081149
200.552426553
200.5361377

Average distance is : 200.317 cm
Average deviation is : 0.352 cm
Block: 6
======================================
200.075977612
200.092266464
200.108555317
200.568715405
200.096338677
200.556498766
201.012586641
200.540209913
201.000370002
200.980008936
200.996297789
200.080049825
200.075977612
200.092266464
200.984081149
200.556498766
200.075977612
200.552426553
200.5361377
200.092266464
200.128916383
200.552426553
200.552426553
200.092266464
200.092266464
200.096338677
200.092266464
200.5361377
200.075977612
200.075977612
200.092266464
200.092266464
200.108555317
200.092266464
200.5361377
200.11262753
200.092266464
201.016658854
200.075977612
200.5361377
200.556498766
200.092266464
200.556498766
200.096338677
200.556498766
200.092266464
200.075977612
200.540209913
200.096338677
200.092266464

Average distance is : 200.338 cm
Average deviation is : 0.321 cm
Block: 7
======================================
200.141133022
200.108555317
200.075977612
200.108555317
200.128916383
200.980008936
200.552426553
199.680972934
200.980008936
199.680972934
200.568715405
201.000370002
200.5361377
200.556498766
201.032947707
201.012586641
201.016658854
200.572787619
200.092266464
200.552426553
201.016658854
200.556498766
200.141133022
199.668756294
200.552426553
201.016658854
200.145205235
200.556498766
200.108555317
199.652467442
199.680972934
200.145205235
199.680972934
199.701334
200.128916383
201.032947707
201.016658854
200.556498766
199.680972934
200.556498766
200.552426553
200.161494088
200.128916383
199.697261786
200.128916383
200.128916383
199.648395228
200.996297789
200.128916383
199.680972934

Average distance is : 200.325 cm
Average deviation is : 0.475 cm
Block: 8
======================================
199.652467442
200.128916383
200.589076471
200.092266464
200.128916383
199.701334
200.128916383
200.5361377
201.032947707
200.552426553
200.552426553
200.075977612
200.11262753
200.092266464
200.996297789
200.540209913
200.552426553
200.108555317
200.092266464
200.11262753
200.108555317
200.075977612
200.108555317
200.092266464
200.092266464
200.552426553
200.11262753
200.108555317
200.556498766
200.092266464
200.556498766
200.092266464
200.092266464
200.556498766
200.092266464
200.556498766
200.075977612
200.108555317
200.589076471
200.128916383
200.108555317
200.092266464
200.075977612
200.552426553
200.11262753
200.075977612
200.552426553
200.11262753
200.075977612
199.680972934

Average distance is : 200.239 cm
Average deviation is : 0.292 cm
Block: 9
======================================
200.980008936
200.075977612
200.039327693
200.039327693
200.092266464
200.963720083
200.963720083
200.552426553
200.503559995
200.523921061
200.483198929
200.947431231
200.963720083
200.5361377
200.519848847
200.540209913
200.963720083
200.503559995
200.075977612
200.059688759
200.519848847
200.519848847
200.499487782
200.523921061
200.055616546
200.503559995
200.519848847
200.075977612
200.503559995
200.059688759
200.075977612
200.540209913
200.075977612
200.523921061
200.540209913
200.043399906
200.059688759
200.519848847
200.043399906
200.059688759
200.540209913
200.963720083
200.503559995
200.092266464
200.075977612
200.075977612
200.075977612
200.523921061
200.059688759
200.059688759

Average distance is : 200.391 cm
Average deviation is : 0.316 cm
Block: 10
======================================
201.000370002
200.092266464
200.059688759
200.075977612
200.075977612
200.5361377
200.096338677
200.540209913
200.075977612
200.075977612
200.523921061
200.096338677
200.075977612
200.092266464
200.519848847
200.967792296
200.092266464
200.980008936
200.967792296
200.503559995
200.519848847
200.092266464
200.980008936
200.096338677
200.963720083
199.664684081
200.963720083
200.096338677
200.075977612
200.540209913
200.980008936
200.059688759
200.980008936
200.523921061
200.519848847
200.984081149
200.984081149
200.075977612
200.967792296
200.967792296
200.092266464
200.963720083
200.980008936
200.523921061
200.540209913
200.947431231
200.963720083
200.963720083
200.980008936
200.503559995

Average distance is : 200.519 cm
Average deviation is : 0.406 cm