
Block: 1
======================================
100.817572474
100.834092498
100.813442469
100.768012404
100.817572474
100.817572474
100.780402422
100.834092498
100.796922445
100.784532428
100.780402422
100.801052451
100.817572474
100.817572474
100.780402422
100.817572474
100.780402422
100.838222504
100.801052451
100.796922445
100.780402422
100.780402422
100.796922445
100.801052451
100.796922445
100.796922445
100.784532428
100.763882399
100.801052451
100.801052451
100.801052451
100.780402422
101.251223087
101.284263134
100.784532428
100.784532428
100.801052451
100.784532428
100.817572474
100.796922445
100.796922445
100.817572474
100.834092498
100.817572474
100.817572474
100.784532428
100.763882399
100.780402422
100.763882399
100.801052451
100.817572474
100.817572474
100.796922445
100.801052451
100.796922445
100.801052451
100.817572474
101.251223087
101.267743111
101.267743111
101.267743111
100.784532428
100.763882399
101.197533011
101.304913163
101.267743111
100.801052451
100.433481932
101.284263134
100.780402422
100.801052451
101.247093081
100.801052451
101.284263134
101.267743111
101.251223087
100.796922445
100.784532428
100.784532428
100.817572474
100.763882399
100.780402422
101.247093081
100.400441885
100.817572474
100.796922445
100.834092498
100.796922445
100.817572474
100.796922445
100.801052451
101.247093081
100.801052451
101.28839314
100.763882399
100.796922445
101.267743111
101.284263134
100.817572474
101.284263134

Average distance is : 100.884 cm
Average deviation is : 0.200 cm
Block: 2
======================================
100.763882399
100.817572474
101.181012988
100.780402422
100.801052451
100.796922445
100.784532428
100.817572474
100.817572474
100.796922445
100.801052451
100.780402422
100.834092498
100.817572474
100.801052451
100.817572474
100.834092498
100.850612521
100.780402422
100.437611938
100.817572474
100.768012404
100.817572474
100.801052451
100.796922445
100.780402422
100.784532428
100.780402422
100.784532428
100.817572474
100.817572474
100.801052451
100.817572474
100.801052451
100.801052451
100.817572474
100.817572474
100.801052451
100.817572474
100.817572474
100.817572474
100.834092498
100.850612521
101.267743111
101.234703064
101.251223087
100.784532428
100.801052451
100.838222504
100.834092498
100.780402422
100.796922445
100.801052451
101.214053035
100.813442469
100.817572474
100.817572474
100.780402422
100.796922445
100.817572474
100.817572474
100.801052451
100.780402422
100.763882399
100.813442469
100.801052451
100.780402422
100.367401838
100.817572474
100.817572474
100.796922445
100.801052451
100.801052451
100.796922445
100.801052451
100.796922445
100.817572474
100.780402422
100.813442469
100.817572474
100.817572474
100.834092498
100.780402422
100.838222504
100.817572474
100.813442469
100.834092498
100.801052451
100.801052451
100.817572474
100.801052451
100.763882399
100.817572474
100.834092498
100.817572474
100.801052451
100.817572474
100.796922445
100.784532428
100.817572474

Average distance is : 100.819 cm
Average deviation is : 0.112 cm
Block: 3
======================================
100.817572474
100.780402422
100.817572474
100.817572474
100.801052451
101.218183041
100.817572474
100.801052451
100.801052451
100.817572474
100.780402422
100.801052451
100.784532428
100.850612521
100.780402422
100.801052451
100.784532428
100.780402422
100.817572474
100.817572474
100.817572474
100.801052451
100.817572474
100.796922445
100.817572474
100.834092498
100.801052451
100.817572474
100.450001955
100.400441885
101.234703064
100.780402422
100.817572474
100.817572474
100.817572474
100.817572474
100.834092498
100.817572474
100.817572474
100.834092498
100.796922445
100.834092498
100.817572474
100.834092498
100.850612521
100.801052451
100.784532428
100.383921862
100.817572474
100.813442469
100.817572474
100.400441885
100.801052451
100.813442469
100.817572474
100.780402422
100.801052451
100.834092498
100.801052451
100.796922445
100.801052451
100.780402422
100.801052451
100.817572474
100.817572474
100.780402422
100.817572474
100.784532428
100.817572474
100.801052451
100.780402422
100.834092498
100.796922445
100.796922445
100.817572474
101.007552743
100.796922445
100.817572474
100.813442469
100.834092498
100.834092498
100.801052451
100.780402422
100.813442469
100.817572474
100.780402422
100.817572474
100.796922445
100.780402422
100.763882399
100.796922445
100.796922445
100.834092498
100.780402422
100.834092498
100.854742527
100.784532428
100.801052451
100.763882399
100.817572474

Average distance is : 100.802 cm
Average deviation is : 0.104 cm
Block: 4
======================================
100.383921862
100.834092498
101.507283449
100.801052451
100.796922445
100.780402422
100.784532428
100.801052451
100.801052451
100.763882399
100.796922445
100.834092498
100.834092498
100.404571891
101.251223087
101.247093081
100.801052451
100.784532428
100.817572474
100.801052451
100.834092498
100.817572474
100.780402422
100.796922445
100.796922445
100.817572474
100.784532428
100.801052451
100.784532428
100.796922445
100.817572474
100.817572474
100.850612521
100.813442469
100.817572474
100.834092498
100.834092498
100.796922445
100.834092498
100.817572474
100.801052451
100.817572474
100.817572474
100.801052451
100.796922445
100.813442469
100.801052451
100.817572474
100.367401838
100.817572474
100.801052451
100.817572474
100.817572474
100.780402422
100.817572474
100.834092498
100.801052451
100.784532428
100.817572474
100.834092498
100.817572474
100.813442469
100.796922445
100.796922445
100.834092498
100.801052451
100.838222504
100.801052451
100.801052451
100.27654171
100.801052451
100.817572474
100.784532428
100.834092498
100.817572474
100.817572474
100.817572474
100.850612521
100.817572474
100.763882399
100.780402422
100.796922445
100.813442469
100.383921862
100.817572474
100.817572474
100.817572474
100.796922445
100.763882399
100.817572474
100.817572474
100.834092498
100.796922445
100.801052451
100.801052451
100.780402422
100.784532428
100.817572474
100.817572474
100.817572474

Average distance is : 100.802 cm
Average deviation is : 0.139 cm
Block: 5
======================================
100.780402422
100.433481932
100.796922445
100.801052451
100.801052451
100.817572474
100.817572474
100.801052451
100.817572474
100.834092498
100.796922445
100.817572474
100.801052451
100.817572474
100.421091914
100.817572474
100.834092498
100.834092498
100.801052451
100.784532428
100.801052451
100.796922445
100.817572474
100.801052451
100.834092498
100.801052451
100.813442469
100.801052451
100.796922445
100.813442469
100.784532428
100.784532428
100.796922445
100.796922445
100.817572474
100.801052451
100.801052451
100.834092498
100.763882399
100.796922445
100.817572474
100.817572474
100.768012404
100.784532428
100.834092498
100.416961908
100.834092498
100.817572474
100.383921862
100.801052451
100.813442469
100.780402422
100.834092498
100.817572474
100.834092498
100.801052451
100.817572474
100.801052451
100.834092498
100.780402422
100.813442469
100.796922445
100.784532428
100.801052451
101.267743111
101.647703648
100.784532428
100.801052451
100.817572474
100.780402422
100.817572474
101.247093081
100.801052451
100.801052451
100.817572474
100.780402422
100.801052451
100.796922445
100.780402422
100.796922445
100.817572474
100.796922445
100.780402422
100.763882399
100.801052451
100.796922445
100.796922445
100.817572474
100.747362375
100.801052451
100.768012404
100.747362375
100.763882399
100.801052451
100.801052451
100.763882399
100.780402422
100.834092498
100.801052451
100.834092498

Average distance is : 100.804 cm
Average deviation is : 0.134 cm
Block: 6
======================================
100.437611938
100.801052451
100.437611938
100.817572474
100.834092498
100.784532428
100.801052451
100.817572474
100.763882399
100.817572474
100.801052451
100.780402422
100.796922445
101.267743111
100.801052451
100.796922445
100.801052451
100.796922445
100.768012404
100.801052451
100.796922445
100.801052451
100.817572474
100.817572474
100.796922445
100.813442469
100.763882399
100.363271832
100.813442469
100.796922445
100.801052451
100.817572474
100.768012404
100.801052451
100.780402422
100.784532428
100.784532428
100.801052451
100.780402422
100.817572474
100.784532428
100.817572474
101.127322912
100.801052451
100.801052451
100.784532428
100.801052451
100.817572474
100.780402422
101.701393723
100.780402422
100.817572474
100.813442469
100.763882399
101.234703064
100.801052451
100.421091914
101.300783157
101.247093081
101.267743111
100.784532428
100.784532428
101.230573058
100.817572474
100.801052451
100.796922445
101.701393723
101.251223087
101.701393723
101.234703064
100.817572474
101.267743111
100.780402422
100.768012404
100.801052451
100.817572474
101.267743111
101.234703064
100.817572474
100.780402422
100.784532428
100.834092498
100.796922445
101.267743111
100.834092498
100.801052451
100.780402422
100.416961908
100.416961908
100.416961908
100.780402422
100.784532428
100.796922445
100.817572474
100.801052451
100.796922445
100.796922445
100.801052451
100.763882399
100.768012404

Average distance is : 100.856 cm
Average deviation is : 0.242 cm
Block: 7
======================================
100.780402422
100.817572474
101.247093081
100.796922445
100.780402422
101.251223087
100.796922445
100.801052451
101.267743111
101.251223087
100.817572474
100.801052451
100.796922445
100.801052451
101.251223087
100.780402422
100.817572474
100.801052451
100.796922445
100.801052451
100.796922445
101.251223087
100.801052451
100.801052451
100.801052451
100.801052451
100.796922445
100.801052451
100.780402422
100.813442469
100.817572474
100.801052451
100.801052451
100.817572474
100.784532428
100.801052451
100.817572474
100.817572474
100.817572474
100.763882399
100.817572474
100.801052451
100.834092498
101.251223087
100.784532428
100.801052451
100.796922445
100.834092498
100.780402422
100.780402422
100.801052451
100.801052451
100.813442469
100.834092498
100.817572474
100.780402422
100.780402422
100.834092498
100.780402422
100.780402422
100.780402422
100.817572474
100.784532428
100.780402422
100.813442469
100.834092498
100.817572474
100.801052451
100.801052451
100.834092498
100.834092498
100.784532428
101.251223087
100.780402422
100.383921862
100.817572474
100.817572474
100.784532428
100.834092498
100.796922445
100.817572474
100.784532428
100.780402422
100.817572474
100.817572474
100.796922445
100.817572474
100.801052451
100.801052451
100.834092498
100.784532428
100.796922445
100.784532428
100.768012404
100.796922445
100.763882399
101.647703648
100.801052451
100.834092498
100.780402422

Average distance is : 100.842 cm
Average deviation is : 0.155 cm
Block: 8
======================================
100.801052451
100.763882399
101.110802889
100.801052451
100.801052451
100.433481932
100.763882399
101.267743111
100.801052451
100.796922445
100.813442469
100.801052451
100.817572474
100.801052451
100.784532428
100.817572474
100.834092498
101.804643869
100.801052451
100.801052451
100.796922445
100.801052451
100.796922445
100.796922445
100.768012404
100.780402422
100.817572474
100.784532428
100.763882399
100.801052451
100.784532428
100.834092498
100.796922445
100.780402422
100.801052451
100.784532428
100.784532428
100.817572474
100.796922445
100.801052451
100.834092498
100.834092498
100.784532428
100.817572474
100.801052451
100.817572474
100.834092498
100.817572474
100.801052451
100.784532428
100.780402422
101.697263718
100.817572474
100.813442469
100.817572474
100.801052451
100.801052451
100.404571891
100.400441885
100.450001955
100.780402422
100.780402422
100.801052451
100.817572474
100.763882399
100.784532428
100.784532428
100.817572474
100.780402422
100.780402422
100.796922445
100.780402422
100.796922445
100.834092498
100.796922445
100.801052451
100.784532428
100.784532428
101.664223671
101.284263134
100.801052451
100.796922445
100.834092498
100.817572474
100.780402422
100.817572474
100.796922445
100.796922445
100.780402422
100.801052451
100.796922445
100.834092498
100.834092498
100.817572474
100.834092498
100.817572474
100.780402422
100.780402422
100.801052451
100.801052451

Average distance is : 100.826 cm
Average deviation is : 0.192 cm
Block: 9
======================================
100.433481932
100.780402422
100.400441885
101.647703648
100.813442469
101.230573058
101.300783157
100.801052451
100.780402422
100.796922445
100.796922445
100.796922445
100.801052451
100.817572474
100.784532428
101.680743694
101.267743111
101.251223087
100.801052451
100.763882399
100.763882399
101.267743111
101.284263134
100.813442469
101.251223087
100.801052451
101.267743111
100.780402422
100.768012404
100.813442469
100.763882399
101.251223087
100.801052451
101.230573058
100.768012404
101.6848737
100.796922445
100.796922445
100.763882399
100.796922445
100.796922445
100.383921862
101.267743111
101.284263134
101.267743111
100.817572474
100.817572474
100.817572474
100.817572474
101.251223087
100.801052451
100.801052451
100.801052451
100.813442469
100.817572474
100.780402422
100.817572474
100.834092498
100.817572474
100.796922445
100.780402422
100.780402422
100.784532428
100.801052451
100.834092498
100.796922445
100.780402422
100.834092498
100.801052451
100.801052451
100.796922445
100.780402422
100.784532428
100.784532428
100.796922445
100.817572474
100.801052451
100.834092498
100.817572474
100.817572474
100.817572474
100.784532428
101.218183041
100.801052451
100.763882399
100.763882399
101.284263134
101.267743111
101.197533011
100.796922445
100.780402422
100.817572474
100.768012404
100.784532428
100.817572474
100.784532428
100.801052451
100.817572474
100.817572474
100.784532428

Average distance is : 100.895 cm
Average deviation is : 0.239 cm
Block: 10
======================================
100.404571891
100.817572474
101.267743111
100.801052451
100.421091914
100.817572474
100.813442469
100.817572474
100.780402422
100.780402422
100.796922445
100.834092498
100.801052451
100.834092498
100.801052451
100.817572474
100.784532428
100.780402422
100.796922445
100.817572474
100.801052451
100.834092498
100.801052451
100.780402422
100.784532428
100.780402422
100.801052451
100.383921862
100.383921862
100.433481932
100.834092498
100.784532428
100.834092498
100.784532428
100.834092498
100.834092498
100.784532428
100.801052451
100.796922445
100.801052451
100.817572474
101.247093081
100.813442469
100.817572474
100.834092498
100.780402422
100.813442469
100.817572474
100.768012404
100.801052451
100.784532428
100.817572474
100.817572474
100.817572474
100.801052451
100.780402422
100.817572474
100.801052451
100.801052451
100.801052451
100.780402422
100.834092498
101.284263134
100.763882399
100.817572474
100.817572474
100.817572474
100.796922445
100.817572474
100.801052451
100.834092498
100.780402422
100.834092498
100.813442469
100.780402422
100.801052451
100.801052451
100.780402422
100.780402422
100.801052451
100.801052451
100.801052451
100.801052451
100.834092498
100.780402422
100.834092498
100.796922445
100.763882399
100.784532428
100.834092498
100.801052451
100.817572474
100.768012404
100.784532428
100.784532428
100.834092498
100.801052451
100.813442469
100.801052451
100.780402422

Average distance is : 100.798 cm
Average deviation is : 0.122 cm
Average distance for 10x100 is : 100.833 cm
Average deviation for 10x100 is : 0.164 cm
 Percentage of values that failed: 0.000