
Block: 1
======================================
199.685045147
199.717622852
199.685045147
199.701334
200.568715405
199.701334
199.701334
200.12484417
199.701334
199.701334
199.664684081
200.12484417
199.664684081
200.572787619
199.733911705
199.717622852
199.701334
200.128916383
200.980008936
199.680972934
200.552426553
199.257462764
200.128916383
200.556498766
199.257462764

Block: 2
======================================
200.556498766
200.572787619
199.685045147
137.970654511
199.680972934
200.996297789
200.108555317
200.572787619
200.145205235
200.108555317
199.668756294
200.568715405
200.556498766
200.108555317
200.605365324
199.668756294
200.108555317
200.11262753
199.680972934
200.128916383
199.668756294
199.685045147
200.128916383
200.12484417
200.128916383

Block: 3
======================================
199.220812845
200.145205235
200.128916383
199.648395228
200.096338677
200.128916383
199.664684081
199.701334
199.701334
200.12484417
200.572787619
200.12484417
199.241173911
200.12484417
199.680972934
200.128916383
200.128916383
200.128916383
199.697261786
199.241173911
200.128916383
200.108555317
199.664684081
199.680972934
199.701334

Block: 4
======================================
200.128916383
200.12484417
200.092266464
199.717622852
200.161494088
200.128916383
199.717622852
199.701334
199.701334
199.273751616
200.145205235
199.685045147
199.220812845
199.701334
199.253390551
200.128916383
199.974172282
200.145205235
200.161494088
199.701334
200.589076471
199.701334
200.128916383
199.237101698
200.572787619

Block: 5
======================================
199.294112682
199.733911705
200.589076471
200.177782941
200.145205235
200.572787619
200.128916383
200.996297789
199.664684081
200.128916383
199.685045147
200.141133022
201.423880172
200.128916383
200.161494088
201.000370002
200.556498766
200.556498766
200.12484417
200.128916383
199.701334
200.141133022
199.680972934
199.685045147
199.685045147

Block: 6
======================================
199.664684081
199.652467442
199.717622852
199.664684081
199.648395228
199.680972934
199.664684081
199.241173911
199.685045147
200.161494088
199.701334
201.000370002
200.568715405
200.145205235
200.552426553
199.697261786
200.145205235
199.664684081
200.145205235
199.680972934
199.685045147
199.273751616
199.685045147
199.237101698
201.016658854

Block: 7
======================================
199.273751616
199.18823514
199.750200558
199.253390551
200.556498766
199.697261786
199.668756294
199.253390551
199.685045147
199.685045147
200.128916383
199.241173911
200.128916383
199.668756294
200.12484417
199.701334
200.128916383
200.12484417
199.648395228
200.128916383
199.668756294
199.685045147
200.108555317
199.697261786
199.664684081

Block: 8
======================================
200.128916383
200.609437537
199.701334
199.717622852
199.237101698
199.237101698
199.685045147
199.668756294
199.685045147
199.697261786
199.241173911
199.717622852
199.697261786
201.423880172
200.128916383
199.685045147
199.680972934
199.680972934
199.241173911
200.11262753
199.680972934
200.996297789
199.241173911
200.128916383
200.108555317

Block: 9
======================================
199.680972934
199.701334
199.680972934
200.108555317
199.685045147
199.241173911
199.701334
200.12484417
200.585004258
200.552426553
200.108555317
199.697261786
201.427952385
200.572787619
200.11262753
200.128916383
199.680972934
200.108555317
199.701334
200.145205235
200.128916383
199.680972934
199.680972934
199.685045147
199.664684081

Block: 10
======================================
200.589076471
199.680972934
199.803139329
200.589076471
199.668756294
200.11262753
201.032947707
200.11262753
199.717622852
200.572787619
200.128916383
200.161494088
200.568715405
199.697261786
199.685045147
200.12484417
200.589076471
199.685045147
200.145205235
199.680972934
199.664684081
199.701334
199.701334
199.680972934
200.145205235
