
Block: 1
======================================
401.149593759
400.688655639
402.435368514
401.978473711
401.57009871
401.990603662
402.419195247
401.145550442
400.688655639
400.704828906
400.72504549
400.247934103
401.129377174
401.57009871
400.704828906
400.688655639
400.704828906
400.260064054
402.455585098
400.26410737
401.149593759
400.72504549
400.227717519
401.125333858
400.316670489

Average distance is : 401.083 cm
Average deviation is : 0.711 cm
Block: 2
======================================
401.145550442
400.688655639
400.704828906
402.010820246
400.26410737
400.280280638
400.72504549
400.721002173
401.161723709
400.296453905
400.284323955
400.26410737
400.704828906
400.704828906
401.129377174
400.280280638
400.26410737
400.296453905
400.284323955
400.721002173
400.721002173
400.26410737
400.721002173
400.280280638
400.704828906

Average distance is : 400.625 cm
Average deviation is : 0.415 cm
Block: 3
======================================
401.161723709
402.026993513
400.280280638
400.737175441
400.721002173
399.855732369
400.312627172
400.296453905
400.280280638
400.280280638
401.165767026
400.741218758
400.316670489
400.280280638
400.280280638
401.177896976
402.026993513
400.296453905
400.296453905
400.741218758
400.757392025
400.280280638
400.280280638
400.316670489
400.741218758

Average distance is : 400.626 cm
Average deviation is : 0.537 cm
Block: 4
======================================
400.721002173
400.296453905
400.332843757
400.753348708
401.165767026
400.741218758
402.483888316
400.721002173
401.602445245
400.312627172
400.296453905
400.757392025
400.296453905
402.026993513
402.026993513
400.737175441
400.296453905
400.332843757
400.296453905
401.161723709
400.737175441
400.300497222
400.737175441
400.296453905
401.181940293

Average distance is : 400.825 cm
Average deviation is : 0.625 cm
Block: 5
======================================
401.618618512
401.161723709
401.161723709
401.161723709
400.757392025
402.471758366
401.57009871
400.737175441
400.737175441
400.721002173
402.063383365
400.721002173
402.026993513
401.181940293
400.737175441
401.194070244
401.602445245
400.316670489
400.737175441
400.757392025
400.737175441
400.773565292
400.300497222
400.753348708
402.047210097

Average distance is : 401.122 cm
Average deviation is : 0.577 cm
Block: 6
======================================
402.063383365
400.757392025
400.296453905
400.344973707
400.773565292
400.753348708
400.753348708
400.753348708
400.773565292
400.78973856
400.344973707
400.316670489
401.210243511
400.349017024
400.312627172
401.198113561
400.773565292
400.757392025
401.230460095
400.773565292
400.332843757
400.349017024
400.32880044
400.32880044
400.773565292

Average distance is : 400.698 cm
Average deviation is : 0.412 cm
Block: 7
======================================
401.230460095
400.332843757
401.214286828
400.332843757
400.349017024
399.871905637
400.78973856
399.908295488
399.908295488
399.888078904
399.892122221
400.78973856
400.332843757
400.332843757
400.769521976
400.757392025
401.618618512
400.773565292
400.753348708
400.773565292
400.332843757
400.332843757
400.757392025
399.892122221
399.892122221

Average distance is : 400.473 cm
Average deviation is : 0.484 cm
Block: 8
======================================
400.332843757
400.349017024
400.316670489
399.855732369
400.280280638
400.312627172
399.875948954
400.332843757
399.875948954
399.892122221
400.753348708
400.316670489
400.316670489
399.892122221
399.875948954
400.769521976
400.296453905
400.757392025
400.773565292
401.181940293
400.757392025
400.296453905
400.757392025
400.316670489
400.296453905

Average distance is : 400.351 cm
Average deviation is : 0.357 cm
Block: 9
======================================
400.280280638
400.741218758
400.296453905
401.161723709
400.332843757
400.280280638
400.753348708
400.316670489
400.349017024
400.316670489
401.214286828
400.757392025
400.296453905
401.181940293
400.757392025
400.316670489
400.737175441
401.177896976
401.161723709
400.773565292
400.32880044
400.737175441
400.316670489
400.300497222
400.753348708

Average distance is : 400.626 cm
Average deviation is : 0.345 cm
Block: 10
======================================
400.757392025
400.721002173
400.773565292
400.773565292
400.737175441
400.312627172
400.332843757
401.602445245
400.737175441
400.300497222
401.618618512
400.312627172
400.296453905
400.721002173
401.177896976
401.198113561
400.312627172
400.741218758
400.296453905
400.316670489
400.769521976
400.316670489
400.737175441
400.312627172
400.280280638

Average distance is : 400.658 cm
Average deviation is : 0.398 cm