
Block: 1
======================================
399.079415536
399.48374722
399.499920487
399.499920487
399.48374722
399.536310339
399.516093755
399.532267022
399.532267022
399.499920487
399.552483606
399.516093755
399.499920487
399.516093755
399.059198952
399.499920487
399.499920487
399.026852417
399.532267022
399.499920487
399.536310339
399.075372219
399.516093755
399.499920487
399.095588803
399.467573953
399.095588803
399.095588803
399.095588803
399.059198952
399.48374722
399.516093755
399.503963804
399.091545486
399.095588803
399.095588803
399.059198952
399.48374722
399.516093755
399.059198952
399.059198952
399.536310339
399.059198952
399.48374722
399.532267022
399.503963804
399.499920487
399.499920487
399.48374722
399.516093755

Block: 2
======================================
399.892122221
399.463530636
399.48374722
385.425134563
399.48374722
399.924468756
399.908295488
399.924468756
399.908295488
399.059198952
399.892122221
399.924468756
399.888078904
399.924468756
399.447357368
399.463530636
399.924468756
399.871905637
400.296453905
400.332843757
400.332843757
400.365190291
399.892122221
399.888078904
400.381363559
400.332843757
400.349017024
400.332843757
400.316670489
400.332843757
399.451400685
399.892122221
400.349017024
400.300497222
399.888078904
399.908295488
399.451400685
400.312627172
400.332843757
400.316670489
400.349017024
400.332843757
400.344973707
400.312627172
399.855732369
400.316670489
399.859775686
400.280280638
399.892122221
399.892122221

Block: 3
======================================
399.823385835
399.892122221
399.415010834
399.859775686
399.467573953
399.415010834
399.892122221
399.859775686
399.855732369
399.875948954
399.892122221
399.431184101
399.924468756
399.871905637
399.908295488
399.875948954
399.908295488
399.908295488
399.94468534
399.892122221
399.924468756
399.875948954
399.94468534
399.908295488
399.892122221
399.48374722
399.888078904
399.467573953
399.908295488
399.908295488
399.924468756
399.924468756
399.871905637
399.940642023
399.888078904
399.924468756
399.431184101
399.892122221
399.467573953
399.924468756
399.892122221
399.924468756
399.451400685
399.904252172
399.908295488
399.48374722
399.924468756
399.908295488
399.888078904
399.892122221

Block: 4
======================================
400.332843757
399.043025684
399.924468756
399.451400685
399.924468756
399.451400685
399.48374722
399.940642023
399.463530636
399.908295488
399.451400685
399.924468756
399.94468534
399.908295488
399.908295488
399.892122221
399.908295488
399.924468756
399.928512073
399.48374722
399.928512073
399.924468756
399.463530636
399.888078904
399.924468756
399.908295488
400.344973707
400.365190291
399.892122221
400.385406876
399.924468756
400.365190291
400.332843757
399.924468756
400.397536826
400.332843757
399.928512073
399.940642023
399.972988558
399.95681529
399.924468756
399.977031875
399.467573953
399.908295488
400.41775341
399.972988558
399.924468756
399.48374722
399.503963804
399.960858607

Block: 5
======================================
399.95681529
399.95681529
399.924468756
399.960858607
399.95681529
399.960858607
399.94468534
399.972988558
399.94468534
400.009378409
399.960858607
399.993205142
399.993205142
357.291735983
399.928512073
399.972988558
399.091545486
399.536310339
399.552483606
399.977031875
399.536310339
399.940642023
399.977031875
399.993205142
399.552483606
399.548440289
399.111762071
399.993205142
399.588873458
399.107718754
399.548440289
399.552483606
399.552483606
399.548440289
399.552483606
399.536310339
399.548440289
399.536310339
399.536310339
399.503963804
399.536310339
399.532267022
399.095588803
399.516093755
399.536310339
399.536310339
399.520137072
399.536310339
399.075372219
399.516093755

Block: 6
======================================
367.331291699
399.520137072
399.520137072
399.532267022
399.532267022
399.059198952
399.095588803
399.552483606
399.516093755
399.516093755
399.532267022
399.552483606
399.48374722
399.516093755
399.499920487
399.548440289
399.552483606
399.536310339
399.48374722
399.075372219
399.059198952
399.038982368
399.552483606
399.499920487
399.503963804
399.584830141
399.924468756
399.924468756
399.516093755
399.552483606
399.467573953
399.516093755
399.499920487
399.48374722
399.075372219
399.503963804
399.516093755
399.924468756
399.892122221
399.960858607
399.552483606
399.463530636
399.888078904
399.940642023
399.079415536
399.908295488
399.924468756
399.924468756
399.94468534
399.48374722

Block: 7
======================================
399.972988558
400.349017024
399.892122221
399.924468756
399.908295488
399.924468756
399.451400685
399.908295488
399.888078904
399.467573953
399.924468756
400.349017024
399.908295488
399.451400685
399.451400685
399.888078904
399.871905637
399.940642023
399.467573953
399.904252172
399.888078904
400.349017024
400.312627172
399.892122221
400.349017024
399.908295488
399.892122221
399.892122221
400.332843757
399.940642023
399.904252172
399.415010834
399.940642023
399.924468756
399.48374722
399.908295488
400.349017024
399.940642023
399.924468756
399.904252172
399.48374722
399.924468756
399.924468756
400.365190291
399.94468534
399.908295488
399.892122221
399.908295488
399.892122221
400.316670489

Block: 8
======================================
399.516093755
400.332843757
399.940642023
400.365190291
399.892122221
400.316670489
400.349017024
400.316670489
399.924468756
400.349017024
400.32880044
399.924468756
399.463530636
400.312627172
400.332843757
400.349017024
400.365190291
399.888078904
399.888078904
400.312627172
400.349017024
399.928512073
400.316670489
400.300497222
400.332843757
399.892122221
400.32880044
400.365190291
399.888078904
399.875948954
399.908295488
399.467573953
400.332843757
399.908295488
399.908295488
400.316670489
399.871905637
399.892122221
399.924468756
399.447357368
399.467573953
399.467573953
400.316670489
400.316670489
399.871905637
400.312627172
400.296453905
400.332843757
400.365190291
399.435227418

Block: 9
======================================
399.892122221
400.300497222
399.875948954
399.871905637
399.875948954
399.892122221
399.892122221
399.888078904
399.888078904
399.892122221
399.892122221
399.855732369
399.875948954
399.892122221
399.855732369
399.451400685
399.892122221
399.839559102
400.296453905
399.871905637
399.888078904
399.839559102
399.892122221
399.875948954
399.859775686
399.892122221
399.875948954
399.859775686
399.875948954
400.247934103
399.855732369
399.871905637
399.871905637
399.908295488
399.435227418
399.871905637
399.875948954
399.892122221
399.823385835
399.855732369
399.875948954
399.839559102
399.839559102
399.839559102
400.280280638
399.859775686
400.280280638
399.871905637
399.855732369
399.823385835

Block: 10
======================================
400.280280638
400.332843757
399.859775686
399.875948954
399.859775686
399.823385835
399.855732369
399.855732369
399.855732369
399.839559102
399.855732369
399.888078904
399.823385835
399.415010834
399.859775686
399.859775686
399.447357368
399.892122221
399.855732369
399.859775686
399.463530636
399.431184101
399.871905637
399.01067915
399.892122221
399.888078904
399.855732369
399.467573953
399.435227418
399.48374722
399.892122221
399.415010834
399.940642023
399.871905637
399.451400685
399.892122221
400.349017024
399.839559102
399.875948954
399.904252172
399.924468756
399.888078904
399.924468756
399.908295488
399.924468756
399.892122221
399.431184101
399.908295488
399.435227418
399.892122221
