
Block: 1
======================================
300.585618258
300.605943203
301.012442112
300.57342329
301.032767057
301.049027014
300.585618258
300.979922199
300.601878214
301.016507101

Block: 2
======================================
300.589683247
300.585618258
301.886414766
301.016507101
301.012442112
300.585618258
301.459590912
300.569358301
300.553098345
301.012442112

Block: 3
======================================
302.309173632
300.536838388
300.553098345
300.979922199
301.866089821
300.536838388
300.996182156
300.500253487
301.427070999
301.87015481

Block: 4
======================================
300.536838388
301.443330956
300.536838388
300.536838388
301.42300601
301.439265966
300.996182156
300.520578432
300.536838388
301.849829865

Block: 5
======================================
301.849829865
301.42300601
300.979922199
300.979922199
300.500253487
301.443330956
300.979922199
300.979922199
300.536838388
300.553098345

Block: 6
======================================
300.536838388
300.963662243
300.963662243
300.979922199
300.516513443
300.963662243
300.979922199
300.504318476
300.520578432
301.849829865

Block: 7
======================================
302.699412584
300.979922199
300.979922199
300.536838388
300.536838388
300.996182156
301.439265966
300.553098345
300.979922199
300.947402287

Block: 8
======================================
300.516513443
300.963662243
300.963662243
300.963662243
300.947402287
301.849829865
300.557163334
300.979922199
300.553098345
300.553098345

Block: 9
======================================
301.829504919
301.406746054
300.943337297
300.089689589
300.910817385
300.979922199
301.849829865
300.520578432
300.959597254
301.406746054

Block: 10
======================================
300.963662243
300.553098345
301.439265966
301.42300601
300.557163334
300.536838388
300.963662243
300.504318476
300.520578432
300.57342329
