
Block: 1
======================================
301.016507101
301.016507101
301.032767057
300.585618258
301.032767057

Block: 2
======================================
300.57342329
301.06528697
300.553098345
300.605943203
300.57342329

Block: 3
======================================
301.032767057
300.130339479
300.569358301
300.57342329
301.459590912

Block: 4
======================================
300.569358301
300.589683247
300.57342329
300.536838388
301.459590912

Block: 5
======================================
301.459590912
300.57342329
300.569358301
301.455525923
301.439265966

Block: 6
======================================
302.345758533
302.345758533
300.589683247
300.979922199
300.569358301

Block: 7
======================================
300.553098345
300.996182156
301.049027014
300.57342329
301.032767057

Block: 8
======================================
300.569358301
301.000247145
300.589683247
300.996182156
301.012442112

Block: 9
======================================
301.459590912
300.557163334
300.569358301
300.996182156
300.589683247

Block: 10
======================================
301.049027014
300.996182156
300.601878214
300.605943203
301.455525923
