
Block: 1
======================================
300.536838388
300.569358301
300.536838388
301.000247145
301.455525923
300.569358301
300.569358301
300.585618258
300.585618258
300.57342329
301.032767057
300.553098345
301.032767057
300.569358301
300.569358301
300.553098345
301.902674723
300.569358301
300.553098345
300.57342329
301.016507101
300.589683247
300.142534447
300.569358301
301.866089821
301.443330956
301.459590912
301.439265966
300.979922199
301.87015481
300.57342329
301.012442112
300.996182156
300.57342329
300.553098345
301.049027014
301.032767057
301.012442112
300.996182156
300.553098345
300.569358301
301.016507101
300.569358301
300.553098345
302.292913675
300.569358301
300.569358301
301.012442112
300.569358301
300.553098345
300.569358301
301.012442112
300.553098345
300.553098345
300.996182156
301.439265966
300.979922199
300.569358301
300.569358301
300.553098345
301.459590912
302.292913675
300.536838388
300.536838388
300.569358301
300.996182156
300.536838388
300.536838388
300.536838388
301.866089821
300.553098345
301.439265966
300.536838388
300.553098345
301.42300601
300.979922199
300.553098345
300.553098345
300.553098345
301.866089821
300.569358301
300.553098345
301.016507101
300.569358301
300.520578432
300.963662243
300.536838388
301.882349777
301.866089821
301.42300601
300.553098345
302.309173632
300.553098345
300.569358301
301.012442112
301.459590912
300.57342329
301.443330956
301.866089821
300.996182156

Block: 2
======================================
301.000247145
301.016507101
300.963662243
300.520578432
300.553098345
300.996182156
301.886414766
300.979922199
300.979922199
300.569358301
301.000247145
300.536838388
301.012442112
300.983987188
300.569358301
300.569358301
300.536838388
300.536838388
300.536838388
300.553098345
300.536838388
300.569358301
300.553098345
300.553098345
300.569358301
300.536838388
300.553098345
300.553098345
300.979922199
302.292913675
301.42300601
300.553098345
300.553098345
301.42300601
301.000247145
300.553098345
301.87015481
300.979922199
300.979922199
301.439265966
300.979922199
300.979922199
300.979922199
300.996182156
301.439265966
300.553098345
300.979922199
300.553098345
302.292913675
300.553098345
301.849829865
300.553098345
300.979922199
300.553098345
300.553098345
301.459590912
301.439265966
301.016507101
301.443330956
300.553098345
301.459590912
300.57342329
300.979922199
300.553098345
301.866089821
300.536838388
300.569358301
300.569358301
301.459590912
300.979922199
300.979922199
301.000247145
300.569358301
301.42300601
300.569358301
301.443330956
301.42300601
300.553098345
301.012442112
301.000247145
301.000247145
300.996182156
300.996182156
300.553098345
300.979922199
300.979922199
300.553098345
301.000247145
301.012442112
300.57342329
301.459590912
301.455525923
300.569358301
301.443330956
300.57342329
300.553098345
301.902674723
300.536838388
300.996182156
301.475850868

Block: 3
======================================
300.553098345
300.553098345
301.012442112
300.569358301
300.110014534
300.569358301
300.553098345
300.996182156
300.569358301
300.553098345
300.589683247
301.012442112
300.57342329
300.996182156
300.996182156
300.553098345
301.012442112
300.589683247
301.012442112
300.996182156
301.016507101
301.42300601
301.439265966
300.585618258
301.455525923
300.569358301
300.553098345
300.57342329
300.589683247
300.979922199
301.016507101
300.996182156
300.569358301
300.553098345
300.996182156
301.012442112
300.996182156
301.439265966
301.849829865
301.012442112
300.589683247
301.866089821
300.57342329
300.589683247
300.57342329
300.57342329
300.589683247
300.57342329
300.57342329
300.569358301
300.569358301
300.57342329
301.016507101
300.569358301
300.996182156
300.996182156
300.553098345
300.996182156
300.569358301
301.439265966
300.536838388
300.979922199
300.979922199
300.57342329
300.996182156
300.569358301
300.57342329
300.57342329
300.57342329
300.569358301
300.569358301
300.553098345
300.996182156
300.12627449
301.012442112
300.553098345
300.093754578
301.439265966
301.42300601
301.439265966
301.833569908
301.42300601
300.569358301
300.996182156
300.963662243
300.553098345
300.996182156
300.553098345
301.42300601
301.016507101
300.536838388
300.553098345
300.536838388
300.979922199
301.000247145
301.012442112
302.715672541
301.42300601
300.979922199
300.557163334

Block: 4
======================================
300.979922199
300.979922199
301.42300601
301.439265966
300.979922199
300.536838388
300.979922199
300.536838388
300.536838388
300.557163334
300.536838388
300.553098345
300.589683247
300.536838388
300.589683247
301.849829865
300.536838388
300.553098345
300.536838388
300.553098345
300.520578432
300.979922199
301.439265966
300.557163334
301.866089821
300.520578432
300.996182156
301.833569908
300.536838388
301.42300601
300.536838388
300.963662243
300.979922199
300.57342329
300.979922199
300.979922199
300.569358301
300.520578432
300.536838388
300.536838388
300.557163334
300.963662243
301.406746054
300.996182156
300.553098345
300.979922199
300.963662243
301.439265966
300.536838388
301.406746054
300.536838388
300.557163334
300.569358301
301.427070999
301.455525923
300.536838388
301.42300601
301.42300601
300.947402287
300.536838388
300.979922199
300.520578432
300.553098345
301.000247145
301.817309952
300.553098345
301.829504919
300.963662243
300.536838388
301.427070999
300.553098345
300.536838388
300.979922199
301.42300601
300.553098345
300.963662243
300.963662243
300.536838388
300.979922199
300.536838388
301.849829865
300.536838388
300.963662243
301.42300601
300.536838388
300.536838388
300.979922199
300.536838388
300.536838388
300.536838388
300.536838388
300.520578432
301.42300601
302.276653719
300.979922199
301.42300601
300.536838388
300.500253487
302.71973753
300.979922199

Block: 5
======================================
300.536838388
300.963662243
300.557163334
300.963662243
302.276653719
300.963662243
300.963662243
300.553098345
301.42300601
300.536838388
300.536838388
300.536838388
302.292913675
301.866089821
301.406746054
301.866089821
300.536838388
300.520578432
300.569358301
300.557163334
300.520578432
301.427070999
301.42300601
300.516513443
300.553098345
302.292913675
301.849829865
300.996182156
300.963662243
300.536838388
302.276653719
300.963662243
300.963662243
300.520578432
300.963662243
301.406746054
300.943337297
300.553098345
300.536838388
301.439265966
300.57342329
300.947402287
300.996182156
301.849829865
300.979922199
300.536838388
300.536838388
300.557163334
300.979922199
300.963662243
301.402681065
300.553098345
300.996182156
300.536838388
300.979922199
300.536838388
302.309173632
300.536838388
300.520578432
301.866089821
300.520578432
300.996182156
300.536838388
300.536838388
300.536838388
300.536838388
300.996182156
300.536838388
301.439265966
301.42300601
301.42300601
300.557163334
300.536838388
300.979922199
301.42300601
300.979922199
300.553098345
301.439265966
300.979922199
300.553098345
300.963662243
300.557163334
302.292913675
302.309173632
300.536838388
300.996182156
300.553098345
300.553098345
300.979922199
300.516513443
300.536838388
300.536838388
300.536838388
301.012442112
301.012442112
300.979922199
300.504318476
300.589683247
300.979922199
300.553098345

Block: 6
======================================
300.996182156
300.553098345
300.536838388
301.439265966
300.536838388
300.553098345
301.87015481
300.536838388
300.110014534
300.553098345
301.866089821
300.536838388
300.536838388
300.536838388
300.553098345
300.553098345
300.979922199
301.439265966
300.553098345
300.553098345
301.42300601
300.979922199
300.553098345
301.849829865
301.439265966
300.536838388
300.553098345
300.553098345
300.536838388
301.012442112
301.508370781
300.520578432
300.553098345
301.439265966
301.42300601
300.996182156
300.979922199
301.016507101
301.849829865
300.979922199
300.553098345
300.569358301
300.536838388
301.000247145
300.553098345
300.536838388
300.553098345
300.536838388
300.996182156
300.996182156
300.57342329
300.553098345
301.42300601
300.996182156
300.569358301
300.996182156
302.735997486
300.553098345
300.979922199
300.979922199
302.735997486
300.979922199
300.979922199
301.42300601
301.42300601
301.42300601
300.553098345
300.979922199
300.963662243
300.536838388
300.536838388
300.979922199
300.536838388
300.553098345
301.427070999
300.536838388
300.516513443
300.979922199
300.983987188
300.536838388
300.979922199
301.000247145
300.963662243
301.000247145
300.553098345
300.979922199
300.979922199
300.979922199
300.979922199
301.42300601
301.42300601
300.963662243
300.979922199
300.557163334
301.406746054
301.42300601
300.979922199
300.996182156
301.439265966
300.979922199

Block: 7
======================================
300.520578432
301.000247145
301.406746054
300.536838388
300.996182156
300.979922199
300.569358301
300.553098345
301.866089821
300.536838388
300.536838388
301.459590912
301.028702068
301.439265966
300.996182156
301.000247145
300.996182156
300.553098345
300.536838388
301.016507101
301.016507101
302.703477573
300.536838388
300.979922199
300.557163334
300.979922199
300.585618258
300.963662243
300.57342329
300.569358301
301.000247145
300.569358301
300.553098345
300.553098345
301.012442112
300.996182156
300.553098345
300.979922199
300.996182156
301.439265966
300.979922199
300.979922199
300.979922199
300.553098345
300.979922199
300.983987188
300.520578432
300.553098345
300.536838388
300.979922199
300.536838388
301.439265966
300.979922199
300.979922199
300.996182156
300.536838388
301.42300601
300.557163334
300.569358301
300.979922199
300.979922199
301.439265966
300.553098345
300.553098345
300.536838388
300.557163334
300.536838388
301.439265966
300.553098345
300.553098345
300.979922199
300.979922199
300.979922199
301.427070999
300.569358301
301.866089821
300.569358301
300.979922199
300.536838388
301.000247145
300.520578432
301.833569908
300.553098345
300.536838388
300.536838388
300.536838388
300.553098345
300.553098345
300.536838388
300.979922199
300.536838388
300.557163334
301.402681065
301.866089821
301.833569908
300.963662243
300.979922199
300.536838388
301.42300601
300.536838388

Block: 8
======================================
300.488058519
300.963662243
301.406746054
301.475850868
300.979922199
300.553098345
300.536838388
302.27258873
300.520578432
300.557163334
300.996182156
300.996182156
300.996182156
300.979922199
300.520578432
301.42300601
301.42300601
301.439265966
300.57342329
300.979922199
300.553098345
300.536838388
300.979922199
300.979922199
300.996182156
300.569358301
300.963662243
300.536838388
301.866089821
300.569358301
300.979922199
301.000247145
300.536838388
300.589683247
301.866089821
300.943337297
300.959597254
300.536838388
300.57342329
301.42300601
300.57342329
300.996182156
300.536838388
300.979922199
300.979922199
300.569358301
300.569358301
301.439265966
300.979922199
300.553098345
301.012442112
301.455525923
301.866089821
300.996182156
300.553098345
301.012442112
301.455525923
300.553098345
301.000247145
300.979922199
300.553098345
300.536838388
301.000247145
301.455525923
300.536838388
301.42300601
300.536838388
300.553098345
300.996182156
300.557163334
301.902674723
300.996182156
300.979922199
301.016507101
300.979922199
300.553098345
300.553098345
300.536838388
300.996182156
300.996182156
301.886414766
302.313238621
301.886414766
300.996182156
301.439265966
300.569358301
300.553098345
300.553098345
301.866089821
301.000247145
300.520578432
300.553098345
300.996182156
300.569358301
301.439265966
301.443330956
300.536838388
300.553098345
300.996182156
300.996182156

Block: 9
======================================
300.553098345
301.016507101
301.000247145
300.996182156
300.553098345
300.589683247
301.459590912
301.012442112
301.012442112
300.996182156
301.439265966
300.57342329
300.996182156
300.996182156
300.520578432
301.439265966
300.553098345
301.016507101
301.459590912
301.443330956
300.57342329
301.028702068
300.996182156
300.996182156
300.996182156
301.455525923
300.996182156
300.996182156
301.012442112
301.886414766
300.557163334
300.589683247
300.569358301
300.553098345
300.569358301
300.601878214
301.016507101
301.012442112
300.536838388
301.42300601
301.016507101
300.585618258
301.443330956
300.569358301
300.569358301
300.553098345
301.439265966
300.589683247
301.016507101
301.882349777
300.996182156
300.569358301
301.012442112
300.553098345
300.979922199
300.760412788
300.569358301
300.996182156
300.996182156
300.57342329
300.57342329
301.866089821
301.443330956
301.012442112
300.553098345
301.016507101
301.016507101
300.553098345
300.553098345
300.553098345
300.979922199
301.439265966
301.439265966
301.016507101
300.553098345
300.996182156
300.57342329
300.569358301
301.455525923
301.012442112
300.569358301
300.585618258
302.309173632
300.553098345
301.866089821
300.585618258
300.536838388
300.996182156
300.57342329
300.57342329
300.996182156
300.553098345
301.012442112
301.902674723
301.000247145
300.553098345
300.536838388
300.996182156
301.439265966
301.012442112

Block: 10
======================================
300.536838388
300.553098345
300.553098345
300.979922199
300.57342329
300.553098345
300.553098345
300.569358301
301.439265966
300.553098345
300.996182156
300.553098345
300.569358301
300.589683247
300.589683247
301.012442112
300.569358301
300.57342329
300.553098345
300.557163334
300.57342329
300.553098345
300.996182156
300.569358301
301.866089821
300.57342329
300.553098345
301.028702068
300.569358301
300.589683247
300.585618258
301.455525923
301.012442112
301.455525923
300.57342329
300.996182156
300.553098345
301.028702068
300.57342329
300.536838388
301.012442112
300.589683247
300.996182156
301.471785879
300.996182156
301.012442112
300.585618258
300.569358301
300.996182156
300.130339479
300.57342329
300.557163334
300.569358301
301.012442112
300.979922199
300.57342329
301.012442112
300.569358301
301.032767057
301.42300601
301.439265966
300.536838388
300.996182156
301.012442112
301.439265966
300.57342329
301.886414766
300.996182156
300.553098345
301.849829865
301.87015481
301.000247145
301.032767057
300.536838388
300.57342329
300.553098345
300.12627449
300.553098345
300.536838388
300.553098345
300.57342329
301.439265966
301.012442112
300.553098345
300.569358301
300.553098345
301.866089821
300.569358301
301.000247145
300.569358301
300.57342329
301.459590912
301.012442112
300.983987188
300.57342329
300.553098345
300.996182156
301.455525923
300.569358301
300.996182156
