
Block: 1
======================================
399.516093755
399.516093755
399.972988558
399.059198952
399.940642023
399.532267022
399.977031875
399.940642023
399.908295488
400.009378409
399.940642023
399.94468534
399.972988558
399.94468534
399.499920487
399.960858607
399.960858607
399.972988558
399.95681529
399.977031875
399.972988558
399.977031875
399.989161825
399.532267022
399.95681529
399.568656874
399.059198952
399.95681529
399.536310339
399.568656874
399.960858607
399.107718754
399.977031875
399.095588803
399.382664299
399.536310339
399.536310339
399.516093755
399.94468534
399.940642023
399.091545486
399.516093755
399.568656874
399.940642023
399.940642023
399.95681529
399.94468534
399.95681529
399.520137072
400.009378409
399.95681529
399.977031875
399.940642023
399.520137072
399.977031875
399.48374722
399.520137072
399.940642023
399.977031875
399.972988558
399.960858607
399.95681529
399.960858607
399.993205142
399.95681529
399.960858607
399.989161825
399.972988558
400.009378409
399.960858607
400.009378409
399.95681529
399.960858607
399.536310339
399.499920487
399.960858607
399.940642023
399.977031875
399.940642023
399.552483606
399.516093755
399.993205142
399.940642023
399.111762071
399.95681529
399.499920487
399.095588803
399.095588803
399.548440289
399.993205142
399.548440289
399.972988558
399.063242269
399.516093755
399.516093755
399.516093755
399.552483606
399.532267022
399.516093755
399.552483606

Block: 2
======================================
399.532267022
399.536310339
399.532267022
399.536310339
399.520137072
399.536310339
399.091545486
399.091545486
399.552483606
399.536310339
399.532267022
399.499920487
399.499920487
399.079415536
399.516093755
399.536310339
399.532267022
399.499920487
399.532267022
399.536310339
399.516093755
399.516093755
399.520137072
399.499920487
399.499920487
399.079415536
399.536310339
399.520137072
399.95681529
399.940642023
399.95681529
399.924468756
399.059198952
399.075372219
399.536310339
399.924468756
399.516093755
399.499920487
399.48374722
399.499920487
399.908295488
399.499920487
399.059198952
399.960858607
399.924468756
399.95681529
399.503963804
399.48374722
399.924468756
399.924468756
399.48374722
399.940642023
399.536310339
399.48374722
399.924468756
399.908295488
399.94468534
399.940642023
399.516093755
399.532267022
399.977031875
399.924468756
399.499920487
399.960858607
399.568656874
399.960858607
399.977031875
399.520137072
399.95681529
399.940642023
399.516093755
399.520137072
399.908295488
399.520137072
399.075372219
399.532267022
399.520137072
399.520137072
399.516093755
399.043025684
399.960858607
399.516093755
399.532267022
399.503963804
399.548440289
399.960858607
399.552483606
399.95681529
399.48374722
399.516093755
399.940642023
399.95681529
399.940642023
399.499920487
399.520137072
399.552483606
399.960858607
399.548440289
399.908295488
399.924468756

Block: 3
======================================
399.972988558
399.095588803
399.499920487
399.520137072
399.503963804
399.908295488
399.924468756
399.48374722
399.516093755
398.618477416
399.499920487
399.924468756
399.499920487
399.463530636
399.516093755
399.48374722
399.48374722
399.520137072
399.908295488
399.059198952
399.48374722
399.48374722
399.499920487
399.48374722
398.602304149
399.499920487
399.503963804
399.516093755
399.043025684
399.532267022
399.026852417
399.516093755
399.026852417
399.499920487
399.043025684
399.48374722
399.48374722
399.463530636
399.01067915
399.48374722
399.48374722
399.447357368
399.499920487
399.447357368
399.467573953
399.48374722
399.467573953
399.499920487
399.451400685
399.447357368
399.467573953
399.48374722
399.467573953
399.451400685
399.467573953
399.467573953
399.026852417
399.892122221
399.48374722
399.043025684
399.01067915
399.908295488
399.908295488
399.467573953
399.940642023
399.435227418
399.447357368
399.888078904
399.908295488
399.855732369
399.904252172
399.892122221
399.467573953
399.908295488
399.871905637
399.908295488
399.892122221
399.892122221
399.431184101
399.435227418
399.888078904
399.859775686
399.888078904
400.312627172
399.875948954
400.300497222
399.871905637
400.312627172
399.855732369
400.32880044
400.349017024
399.843602419
400.312627172
399.855732369
400.349017024
400.280280638
400.312627172
399.855732369
400.332843757
399.415010834

Block: 4
======================================
399.859775686
400.332843757
400.349017024
399.908295488
400.312627172
400.312627172
400.332843757
400.349017024
400.332843757
400.365190291
400.349017024
399.904252172
400.349017024
399.908295488
400.332843757
399.892122221
399.875948954
400.332843757
400.316670489
400.316670489
399.871905637
400.32880044
399.892122221
399.451400685
399.908295488
399.855732369
400.300497222
399.888078904
400.32880044
399.892122221
400.300497222
400.332843757
400.312627172
400.312627172
400.332843757
399.871905637
400.296453905
400.349017024
400.349017024
399.892122221
400.332843757
399.855732369
400.300497222
399.908295488
400.332843757
399.875948954
399.431184101
399.855732369
399.871905637
400.316670489
399.855732369
399.871905637
399.892122221
399.908295488
399.415010834
399.823385835
399.904252172
399.859775686
399.892122221
400.215587568
399.382664299
400.296453905
399.855732369
399.871905637
399.855732369
399.859775686
400.26410737
399.908295488
399.875948954
400.280280638
400.316670489
399.855732369
400.284323955
400.296453905
399.859775686
399.855732369
400.247934103
399.855732369
399.839559102
400.316670489
400.280280638
400.280280638
400.296453905
400.300497222
400.280280638
400.332843757
400.280280638
400.26410737
400.280280638
399.855732369
400.300497222
400.316670489
399.871905637
400.300497222
400.300497222
400.26410737
399.855732369
399.892122221
400.316670489
399.871905637

Block: 5
======================================
399.960858607
399.467573953
400.316670489
399.924468756
400.316670489
399.871905637
399.888078904
399.924468756
399.888078904
400.365190291
399.924468756
399.908295488
399.940642023
399.892122221
399.908295488
399.924468756
399.908295488
399.908295488
399.467573953
399.924468756
399.908295488
399.467573953
399.940642023
399.892122221
399.924468756
399.924468756
399.924468756
399.908295488
399.940642023
399.924468756
399.48374722
399.908295488
399.892122221
399.48374722
399.48374722
399.435227418
399.924468756
399.463530636
399.924468756
399.940642023
399.940642023
399.467573953
399.940642023
399.924468756
399.467573953
399.892122221
399.48374722
399.924468756
399.924468756
399.499920487
399.940642023
399.908295488
399.94468534
399.467573953
399.467573953
399.059198952
399.075372219
399.94468534
399.075372219
399.520137072
399.940642023
399.467573953
399.026852417
399.043025684
399.95681529
399.940642023
399.924468756
399.499920487
399.499920487
399.447357368
399.075372219
399.940642023
399.892122221
399.908295488
399.451400685
399.499920487
399.503963804
399.924468756
399.499920487
399.940642023
399.924468756
399.48374722
399.908295488
399.892122221
399.940642023
399.924468756
399.888078904
399.924468756
399.940642023
399.503963804
399.940642023
399.467573953
399.960858607
399.924468756
399.503963804
399.95681529
399.924468756
399.503963804
399.463530636
399.928512073

Block: 6
======================================
399.463530636
399.48374722
399.091545486
399.075372219
399.503963804
399.516093755
399.079415536
399.079415536
399.059198952
399.075372219
399.520137072
399.94468534
399.516093755
399.503963804
399.447357368
399.924468756
399.499920487
399.536310339
399.499920487
399.94468534
399.467573953
399.499920487
399.924468756
399.48374722
399.924468756
399.940642023
399.499920487
399.48374722
399.908295488
399.940642023
399.467573953
399.940642023
399.924468756
399.924468756
399.924468756
399.892122221
399.908295488
399.908295488
399.888078904
399.924468756
399.924468756
399.059198952
399.908295488
399.908295488
399.892122221
399.839559102
399.892122221
399.924468756
399.892122221
400.365190291
399.888078904
399.940642023
399.940642023
399.94468534
399.924468756
399.908295488
399.875948954
399.908295488
399.940642023
399.48374722
399.924468756
399.892122221
399.892122221
399.892122221
399.924468756
399.924468756
399.892122221
399.940642023
399.924468756
399.94468534
399.48374722
399.908295488
399.908295488
399.892122221
399.924468756
399.447357368
399.888078904
399.059198952
399.908295488
399.928512073
399.940642023
399.043025684
399.48374722
399.516093755
399.043025684
399.48374722
399.888078904
399.499920487
399.467573953
399.940642023
399.467573953
399.924468756
399.924468756
399.467573953
399.499920487
399.48374722
399.892122221
399.908295488
399.48374722
399.892122221

Block: 7
======================================
399.350317764
400.397536826
399.94468534
399.94468534
399.499920487
399.908295488
400.381363559
399.94468534
399.467573953
399.908295488
400.365190291
400.332843757
399.892122221
400.365190291
399.924468756
400.385406876
399.95681529
400.349017024
400.332843757
400.349017024
400.349017024
399.940642023
399.924468756
400.381363559
399.908295488
400.332843757
399.95681529
399.520137072
399.516093755
399.499920487
399.94468534
399.95681529
399.960858607
399.977031875
399.989161825
399.499920487
399.993205142
399.940642023
399.960858607
399.95681529
399.48374722
399.924468756
399.95681529
399.977031875
399.940642023
399.972988558
399.940642023
399.924468756
399.059198952
399.940642023
399.499920487
399.940642023
399.977031875
399.516093755
399.924468756
399.960858607
399.94468534
399.924468756
399.940642023
399.075372219
399.977031875
399.960858607
399.908295488
399.960858607
399.924468756
399.499920487
399.94468534
399.95681529
399.516093755
399.95681529
399.940642023
399.48374722
399.960858607
399.940642023
399.924468756
399.977031875
399.960858607
399.940642023
399.924468756
399.467573953
399.924468756
399.940642023
399.095588803
399.95681529
399.908295488
399.499920487
399.940642023
399.536310339
399.499920487
399.552483606
399.924468756
399.516093755
399.924468756
399.516093755
399.091545486
399.536310339
399.977031875
399.059198952
399.940642023
399.503963804

Block: 8
======================================
399.079415536
399.940642023
399.48374722
399.95681529
399.536310339
399.499920487
399.499920487
399.908295488
399.552483606
399.503963804
399.043025684
399.026852417
399.536310339
399.536310339
399.536310339
399.520137072
399.48374722
399.520137072
399.499920487
399.536310339
399.48374722
399.94468534
399.499920487
399.552483606
399.536310339
399.503963804
399.48374722
399.520137072
399.516093755
399.532267022
399.960858607
399.532267022
399.940642023
399.924468756
399.536310339
399.467573953
399.536310339
399.499920487
399.548440289
399.503963804
399.499920487
399.516093755
399.516093755
399.536310339
399.499920487
399.536310339
399.924468756
399.520137072
399.95681529
399.960858607
399.940642023
399.516093755
399.516093755
399.075372219
399.536310339
399.95681529
399.075372219
399.552483606
399.940642023
399.075372219
399.499920487
399.059198952
399.48374722
398.654867268
399.499920487
399.520137072
399.48374722
399.48374722
399.503963804
399.499920487
399.503963804
399.520137072
399.48374722
399.499920487
399.536310339
399.48374722
399.516093755
399.960858607
399.516093755
399.075372219
399.503963804
399.536310339
399.940642023
399.503963804
399.503963804
399.499920487
399.532267022
399.503963804
399.503963804
399.499920487
399.366491032
399.516093755
399.552483606
399.48374722
399.043025684
399.908295488
399.499920487
399.499920487
399.516093755
399.499920487

Block: 9
======================================
399.924468756
172.200820947
399.48374722
399.043025684
399.467573953
399.924468756
399.516093755
399.48374722
399.499920487
399.499920487
399.516093755
399.924468756
399.48374722
399.48374722
399.552483606
399.48374722
399.026852417
399.871905637
399.940642023
399.499920487
399.904252172
399.48374722
399.908295488
399.888078904
399.892122221
399.940642023
399.94468534
399.552483606
399.908295488
399.924468756
399.467573953
399.467573953
399.451400685
399.043025684
399.940642023
399.94468534
399.463530636
399.059198952
399.043025684
399.940642023
399.48374722
399.499920487
399.536310339
399.532267022
399.516093755
399.653566527
399.516093755
399.499920487
399.48374722
399.48374722
399.924468756
399.516093755
399.499920487
399.520137072
399.499920487
399.499920487
399.467573953
399.499920487
399.026852417
399.516093755
399.520137072
399.516093755
399.520137072
399.532267022
399.499920487
399.48374722
399.516093755
399.059198952
399.079415536
399.075372219
399.48374722
399.516093755
399.499920487
399.043025684
399.075372219
399.499920487
398.634650683
398.618477416
399.095588803
399.467573953
399.111762071
399.091545486
399.059198952
398.650823951
399.111762071
399.059198952
399.499920487
399.079415536
398.602304149
399.043025684
399.075372219
399.079415536
399.48374722
399.107718754
399.48374722
399.48374722
399.063242269
399.111762071
399.075372219
399.499920487

Block: 10
======================================
399.499920487
399.079415536
399.038982368
399.503963804
399.516093755
398.618477416
399.075372219
399.520137072
399.091545486
399.48374722
399.499920487
399.091545486
399.059198952
399.499920487
399.536310339
399.48374722
399.0228091
399.499920487
399.499920487
399.499920487
399.499920487
399.059198952
399.48374722
399.48374722
399.516093755
399.091545486
399.075372219
399.467573953
399.48374722
399.516093755
399.043025684
398.602304149
399.063242269
399.026852417
399.026852417
399.043025684
399.499920487
399.467573953
399.48374722
399.463530636
399.499920487
399.499920487
399.499920487
399.075372219
399.48374722
399.467573953
399.48374722
399.059198952
399.516093755
399.924468756
399.463530636
399.48374722
399.908295488
399.48374722
399.532267022
399.026852417
399.48374722
399.516093755
399.026852417
399.892122221
399.48374722
399.48374722
399.075372219
399.924468756
399.94468534
399.924468756
399.940642023
399.940642023
399.940642023
399.94468534
400.365190291
399.940642023
399.908295488
399.924468756
400.344973707
400.381363559
399.924468756
399.924468756
399.924468756
400.365190291
400.349017024
400.365190291
400.397536826
399.48374722
399.924468756
400.332843757
399.892122221
399.924468756
399.892122221
400.365190291
400.332843757
399.892122221
400.349017024
399.908295488
399.928512073
399.924468756
400.316670489
399.467573953
400.332843757
399.487790537
