
Block: 1
======================================
399.467573953
399.467573953
399.0228091
399.48374722
195.789531398
399.043025684
399.48374722
399.467573953
399.467573953
399.48374722
399.467573953
399.467573953
399.48374722
399.467573953
399.063242269
399.043025684
399.026852417
399.431184101
399.467573953
399.043025684
399.503963804
399.888078904
399.888078904
399.908295488
399.447357368
399.924468756
399.48374722
399.499920487
399.026852417
399.447357368
399.908295488
399.435227418
399.908295488
399.908295488
399.467573953
399.875948954
399.888078904
399.888078904
399.451400685
399.431184101
399.451400685
399.908295488
399.871905637
399.859775686
399.431184101
399.924468756
399.908295488
399.908295488
399.892122221
399.908295488
399.875948954
399.467573953
399.892122221
399.871905637
399.451400685
399.908295488
399.908295488
399.892122221
399.908295488
399.892122221
399.875948954
399.892122221
399.871905637
399.904252172
399.904252172
399.871905637
399.892122221
399.892122221
399.855732369
399.875948954
399.892122221
399.908295488
399.892122221
400.284323955
399.415010834

Average distance is : 396.942 cm
Average deviation is : 23.543 cm
Block: 2
======================================
400.26410737
400.284323955
400.312627172
400.296453905
399.855732369
399.431184101
399.855732369
400.312627172
399.875948954
400.316670489
400.280280638
400.316670489
400.332843757
400.32880044
399.888078904
400.316670489
399.871905637
400.316670489
399.855732369
400.296453905
399.855732369
399.892122221
400.32880044
400.312627172
400.296453905
400.296453905
400.300497222
399.839559102
399.855732369
399.855732369
399.875948954
400.32880044
400.316670489
400.296453905
399.398837566
399.871905637
400.296453905
400.26410737
399.855732369
400.32880044
399.875948954
400.332843757
400.300497222
400.296453905
399.875948954
400.280280638
400.280280638
399.908295488
399.839559102
399.871905637
399.859775686
399.892122221
400.312627172
399.859775686
399.904252172
399.875948954
399.871905637
399.888078904
399.888078904
399.908295488
400.316670489
399.908295488
399.435227418
399.871905637
399.940642023
399.892122221
399.892122221
399.871905637
399.892122221
399.94468534
399.888078904
399.924468756
399.924468756
399.888078904
399.892122221

Average distance is : 400.038 cm
Average deviation is : 0.244 cm
Block: 3
======================================
399.892122221
399.467573953
400.349017024
399.940642023
399.908295488
399.924468756
399.924468756
400.365190291
399.95681529
399.499920487
399.924468756
399.95681529
399.924468756
399.499920487
399.928512073
399.516093755
399.960858607
399.520137072
399.924468756
399.95681529
399.043025684
399.960858607
399.516093755
399.536310339
399.972988558
399.043025684
399.48374722
399.924468756
399.516093755
399.960858607
399.516093755
399.960858607
399.972988558
399.520137072
399.516093755
399.520137072
399.516093755
399.536310339
399.532267022
399.940642023
399.977031875
399.95681529
399.940642023
399.977031875
399.520137072
399.972988558
399.940642023
399.95681529
399.960858607
399.94468534
399.977031875
399.95681529
399.95681529
399.924468756
399.48374722
399.960858607
399.516093755
399.536310339
400.397536826
399.977031875
399.94468534
400.365190291
400.381363559
399.536310339
399.520137072
400.349017024
399.972988558
400.349017024
399.924468756
399.95681529
399.940642023
399.940642023
399.940642023
399.940642023
400.381363559

Average distance is : 399.841 cm
Average deviation is : 0.293 cm
Block: 4
======================================
399.924468756
399.520137072
399.516093755
399.924468756
399.972988558
399.536310339
399.536310339
399.95681529
399.940642023
399.924468756
399.960858607
399.95681529
399.960858607
399.972988558
399.908295488
399.079415536
399.075372219
399.516093755
399.079415536
399.536310339
399.520137072
399.516093755
399.075372219
399.532267022
399.516093755
399.536310339
399.516093755
399.095588803
399.552483606
399.520137072
399.532267022
399.48374722
398.618477416
399.499920487
399.043025684
399.520137072
399.516093755
399.503963804
399.079415536
399.499920487
399.059198952
399.536310339
399.536310339
399.48374722
399.499920487
399.48374722
399.48374722
399.520137072
399.075372219
399.548440289
399.520137072
399.516093755
399.552483606
399.499920487
399.536310339
399.516093755
399.548440289
399.095588803
399.516093755
399.499920487
399.499920487
399.499920487
399.520137072
399.516093755
399.536310339
399.499920487
399.516093755
399.520137072
399.516093755
399.059198952
399.532267022
399.075372219
399.536310339
399.059198952
399.520137072

Average distance is : 399.492 cm
Average deviation is : 0.269 cm
Block: 5
======================================
399.532267022
399.516093755
399.532267022
398.618477416
399.520137072
399.079415536
399.043025684
399.467573953
399.48374722
399.467573953
399.48374722
399.499920487
399.499920487
399.516093755
399.48374722
399.516093755
399.059198952
399.075372219
399.520137072
399.520137072
399.063242269
399.499920487
399.075372219
399.532267022
399.532267022
399.499920487
399.516093755
399.059198952
399.532267022
399.532267022
399.532267022
399.552483606
399.079415536
399.499920487
399.043025684
399.043025684
399.552483606
399.48374722
399.059198952
399.536310339
399.516093755
399.532267022
399.516093755
399.079415536
399.548440289
399.095588803
399.536310339
399.516093755
399.499920487
399.516093755
399.499920487
399.079415536
399.568656874
399.536310339
399.499920487
399.977031875
399.516093755
399.924468756
399.95681529
399.940642023
399.536310339
399.972988558
399.503963804
399.520137072
399.499920487
399.95681529
399.94468534
399.499920487
399.908295488
399.908295488
399.940642023
399.960858607
399.95681529
399.95681529
399.94468534

Average distance is : 399.500 cm
Average deviation is : 0.290 cm
Block: 6
======================================
399.94468534
399.516093755
399.993205142
399.503963804
399.467573953
399.48374722
399.940642023
399.536310339
399.940642023
399.48374722
399.499920487
399.548440289
399.924468756
399.499920487
399.924468756
399.95681529
399.94468534
399.924468756
399.908295488
399.924468756
399.940642023
399.059198952
399.48374722
399.95681529
399.960858607
399.940642023
400.365190291
400.349017024
399.499920487
399.940642023
400.401580143
400.401580143
400.401580143
399.95681529
399.520137072
399.940642023
399.940642023
399.940642023
400.401580143
399.977031875
400.401580143
399.993205142
399.993205142
399.972988558
399.516093755
399.95681529
399.940642023
399.972988558
399.993205142
399.924468756
399.95681529
399.924468756
399.908295488
399.977031875
399.95681529
399.940642023
399.059198952
399.940642023
399.960858607
399.924468756
399.467573953
399.48374722
399.552483606
399.95681529
399.95681529
399.977031875
399.516093755
399.977031875
399.960858607
399.059198952
399.48374722
399.960858607
399.924468756
399.499920487
399.059198952

Average distance is : 399.831 cm
Average deviation is : 0.314 cm
Block: 7
======================================
399.924468756
399.548440289
399.095588803
399.548440289
399.568656874
399.536310339
399.516093755
399.552483606
399.552483606
399.516093755
399.568656874
399.548440289
399.532267022
399.568656874
399.552483606
399.499920487
399.536310339
399.091545486
399.520137072
399.536310339
399.520137072
399.516093755
399.552483606
399.059198952
399.532267022
399.536310339
399.503963804
399.532267022
399.520137072
399.536310339
399.091545486
399.568656874
399.536310339
399.499920487
399.520137072
399.552483606
399.516093755
399.520137072
399.095588803
399.520137072
399.516093755
399.520137072
399.499920487
399.552483606
399.516093755
399.977031875
399.516093755
399.503963804
399.532267022
398.654867268
399.552483606
399.516093755
399.536310339
399.091545486
399.503963804
399.532267022
399.536310339
399.516093755
399.520137072
399.516093755
399.552483606
399.532267022
399.48374722
399.552483606
399.516093755
399.552483606
399.079415536
399.516093755
399.499920487
399.499920487
399.516093755
399.532267022
399.520137072
399.48374722
399.516093755

Average distance is : 399.487 cm
Average deviation is : 0.180 cm
Block: 8
======================================
399.977031875
399.091545486
399.516093755
399.520137072
399.520137072
399.48374722
399.892122221
399.059198952
399.48374722
399.532267022
399.503963804
399.536310339
399.499920487
399.463530636
399.503963804
399.888078904
399.467573953
399.48374722
399.063242269
399.075372219
399.503963804
399.467573953
399.516093755
399.499920487
399.075372219
399.908295488
399.516093755
399.516093755
399.48374722
399.075372219
399.026852417
399.892122221
399.499920487
399.940642023
399.503963804
399.48374722
399.977031875
399.499920487
399.467573953
399.48374722
399.536310339
399.467573953
399.499920487
399.467573953
399.520137072
399.463530636
399.467573953
399.940642023
399.503963804
399.467573953
399.516093755
399.48374722
399.063242269
399.499920487
399.516093755
399.499920487
399.48374722
399.48374722
399.48374722
399.48374722
399.059198952
399.075372219
399.499920487
399.48374722
399.499920487
399.48374722
398.618477416
399.043025684
399.467573953
399.467573953
399.043025684
399.48374722
399.043025684
399.026852417
399.043025684

Average distance is : 399.441 cm
Average deviation is : 0.259 cm
Block: 9
======================================
399.48374722
399.467573953
399.499920487
399.467573953
399.467573953
399.503963804
399.48374722
399.467573953
399.467573953
399.0228091
399.463530636
399.48374722
399.499920487
399.48374722
399.043025684
399.924468756
399.503963804
399.48374722
399.043025684
399.908295488
399.520137072
399.467573953
399.463530636
398.634650683
399.503963804
399.503963804
399.043025684
399.499920487
399.48374722
399.48374722
399.447357368
399.467573953
399.499920487
399.075372219
399.908295488
399.48374722
399.48374722
399.924468756
399.467573953
399.451400685
399.467573953
399.467573953
399.924468756
399.516093755
399.487790537
399.467573953
399.48374722
399.48374722
399.940642023
399.520137072
399.908295488
399.48374722
399.503963804
399.924468756
399.48374722
399.924468756
399.48374722
399.467573953
399.043025684
399.892122221
399.924468756
399.908295488
399.924468756
399.94468534
399.48374722
399.904252172
399.467573953
399.026852417
399.94468534
399.94468534
399.908295488
399.940642023
399.48374722
399.960858607
399.908295488

Average distance is : 399.554 cm
Average deviation is : 0.280 cm
Block: 10
======================================
399.977031875
399.48374722
399.94468534
399.079415536
399.48374722
399.520137072
399.685913062
399.059198952
399.908295488
399.48374722
399.48374722
399.924468756
399.503963804
399.904252172
399.940642023
399.503963804
399.924468756
399.499920487
399.48374722
399.095588803
399.940642023
399.48374722
399.924468756
399.924468756
399.904252172
399.94468534
399.940642023
399.48374722
399.960858607
399.924468756
399.499920487
399.940642023
399.940642023
399.95681529
399.960858607
399.95681529
399.94468534
399.977031875
399.940642023
399.960858607
399.95681529
399.924468756
400.401580143
399.516093755
399.977031875
400.397536826
399.924468756
400.397536826
400.381363559
400.385406876
399.924468756
400.397536826
400.349017024
400.365190291
399.908295488
400.381363559
400.349017024
400.349017024
400.381363559
399.924468756
399.95681529
399.904252172
399.940642023
399.940642023
399.940642023
399.977031875
400.365190291
399.95681529
399.960858607
399.972988558
399.960858607
399.95681529
399.48374722
399.503963804
399.924468756

Average distance is : 399.890 cm
Average deviation is : 0.320 cm