
Block: 1
======================================
99.9131011963
99.9007111788
53.091225028
66.8152344227
69.1362977028
81.6749954224
69.9829488993
80.9150743484
69.9664288759
80.7581341267

Block: 2
======================================
99.8800611496
99.8800611496
55.6394386292
65.5844926834
72.514642477
57.0808106661
95.4279148579
58.3611124754
62.1194177866
59.9016046524

Block: 3
======================================
99.9007111788
53.4753155708
66.7243742943
69.9292588234
56.3828396797
63.069319129
71.2467306852
56.576949954
61.9253075123
72.0933818817

Block: 4
======================================
99.8800611496
99.8470211029
99.9007111788
100.313711762
53.5455256701
66.604604125
68.525056839
82.7157568932
70.1729291677
82.2821062803

Block: 5
======================================
99.8841911554
53.318375349
66.7078542709
70.6561398506
52.6782244444
65.5844926834
72.010781765
54.2682766914
64.0233504772
72.3907423019

Block: 6
======================================
99.9337512255
54.8423475027
66.8647944927
71.7340713739
56.9899505377
63.4699296951
73.551273942
58.1876522303
61.755977273
73.9642745256

Block: 7
======================================
99.9833112955
100.346751809
99.9337512255
53.5413956642
66.0677033663
69.8094886541
54.9497276545
62.9867190123
71.2839007378
55.7963788509

Block: 8
======================================
99.9667912722
54.9125576019
67.6288455725
71.2302106619
56.8495303392
68.9421874285
68.475496769
85.11942029
68.7191671133
84.1364789009

Block: 9
======================================
99.9502712488
53.0086249113
66.4848339558
69.1899877787
82.0053958893
40.0651866198
66.6417741776
81.9888758659
69.3964880705
81.381765008

Block: 10
======================================
99.9172312021
99.8635411263
55.2594780922
66.2246435881
72.4609524012
58.220692277
62.412648201
73.3117336035
58.5510927439
61.6155570745
