
Block: 1
======================================
301.357966185
301.833569908
300.894557428
300.914882374
300.963662243
300.979922199
301.42300601
300.910817385
301.374226141
300.93114233
300.910817385
300.927077341
300.963662243
300.927077341
300.927077341
301.439265966
301.357966185
300.927077341
301.427070999
301.370161152
301.357966185
301.012442112
300.910817385
300.910817385
301.353901196

Block: 2
======================================
300.894557428
300.927077341
301.390486097
301.374226141
300.488058519
301.370161152
301.374226141
301.374226141
301.028702068
301.386421108
300.947402287
300.943337297
300.959597254
300.910817385
300.943337297
300.947402287
300.959597254
300.471798563
300.504318476
300.500253487
300.93114233
300.500253487
301.370161152
301.386421108
300.471798563

Block: 3
======================================
300.910817385
300.910817385
301.406746054
300.927077341
300.467733574
301.357966185
301.370161152
300.979922199
300.996182156
300.48399353
301.370161152
300.48399353
300.48399353
301.012442112
301.374226141
300.48399353
301.370161152
301.353901196
300.947402287
301.012442112
300.947402287
301.390486097
300.48399353
300.504318476
301.353901196

Block: 4
======================================
300.93114233
300.979922199
300.914882374
301.833569908
301.390486097
301.386421108
300.500253487
300.500253487
300.516513443
300.500253487
301.012442112
300.488058519
301.849829865
301.386421108
300.963662243
301.390486097
301.028702068
300.488058519
301.370161152
301.016507101
301.000247145
300.927077341
301.406746054
301.386421108
301.406746054

Block: 5
======================================
300.504318476
300.504318476
300.520578432
300.504318476
301.370161152
301.374226141
301.390486097
300.979922199
300.48399353
300.48399353
300.947402287
301.016507101
301.374226141
300.553098345
300.500253487
300.947402287
300.927077341
301.000247145
300.467733574
300.488058519
300.471798563
300.947402287
300.500253487
300.947402287
300.504318476

Block: 6
======================================
301.016507101
301.390486097
300.516513443
300.947402287
300.553098345
300.947402287
300.943337297
300.504318476
300.93114233
300.943337297
301.406746054
300.947402287
300.943337297
300.488058519
300.504318476
300.500253487
300.943337297
300.488058519
300.927077341
300.504318476
300.48399353
301.370161152
301.016507101
301.406746054
300.48399353

Block: 7
======================================
301.406746054
301.42300601
300.451473618
300.504318476
300.963662243
300.943337297
300.947402287
300.947402287
301.016507101
301.012442112
300.963662243
301.016507101
300.943337297
300.963662243
300.488058519
300.520578432
300.504318476
300.488058519
301.016507101
301.049027014
300.553098345
301.406746054
300.48399353
300.963662243
301.390486097

Block: 8
======================================
301.049027014
301.406746054
300.979922199
300.500253487
300.504318476
301.386421108
300.48399353
300.504318476
300.500253487
300.996182156
301.390486097
300.504318476
301.032767057
300.48399353
300.504318476
300.500253487
300.504318476
300.504318476
300.504318476
300.963662243
300.963662243
301.406746054
300.536838388
301.390486097
301.390486097

Block: 9
======================================
300.927077341
300.520578432
301.833569908
300.963662243
300.963662243
301.390486097
300.943337297
300.516513443
301.406746054
301.406746054
300.943337297
301.406746054
300.927077341
300.943337297
301.390486097
301.032767057
300.947402287
300.93114233
300.947402287
300.504318476
300.959597254
300.963662243
301.032767057
300.963662243
300.963662243

Block: 10
======================================
300.979922199
300.947402287
301.012442112
300.947402287
300.963662243
301.427070999
300.979922199
301.427070999
301.386421108
301.406746054
301.000247145
300.516513443
301.42300601
300.979922199
300.536838388
300.979922199
301.42300601
301.044962025
301.42300601
301.42300601
301.406746054
300.536838388
301.866089821
300.963662243
300.979922199
