
Block: 1
======================================
300.947402287
301.386421108
300.48399353
300.943337297
300.48399353

Block: 2
======================================
300.467733574
300.488058519
300.910817385
301.390486097
300.947402287

Block: 3
======================================
300.93114233
300.451473618
301.357966185
301.353901196
301.374226141

Block: 4
======================================
300.914882374
300.927077341
301.000247145
300.910817385
300.910817385

Block: 5
======================================
301.406746054
300.467733574
300.488058519
300.93114233
300.963662243

Block: 6
======================================
301.370161152
300.927077341
300.927077341
300.947402287
300.927077341

Block: 7
======================================
301.337641239
301.028702068
300.963662243
301.032767057
301.390486097

Block: 8
======================================
301.427070999
301.849829865
301.406746054
300.520578432
301.386421108

Block: 9
======================================
300.488058519
302.223808861
300.947402287
300.947402287
300.947402287

Block: 10
======================================
300.943337297
301.012442112
300.996182156
300.947402287
301.406746054
