
Block: 1
======================================
198.194615126
77.1155008554
196.932229042
78.6914473534
155.204260659
118.688725138
155.34678812
119.539817691
155.310138202
119.613117528
156.075714278
120.496787786
154.862194753
121.286797142
152.781293821
123.795280457
152.765004969
123.371770287
152.781293821
123.404347992
150.268738294
126.324124837
149.877805829
126.686551809
149.894094682
125.831387043
150.749259448
125.82731483
150.252449441
125.900614667
149.824867058
126.75170722
149.385068035
126.75170722
149.401356888
127.158928537
149.397284675
126.75170722
148.973774505
127.195578456
148.509542203
127.195578456
148.134898591
128.050743222
148.134898591
128.03445437
148.086032033
128.083320928
148.06974318
128.083320928
148.065670967
128.046671009
148.065670967
128.03445437
148.102320886
128.03445437
148.06974318
128.046671009
148.065670967
128.050743222
145.606054211
130.547009897
145.145894122
131.414391303
144.738672805
131.772746062
144.307018209
132.216617298
141.47275784
134.676234055
141.440180135
135.12010529
140.980020046
135.152682996
141.387241364
135.189332914
141.407602429
134.741389465
141.407602429
135.156755209
140.963731194
135.580265379
140.53614881
136.007847762
140.128927493
136.455791211
140.092277575
136.435430145
140.12485528
136.419141293
140.108566427
136.468007851
140.141144133
136.439502358
140.12485528
136.435430145
140.108566427
136.488368917
140.092277575
136.488368917

Average distance is : 138.099 cm
Average deviation is : 15.591 cm
Block: 2
======================================
198.166109633
79.8683169603
196.659390759
80.2796104908
157.838982582
119.047079897
156.641751909
119.885955811
157.069334292
119.47466228
157.048973227
119.955183434
156.609174204
119.666056299
155.85988698
118.912696862
156.348552561
118.912696862
155.118744183
120.175082946
155.069877625
121.132053041
155.395654678
121.559635425
155.000650001
121.999434447
154.524201059
122.479955602
154.524201059
122.447377896
154.064040971
122.891249132
153.245526123
122.858671427
154.043679905
122.923826838
153.123359728
123.388059139
153.172226286
123.79935267
152.781293821
124.206573987
151.909840202
124.597506452
151.95870676
124.54456768
151.979067826
124.564928746
152.011645532
124.516062188
152.027934384
124.068118739
152.422939062
124.12105751
152.390361357
124.153635216
152.390361357
124.137346363
152.402577996
124.564928746
151.995356679
124.532351041
152.044223237
124.483484483
152.064584303
124.495701122
151.653290772
124.841839242
151.246069455
125.334577036
151.193130684
124.959933424
151.087253141
125.436382365
150.663742971
125.859892535
150.684104037
125.436382365
149.450223446
126.629540825
149.499090004
127.073412061
149.450223446
126.649901891
149.877805829
125.863964748
150.301315999
125.811025977
150.28909936
125.794737124
150.337965918
125.794737124
150.048838782
126.49515779
150.03254993
125.692931795
150.390904689
126.169380736
149.914455748
124.516062188

Average distance is : 138.210 cm
Average deviation is : 18.660 cm
Block: 3
======================================
198.194615126
78.0887598038
198.691425133
77.8362825871
155.240910578
117.442627907
157.838982582
118.143048573
158.368370295
118.110470867
158.437597919
118.110470867
158.433525705
117.699177337
158.861108088
117.634021926
156.010558867
120.533437705
153.925585723
122.141961908
153.534653258
122.565472078
153.58759203
122.51660552
152.370000291
124.153635216
151.53519659
124.972150064
151.156480765
124.976222277
151.193130684
124.923283505
151.653290772
124.072190952
152.508455539
124.051829886
152.032006598
124.532351041
152.064584303
124.104768658
152.455516768
123.644608569
152.899388003
123.233315039
153.3310426
122.736505032
153.412486863
122.26005609
154.267651629
122.312994862
154.214712858
122.312994862
153.208876204
123.302542663
153.172226286
123.404347992
152.712066197
123.811569309
150.342038131
125.912831306
150.203582883
126.324124837
149.7760005
126.271186066
149.824867058
126.222319508
149.84115591
126.23860836
149.466512299
126.601035333
149.503162217
126.580674267
149.499090004
126.564385414
149.075579834
127.057123208
148.888258028
127.179289603
148.953413439
127.179289603
148.957485652
127.146711898
148.546192122
127.553933215
148.151187444
127.179289603
148.529903269
127.146711898
148.578769827
127.468416739
145.418732405
131.125264168
145.402443552
131.121191955
145.402443552
130.713970637
145.830025935
130.73025949
145.79744823
129.296840453

Average distance is : 138.065 cm
Average deviation is : 18.303 cm
Block: 4
======================================
198.16203742
79.7787282705
196.761196089
81.0451865673
195.071227622
82.2912837982
193.808841538
83.5699587345
192.114800858
85.2273494959
190.88499248
85.7933871269
188.60048089
87.1575785398
187.712738419
87.585160923
187.26479497
87.5525832176
188.034443259
88.904557991
187.228145051
89.7393616915
186.75169611
90.2198828459
185.949470115
91.0546865463
184.63414526
91.8935624599
184.650434113
92.3211448431
183.355470324
92.7283661604
183.815630412
93.1518763304
183.335109258
93.2251761675
183.2862427
93.2251761675
182.92788794
93.5957475662
182.536955476
93.990752244
181.665501857
95.3223659515
177.410039091
98.0059544325
178.029015493
98.3846702576
177.650299668
98.4498256683
177.206428432
98.8774080515
177.206428432
99.3212792873
138.023593283
138.125398612
137.477916718
138.605919766
137.889210248
138.622208619
137.921787953
138.638497472
137.49420557
138.809530425
137.253944993
136.40285244
139.697272897
136.435430145
139.648406339
136.419141293
139.697272897
136.231819487
139.440723467
136.997395563
138.980563378
137.156211877
138.878758049
137.253944993
138.895046902
137.23765614
136.398780227
139.697272897
136.439502358
139.269690514
136.879301381
139.697272897
136.451718998
139.273762727
137.290594912
138.793241572
137.771116066
138.793241572
137.750755
138.789169359
137.681527376
138.434886813
137.648949671
138.060243201
137.644877458
138.504114437

Average distance is : 138.180 cm
Average deviation is : 35.317 cm
Block: 5
======================================
198.149820781
77.9014379978
196.541296577
79.013152194
195.397004676
80.2429605722
156.930879045
117.988304472
153.139648581
122.00350666
153.90929687
122.394439125
153.689397359
122.854599214
153.225165057
123.282181597
152.801654887
123.693475127
152.011645532
124.068118739
152.015717745
124.12105751
151.995356679
124.104768658
151.584063148
124.548639894
151.877262497
124.666734076
151.38045249
125.05766654
151.038386583
125.078027606
151.042458797
125.061738753
151.091325355
124.976222277
151.091325355
125.008799982
151.571846509
124.100696445
152.422939062
123.86450808
152.235617256
124.292090464
152.219328403
124.259512758
151.38045249
125.094316459
151.396741343
125.110605311
150.989520025
125.538187695
150.989520025
125.078027606
150.627093053
125.843603683
150.256521654
125.847675896
150.252449441
125.847675896
150.252449441
125.847675896
150.252449441
125.831387043
149.824867058
126.275258279
149.824867058
126.254897213
149.845228124
126.258969426
149.84115591
126.271186066
150.203582883
125.847675896
150.6108042
125.489321136
150.631165266
125.416021299
151.038386583
125.05766654
150.614876413
125.452671218
150.219871736
125.436382365
150.663742971
125.420093513
150.680031824
125.436382365
150.643381906
124.988438916
150.663742971
125.452671218
151.091325355
125.041377687
151.091325355
125.008799982
151.107614207
124.976222277
150.680031824
125.436382365

Average distance is : 138.052 cm
Average deviation is : 19.463 cm
Block: 6
======================================
198.178326273
78.8217581749
197.653010774
79.6606340885
196.850784779
80.0189888477
196.472068954
80.7886371374
195.258549428
81.2162195206
194.851328111
82.120250845
193.943224573
82.7025773287
191.943767905
83.2319650412
191.536546588
83.7450639009
191.145614123
84.0504798889
149.209962869
127.228156161
148.835319257
127.639449692
148.851608109
127.211867309
148.851608109
127.179289603
149.364706969
126.649901891
149.385068035
126.702840662
149.380995822
126.666190743
149.845228124
126.189741802
149.894094682
125.778448272
150.285027146
125.798809338
150.219871736
125.880253601
150.236160588
125.831387043
149.84115591
126.254897213
149.348418117
126.702840662
148.920835733
127.142639685
148.990063357
126.23860836
149.861516976
126.206030655
149.857444763
125.774376059
150.28909936
125.367154741
150.716681743
125.318288183
150.781837153
125.709220648
150.390904689
126.136803031
149.535739923
126.991967797
149.038929915
127.040834355
149.043002129
127.073412061
148.204126215
127.875638056
148.17154851
127.879710269
148.204126215
127.847132564
147.776543832
128.286931586
146.941740131
127.093773127
148.990063357
126.686551809
149.417645741
126.254897213
149.401356888
126.271186066
149.348418117
126.254897213
149.828939271
125.794737124
150.305388212
124.939572358
151.160552979
124.955861211
151.140191913
124.955861211
151.091325355
125.008799982
151.075036502
125.008799982

Average distance is : 138.020 cm
Average deviation is : 27.504 cm
Block: 7
======================================
198.194615126
77.6285997152
199.053852105
76.8793124914
199.102718663
76.5331743717
198.247553897
77.0177677393
197.392389131
77.7141161919
157.30959487
118.346659231
156.914590192
119.148885226
156.043136573
120.036627698
155.648131895
120.810348201
155.25719943
121.233858371
154.438684583
121.645151901
154.406106877
121.694018459
154.385745811
122.141961908
153.978524494
122.549183226
153.49800334
122.960476756
153.139648581
123.388059139
152.284483814
123.762702751
152.288556027
123.335120368
152.679488492
123.827858162
152.663199639
123.86450808
152.646910787
123.848219228
152.642838573
123.404347992
153.090782022
122.993054461
153.090782022
123.388059139
153.086709809
122.976765609
153.090782022
122.960476756
153.49800334
122.976765609
153.102998662
123.388059139
152.663199639
123.388059139
153.123359728
122.549183226
153.567230964
122.923826838
153.599808669
122.500316668
153.155937433
123.335120368
152.712066197
123.351409221
152.30484488
123.726052833
152.374072504
123.677186275
152.370000291
123.70976398
151.926129055
124.173996282
151.038386583
125.008799982
151.465968966
124.601578665
151.449680114
124.581217599
151.909840202
124.137346363
152.370000291
123.70976398
151.844684792
124.292090464
152.203039551
124.275801611
151.808034873
124.703383994
151.808034873
124.703383994
151.775457168
125.14725523
151.417102408
125.110605311
150.578226495
125.505609989

Average distance is : 138.082 cm
Average deviation is : 23.991 cm
Block: 8
======================================
198.16203742
79.4733122826
196.130003047
80.7886371374
157.325883722
119.132596374
156.128653049
120.366476965
155.701070666
120.789987135
152.390361357
123.19666512
152.459588981
123.640536356
152.545105457
122.26005609
152.524744391
122.703927326
151.278647161
123.143726349
151.241997242
124.157707429
152.30484488
124.243223906
150.631165266
125.863964748
150.594515347
125.489321136
149.397284675
126.254897213
149.824867058
126.275258279
149.824867058
126.271186066
149.792289352
125.863964748
150.215799522
125.387515807
149.433934593
126.645829678
149.454295659
126.629540825
149.059290981
127.040834355
149.059290981
126.633613038
149.486873364
126.17345295
149.926672387
125.794737124
150.305388212
125.831387043
150.252449441
125.468960071
150.598587561
125.485248923
150.18729403
125.452671218
107.893288016
168.410447979
107.636738586
130.510359979
111.501268888
162.053723216
113.602530885
124.939572358
113.244176126
159.883233595
115.75265944
125.350865889
111.464618969
164.24050169
111.448330116
165.079377604
111.448330116
125.420093513
112.336072588
161.235208368
114.437334585
126.613251972
110.662392974
160.314888191
115.785237145
125.811025977
109.754289436
161.593563128
114.502489996
126.258969426
109.754289436
163.373120284
112.283133817
128.425386834
108.972424507
162.89259913
112.336072588
128.852969217
107.689677358
165.063088751
110.576876497
129.720350623

Average distance is : 134.118 cm
Average deviation is : 21.296 cm
Block: 9
======================================
197.701877332
78.5367032528
196.182941818
80.3284770489
194.904266882
81.1836418152
193.686675143
83.1993873358
193.25909276
82.991704464
192.766354966
84.1726462841
191.894901347
85.0237388372
190.990870023
85.9481312275
189.642967463
87.6177386284
188.889608026
87.9964544535
188.034443259
88.8679080725
187.199639559
89.7393616915
186.772057176
90.5904542446
185.900603557
91.4130413055
184.687084031
90.3379770279
184.911055756
91.8894902468
144.445473456
131.964140081
143.252314997
132.798943782
143.647319674
133.222453952
143.231953931
133.222453952
142.861382532
133.633747482
142.39715023
133.654108548
142.824732614
134.061329865
142.466377854
134.008391094
142.515244412
133.943235683
142.584472036
133.499364448
142.291272688
133.666325188
142.771793842
133.312042642
142.669988513
133.413847971
142.466377854
133.922874618
142.584472036
133.483075595
143.07720983
133.430136824
143.081282043
133.00255444
143.508864427
132.163678527
143.899796891
132.216617298
144.327379274
131.789034915
144.274440503
131.740168357
144.77125051
131.292224908
145.215121746
131.308513761
145.235482812
128.35615921
147.723605061
128.698225117
147.40190022
129.142096353
147.365250301
129.142096353
147.316383743
126.666190743
149.861516976
125.778448272
150.305388212
125.794737124
150.716681743
124.955861211
150.680031824
125.40380466
151.038386583
125.008799982
151.449680114
125.008799982

Average distance is : 138.142 cm
Average deviation is : 30.396 cm
Block: 10
======================================
198.16203742
79.4407345772
196.182941818
80.756059432
157.838982582
117.393761349
156.161230755
120.329827046
156.132725263
120.378693604
155.721431732
120.484571147
153.465425634
121.441541243
153.428775716
121.441541243
153.310681534
121.030247712
155.310138202
121.164630747
155.342715907
121.59221313
154.064040971
122.431089044
153.65274744
122.822021508
153.689397359
122.838310361
153.65274744
122.431089044
153.65274744
123.298470449
153.225165057
123.318831515
153.208876204
122.907537985
153.994813347
122.549183226
153.534653258
122.944187903
153.599808669
122.51660552
154.059968758
122.907537985
151.160552979
125.383443594
151.160552979
125.387515807
150.732970595
125.843603683
148.631708598
125.863964748
150.663742971
125.843603683
150.95694232
124.976222277
151.12390306
125.420093513
151.514835525
125.420093513
151.091325355
125.880253601
151.091325355
125.725509501
150.358326983
124.104768658
152.455516768
124.495701122
152.015717745
124.939572358
151.995356679
124.601578665
151.942417908
125.008799982
149.894094682
126.222319508
150.219871736
126.324124837
150.183221817
125.91690352
150.614876413
125.912831306
149.792289352
125.863964748
151.070964289
125.436382365
147.723605061
128.35615921
147.316383743
128.804102659
144.852694774
129.606328654
144.445473456
129.602256441
146.514157748
127.52135551
148.920835733
127.126350832
147.316383743
127.537644362

Average distance is : 138.067 cm
Average deviation is : 18.088 cm