
Block: 1
======================================
198.149820781
77.4249890566
197.001456666
78.3127315283
156.487007809
117.972015619
153.620169735
119.918533516
155.701070666
120.789987135
154.862194753
121.217569518
154.882555819
121.148341894
155.411943531
120.688181806
155.391582465
120.260599422
156.230458379
120.260599422
155.87210362
120.671892953
155.806948209
120.720759511
155.326427054
121.201280665
154.829617047
121.714379525
154.402034664
122.121600842
153.962235641
122.10531199
153.550942111
122.532894373
153.599808669
122.94011569
153.550942111
122.960476756
153.139648581
123.383986926
152.712066197
123.815641522
152.765004969
123.335120368
153.208876204
123.318831515
152.744643903
123.559092093
152.936037922
123.555019879

Average distance is : 138.042 cm
Average deviation is : 23.329 cm
Block: 2
======================================
198.145748568
79.4570234299
194.916483521
81.8799902678
194.220135069
83.5007311106
192.542383242
85.2639994144
191.194480681
86.2006084442
189.88322804
87.0394843578
187.024534392
89.4828122616
187.012317753
90.317615962
185.542248797
89.209973979
184.019241071
91.2094306469
183.249592781
92.0442343473
182.431077933
94.0070410967
182.553244328
94.4346234798
180.056977654
97.2525949955
178.79459157
97.7168272972
178.827169275
97.7331161499
177.955715656
98.9629245281
177.548494339
99.406795764
176.709618425
99.8140170813
174.250001669
102.261417198
174.217423964
102.733793926
173.793913794
102.684927368
173.394836903
103.523803282
172.971326733
103.951385665
172.152811885
104.362679195

Average distance is : 138.357 cm
Average deviation is : 45.261 cm
Block: 3
======================================
198.198687339
76.8263737202
197.054395437
77.8199937344
195.824587059
79.4407345772
196.643101907
80.7194095135
194.936844587
82.4297390461
191.601701999
85.7770982742
189.862866974
87.0598454237
188.360220313
88.5584198713
187.985576701
88.9208468437
186.719118404
90.19952178
186.254886103
90.6963317871
184.976211166
92.365939188
184.088468695
92.7935215712
183.2862427
93.6486863375
182.463655639
94.4549845457
181.307147098
95.6277819395
180.468271184
96.8820235968
179.649756336
97.1182119608
178.981913376
97.9693045139
178.558403206
97.9041491032
178.623558617
98.3154426336
178.179687381
98.3113704205
177.784682703
98.7430250168
177.784682703
99.1461741209
177.361172533
99.1502463341

Average distance is : 138.357 cm
Average deviation is : 48.114 cm
Block: 4
======================================
197.754816103
79.9212557316
196.573874283
80.3121881962
156.096075344
119.98776114
155.721431732
120.82256484
155.293849349
120.806275988
155.721431732
120.806275988
155.293849349
120.789987135
154.849978113
119.816728187
155.069877625
119.784150481
154.288012695
73.5115921974
198.25162611
76.7937960148
198.16203742
79.5954786777
196.541296577
80.8904424667
194.765811634
82.6129886389
193.552292109
84.2907404661
191.841962576
85.1255441666
191.430669045
85.5571987629
190.542926574
85.9807089329
190.494060016
86.4449412346
189.691834021
87.2593838692
188.804091549
88.6113586426
187.93263793
89.022652173
186.22638061
90.7126206398
185.420082402
91.494485569
184.654506326
92.3170726299

Average distance is : 137.365 cm
Average deviation is : 46.585 cm
Block: 5
======================================
197.75074389
78.2760816097
196.573874283
79.0986686707
158.164759636
116.229108381
156.95124011
118.057532096
158.486464477
117.61366086
158.091459799
118.041243243
155.224621725
120.50086
155.224621725
120.447921228
155.668492961
120.431632376
155.244982791
120.875503612
154.813328195
121.730668378
153.530581045
122.549183226
153.49800334
123.02970438
153.090782022
122.598049784
153.550942111
122.549183226
153.534653258
122.121600842
153.978524494
122.10531199
153.974452281
122.10531199
153.546869898
122.720216179
153.123359728
123.404347992
152.695777345
123.811569309
152.716138411
123.79935267
151.89355135
124.581217599
151.107614207
124.548639894
151.588135362
124.548639894

Average distance is : 137.996 cm
Average deviation is : 23.265 cm
Block: 6
======================================
198.16203742
78.8584080935
199.017202187
78.77696383
156.112364197
120.789987135
155.721431732
120.806275988
155.25719943
121.457830095
155.053588772
121.901701331
155.069877625
121.881340265
155.049516559
121.494480014
153.929657936
120.309465981
154.540489912
120.325754833
154.043679905
120.297249341
155.000650001
121.441541243
155.053588772
120.56601541
156.332263708
120.635243034
155.908753538
120.651531887
156.320047069
120.635243034
155.904681325
120.635243034
156.352624774
120.549726558
155.941331244
120.623026395
155.888392472
120.211732864
156.79649601
120.138433027
155.994270015
120.582304263
155.977981162
120.570087624
155.599265337
120.940659022
155.175755167
120.769626069

Average distance is : 138.201 cm
Average deviation is : 24.005 cm
Block: 7
======================================
198.178326273
76.3825024843
197.632649708
78.0358210325
195.991547799
79.318568182
194.782100487
81.814834857
194.317868185
82.3605114222
194.146835232
83.2156761885
193.312031531
83.6228975058
192.904810214
84.4617734194
152.475877833
123.607958651
152.113450861
124.446834564
151.209419537
124.959933424
150.712609529
125.436382365
150.663742971
125.436382365
150.252449441
125.420093513
150.716681743
125.399732447
151.144264126
124.939572358
150.732970595
124.976222277
151.176841831
124.955861211
151.160552979
124.939572358
151.176841831
124.104768658
151.567774296
124.532351041
151.584063148
124.511989975
151.140191913
124.959933424
151.156480765
124.532351041
151.600352001
124.548639894

Average distance is : 138.055 cm
Average deviation is : 34.408 cm
Block: 8
======================================
198.198687339
79.1149575233
196.968878961
79.9701222897
155.582976484
120.447921228
155.224621725
120.859214759
154.797039342
121.698090672
154.829617047
121.710307312
120.928442383
155.395654678
121.099475336
155.411943531
120.789987135
153.49800334
121.388602471
153.070420957
121.816184855
152.646910787
122.26005609
154.251362777
122.26005609
153.840069246
122.671349621
153.428775716
123.078570938
153.001193333
123.506153321
152.166389632
124.340957022
151.759168315
124.357245874
151.759168315
124.735961699
151.669579625
124.328740382
152.182678485
124.357245874
151.315297079
124.752250552
151.364163637
125.623704171
150.904003549
125.591126466
150.920292401
125.607415318
150.899931335

Average distance is : 138.048 cm
Average deviation is : 22.343 cm
Block: 9
======================================
198.166109633
77.7507661104
196.659390759
79.0986686707
154.882555819
117.410050201
156.132725263
118.533981037
157.533566594
118.533981037
157.989654469
118.554342103
157.957076764
118.159337425
158.352081442
117.752116108
158.299142671
117.800982666
158.282853818
118.228565049
157.855271435
118.244853902
157.391039133
118.741663909
156.930879045
119.185535145
156.503296661
119.580539823
156.075714278
120.036627698
155.187971807
120.928442383
155.139105248
121.356024766
154.711522865
121.795823789
154.231001711
121.84876256
153.840069246
122.671349621
153.001193333
123.506153321
152.593972015
123.884869146
152.15010078
124.37760694
151.685868478
124.788900471
150.851064777
125.216482854

Average distance is : 138.008 cm
Average deviation is : 24.143 cm
Block: 10
======================================
198.16203742
78.5326310396
198.67513628
78.6710862875
194.916483521
81.5542132139
156.861651421
119.234401703
154.402034664
122.10531199
154.0111022
122.040156579
154.0111022
122.410727978
153.620169735
122.329283714
153.123359728
121.59221313
153.24145391
121.217569518
153.176298499
121.612574196
152.81794374
121.852834773
154.626006389
121.441541243
155.000650001
121.490407801
154.988433361
121.490407801
154.556778765
121.506696653
154.556778765
121.970928955
154.524201059
121.966856742
154.487551141
121.954640102
154.540489912
121.966856742
154.059968758
122.447377896
154.047752118
122.443305683
153.599808669
122.874960279
153.620169735
122.874960279
153.669036293
122.410727978

Average distance is : 138.066 cm
Average deviation is : 25.665 cm