
Block: 1
======================================
99.1531801224
63.3997195959
97.369017601
65.2540922165
96.0721957684

Average distance is : 84.250 cm
Average deviation is : 18.232 cm
Block: 2
======================================
99.136660099
63.1271392107
94.994264245
66.0346633196
94.0278428793

Average distance is : 83.464 cm
Average deviation is : 17.375 cm
Block: 3
======================================
99.5372706652
53.0747050047
62.7926087379
92.0165300369
99.1531801224

Average distance is : 81.315 cm
Average deviation is : 21.825 cm
Block: 4
======================================
99.136660099
62.8091287613
92.79710114
67.715575695
92.2065103054

Average distance is : 82.933 cm
Average deviation is : 16.450 cm
Block: 5
======================================
99.136660099
55.0653678179
99.9998313189
42.4936300516
84.7766298056

Average distance is : 76.294 cm
Average deviation is : 26.215 cm
Block: 6
======================================
99.5372706652
53.4257555008
99.1573101282
50.8238518238
77.4128293991

Average distance is : 76.071 cm
Average deviation is : 23.641 cm
Block: 7
======================================
99.1160100698
54.8258274794
99.0829700232
43.670681715
74.6085554361

Average distance is : 74.261 cm
Average deviation is : 25.236 cm
Block: 8
======================================
99.1201400757
54.6028071642
99.1201400757
94.5440936089
64.4239610434

Average distance is : 82.362 cm
Average deviation is : 21.227 cm
Block: 9
======================================
99.1201400757
52.0545935631
99.516620636
39.8752063513
88.5018950701

Average distance is : 75.814 cm
Average deviation is : 27.938 cm
Block: 10
======================================
99.5372706652
54.4086968899
99.1036200523
47.3629069328
73.0350232124

Average distance is : 74.690 cm
Average deviation is : 24.363 cm
Average distance for 10x5 is : 79.145 cm
Average deviation for 10x5 is : 22.250 cm
 Percentage of values that failed: 0.000