
Block: 1
======================================
300.638463116
302.36201849
300.622203159
300.605943203
300.622203159
300.605943203
300.605943203
301.06528697
301.471785879
300.605943203
301.475850868
300.601878214
300.622203159
300.622203159
300.601878214
301.492110825
301.492110825
301.044962025
300.601878214
300.179119349
301.049027014
300.605943203
300.585618258
301.028702068
301.032767057

Average distance is : 300.890 cm
Average deviation is : 0.470 cm
Block: 2
======================================
301.06528697
301.028702068
301.06528697
301.471785879
300.605943203
301.049027014
300.605943203
301.016507101
301.471785879
300.622203159
301.044962025
301.492110825
301.492110825
300.589683247
301.06528697
300.589683247
300.601878214
301.044962025
301.508370781
300.622203159
301.081546926
300.638463116
301.032767057
301.91486969
300.605943203

Average distance is : 301.013 cm
Average deviation is : 0.378 cm
Block: 3
======================================
301.049027014
300.638463116
301.475850868
301.898609734
301.028702068
301.492110825
300.605943203
300.622203159
301.918934679
301.508370781
300.622203159
301.902674723
301.475850868
301.492110825
301.882349777
301.049027014
301.028702068
300.589683247
301.049027014
301.049027014
300.601878214
300.605943203
301.028702068
300.605943203
300.601878214

Average distance is : 301.113 cm
Average deviation is : 0.479 cm
Block: 4
======================================
301.012442112
301.471785879
301.012442112
301.032767057
301.012442112
300.589683247
300.585618258
301.471785879
300.605943203
301.492110825
300.605943203
300.605943203
300.585618258
300.569358301
300.601878214
301.049027014
301.016507101
300.589683247
300.585618258
301.049027014
301.935194635
301.492110825
300.589683247
300.605943203
301.886414766

Average distance is : 300.962 cm
Average deviation is : 0.435 cm
Block: 5
======================================
301.455525923
300.605943203
301.012442112
300.996182156
300.605943203
300.622203159
300.57342329
301.049027014
301.471785879
301.049027014
300.605943203
300.622203159
300.605943203
300.601878214
301.032767057
300.605943203
301.475850868
301.049027014
301.471785879
301.918934679
301.085611916
300.146599436
301.049027014
300.175054359
301.475850868

Average distance is : 300.935 cm
Average deviation is : 0.441 cm
Block: 6
======================================
300.605943203
301.049027014
300.605943203
301.044962025
300.585618258
301.049027014
301.508370781
301.06528697
301.918934679
301.06528697
301.455525923
300.569358301
300.585618258
300.601878214
301.032767057
301.471785879
301.049027014
301.028702068
300.605943203
300.589683247
301.032767057
300.605943203
300.589683247
301.049027014
300.585618258

Average distance is : 300.934 cm
Average deviation is : 0.369 cm
Block: 7
======================================
300.569358301
301.471785879
302.36201849
301.012442112
301.012442112
301.475850868
301.475850868
301.049027014
301.032767057
300.569358301
301.455525923
300.601878214
301.032767057
300.536838388
301.049027014
301.028702068
301.898609734
300.605943203
301.032767057
300.605943203
300.589683247
300.601878214
301.049027014
300.622203159
300.605943203

Average distance is : 301.014 cm
Average deviation is : 0.467 cm
Block: 8
======================================
300.605943203
300.585618258
300.585618258
300.601878214
301.044962025
300.622203159
301.06528697
301.016507101
300.638463116
300.569358301
301.049027014
301.935194635
300.622203159
301.049027014
300.175054359
301.049027014
301.475850868
301.032767057
301.032767057
301.049027014
301.935194635
301.455525923
301.012442112
301.028702068
301.471785879

Average distance is : 300.988 cm
Average deviation is : 0.426 cm
Block: 9
======================================
300.622203159
301.918934679
301.455525923
300.569358301
301.032767057
302.341693544
300.605943203
301.898609734
301.049027014
300.601878214
301.016507101
301.016507101
301.443330956
300.605943203
301.459590912
300.622203159
300.589683247
301.032767057
301.032767057
301.459590912
300.622203159
300.589683247
301.032767057
300.57342329
300.589683247

Average distance is : 301.031 cm
Average deviation is : 0.501 cm
Block: 10
======================================
301.475850868
300.585618258
301.049027014
301.049027014
301.492110825
301.049027014
300.57342329
300.195379305
301.028702068
300.605943203
300.589683247
300.589683247
302.357953501
301.492110825
301.492110825
300.605943203
300.605943203
300.601878214
300.622203159
301.049027014
301.488045835
301.081546926
300.605943203
300.585618258
300.585618258

Average distance is : 300.938 cm
Average deviation is : 0.481 cm