
Block: 1
======================================
299.54904604
299.118157196
299.154742098
299.142547131
299.54904604
299.171002054
299.122222185
299.581565952
299.565305996
299.154742098
299.138482141
299.565305996
299.597825909
299.154742098
299.565305996
299.565305996
299.154742098
299.122222185
299.171002054
299.154742098
299.175067043
299.122222185
299.138482141
299.191327
299.581565952
299.138482141
299.597825909
299.122222185
299.187262011
299.122222185
299.565305996
299.54498105
299.614085865
299.618150854
299.601890898
299.138482141
299.138482141
299.565305996
299.581565952
299.597825909
299.581565952
299.138482141
299.138482141
299.597825909
299.54904604
299.122222185
299.138482141
299.561241007
299.565305996
299.532786083
299.203521967
299.171002054
299.581565952
299.154742098
299.597825909
299.597825909
299.187262011
299.581565952
299.581565952
299.565305996
299.175067043
299.597825909
299.597825909
299.138482141
299.54904604
299.54904604
299.565305996
299.122222185
299.138482141
299.138482141
299.597825909
299.581565952
299.597825909
299.54498105
299.118157196
299.122222185
299.565305996
299.191327
299.597825909
299.54498105
299.581565952
299.581565952
299.585630941
299.122222185
299.54904604
299.561241007
299.171002054
299.154742098
299.581565952
299.565305996
299.565305996
299.601890898
299.597825909
299.158807087
299.54904604
299.585630941
299.614085865
299.581565952
299.561241007
299.122222185

Block: 2
======================================
299.581565952
299.171002054
299.581565952
299.138482141
299.154742098
299.122222185
299.581565952
299.597825909
299.565305996
299.597825909
299.581565952
299.581565952
299.565305996
299.138482141
299.54904604
299.122222185
299.54904604
299.154742098
299.138482141
299.187262011
299.54904604
299.565305996
299.581565952
299.138482141
299.565305996
299.54904604
299.581565952
299.122222185
299.138482141
299.54904604
299.154742098
299.54904604
299.601890898
299.565305996
299.532786083
299.585630941
299.581565952
299.565305996
299.581565952
299.175067043
299.54904604
299.565305996
299.581565952
299.54904604
299.581565952
299.138482141
299.528721094
299.528721094
299.122222185
299.581565952
299.565305996
299.581565952
299.122222185
299.565305996
299.581565952
299.565305996
299.565305996
299.175067043
299.565305996
299.138482141
299.54904604
299.565305996
299.581565952
299.585630941
299.601890898
299.565305996
299.565305996
299.54498105
299.565305996
299.561241007
299.54904604
299.122222185
299.089702272
299.138482141
299.54904604
299.54904604
299.581565952
299.565305996
299.138482141
299.54904604
299.597825909
299.581565952
299.565305996
299.565305996
299.138482141
299.565305996
299.54498105
299.122222185
299.122222185
299.54904604
299.565305996
299.54904604
299.138482141
299.565305996
299.54498105
299.54904604
299.122222185
299.154742098
299.565305996
299.138482141

Block: 3
======================================
299.565305996
299.528721094
299.54904604
299.54904604
299.528721094
299.171002054
299.581565952
299.597825909
299.154742098
299.565305996
299.138482141
299.122222185
299.597825909
299.54904604
299.10189724
299.122222185
299.138482141
299.565305996
299.581565952
299.581565952
299.138482141
299.532786083
299.118157196
299.581565952
299.54498105
299.54904604
299.565305996
299.154742098
299.154742098
299.532786083
299.10189724
299.105962229
299.138482141
299.54498105
299.089702272
299.138482141
299.118157196
299.122222185
299.138482141
299.154742098
299.105962229
299.154742098
299.154742098
299.089702272
299.10189724
299.54904604
299.54904604
299.565305996
299.154742098
299.122222185
299.581565952
299.138482141
299.122222185
298.642553473
299.085637283
299.122222185
299.089702272
299.54498105
299.532786083
299.581565952
299.138482141
299.154742098
299.528721094
299.089702272
299.171002054
299.565305996
299.581565952
299.105962229
299.138482141
299.122222185
299.512461138
299.565305996
299.138482141
299.54904604
299.565305996
299.54498105
299.512461138
299.122222185
299.565305996
299.54904604
299.54904604
299.069377327
299.532786083
299.561241007
299.105962229
299.565305996
299.581565952
299.565305996
299.565305996
299.54904604
299.565305996
299.105962229
299.528721094
299.073442316
299.54904604
299.069377327
299.122222185
299.565305996
299.122222185
299.138482141

Block: 4
======================================
299.138482141
299.528721094
299.528721094
299.54904604
299.500266171
299.512461138
299.532786083
299.528721094
299.512461138
299.561241007
299.138482141
299.532786083
299.138482141
299.565305996
299.561241007
299.154742098
299.053117371
299.309211683
299.528721094
299.122222185
299.105962229
299.528721094
299.085637283
299.105962229
299.105962229
299.085637283
299.10189724
299.54904604
299.601890898
299.085637283
299.138482141
299.528721094
299.532786083
299.085637283
299.085637283
299.532786083
299.085637283
299.089702272
299.085637283
299.085637283
299.512461138
299.073442316
299.138482141
299.10189724
299.496201181
299.516526127
299.54498105
299.565305996
299.089702272
299.122222185
299.069377327
299.54904604
299.54904604
299.581565952
299.512461138
299.089702272
299.512461138
299.089702272
299.565305996
299.073442316
299.069377327
299.532786083
299.54904604
299.528721094
299.532786083
299.089702272
299.54904604
299.532786083
299.085637283
299.565305996
299.532786083
299.54904604
299.54904604
299.532786083
299.54498105
299.532786083
299.54904604
299.54904604
299.532786083
299.105962229
299.085637283
299.512461138
299.532786083
299.54498105
299.10189724
299.54498105
299.512461138
299.496201181
299.532786083
299.10189724
299.54904604
299.565305996
299.496201181
299.512461138
299.528721094
299.122222185
299.496201181
299.581565952
299.089702272
299.528721094

Block: 5
======================================
299.085637283
299.053117371
299.10189724
299.089702272
299.532786083
299.565305996
299.54904604
299.089702272
299.512461138
299.089702272
299.122222185
299.105962229
299.105962229
299.085637283
299.085637283
299.54498105
299.54498105
299.512461138
299.528721094
299.069377327
299.085637283
299.073442316
299.085637283
299.105962229
299.54904604
299.122222185
299.073442316
299.54904604
299.085637283
299.10189724
299.532786083
299.069377327
299.105962229
299.54904604
299.528721094
299.54498105
299.565305996
299.565305996
299.085637283
298.658813429
299.138482141
299.154742098
299.122222185
299.138482141
299.089702272
299.085637283
299.54498105
299.532786083
299.085637283
299.122222185
299.105962229
299.105962229
299.122222185
299.085637283
299.069377327
299.073442316
299.565305996
299.138482141
299.089702272
299.089702272
299.581565952
299.069377327
299.089702272
299.089702272
299.565305996
299.105962229
299.138482141
299.089702272
299.54498105
299.528721094
299.54904604
299.105962229
299.138482141
299.105962229
299.10189724
299.528721094
299.089702272
299.516526127
299.54498105
299.118157196
299.565305996
299.528721094
299.089702272
299.54498105
299.085637283
299.122222185
299.516526127
299.54498105
299.105962229
299.10189724
299.073442316
299.089702272
299.122222185
299.54498105
299.512461138
299.122222185
299.512461138
299.085637283
299.516526127
299.528721094

Block: 6
======================================
299.512461138
299.069377327
299.496201181
299.54498105
299.085637283
299.528721094
299.54904604
299.089702272
299.105962229
299.069377327
299.069377327
299.053117371
299.105962229
299.516526127
299.085637283
299.528721094
299.532786083
299.54904604
299.532786083
299.54904604
299.528721094
299.122222185
299.516526127
299.565305996
299.54904604
299.528721094
299.54904604
299.565305996
299.089702272
299.532786083
299.532786083
299.512461138
299.54904604
299.532786083
299.516526127
299.512461138
299.565305996
299.085637283
299.528721094
299.142547131
299.565305996
299.54904604
299.073442316
299.496201181
299.528721094
299.54904604
299.532786083
299.561241007
299.053117371
299.073442316
299.528721094
299.053117371
299.565305996
299.512461138
299.528721094
299.532786083
299.565305996
299.089702272
299.069377327
299.528721094
299.512461138
299.512461138
299.122222185
299.528721094
299.512461138
299.516526127
299.54904604
299.496201181
299.54904604
299.528721094
299.54904604
299.089702272
299.512461138
299.512461138
299.089702272
299.085637283
299.158807087
299.565305996
299.069377327
299.528721094
299.053117371
299.496201181
299.565305996
299.54904604
299.105962229
299.089702272
299.54904604
299.512461138
299.565305996
299.532786083
299.54498105
299.532786083
299.54904604
299.528721094
299.105962229
299.122222185
299.069377327
299.512461138
299.528721094
299.516526127

Block: 7
======================================
299.069377327
299.532786083
299.528721094
299.516526127
299.512461138
299.069377327
299.532786083
299.532786083
299.532786083
299.069377327
299.105962229
299.085637283
299.581565952
299.122222185
299.496201181
299.512461138
299.532786083
299.532786083
299.528721094
299.089702272
299.565305996
299.528721094
299.105962229
299.516526127
299.54904604
299.085637283
299.089702272
299.073442316
299.118157196
299.10189724
299.532786083
299.105962229
299.528721094
299.496201181
299.122222185
299.118157196
299.496201181
299.089702272
299.512461138
299.105962229
299.069377327
299.085637283
299.528721094
299.532786083
299.565305996
299.528721094
299.528721094
299.085637283
299.496201181
299.089702272
299.54904604
299.528721094
299.118157196
299.085637283
299.532786083
299.532786083
299.532786083
299.565305996
299.528721094
299.54904604
299.54498105
299.528721094
299.105962229
299.516526127
299.105962229
299.565305996
299.565305996
299.085637283
299.085637283
299.54498105
299.512461138
299.089702272
299.512461138
299.512461138
299.54904604
299.105962229
299.085637283
299.532786083
299.516526127
299.496201181
299.10189724
299.54904604
299.089702272
299.54904604
299.475876236
299.54498105
299.085637283
299.516526127
299.528721094
299.10189724
299.565305996
299.512461138
299.528721094
299.512461138
299.036857414
299.089702272
299.54904604
299.089702272
299.54498105
299.565305996

Block: 8
======================================
299.085637283
299.138482141
299.118157196
299.581565952
299.085637283
299.565305996
299.085637283
299.565305996
299.581565952
299.138482141
299.122222185
299.54904604
299.54904604
299.581565952
299.122222185
299.565305996
299.105962229
299.54904604
299.565305996
299.105962229
299.158807087
299.154742098
299.138482141
299.138482141
299.54904604
299.54904604
299.597825909
299.54904604
299.138482141
299.138482141
299.10189724
299.10189724
299.10189724
299.516526127
299.54904604
299.138482141
299.585630941
299.54498105
299.122222185
299.532786083
299.54904604
299.561241007
299.069377327
299.105962229
299.565305996
299.105962229
299.138482141
299.154742098
299.601890898
299.171002054
299.105962229
299.565305996
299.565305996
299.54904604
299.565305996
299.581565952
299.10189724
299.670995712
299.528721094
299.54904604
299.516526127
299.581565952
299.565305996
299.085637283
299.122222185
299.528721094
299.532786083
299.54904604
299.581565952
299.532786083
299.565305996
299.565305996
299.118157196
299.085637283
299.122222185
299.532786083
299.532786083
299.54904604
299.54498105
299.105962229
299.532786083
299.54498105
299.118157196
299.581565952
299.565305996
299.565305996
299.10189724
299.10189724
299.122222185
299.122222185
299.154742098
299.105962229
299.581565952
299.54498105
299.581565952
299.154742098
299.089702272
299.565305996
299.138482141
299.565305996

Block: 9
======================================
299.122222185
299.138482141
299.171002054
299.601890898
299.581565952
299.581565952
299.601890898
299.175067043
299.154742098
299.581565952
299.581565952
299.581565952
299.601890898
299.581565952
299.191327
299.618150854
299.207586956
299.171002054
299.154742098
299.158807087
299.581565952
299.154742098
299.175067043
299.581565952
299.154742098
299.138482141
299.142547131
299.581565952
299.138482141
299.138482141
299.175067043
299.581565952
299.597825909
299.618150854
299.54904604
299.175067043
299.154742098
299.191327
299.154742098
299.154742098
299.597825909
299.597825909
299.158807087
299.171002054
299.158807087
299.597825909
299.581565952
299.63441081
299.191327
299.581565952
299.618150854
299.138482141
299.581565952
299.601890898
299.597825909
299.138482141
299.565305996
299.191327
299.618150854
299.565305996
299.175067043
299.581565952
299.138482141
299.158807087
299.581565952
299.154742098
299.565305996
299.122222185
299.138482141
299.154742098
299.601890898
299.581565952
299.154742098
299.581565952
299.138482141
299.187262011
299.154742098
299.207586956
299.597825909
299.565305996
299.142547131
299.138482141
299.581565952
299.138482141
299.138482141
299.614085865
299.158807087
299.601890898
299.187262011
299.191327
299.175067043
299.175067043
299.614085865
299.187262011
299.187262011
299.154742098
299.618150854
299.581565952
299.63441081
299.191327

Block: 10
======================================
299.565305996
299.565305996
299.138482141
299.138482141
299.154742098
299.138482141
299.158807087
299.154742098
299.191327
299.581565952
299.171002054
299.154742098
299.601890898
299.158807087
299.618150854
299.191327
299.138482141
299.191327
299.154742098
299.175067043
299.154742098
299.618150854
299.158807087
299.175067043
299.187262011
299.597825909
299.171002054
299.581565952
299.565305996
299.618150854
299.175067043
299.175067043
299.191327
299.597825909
299.54904604
299.565305996
299.597825909
299.630345821
299.581565952
299.138482141
299.565305996
299.565305996
299.581565952
299.528721094
299.122222185
299.597825909
299.105962229
299.581565952
299.154742098
299.138482141
299.154742098
299.154742098
299.54498105
299.54904604
299.581565952
299.581565952
299.122222185
299.581565952
299.138482141
299.105962229
299.171002054
299.565305996
299.122222185
299.122222185
299.122222185
299.175067043
299.54904604
299.54904604
299.597825909
299.581565952
299.105962229
299.581565952
299.122222185
299.565305996
299.105962229
299.122222185
299.614085865
299.565305996
299.581565952
299.614085865
299.122222185
299.565305996
299.138482141
299.138482141
299.597825909
299.581565952
299.154742098
299.122222185
299.154742098
299.138482141
299.191327
299.138482141
299.565305996
299.614085865
299.175067043
299.191327
299.175067043
299.565305996
299.122222185
299.154742098
