
Block: 1
======================================
300.622203159
300.622203159
300.622203159
300.605943203
300.179119349
299.731970549
301.06528697
300.605943203
300.195379305
300.158794403
300.605943203
301.069351959
300.638463116
301.06528697
300.605943203
300.605943203
299.715710592
300.622203159
300.605943203
301.06528697
300.622203159
300.61813817
299.731970549
300.601878214
300.638463116
300.638463116
300.162859392
301.06528697
299.719775581
301.081546926
300.622203159
300.179119349
300.179119349
299.719775581
300.162859392
300.622203159
300.162859392
300.195379305
299.736035538
299.719775581
300.179119349
299.719775581
301.097806883
300.622203159
299.752295494
300.179119349
301.06528697
300.601878214
299.719775581
300.195379305

Block: 2
======================================
300.162859392
299.736035538
301.081546926
300.162859392
300.179119349
300.179119349
300.179119349
300.195379305
301.081546926
300.195379305
300.21570425
300.638463116
299.719775581
299.715710592
299.736035538
300.654723072
300.605943203
299.736035538
300.179119349
300.195379305
299.752295494
300.195379305
300.622203159
300.642528105
299.719775581
299.719775581
300.654723072
299.736035538
300.211639261
299.719775581
299.731970549
301.06528697
300.195379305
299.719775581
300.179119349
301.06528697
300.179119349
299.752295494
299.736035538
301.06528697
299.736035538
300.638463116
300.179119349
300.622203159
300.179119349
300.195379305
299.715710592
299.719775581
299.752295494
300.638463116

Block: 3
======================================
300.21570425
300.158794403
299.703515625
300.158794403
300.227899218
299.752295494
300.195379305
299.736035538
300.195379305
299.736035538
299.752295494
299.736035538
300.654723072
300.622203159
300.638463116
300.179119349
300.211639261
300.195379305
300.195379305
300.642528105
299.752295494
300.179119349
300.211639261
299.715710592
301.06528697
301.085611916
300.622203159
299.752295494
299.736035538
300.638463116
299.736035538
299.736035538
300.195379305
300.622203159
299.719775581
299.719775581
300.179119349
299.752295494
300.642528105
300.622203159
300.175054359
300.199444294
299.736035538
300.195379305
299.699450636
300.162859392
300.21570425
299.731970549
300.61813817
300.195379305

Block: 4
======================================
299.752295494
300.675048018
299.736035538
300.175054359
300.622203159
300.622203159
300.622203159
300.179119349
300.179119349
300.179119349
299.752295494
300.195379305
301.081546926
300.605943203
299.752295494
300.622203159
300.179119349
300.638463116
300.638463116
300.12627449
299.736035538
299.736035538
300.195379305
300.179119349
300.162859392
300.179119349
300.622203159
299.719775581
300.638463116
300.179119349
300.638463116
299.719775581
300.158794403
300.179119349
300.179119349
300.162859392
300.638463116
299.731970549
300.622203159
300.179119349
300.162859392
300.622203159
300.622203159
300.179119349
299.736035538
301.06528697
299.715710592
300.195379305
300.195379305
300.179119349

Block: 5
======================================
300.601878214
300.622203159
299.752295494
300.179119349
300.589683247
300.195379305
300.142534447
300.622203159
299.719775581
300.622203159
300.605943203
300.179119349
300.146599436
300.605943203
300.162859392
300.195379305
299.719775581
300.179119349
299.719775581
301.06528697
300.622203159
300.605943203
299.699450636
300.162859392
299.736035538
300.638463116
300.605943203
300.179119349
300.638463116
300.179119349
300.605943203
299.719775581
300.195379305
299.719775581
300.146599436
300.622203159
300.146599436
300.605943203
299.731970549
299.736035538
300.622203159
301.06528697
300.622203159
300.601878214
299.736035538
300.622203159
301.06528697
299.719775581
299.719775581
299.736035538

Block: 6
======================================
299.752295494
300.723827887
300.162859392
300.601878214
299.719775581
301.492110825
299.719775581
299.719775581
299.715710592
300.158794403
300.179119349
301.06528697
300.195379305
299.715710592
300.622203159
301.06528697
300.175054359
299.719775581
299.719775581
300.670983028
300.605943203
300.601878214
300.622203159
299.719775581
300.179119349
300.622203159
300.622203159
299.715710592
300.175054359
300.146599436
300.179119349
299.736035538
300.162859392
300.195379305
299.736035538
300.179119349
300.179119349
300.605943203
300.179119349
300.622203159
300.605943203
299.715710592
300.195379305
300.195379305
299.736035538
299.736035538
300.622203159
299.736035538
300.638463116
299.736035538

Block: 7
======================================
300.654723072
300.195379305
300.569358301
300.622203159
300.146599436
300.605943203
300.179119349
299.719775581
300.142534447
300.622203159
300.162859392
300.605943203
300.162859392
300.622203159
300.162859392
300.622203159
299.736035538
300.622203159
301.06528697
300.605943203
300.622203159
299.752295494
300.179119349
300.179119349
300.12627449
300.605943203
300.179119349
301.06528697
299.719775581
300.179119349
300.162859392
299.719775581
300.175054359
299.715710592
300.622203159
300.162859392
299.703515625
300.605943203
300.162859392
300.195379305
299.719775581
300.158794403
300.146599436
299.703515625
299.703515625
299.715710592
300.179119349
300.162859392
299.699450636
300.175054359

Block: 8
======================================
299.699450636
300.179119349
299.670995712
300.622203159
300.179119349
300.162859392
300.179119349
300.61813817
300.162859392
300.601878214
300.605943203
299.703515625
300.162859392
300.142534447
300.622203159
300.605943203
300.158794403
300.622203159
300.162859392
300.622203159
300.162859392
300.622203159
300.179119349
301.06528697
299.752295494
300.162859392
300.162859392
300.158794403
299.715710592
299.703515625
300.162859392
299.699450636
300.146599436
300.585618258
299.719775581
301.044962025
300.162859392
300.162859392
300.142534447
300.622203159
300.146599436
300.162859392
300.179119349
300.146599436
300.142534447
299.715710592
300.195379305
300.195379305
300.142534447
300.142534447

Block: 9
======================================
300.146599436
300.130339479
299.752295494
300.605943203
300.199444294
300.589683247
300.622203159
300.622203159
300.158794403
300.622203159
300.195379305
300.146599436
300.605943203
299.719775581
300.642528105
300.146599436
300.142534447
300.179119349
300.162859392
299.719775581
301.081546926
300.622203159
300.601878214
300.162859392
300.605943203
301.049027014
300.179119349
299.752295494
299.699450636
300.622203159
299.731970549
300.162859392
300.142534447
300.162859392
300.158794403
300.162859392
300.605943203
299.736035538
300.162859392
300.622203159
300.162859392
300.605943203
300.605943203
300.622203159
300.158794403
300.622203159
300.638463116
300.601878214
300.179119349
299.703515625

Block: 10
======================================
299.699450636
300.622203159
299.731970549
300.638463116
300.179119349
299.715710592
299.719775581
300.605943203
300.162859392
300.638463116
300.142534447
299.715710592
300.605943203
300.605943203
300.146599436
300.622203159
300.146599436
300.622203159
299.736035538
299.715710592
300.622203159
301.081546926
300.158794403
300.622203159
300.622203159
299.703515625
300.179119349
300.162859392
300.179119349
300.162859392
301.06528697
300.142534447
300.179119349
300.179119349
300.142534447
299.719775581
300.162859392
300.158794403
299.719775581
300.179119349
300.622203159
301.06528697
300.605943203
299.736035538
300.622203159
300.622203159
300.162859392
300.195379305
300.601878214
301.049027014
