
Block: 1
======================================
300.179119349
299.719775581
300.195379305
300.195379305
300.195379305
299.736035538
300.211639261
299.736035538
299.736035538
300.195379305
299.719775581
299.719775581
299.752295494
300.195379305
300.195379305
300.195379305
299.752295494
300.179119349
299.752295494
300.195379305
299.719775581
299.719775581
300.195379305
300.179119349
300.211639261
299.752295494
299.752295494
299.731970549
300.622203159
299.752295494
300.195379305
299.736035538
299.752295494
300.179119349
300.195379305
300.179119349
300.638463116
299.752295494
300.179119349
300.175054359
300.195379305
300.179119349
300.642528105
300.195379305
300.658788061
300.162859392
301.081546926
299.76855545
299.752295494
299.736035538
300.195379305
300.195379305
300.638463116
300.622203159
300.179119349
300.162859392
300.638463116
299.719775581
300.435213661
300.179119349
300.179119349
300.195379305
300.179119349
300.179119349
299.719775581
299.719775581
299.719775581
300.162859392
301.081546926
299.752295494
300.195379305
301.101871872
300.622203159
299.736035538
299.752295494

Block: 2
======================================
299.752295494
299.752295494
300.179119349
299.699450636
300.195379305
299.736035538
300.195379305
300.175054359
299.719775581
300.179119349
300.195379305
300.601878214
300.179119349
300.211639261
300.179119349
300.162859392
300.622203159
300.179119349
300.179119349
300.195379305
300.622203159
299.736035538
299.719775581
300.179119349
300.642528105
300.622203159
301.06528697
301.081546926
300.162859392
300.195379305
299.719775581
300.179119349
300.179119349
300.162859392
300.179119349
300.179119349
300.605943203
299.719775581
299.703515625
300.162859392
300.162859392
299.703515625
300.162859392
300.162859392
299.719775581
300.195379305
300.162859392
301.06528697
301.06528697
300.601878214
300.622203159
299.715710592
299.699450636
300.158794403
300.158794403
299.699450636
300.162859392
300.146599436
299.719775581
301.06528697
300.605943203
299.719775581
300.158794403
300.162859392
299.703515625
300.638463116
301.085611916
299.719775581
299.731970549
300.638463116
299.736035538
300.601878214
299.699450636
301.049027014
301.049027014

Block: 3
======================================
301.06528697
300.179119349
300.589683247
301.06528697
300.622203159
300.642528105
300.195379305
300.622203159
300.162859392
299.703515625
301.06528697
299.715710592
300.179119349
301.475850868
299.699450636
300.162859392
300.622203159
300.585618258
299.715710592
299.703515625
300.162859392
299.699450636
299.703515625
300.162859392
300.585618258
300.158794403
301.06528697
300.142534447
300.158794403
299.715710592
300.158794403
299.719775581
300.605943203
301.06528697
299.703515625
299.719775581
300.638463116
299.703515625
301.044962025
301.455525923
299.703515625
300.622203159
300.638463116
299.719775581
299.699450636
299.68319068
300.195379305
300.162859392
300.638463116
301.06528697
299.715710592
299.68319068
299.719775581
301.028702068
300.638463116
299.687255669
300.622203159
301.06528697
300.605943203
301.049027014
300.179119349
300.158794403
299.719775581
299.699450636
299.719775581
300.585618258
300.601878214
300.142534447
300.158794403
299.736035538
301.049027014
300.589683247
300.601878214
300.162859392
300.605943203

Block: 4
======================================
300.179119349
300.585618258
301.049027014
300.179119349
300.622203159
300.605943203
301.081546926
300.162859392
299.703515625
301.06528697
300.179119349
301.06528697
301.069351959
300.605943203
300.61813817
300.162859392
300.162859392
300.605943203
300.146599436
300.57342329
300.179119349
299.715710592
301.06528697
299.719775581
300.589683247
301.049027014
300.162859392
300.585618258
301.06528697
300.601878214
301.475850868
300.162859392
300.601878214
299.719775581
301.049027014
299.736035538
300.601878214
300.605943203
299.715710592
301.06528697
300.605943203
300.622203159
299.736035538
299.715710592
301.06528697
301.475850868
300.162859392
300.622203159
300.162859392
299.715710592
300.605943203
300.158794403
300.622203159
299.699450636
300.162859392
301.049027014
299.719775581
300.179119349
300.162859392
300.162859392
299.719775581
301.049027014
299.699450636
300.158794403
300.162859392
300.605943203
300.146599436
299.719775581
301.06528697
300.162859392
301.081546926
300.179119349
299.736035538
300.179119349
299.703515625

Block: 5
======================================
300.605943203
299.719775581
300.605943203
299.719775581
300.654723072
299.719775581
300.175054359
299.719775581
300.195379305
299.719775581
299.736035538
300.162859392
300.199444294
300.195379305
300.179119349
299.736035538
300.158794403
299.752295494
300.195379305
300.175054359
299.736035538
300.195379305
299.736035538
299.719775581
300.622203159
300.179119349
299.752295494
299.736035538
300.162859392
300.179119349
300.179119349
300.211639261
300.642528105
301.085611916
300.162859392
300.162859392
300.622203159
301.06528697
299.736035538
300.211639261
300.211639261
300.622203159
300.195379305
299.719775581
299.736035538
300.179119349
299.752295494
300.642528105
301.097806883
299.736035538
300.195379305
299.736035538
299.719775581
300.605943203
300.195379305
300.622203159
299.731970549
301.081546926
299.731970549
301.081546926
299.719775581
300.638463116
301.081546926
299.76855545
300.638463116
299.736035538
300.622203159
300.622203159
299.719775581
300.158794403
300.142534447
299.736035538
299.736035538
300.179119349
301.06528697

Block: 6
======================================
300.179119349
299.736035538
299.736035538
300.638463116
300.195379305
300.21570425
299.752295494
300.622203159
301.06528697
300.199444294
300.211639261
299.715710592
300.199444294
301.06528697
300.195379305
300.211639261
301.06528697
299.736035538
300.675048018
300.488058519
299.731970549
300.61813817
301.101871872
300.195379305
299.736035538
301.097806883
300.179119349
300.162859392
299.752295494
300.179119349
300.175054359
300.622203159
299.736035538
301.06528697
300.195379305
300.179119349
300.195379305
301.06528697
300.195379305
299.719775581
299.736035538
300.195379305
299.736035538
300.622203159
299.736035538
299.752295494
300.199444294
300.605943203
300.162859392
300.658788061
300.179119349
300.605943203
300.601878214
299.715710592
299.719775581
299.715710592
300.195379305
300.622203159
300.605943203
300.605943203
300.179119349
300.638463116
300.195379305
300.162859392
300.622203159
299.736035538
299.736035538
301.06528697
301.06528697
300.622203159
299.719775581
300.638463116
300.162859392
300.642528105
300.179119349

Block: 7
======================================
300.146599436
300.589683247
299.736035538
299.752295494
300.179119349
300.158794403
300.179119349
300.162859392
300.622203159
300.162859392
300.142534447
300.605943203
300.622203159
301.06528697
300.158794403
299.719775581
300.142534447
300.622203159
300.622203159
300.638463116
300.179119349
300.142534447
300.638463116
299.687255669
300.642528105
300.569358301
300.638463116
299.719775581
300.162859392
300.179119349
299.719775581
300.162859392
300.605943203
300.622203159
300.622203159
300.158794403
300.622203159
300.146599436
300.622203159
300.162859392
300.12627449
300.195379305
300.179119349
300.601878214
300.605943203
300.142534447
300.605943203
300.162859392
301.508370781
301.049027014
301.049027014
300.179119349
300.179119349
300.601878214
300.589683247
300.179119349
300.179119349
300.158794403
300.162859392
300.179119349
300.179119349
300.179119349
300.179119349
300.158794403
300.162859392
300.179119349
301.492110825
299.719775581
301.06528697
300.605943203
300.195379305
300.622203159
300.162859392
300.142534447
300.158794403

Block: 8
======================================
299.715710592
300.162859392
300.601878214
300.179119349
300.158794403
301.044962025
301.492110825
300.142534447
299.719775581
300.142534447
300.638463116
301.06528697
300.162859392
300.601878214
300.162859392
301.06528697
300.605943203
300.601878214
300.199444294
300.622203159
300.162859392
300.195379305
300.622203159
299.715710592
300.179119349
300.605943203
300.146599436
300.162859392
300.605943203
300.162859392
300.622203159
299.687255669
300.622203159
300.162859392
300.162859392
300.162859392
300.162859392
300.162859392
300.162859392
301.492110825
300.146599436
300.146599436
300.179119349
300.146599436
300.179119349
301.049027014
299.719775581
300.162859392
299.719775581
300.622203159
301.06528697
300.601878214
300.605943203
300.605943203
300.622203159
300.605943203
300.589683247
300.162859392
300.146599436
300.61813817
300.162859392
301.081546926
299.699450636
301.475850868
301.492110825
301.492110825
300.179119349
299.699450636
300.605943203
300.601878214
300.622203159
300.158794403
300.179119349
300.601878214
300.162859392

Block: 9
======================================
300.605943203
300.605943203
299.703515625
300.12627449
300.146599436
300.605943203
300.146599436
300.601878214
300.162859392
300.162859392
300.158794403
300.142534447
300.146599436
300.146599436
300.605943203
300.146599436
300.146599436
300.146599436
299.736035538
300.605943203
300.12627449
300.146599436
300.142534447
300.605943203
300.146599436
299.719775581
301.049027014
299.703515625
299.703515625
301.049027014
300.162859392
300.142534447
299.703515625
300.162859392
300.142534447
300.146599436
300.162859392
300.589683247
300.12627449
300.162859392
300.142534447
300.601878214
299.703515625
300.158794403
301.492110825
300.601878214
300.146599436
301.049027014
300.589683247
300.622203159
300.601878214
300.585618258
300.605943203
300.57342329
301.032767057
301.049027014
300.569358301
300.601878214
300.110014534
300.585618258
300.162859392
300.12627449
300.589683247
300.110014534
299.719775581
300.57342329
300.589683247
300.12627449
300.142534447
301.028702068
300.162859392
300.142534447
299.703515625
299.703515625
300.585618258

Block: 10
======================================
300.57342329
300.158794403
300.12627449
300.605943203
300.146599436
300.142534447
300.12627449
300.12627449
300.142534447
300.130339479
300.12627449
300.158794403
300.130339479
300.130339479
300.162859392
299.68319068
300.162859392
300.146599436
300.158794403
300.130339479
300.146599436
300.142534447
300.589683247
299.699450636
300.146599436
300.142534447
300.569358301
300.585618258
300.622203159
299.715710592
300.605943203
300.142534447
299.703515625
300.12627449
300.130339479
300.142534447
300.585618258
300.12627449
300.146599436
300.158794403
301.032767057
300.158794403
300.146599436
300.130339479
300.57342329
300.589683247
301.032767057
299.699450636
300.130339479
300.638463116
300.110014534
300.12627449
299.703515625
300.589683247
301.06528697
300.130339479
300.142534447
299.68319068
300.589683247
300.589683247
300.162859392
300.605943203
300.585618258
300.622203159
299.68319068
300.12627449
300.601878214
299.68319068
300.605943203
299.68319068
301.06528697
300.162859392
300.158794403
299.736035538
300.146599436
