
Block: 1
======================================
201.032947707
200.589076471
200.075977612
200.12484417
199.632106376
200.092266464
200.108555317
200.075977612
200.092266464
199.632106376
200.075977612
199.632106376
200.523921061
201.016658854
200.552426553
200.096338677
200.108555317
200.092266464
200.092266464
200.092266464
200.096338677
200.108555317
200.568715405
200.092266464
199.632106376
200.092266464
200.947431231
199.648395228
200.075977612
199.615817523
200.075977612
200.996297789
200.075977612
200.108555317
200.128916383
200.096338677
200.059688759
200.092266464
200.092266464
200.572787619
200.080049825
200.075977612
200.075977612
200.059688759
200.552426553
200.092266464
200.092266464
200.092266464
200.075977612
200.092266464
200.092266464
200.059688759
200.092266464
200.059688759
200.075977612
200.5361377
200.092266464
200.963720083
201.423880172
200.075977612
200.092266464
201.000370002
200.980008936
200.980008936
200.947431231
200.075977612
200.055616546
200.963720083
200.092266464
200.11262753
200.096338677
200.552426553
200.980008936
200.556498766
200.967792296
200.092266464
200.963720083
200.967792296
200.947431231
200.963720083
200.092266464
200.075977612
200.075977612
200.963720083
201.081814265
200.980008936
200.967792296
200.092266464
201.000370002
200.980008936
200.980008936
200.980008936
200.996297789
201.000370002
200.075977612
200.092266464
200.075977612
200.096338677
200.984081149
200.075977612

Average distance is : 200.357 cm
Average deviation is : 0.443 cm
Block: 2
======================================
200.947431231
200.980008936
200.055616546
200.963720083
200.092266464
200.043399906
200.947431231
200.075977612
200.092266464
200.487271142
200.963720083
200.092266464
200.080049825
200.075977612
200.059688759
200.11262753
200.059688759
200.075977612
200.540209913
199.632106376
200.11262753
200.092266464
200.108555317
200.11262753
199.632106376
199.61174531
200.092266464
200.963720083
200.503559995
200.984081149
200.080049825
199.632106376
200.11262753
200.963720083
200.075977612
200.075977612
200.963720083
200.059688759
200.556498766
200.080049825
199.632106376
200.5361377
200.963720083
200.947431231
200.075977612
200.092266464
200.984081149
200.963720083
199.61174531
200.980008936
200.503559995
200.947431231
200.980008936
199.615817523
200.096338677
200.503559995
200.984081149
200.519848847
200.059688759
200.503559995
200.503559995
200.487271142
200.963720083
200.503559995
199.632106376
200.984081149
200.519848847
199.59952867
200.963720083
200.943359017
200.947431231
200.980008936
200.963720083
199.59952867
200.503559995
200.947431231
200.503559995
200.519848847
200.043399906
200.503559995
200.980008936
200.503559995
200.483198929
200.503559995
200.027111053
200.039327693
200.075977612
200.059688759
200.092266464
199.59952867
200.519848847
200.503559995
200.487271142
200.039327693
200.043399906
200.059688759
200.519848847
200.039327693
200.483198929
200.519848847

Average distance is : 200.369 cm
Average deviation is : 0.440 cm
Block: 3
======================================
200.039327693
200.027111053
200.027111053
200.043399906
200.059688759
200.043399906
200.487271142
200.059688759
200.519848847
200.075977612
200.02303884
200.059688759
200.519848847
200.483198929
200.503559995
200.043399906
200.055616546
200.503559995
200.010822201
200.027111053
200.059688759
200.043399906
200.503559995
200.503559995
200.043399906
200.043399906
200.055616546
200.059688759
200.931142378
200.043399906
200.027111053
200.02303884
200.503559995
200.043399906
200.043399906
200.027111053
200.931142378
200.006749988
200.059688759
201.411663532
200.519848847
200.039327693
200.02303884
200.02303884
200.006749988
200.027111053
199.888655806
200.027111053
200.931142378
200.914853525
200.027111053
200.027111053
200.043399906
200.02303884
200.043399906
200.483198929
200.487271142
200.02303884
200.02303884
200.499487782
200.02303884
200.043399906
200.039327693
200.02303884
200.039327693
200.027111053
200.027111053
200.519848847
200.450621223
200.470982289
200.947431231
200.039327693
200.027111053
200.043399906
200.043399906
200.487271142
200.043399906
200.02303884
200.914853525
200.027111053
200.043399906
200.519848847
200.010822201
200.914853525
200.914853525
200.043399906
200.947431231
200.059688759
200.914853525
200.027111053
200.027111053
200.503559995
200.039327693
200.931142378
200.931142378
200.043399906
200.043399906
200.027111053
200.519848847
200.027111053

Average distance is : 200.248 cm
Average deviation is : 0.337 cm
Block: 4
======================================
200.043399906
200.947431231
200.02303884
200.02303884
200.043399906
200.006749988
201.354652548
200.487271142
200.02303884
200.487271142
200.039327693
200.503559995
200.043399906
200.043399906
200.027111053
200.027111053
200.043399906
200.589076471
200.059688759
200.059688759
200.043399906
200.027111053
200.043399906
200.059688759
200.039327693
200.02303884
200.043399906
200.043399906
200.027111053
200.043399906
200.043399906
200.043399906
199.990461135
200.027111053
200.043399906
200.02303884
200.931142378
200.894492459
200.931142378
200.931142378
200.027111053
200.027111053
200.006749988
199.990461135
200.02303884
199.546589899
200.02303884
200.027111053
200.010822201
200.487271142
200.039327693
200.454693437
200.487271142
200.910781312
199.990461135
200.02303884
199.579167604
200.010822201
200.006749988
200.02303884
200.914853525
200.483198929
200.039327693
200.006749988
199.990461135
200.043399906
200.027111053
199.562878752
200.02303884
200.894492459
200.027111053
200.02303884
200.039327693
199.562878752
200.027111053
200.027111053
200.010822201
200.487271142
200.027111053
200.450621223
200.02303884
200.010822201
200.006749988
200.039327693
200.487271142
200.910781312
200.027111053
200.894492459
200.02303884
200.466910076
200.910781312
200.931142378
200.027111053
200.878203607
200.006749988
200.02303884
200.519848847
200.010822201
200.027111053
200.931142378

Average distance is : 200.206 cm
Average deviation is : 0.366 cm
Block: 5
======================================
200.503559995
200.450621223
200.466910076
200.006749988
200.027111053
200.006749988
200.006749988
199.990461135
200.039327693
200.02303884
200.027111053
200.043399906
200.043399906
200.010822201
200.027111053
200.010822201
200.027111053
200.02303884
200.010822201
200.043399906
200.006749988
200.006749988
200.02303884
200.043399906
200.039327693
200.450621223
200.914853525
200.027111053
200.487271142
200.027111053
200.931142378
200.434332371
200.010822201
200.010822201
200.894492459
200.910781312
200.910781312
200.894492459
200.02303884
200.006749988
200.006749988
201.370941401
200.910781312
200.006749988
200.006749988
200.02303884
200.910781312
200.914853525
200.010822201
200.02303884
200.006749988
200.043399906
200.02303884
200.010822201
200.027111053
200.006749988
200.059688759
200.02303884
200.483198929
200.487271142
200.027111053
200.503559995
200.02303884
200.927070165
200.027111053
200.947431231
200.043399906
200.910781312
200.039327693
200.02303884
200.059688759
200.027111053
200.487271142
200.010822201
199.579167604
200.027111053
200.027111053
200.043399906
200.02303884
200.02303884
200.059688759
200.043399906
200.931142378
200.914853525
200.931142378
200.910781312
200.043399906
200.519848847
200.02303884
200.059688759
200.043399906
200.894492459
200.914853525
200.450621223
200.931142378
200.466910076
200.931142378
200.043399906
200.075977612
200.02303884

Average distance is : 200.272 cm
Average deviation is : 0.383 cm
Block: 6
======================================
200.450621223
200.894492459
200.02303884
200.947431231
200.039327693
200.039327693
200.898564672
200.027111053
200.894492459
200.910781312
200.006749988
200.043399906
200.499487782
200.043399906
200.043399906
200.006749988
200.963720083
200.027111053
200.931142378
199.990461135
200.02303884
200.466910076
200.043399906
200.02303884
200.499487782
200.043399906
199.595456457
200.027111053
200.503559995
200.027111053
200.059688759
200.075977612
199.579167604
200.487271142
200.059688759
200.075977612
199.583239818
200.519848847
200.519848847
200.910781312
200.043399906
200.947431231
200.927070165
200.914853525
199.579167604
200.02303884
199.615817523
200.470982289
200.483198929
199.59952867
200.450621223
199.583239818
200.503559995
200.914853525
200.931142378
200.02303884
199.562878752
200.006749988
200.931142378
200.450621223
200.894492459
200.894492459
199.546589899
200.894492459
200.450621223
200.434332371
200.454693437
200.454693437
200.010822201
200.931142378
199.974172282
200.438404584
200.006749988
200.434332371
199.990461135
199.974172282
200.434332371
199.974172282
200.006749988
199.990461135
199.95788343
200.006749988
199.994533348
201.375013614
199.990461135
200.450621223
199.990461135
200.894492459
199.990461135
200.027111053
200.010822201
199.974172282
200.878203607
199.95788343
199.990461135
199.95788343
199.990461135
199.974172282
200.006749988
199.990461135

Average distance is : 200.264 cm
Average deviation is : 0.426 cm
Block: 7
======================================
199.990461135
200.898564672
199.530301046
200.829337049
200.401754665
200.418043518
199.990461135
199.990461135
199.497723341
199.530301046
200.878203607
200.401754665
199.937522364
200.401754665
200.841553688
200.401754665
200.385465813
199.921233511
199.937522364
199.974172282
199.941594577
200.401754665
200.3813936
199.941594577
199.925305724
199.95788343
199.953811216
200.3813936
200.385465813
199.921233511
199.937522364
201.269136071
200.3813936
199.937522364
200.385465813
199.95788343
199.925305724
200.401754665
200.401754665
199.95788343
199.925305724
199.95788343
199.941594577
199.937522364
199.953811216
199.95788343
199.941594577
199.974172282
199.953811216
200.401754665
199.941594577
199.937522364
199.974172282
199.941594577
199.941594577
201.309858203
199.941594577
199.941594577
199.941594577
199.937522364
199.921233511
199.937522364
199.941594577
199.95788343
200.845625901
199.941594577
199.95788343
200.401754665
199.95788343
199.941594577
199.904944658
199.921233511
199.937522364
200.861914754
199.941594577
199.95788343
199.921233511
200.385465813
199.974172282
199.95788343
199.941594577
200.3813936
199.921233511
199.941594577
200.401754665
199.953811216
199.937522364
199.921233511
200.401754665
199.941594577
199.95788343
201.252847219
199.937522364
200.813048196
199.937522364
199.921233511
199.974172282
199.95788343
199.941594577
199.941594577

Average distance is : 200.126 cm
Average deviation is : 0.354 cm
Block: 8
======================================
199.937522364
199.953811216
200.418043518
199.937522364
199.921233511
199.937522364
199.937522364
199.921233511
199.941594577
200.829337049
199.921233511
199.921233511
200.397682452
199.95788343
199.925305724
200.813048196
199.925305724
200.397682452
199.921233511
199.937522364
199.974172282
199.941594577
199.904944658
199.937522364
199.95788343
199.941594577
200.401754665
199.953811216
199.941594577
199.937522364
200.418043518
200.401754665
199.974172282
199.921233511
200.397682452
199.95788343
200.397682452
199.941594577
200.385465813
199.925305724
199.904944658
200.365104747
200.385465813
199.530301046
199.95788343
199.95788343
199.925305724
200.401754665
200.413971305
199.925305724
199.937522364
199.921233511
200.3813936
200.385465813
200.385465813
199.925305724
199.925305724
199.941594577
200.401754665
199.95788343
199.95788343
199.941594577
199.925305724
200.401754665
199.95788343
199.941594577
199.95788343
200.312165976
199.921233511
200.808975983
199.937522364
200.829337049
199.921233511
200.813048196
200.825264835
200.845625901
199.477362275
200.813048196
199.925305724
200.825264835
200.385465813
199.941594577
199.941594577
200.829337049
199.477362275
200.829337049
199.925305724
200.829337049
199.941594577
199.937522364
200.845625901
200.808975983
200.79268713
199.904944658
200.348815894
200.365104747
199.95788343
200.36917696
199.925305724
199.937522364

Average distance is : 200.160 cm
Average deviation is : 0.349 cm
Block: 9
======================================
199.953811216
199.888655806
200.79268713
199.921233511
200.365104747
200.348815894
200.348815894
199.925305724
199.904944658
200.365104747
200.3813936
199.974172282
200.365104747
200.3813936
199.909016871
199.921233511
200.845625901
199.888655806
200.36917696
200.829337049
199.481434488
200.813048196
199.937522364
200.808975983
200.796759343
200.365104747
200.365104747
200.348815894
199.925305724
200.3813936
199.925305724
199.925305724
200.365104747
199.904944658
199.904944658
199.888655806
200.365104747
200.365104747
199.925305724
199.925305724
199.884583592
199.904944658
200.385465813
200.365104747
200.348815894
199.921233511
200.808975983
200.829337049
200.3813936
200.845625901
200.348815894
200.348815894
200.829337049
200.385465813
199.921233511
200.3813936
199.95788343
199.95788343
200.352888107
200.365104747
200.3813936
200.813048196
200.365104747
199.888655806
199.921233511
199.921233511
199.921233511
199.904944658
199.925305724
199.95788343
200.348815894
199.904944658
200.3813936
200.385465813
199.888655806
199.904944658
199.921233511
199.925305724
200.348815894
200.808975983
200.813048196
200.845625901
200.36917696
200.808975983
200.365104747
199.95788343
200.861914754
199.904944658
200.385465813
200.845625901
199.925305724
200.829337049
200.825264835
200.808975983
199.941594577
200.825264835
199.95788343
199.941594577
199.941594577
199.941594577

Average distance is : 200.258 cm
Average deviation is : 0.358 cm
Block: 10
======================================
200.861914754
199.921233511
200.88227582
199.546589899
200.397682452
200.385465813
199.95788343
199.953811216
199.974172282
199.974172282
199.941594577
200.861914754
199.937522364
199.941594577
199.937522364
200.385465813
199.974172282
199.953811216
199.95788343
199.925305724
199.953811216
199.921233511
201.289497137
199.95788343
199.937522364
200.418043518
199.925305724
200.808975983
199.514012194
200.829337049
199.974172282
200.845625901
200.3813936
200.845625901
200.829337049
200.385465813
200.825264835
200.397682452
200.829337049
200.861914754
200.36917696
200.841553688
200.385465813
200.845625901
200.401754665
199.937522364
200.845625901
200.365104747
199.925305724
199.921233511
200.401754665
200.418043518
200.845625901
200.365104747
200.365104747
200.825264835
200.829337049
200.825264835
199.941594577
199.95788343
200.825264835
200.845625901
200.401754665
199.941594577
199.925305724
199.95788343
199.941594577
199.953811216
199.937522364
199.937522364
200.845625901
200.401754665
199.941594577
199.937522364
199.95788343
200.434332371
200.829337049
199.937522364
200.418043518
199.95788343
199.95788343
200.829337049
199.95788343
200.829337049
200.075977612
201.289497137
199.953811216
200.829337049
200.808975983
199.937522364
199.953811216
199.904944658
200.3813936
199.921233511
199.904944658
200.418043518
199.937522364
199.937522364
200.365104747
199.937522364

Average distance is : 200.295 cm
Average deviation is : 0.413 cm