
Block: 1
======================================
299.463681269
299.447421312
299.447421312
299.000272512
298.9677526
299.020597458
299.020597458
298.9677526
299.410836411
299.410836411
299.427096367
299.427096367
299.443356323
298.988077545
299.410836411
299.410836411
299.447421312
299.410836411
299.427096367
299.427096367
299.410836411
299.394576454
299.427096367
299.427096367
299.447421312

Block: 2
======================================
299.431161356
299.463681269
299.378316498
299.394576454
299.410836411
299.394576454
298.9677526
299.394576454
299.427096367
299.463681269
299.394576454
299.410836411
299.447421312
299.394576454
299.4149014
298.984012556
299.427096367
298.9677526
299.362056541
298.9677526
298.984012556
299.427096367
299.427096367
299.427096367
299.394576454

Block: 3
======================================
298.984012556
299.4149014
299.410836411
299.410836411
299.378316498
299.410836411
299.427096367
299.378316498
299.378316498
299.394576454
299.410836411
299.427096367
299.362056541
299.394576454
298.931167698
299.378316498
298.935232687
299.378316498
299.410836411
299.394576454
299.378316498
299.394576454
298.951492643
299.410836411
298.951492643

Block: 4
======================================
299.362056541
299.410836411
299.394576454
298.935232687
299.4149014
299.394576454
299.427096367
299.378316498
299.4149014
299.410836411
298.984012556
299.443356323
299.378316498
298.951492643
299.378316498
298.935232687
299.378316498
299.394576454
298.947427654
299.378316498
298.471823931
299.4149014
298.951492643
299.394576454
299.020597458

Block: 5
======================================
298.971817589
299.374251509
299.374251509
299.000272512
299.378316498
299.394576454
299.394576454
299.394576454
298.9677526
298.918972731
298.9677526
299.394576454
298.951492643
299.000272512
299.431161356
299.394576454
299.000272512
299.431161356
299.410836411
299.394576454
299.410836411
298.9677526
299.394576454
298.951492643
298.951492643

Block: 6
======================================
298.951492643
299.000272512
299.357991552
299.374251509
298.9677526
299.463681269
299.394576454
299.394576454
298.9677526
299.410836411
299.394576454
299.410836411
298.9677526
299.410836411
299.374251509
298.951492643
299.394576454
298.971817589
299.394576454
299.374251509
299.431161356
299.378316498
299.427096367
298.9677526
298.9677526

Block: 7
======================================
299.374251509
298.951492643
299.447421312
298.951492643
299.394576454
299.394576454
299.378316498
299.394576454
299.394576454
299.447421312
299.4149014
299.410836411
299.378316498
298.931167698
298.984012556
299.394576454
299.427096367
299.410836411
299.362056541
298.914907742
298.918972731
299.357991552
299.431161356
299.394576454
299.394576454

Block: 8
======================================
299.427096367
299.4149014
298.951492643
299.431161356
299.447421312
299.427096367
299.410836411
298.984012556
299.4149014
299.427096367
299.4149014
299.410836411
299.378316498
299.427096367
299.394576454
298.951492643
298.935232687
299.427096367
299.394576454
299.410836411
298.951492643
299.427096367
299.410836411
298.951492643
299.431161356

Block: 9
======================================
298.931167698
298.931167698
298.984012556
299.427096367
299.4149014
299.374251509
299.394576454
298.931167698
299.447421312
298.951492643
299.394576454
299.378316498
298.951492643
299.410836411
298.988077545
299.394576454
299.410836411
299.410836411
299.394576454
299.362056541
299.431161356
299.390511465
299.020597458
299.410836411
299.374251509

Block: 10
======================================
298.951492643
299.410836411
298.577513647
299.378316498
299.410836411
299.394576454
298.984012556
299.394576454
299.447421312
299.443356323
299.394576454
299.378316498
299.394576454
298.951492643
299.394576454
299.431161356
299.390511465
298.918972731
299.378316498
298.951492643
298.935232687
298.988077545
299.410836411
298.9677526
299.378316498
