
Block: 1
======================================
300.605943203
301.012442112
300.557163334
301.455525923
300.57342329
301.455525923
300.553098345
300.979922199
301.028702068
300.996182156
300.589683247
300.585618258
300.557163334
301.439265966
300.553098345
300.553098345
301.000247145
300.110014534
301.032767057
301.882349777
300.57342329
300.536838388
300.557163334
300.553098345
301.42300601
301.032767057
300.553098345
300.553098345
300.569358301
302.309173632
300.34984889
300.553098345
300.57342329
300.536838388
300.996182156
300.536838388
300.996182156
300.996182156
301.012442112
300.553098345
300.569358301
300.569358301
300.553098345
300.553098345
300.996182156
300.553098345
300.557163334
300.996182156
300.589683247
301.866089821

Block: 2
======================================
300.996182156
300.536838388
300.996182156
300.57342329
300.963662243
301.012442112
301.42300601
300.553098345
300.557163334
301.439265966
301.016507101
301.443330956
301.439265966
300.57342329
300.979922199
300.557163334
301.032767057
300.996182156
300.557163334
300.520578432
301.016507101
301.439265966
301.000247145
300.557163334
300.979922199
300.996182156
301.016507101
300.536838388
300.536838388
301.012442112
300.553098345
300.553098345
300.536838388
300.979922199
301.42300601
301.012442112
300.57342329
300.979922199
301.849829865
300.569358301
300.553098345
300.536838388
301.42300601
301.439265966
300.996182156
301.459590912
301.439265966
300.553098345
300.996182156
300.585618258

Block: 3
======================================
301.439265966
300.996182156
301.012442112
300.536838388
301.898609734
300.553098345
300.983987188
300.536838388
301.016507101
301.439265966
301.012442112
300.553098345
300.520578432
300.553098345
300.996182156
301.439265966
301.443330956
300.553098345
300.569358301
300.553098345
300.996182156
301.016507101
302.329498577
300.553098345
300.569358301
300.553098345
300.569358301
300.585618258
300.979922199
300.996182156
300.553098345
300.553098345
300.536838388
300.569358301
301.443330956
300.569358301
301.459590912
301.016507101
301.459590912
301.016507101
301.016507101
300.57342329
301.032767057
301.443330956
300.979922199
301.012442112
300.553098345
300.979922199
300.979922199
300.585618258

Block: 4
======================================
301.475850868
300.553098345
301.475850868
301.459590912
301.455525923
301.016507101
300.996182156
301.455525923
300.57342329
300.553098345
301.012442112
300.57342329
301.475850868
300.57342329
301.049027014
300.569358301
302.341693544
301.012442112
301.439265966
300.557163334
300.569358301
300.605943203
300.569358301
301.016507101
300.57342329
301.016507101
300.589683247
301.012442112
300.589683247
301.475850868
300.569358301
301.492110825
301.000247145
300.553098345
301.049027014
301.471785879
300.585618258
301.012442112
301.028702068
301.459590912
301.012442112
301.455525923
300.589683247
301.028702068
300.589683247
301.012442112
301.012442112
300.589683247
300.589683247
301.032767057

Block: 5
======================================
300.589683247
301.028702068
300.589683247
300.585618258
301.06528697
300.601878214
300.585618258
301.016507101
301.032767057
301.471785879
300.605943203
300.605943203
300.605943203
300.589683247
302.309173632
301.028702068
300.605943203
300.605943203
300.585618258
301.044962025
302.756322432
300.57342329
301.012442112
300.589683247
300.569358301
300.605943203
301.06528697
300.569358301
300.605943203
300.605943203
301.898609734
300.585618258
300.622203159
301.492110825
301.492110825
300.605943203
300.605943203
300.57342329
301.459590912
300.589683247
300.585618258
300.601878214
300.622203159
301.935194635
302.378278446
301.032767057
301.028702068
301.492110825
300.605943203
301.049027014

Block: 6
======================================
301.016507101
301.508370781
300.585618258
301.492110825
301.016507101
300.605943203
300.605943203
300.605943203
301.492110825
301.049027014
301.028702068
301.012442112
300.589683247
300.605943203
300.589683247
300.146599436
300.585618258
301.049027014
300.142534447
301.049027014
301.012442112
302.752257442
301.012442112
302.752257442
301.475850868
300.589683247
300.622203159
301.016507101
300.589683247
300.585618258
301.016507101
300.605943203
301.471785879
301.028702068
300.57342329
301.898609734
301.475850868
300.589683247
301.028702068
301.016507101
301.028702068
301.475850868
300.601878214
301.032767057
300.589683247
301.475850868
301.032767057
301.028702068
301.886414766
301.032767057

Block: 7
======================================
301.06528697
300.601878214
300.601878214
301.032767057
300.605943203
300.601878214
301.032767057
300.589683247
300.585618258
301.044962025
300.553098345
300.589683247
301.016507101
301.049027014
300.589683247
300.585618258
300.589683247
300.585618258
300.622203159
301.049027014
300.605943203
300.605943203
300.622203159
300.605943203
300.605943203
300.569358301
301.049027014
300.622203159
300.57342329
301.016507101
301.492110825
301.044962025
300.585618258
300.589683247
301.049027014
300.622203159
300.179119349
300.585618258
301.475850868
300.605943203
301.012442112
301.032767057
300.589683247
301.032767057
300.605943203
300.605943203
301.455525923
300.605943203
300.57342329
300.585618258

Block: 8
======================================
300.605943203
301.016507101
300.589683247
300.601878214
300.12627449
301.439265966
300.589683247
301.471785879
300.57342329
300.569358301
301.016507101
301.028702068
300.569358301
301.032767057
301.016507101
301.902674723
301.459590912
300.569358301
300.57342329
301.012442112
300.996182156
301.028702068
301.032767057
301.439265966
300.57342329
301.475850868
300.589683247
300.585618258
300.569358301
301.032767057
301.028702068
300.57342329
301.016507101
300.996182156
301.439265966
300.589683247
301.012442112
302.752257442
300.585618258
300.601878214
301.475850868
300.605943203
301.459590912
300.585618258
301.455525923
301.049027014
301.032767057
301.439265966
301.459590912
301.455525923

Block: 9
======================================
300.585618258
301.012442112
300.553098345
301.455525923
301.000247145
301.000247145
300.569358301
301.032767057
301.016507101
300.569358301
300.57342329
300.553098345
301.459590912
300.57342329
300.996182156
300.585618258
301.012442112
301.459590912
300.57342329
300.996182156
300.553098345
300.569358301
301.455525923
301.882349777
301.016507101
300.553098345
301.032767057
301.455525923
301.882349777
300.57342329
301.455525923
301.471785879
301.028702068
300.569358301
301.049027014
301.028702068
301.028702068
300.569358301
300.569358301
300.589683247
300.553098345
301.866089821
301.459590912
300.569358301
301.028702068
300.557163334
301.475850868
300.553098345
300.776672745
301.012442112

Block: 10
======================================
302.36201849
302.325433588
300.589683247
300.996182156
301.016507101
301.012442112
300.553098345
300.57342329
301.459590912
300.589683247
300.996182156
301.032767057
300.585618258
301.012442112
301.012442112
300.569358301
301.455525923
301.016507101
301.012442112
300.569358301
300.57342329
301.475850868
301.028702068
301.016507101
300.569358301
301.016507101
301.028702068
301.012442112
300.996182156
300.57342329
301.028702068
300.34984889
300.585618258
301.016507101
301.471785879
300.589683247
300.589683247
300.589683247
301.459590912
301.049027014
301.06528697
301.028702068
301.032767057
301.459590912
301.475850868
300.601878214
300.57342329
300.57342329
300.605943203
301.028702068
