
Block: 1
======================================
300.553098345
300.589683247
300.569358301
300.585618258
301.032767057
300.589683247
300.585618258
300.589683247
300.569358301
300.996182156
300.569358301
302.752257442
301.028702068
301.016507101
300.569358301
301.032767057
300.605943203
300.605943203
300.585618258
300.589683247
301.028702068
300.605943203
300.589683247
301.012442112
301.012442112
301.032767057
301.044962025
301.016507101
300.605943203
301.028702068
301.492110825
300.601878214
301.032767057
301.032767057
301.475850868
301.032767057
300.589683247
301.475850868
301.475850868
300.569358301
301.032767057
300.585618258
301.471785879
301.016507101
301.012442112
300.622203159
301.455525923
301.471785879
301.475850868
301.028702068
300.589683247
301.012442112
300.57342329
300.569358301
300.585618258
300.589683247
300.57342329
301.032767057
302.309173632
301.455525923
300.996182156
300.589683247
300.569358301
300.553098345
301.443330956
301.459590912
301.492110825
300.996182156
300.569358301
301.459590912
300.553098345
301.475850868
301.049027014
300.569358301
301.882349777
301.459590912
300.553098345
301.032767057
301.032767057
300.553098345
301.032767057
301.459590912
301.032767057
300.414888716
300.536838388
301.475850868
301.012442112
300.996182156
300.996182156
301.459590912
300.589683247
300.553098345
300.589683247
301.902674723
301.455525923
300.569358301
301.455525923
300.569358301
301.459590912
301.471785879

Average distance is : 300.976 cm
Average deviation is : 0.437 cm
Block: 2
======================================
300.996182156
300.536838388
301.455525923
300.996182156
301.439265966
300.585618258
301.012442112
301.012442112
301.439265966
300.553098345
301.016507101
300.979922199
301.012442112
300.569358301
301.012442112
301.455525923
301.012442112
301.455525923
301.012442112
300.57342329
301.898609734
300.569358301
300.553098345
301.849829865
301.42300601
301.439265966
300.569358301
301.016507101
300.569358301
301.012442112
301.016507101
300.536838388
300.553098345
301.455525923
301.42300601
300.553098345
300.569358301
301.439265966
302.325433588
300.996182156
301.439265966
301.459590912
300.553098345
301.439265966
300.569358301
300.536838388
300.557163334
300.569358301
300.553098345
301.886414766
300.57342329
300.553098345
300.536838388
301.049027014
301.459590912
301.886414766
300.589683247
301.439265966
301.42300601
300.553098345
301.866089821
301.439265966
300.553098345
300.536838388
301.016507101
300.553098345
301.439265966
301.012442112
300.553098345
302.309173632
300.57342329
300.585618258
300.536838388
301.012442112
300.979922199
301.439265966
300.57342329
300.536838388
300.569358301
300.569358301
301.459590912
300.569358301
300.963662243
300.536838388
301.42300601
301.882349777
300.996182156
300.520578432
300.553098345
301.42300601
301.455525923
301.000247145
301.882349777
300.979922199
300.569358301
300.520578432
300.536838388
300.536838388
300.979922199
301.406746054

Average distance is : 301.004 cm
Average deviation is : 0.472 cm
Block: 3
======================================
300.996182156
301.427070999
300.979922199
300.536838388
300.553098345
301.439265966
300.553098345
301.42300601
300.996182156
300.963662243
301.42300601
300.520578432
301.455525923
301.459590912
300.979922199
302.71973753
300.996182156
300.569358301
300.57342329
300.553098345
300.536838388
300.536838388
300.553098345
300.963662243
300.569358301
300.536838388
300.979922199
302.309173632
300.996182156
300.996182156
300.553098345
301.866089821
300.569358301
301.459590912
300.553098345
301.439265966
300.553098345
300.553098345
300.553098345
301.012442112
300.553098345
300.996182156
301.012442112
300.979922199
300.996182156
300.569358301
301.833569908
301.439265966
300.536838388
300.979922199
301.439265966
300.536838388
300.553098345
300.569358301
300.979922199
300.979922199
301.049027014
300.536838388
301.849829865
300.557163334
300.996182156
300.536838388
300.569358301
300.57342329
300.553098345
301.866089821
300.569358301
301.42300601
300.589683247
300.979922199
300.536838388
300.536838388
301.439265966
300.57342329
301.866089821
300.553098345
300.553098345
301.849829865
301.42300601
300.979922199
300.553098345
301.459590912
300.536838388
300.553098345
301.012442112
300.516513443
300.536838388
300.57342329
301.439265966
301.882349777
301.866089821
300.996182156
300.996182156
300.979922199
301.439265966
301.866089821
301.000247145
301.42300601
300.569358301
301.849829865

Average distance is : 300.992 cm
Average deviation is : 0.494 cm
Block: 4
======================================
300.979922199
300.996182156
300.569358301
300.553098345
300.996182156
300.979922199
300.553098345
300.557163334
301.439265966
300.979922199
301.439265966
301.016507101
301.439265966
301.455525923
300.569358301
300.996182156
301.443330956
300.979922199
301.439265966
300.553098345
301.443330956
300.996182156
300.516513443
300.553098345
300.569358301
300.569358301
300.536838388
300.536838388
301.443330956
300.996182156
301.000247145
300.979922199
300.947402287
301.866089821
300.601878214
301.849829865
300.569358301
302.325433588
300.569358301
301.012442112
300.589683247
300.996182156
300.553098345
301.455525923
302.345758533
301.455525923
300.553098345
300.57342329
300.979922199
301.849829865
300.57342329
301.000247145
300.979922199
301.012442112
300.553098345
300.996182156
300.996182156
300.979922199
300.996182156
300.553098345
300.996182156
300.57342329
301.032767057
300.979922199
301.439265966
300.57342329
300.589683247
300.553098345
300.57342329
300.557163334
301.443330956
300.569358301
300.553098345
300.996182156
300.557163334
300.569358301
300.536838388
300.557163334
300.996182156
300.553098345
300.536838388
301.439265966
300.557163334
300.996182156
300.996182156
300.553098345
300.996182156
300.57342329
300.996182156
300.569358301
300.585618258
301.016507101
300.996182156
301.459590912
300.569358301
300.553098345
301.439265966
300.589683247
300.536838388
301.475850868

Average distance is : 300.924 cm
Average deviation is : 0.415 cm
Block: 5
======================================
300.57342329
300.557163334
300.516513443
301.012442112
300.996182156
300.553098345
300.553098345
301.439265966
300.536838388
300.959597254
300.996182156
300.557163334
301.42300601
301.459590912
300.520578432
301.42300601
300.557163334
300.520578432
300.553098345
300.979922199
300.57342329
300.553098345
302.313238621
301.000247145
301.42300601
300.536838388
300.520578432
301.42300601
300.557163334
300.553098345
301.012442112
300.520578432
301.42300601
301.016507101
300.979922199
301.427070999
300.553098345
300.996182156
301.42300601
300.553098345
300.996182156
300.553098345
300.983987188
300.979922199
300.536838388
300.536838388
300.979922199
300.536838388
300.979922199
302.309173632
301.406746054
300.979922199
300.963662243
301.42300601
300.979922199
300.536838388
300.516513443
300.996182156
300.536838388
300.520578432
300.536838388
300.520578432
300.536838388
300.979922199
300.536838388
300.996182156
300.553098345
302.27258873
300.947402287
300.520578432
301.42300601
301.406746054
300.979922199
300.963662243
300.520578432
300.553098345
301.42300601
300.553098345
300.536838388
300.504318476
301.42300601
301.833569908
300.947402287
301.406746054
300.536838388
300.553098345
300.553098345
300.963662243
300.996182156
300.520578432
300.536838388
300.553098345
300.996182156
301.443330956
300.520578432
300.520578432
301.012442112
300.979922199
301.886414766
300.979922199

Average distance is : 300.907 cm
Average deviation is : 0.435 cm
Block: 6
======================================
302.276653719
300.959597254
301.42300601
301.406746054
301.443330956
300.996182156
300.963662243
300.536838388
300.569358301
301.439265966
301.012442112
301.443330956
300.57342329
301.455525923
301.016507101
300.57342329
300.557163334
300.996182156
300.569358301
300.996182156
301.000247145
301.000247145
301.000247145
300.536838388
300.979922199
301.012442112
300.553098345
300.557163334
301.028702068
301.439265966
301.000247145
300.536838388
300.996182156
301.42300601
301.443330956
300.996182156
300.553098345
301.016507101
301.016507101
300.585618258
300.996182156
301.443330956
300.979922199
300.553098345
301.439265966
300.569358301
300.553098345
300.996182156
300.57342329
300.553098345
300.57342329
301.459590912
301.032767057
300.57342329
302.329498577
300.532773399
300.57342329
301.012442112
301.459590912
301.012442112
301.012442112
301.455525923
300.569358301
301.012442112
300.553098345
300.553098345
300.569358301
301.016507101
300.57342329
301.866089821
301.012442112
301.866089821
300.585618258
301.000247145
301.455525923
301.016507101
300.553098345
302.309173632
300.569358301
300.516513443
300.996182156
300.553098345
300.996182156
301.016507101
301.439265966
300.585618258
300.553098345
300.553098345
301.000247145
300.996182156
300.569358301
300.996182156
300.553098345
300.589683247
301.439265966
300.553098345
300.553098345
300.569358301
300.585618258
301.012442112

Average distance is : 300.953 cm
Average deviation is : 0.422 cm
Block: 7
======================================
301.475850868
300.605943203
300.553098345
300.553098345
300.585618258
301.459590912
300.569358301
300.996182156
301.032767057
301.882349777
300.569358301
301.459590912
300.569358301
300.57342329
301.455525923
300.553098345
300.589683247
301.016507101
301.439265966
300.569358301
300.569358301
301.032767057
301.032767057
300.57342329
301.032767057
300.146599436
301.012442112
300.585618258
300.589683247
300.996182156
301.016507101
300.996182156
301.016507101
300.569358301
300.569358301
301.012442112
300.589683247
301.012442112
300.569358301
300.996182156
300.996182156
300.569358301
301.012442112
300.569358301
300.589683247
301.028702068
300.114079523
300.146599436
300.12627449
300.569358301
301.012442112
300.110014534
301.012442112
301.000247145
301.882349777
301.439265966
300.569358301
300.57342329
300.553098345
300.553098345
300.557163334
300.569358301
301.439265966
300.57342329
300.536838388
301.016507101
299.939284992
300.536838388
301.016507101
301.032767057
300.589683247
300.557163334
300.57342329
301.028702068
300.553098345
300.553098345
301.459590912
300.557163334
300.979922199
300.776672745
300.569358301
300.553098345
300.557163334
301.032767057
300.589683247
301.459590912
300.589683247
300.569358301
301.012442112
301.012442112
300.979922199
301.849829865
300.996182156
300.553098345
301.866089821
301.455525923
300.569358301
301.439265966
300.557163334
301.000247145

Average distance is : 300.829 cm
Average deviation is : 0.403 cm
Block: 8
======================================
300.569358301
300.589683247
300.553098345
300.996182156
300.520578432
301.443330956
300.553098345
300.996182156
300.553098345
300.996182156
301.459590912
300.536838388
300.536838388
300.979922199
300.520578432
300.979922199
300.536838388
300.553098345
301.42300601
300.979922199
301.866089821
301.439265966
301.000247145
301.000247145
300.520578432
300.979922199
300.553098345
300.553098345
300.536838388
300.569358301
301.886414766
300.553098345
300.536838388
301.459590912
300.553098345
300.569358301
300.536838388
300.520578432
300.979922199
300.536838388
301.000247145
301.42300601
301.87015481
300.553098345
300.536838388
300.553098345
300.979922199
300.520578432
300.536838388
300.569358301
300.57342329
300.520578432
300.569358301
300.996182156
300.553098345
300.553098345
300.536838388
301.866089821
300.553098345
300.553098345
300.553098345
300.553098345
301.439265966
301.000247145
300.57342329
300.12627449
301.866089821
300.557163334
300.589683247
301.032767057
301.471785879
300.57342329
300.57342329
302.309173632
300.585618258
301.459590912
300.57342329
301.032767057
300.57342329
300.57342329
300.553098345
300.569358301
301.028702068
300.569358301
301.000247145
300.996182156
300.57342329
301.866089821
300.589683247
301.012442112
301.028702068
301.016507101
301.471785879
300.57342329
300.536838388
301.032767057
301.455525923
300.553098345
300.557163334
301.016507101

Average distance is : 300.853 cm
Average deviation is : 0.431 cm
Block: 9
======================================
300.585618258
301.049027014
300.622203159
300.605943203
301.012442112
300.601878214
300.589683247
300.553098345
300.585618258
300.589683247
300.589683247
300.589683247
301.455525923
300.569358301
301.475850868
301.032767057
301.471785879
301.032767057
300.589683247
301.012442112
300.589683247
300.569358301
301.101871872
300.605943203
301.475850868
301.459590912
300.57342329
301.012442112
300.57342329
300.589683247
300.589683247
300.589683247
300.589683247
301.882349777
300.585618258
300.605943203
301.032767057
301.028702068
302.325433588
300.569358301
300.601878214
300.57342329
301.028702068
300.585618258
300.589683247
301.475850868
301.012442112
301.016507101
300.589683247
301.028702068
301.032767057
301.902674723
301.866089821
300.589683247
300.589683247
300.585618258
300.996182156
300.589683247
301.032767057
300.585618258
300.996182156
301.032767057
301.028702068
300.557163334
301.012442112
301.492110825
300.585618258
300.589683247
301.032767057
301.012442112
300.57342329
300.553098345
301.475850868
301.488045835
300.57342329
300.569358301
301.902674723
300.57342329
301.032767057
301.016507101
301.016507101
300.585618258
300.57342329
301.012442112
301.000247145
301.459590912
300.553098345
300.585618258
301.42300601
302.329498577
301.016507101
300.57342329
300.996182156
300.589683247
301.455525923
300.589683247
301.000247145
300.996182156
301.455525923
301.882349777

Average distance is : 300.934 cm
Average deviation is : 0.431 cm
Block: 10
======================================
300.536838388
301.032767057
300.553098345
301.87015481
300.536838388
301.016507101
300.605943203
300.996182156
301.439265966
300.569358301
301.455525923
301.012442112
300.569358301
300.557163334
300.996182156
301.475850868
300.536838388
300.569358301
300.57342329
300.57342329
301.049027014
301.866089821
301.439265966
300.57342329
300.569358301
300.585618258
300.569358301
301.016507101
300.605943203
300.569358301
300.61813817
301.012442112
300.589683247
300.996182156
301.000247145
300.569358301
300.569358301
301.016507101
301.012442112
300.589683247
301.012442112
300.569358301
300.996182156
300.569358301
300.589683247
301.455525923
301.016507101
301.459590912
301.866089821
301.455525923
301.898609734
300.57342329
300.857972527
300.569358301
301.012442112
300.589683247
301.032767057
300.569358301
300.569358301
301.475850868
301.475850868
301.012442112
300.585618258
300.589683247
301.012442112
301.049027014
300.589683247
301.459590912
300.996182156
300.57342329
301.032767057
301.443330956
301.902674723
300.553098345
300.569358301
301.902674723
300.569358301
300.57342329
300.57342329
301.032767057
301.032767057
301.012442112
301.032767057
301.028702068
301.455525923
301.000247145
300.622203159
300.569358301
301.032767057
300.589683247
300.605943203
301.012442112
300.589683247
301.012442112
301.459590912
301.032767057
301.028702068
302.309173632
301.032767057
300.585618258

Average distance is : 300.940 cm
Average deviation is : 0.413 cm