
Block: 1
======================================
401.028294253
401.485189056
401.012120986
401.889520741
401.485189056
401.452842522
400.567356133
400.603745985
401.044467521
401.028294253
401.485189056
400.603745985
401.485189056
401.448799205
401.044467521
400.603745985
402.35045886
402.775007129
401.028294253
401.060640788
400.603745985
401.044467521
401.028294253
401.485189056
401.028294253

Average distance is : 401.227 cm
Average deviation is : 0.536 cm
Block: 2
======================================
401.028294253
402.314069009
401.024250937
400.991904402
401.889520741
401.432625937
401.448799205
401.861217523
401.873347473
401.028294253
401.452842522
402.334285593
401.448799205
402.318112326
401.436669254
401.857174206
401.028294253
400.991904402
401.432625937
401.448799205
401.861217523
400.995947719
401.857174206
401.432625937
401.024250937

Average distance is : 401.513 cm
Average deviation is : 0.445 cm
Block: 3
======================================
401.485189056
400.619919252
401.044467521
401.485189056
401.09703064
401.505405641
401.521578908
400.619919252
401.505405641
400.619919252
401.469015789
400.619919252
401.469015789
401.521578908
400.603745985
400.652265787
401.485189056
401.501362324
401.044467521
401.505405641
402.758833861
401.485189056
401.485189056
401.044467521
401.060640788

Average distance is : 401.248 cm
Average deviation is : 0.483 cm
Block: 4
======================================
401.958257127
400.652265787
400.652265787
401.942083859
401.113203907
400.688655639
401.57009871
401.076814055
400.672482371
401.125333858
400.26410737
401.990603662
401.129377174
400.26410737
401.129377174
400.247934103
401.113203907
400.672482371
400.668439054
401.125333858
400.672482371
400.231760836
400.652265787
400.672482371
400.684612322

Average distance is : 400.919 cm
Average deviation is : 0.516 cm
Block: 5
======================================
400.227717519
400.652265787
401.060640788
401.501362324
401.10916059
401.946127176
400.656309104
400.656309104
401.09703064
400.652265787
401.076814055
401.942083859
401.080857372
401.060640788
401.517535591
401.076814055
401.942083859
400.63609252
400.619919252
400.63609252
400.619919252
402.366632128
401.060640788
402.787137079
401.076814055

Average distance is : 401.162 cm
Average deviation is : 0.622 cm
Block: 6
======================================
400.652265787
401.485189056
400.619919252
401.485189056
402.318112326
400.63609252
401.044467521
400.63609252
401.080857372
401.060640788
401.060640788
401.044467521
400.619919252
401.044467521
400.63609252
401.893564057
400.603745985
401.064684105
401.060640788
401.485189056
401.060640788
401.044467521
401.469015789
400.599702668
400.63609252

Average distance is : 401.054 cm
Average deviation is : 0.442 cm
Block: 7
======================================
401.893564057
401.909737325
400.603745985
401.044467521
401.028294253
401.889520741
401.48114574
400.603745985
401.893564057
401.064684105
402.330242276
400.619919252
401.044467521
401.893564057
401.024250937
400.587572718
401.448799205
401.028294253
400.619919252
401.008077669
401.008077669
400.603745985
401.044467521
400.603745985
401.469015789

Average distance is : 401.190 cm
Average deviation is : 0.526 cm
Block: 8
======================================
401.044467521
401.485189056
401.452842522
400.991904402
401.012120986
401.909737325
402.742660594
401.485189056
401.889520741
400.587572718
401.024250937
400.587572718
401.028294253
400.567356133
401.028294253
401.028294253
400.603745985
401.044467521
401.87739079
401.464972472
400.583529401
401.044467521
400.603745985
401.485189056
401.028294253

Average distance is : 401.184 cm
Average deviation is : 0.530 cm
Block: 9
======================================
400.413710093
401.432625937
400.57139945
400.603745985
401.028294253
401.044467521
401.012120986
401.028294253
400.991904402
400.57139945
401.012120986
400.583529401
401.008077669
400.587572718
401.452842522
402.72244401
401.09703064
400.567356133
401.012120986
400.587572718
400.587572718
401.469015789
400.991904402
401.432625937
402.318112326

Average distance is : 401.045 cm
Average deviation is : 0.548 cm
Block: 10
======================================
401.861217523
401.41645267
401.857174206
401.87739079
401.873347473
401.87739079
401.008077669
400.991904402
400.975731134
401.873347473
403.163165545
403.179338813
402.297895741
401.448799205
401.008077669
400.991904402
401.436669254
401.008077669
400.567356133
401.008077669
400.583529401
400.567356133
401.024250937
400.991904402
400.603745985

Average distance is : 401.420 cm
Average deviation is : 0.722 cm