
Block: 1
======================================
49.250878644
49.213838625
48.8352073193
49.263225317
48.8352073193
49.213838625
49.2673408747
49.300265336
49.2303008556
48.8722473383
48.8681317806
49.300265336
48.8681317806
48.888709569
48.7981673002
48.8516695499
48.8516695499
48.8516695499
48.8516695499
48.8845940113
48.8310917616
48.8475539923
48.8516695499
48.8352073193
49.1932608366
49.300265336
48.7817050695
48.8146295309
48.8352073193
49.213838625
48.8516695499
49.1973763943
48.8516695499
48.8352073193
48.8516695499
48.8516695499
49.2838031054
49.2303008556
49.2796875477
48.8516695499
48.8681317806
48.7817050695
49.250878644
48.8516695499
49.213838625
48.8681317806
49.1932608366
48.8310917616
48.8352073193
49.2303008556

Block: 2
======================================
49.213838625
48.8681317806
48.8352073193
48.8681317806
49.2303008556
49.263225317
49.2796875477
49.300265336
49.1973763943
49.2673408747
48.8681317806
48.8516695499
48.8681317806
49.2673408747
49.1932608366
48.8845940113
48.8475539923
49.2303008556
48.8681317806
48.8516695499
48.8516695499
49.2796875477
48.888709569
48.8516695499
48.8681317806
48.8352073193
48.888709569
48.8845940113
48.8516695499
48.8516695499
49.213838625
48.8352073193
48.8516695499
48.8516695499
48.8681317806
48.8352073193
48.8352073193
48.8681317806
48.8352073193
48.8516695499
48.8187450886
48.8845940113
49.300265336
48.8516695499
48.8681317806
49.2838031054
48.8310917616
48.8681317806
48.8352073193
49.2467630863

Block: 3
======================================
49.2303008556
49.2303008556
48.8352073193
48.8681317806
49.250878644
48.8187450886
48.8845940113
48.8681317806
49.2673408747
49.300265336
48.8516695499
49.300265336
48.8352073193
48.8516695499
49.213838625
48.8475539923
49.2673408747
48.8352073193
48.8352073193
48.8516695499
48.8516695499
48.8681317806
48.9051717997
48.8310917616
48.8475539923
48.8516695499
48.8475539923
48.8310917616
48.8187450886
48.8352073193
48.8681317806
48.8352073193
48.8516695499
48.8352073193
48.8681317806
48.8310917616
49.2467630863
48.8681317806
48.8475539923
48.8516695499
48.8146295309
48.8310917616
48.8352073193
48.8516695499
49.2344164133
48.8310917616
48.8310917616
49.2673408747
48.8146295309
48.8722473383

Block: 4
======================================
48.8516695499
48.8310917616
48.8681317806
48.8475539923
48.8845940113
48.8516695499
48.8516695499
49.2467630863
48.8352073193
49.2467630863
48.8187450886
48.8352073193
48.8475539923
48.8516695499
48.8516695499
49.2303008556
48.8516695499
48.8516695499
48.8516695499
48.8516695499
48.8516695499
48.8187450886
48.8845940113
48.8516695499
49.213838625
48.8516695499
49.2838031054
49.1973763943
48.8516695499
48.8352073193
48.8352073193
48.8475539923
48.8475539923
48.8310917616
48.8352073193
48.8681317806
48.8681317806
48.8516695499
49.213838625
48.8722473383
48.8516695499
48.8352073193
48.8146295309
48.8516695499
48.8681317806
48.8516695499
48.8352073193
49.263225317
49.2838031054
48.8310917616

Block: 5
======================================
48.8516695499
49.2467630863
49.2303008556
48.8475539923
48.901056242
49.250878644
48.8516695499
49.213838625
48.8681317806
49.263225317
48.8475539923
48.8146295309
48.8475539923
48.8146295309
49.213838625
48.8352073193
48.8022828579
48.7858206272
48.8681317806
49.2467630863
48.8022828579
48.8516695499
48.8516695499
49.2467630863
48.8681317806
48.8722473383
48.8681317806
48.888709569
49.1809141636
48.8681317806
48.8352073193
48.8516695499
49.2673408747
49.2303008556
48.7652428389
48.8146295309
49.213838625
48.8516695499
49.213838625
48.8845940113
48.8352073193
48.8022828579
49.2838031054
48.8310917616
48.8146295309
48.8352073193
48.8681317806
48.8516695499
49.213838625
48.8310917616

Block: 6
======================================
48.8146295309
48.8187450886
48.7652428389
48.8187450886
48.7817050695
48.7817050695
48.7817050695
48.8187450886
48.8516695499
48.7817050695
48.7981673002
48.7652428389
48.7981673002
48.7981673002
48.8516695499
48.7611272812
48.7981673002
49.213838625
49.263225317
48.8516695499
48.7858206272
48.8146295309
48.8146295309
48.8146295309
48.7817050695
48.8681317806
49.1973763943
48.8146295309
48.8187450886
48.8022828579
48.8146295309
48.7652428389
48.8022828579
49.213838625
49.213838625
48.7817050695
48.8146295309
48.7981673002
48.7652428389
49.1973763943
49.2303008556
48.8352073193
49.213838625
49.1973763943
48.8187450886
48.8022828579
48.8187450886
49.1973763943
49.1973763943
49.2303008556

Block: 7
======================================
49.1809141636
49.263225317
49.2467630863
49.2838031054
49.1932608366
49.2344164133
49.213838625
48.7981673002
48.7981673002
48.8022828579
49.2303008556
48.8187450886
49.2303008556
49.1973763943
48.8022828579
49.213838625
48.8022828579
49.213838625
49.213838625
49.213838625
48.8146295309
49.213838625
49.2344164133
48.8516695499
48.7817050695
48.7981673002
48.7817050695
48.8352073193
48.8146295309
48.7817050695
48.8352073193
48.7817050695
49.2303008556
48.7817050695
48.7652428389
48.7858206272
48.8022828579
48.7981673002
48.7858206272
48.7817050695
49.1973763943
48.8022828579
48.7981673002
48.7817050695
48.8022828579
48.7817050695
48.8146295309
48.7652428389
48.8187450886
48.8022828579

Block: 8
======================================
48.7981673002
48.7652428389
48.7981673002
48.7652428389
48.8022828579
48.7858206272
48.8146295309
48.7817050695
48.8187450886
48.7611272812
48.8146295309
48.7981673002
49.1973763943
48.7817050695
48.8022828579
48.7817050695
48.8187450886
48.7652428389
48.7981673002
48.8187450886
48.7817050695
48.7487806082
48.8310917616
48.8352073193
48.7981673002
48.8187450886
48.7981673002
48.8022828579
48.7652428389
48.8022828579
48.8146295309
48.7817050695
48.7858206272
48.8146295309
48.7611272812
48.7981673002
48.8845940113
48.7652428389
48.8352073193
48.7817050695
48.7817050695
48.7981673002
48.7981673002
48.8352073193
48.7981673002
48.8187450886
48.7652428389
48.7981673002
48.7981673002
48.7858206272

Block: 9
======================================
48.8310917616
48.7652428389
48.7981673002
48.7652428389
48.8146295309
48.7817050695
48.7817050695
48.7981673002
48.7981673002
48.7652428389
48.7611272812
48.938096261
48.7858206272
48.7981673002
48.8022828579
48.8187450886
48.7817050695
48.7817050695
48.8187450886
48.8352073193
48.8146295309
48.7817050695
48.7981673002
48.7981673002
48.7981673002
48.7981673002
48.7981673002
48.7858206272
48.7487806082
48.7652428389
48.7981673002
48.7817050695
48.7817050695
48.7817050695
48.7611272812
48.7652428389
48.7817050695
48.8146295309
48.7817050695
48.7817050695
48.7981673002
48.8022828579
48.7981673002
48.7981673002
48.7981673002
48.8187450886
48.8146295309
48.8022828579
48.7981673002
48.7981673002

Block: 10
======================================
48.8146295309
48.7652428389
48.8310917616
48.7817050695
48.7817050695
48.7981673002
48.7487806082
48.7981673002
48.7446650505
48.7817050695
48.7817050695
48.8022828579
48.7652428389
48.8187450886
48.7817050695
48.8146295309
48.7652428389
48.7817050695
48.7817050695
48.7652428389
48.8022828579
48.7817050695
48.7817050695
48.7858206272
48.7817050695
48.7446650505
48.7817050695
48.7652428389
48.7652428389
48.7817050695
48.7817050695
48.7817050695
48.7652428389
48.7817050695
48.8146295309
48.7652428389
48.7981673002
48.8187450886
48.7981673002
48.7981673002
48.7981673002
48.8146295309
48.7817050695
48.7817050695
48.8187450886
48.7981673002
48.8146295309
48.7817050695
48.7981673002
48.7981673002
