
Block: 1
======================================
49.2303008556
48.8146295309
49.213838625
48.8352073193
48.8516695499
48.7981673002
48.8475539923
48.888709569
48.888709569
48.8516695499
48.8516695499
48.8516695499
48.8681317806
48.8681317806
48.8681317806
48.8681317806
48.8681317806
48.8681317806
48.8352073193
48.8681317806
49.2796875477
48.8681317806
48.8516695499
48.8516695499
48.8681317806
49.300265336
48.8681317806
49.2961497784
49.2838031054
49.2344164133
49.2838031054
48.8681317806
48.8681317806
48.8516695499
48.8681317806
48.8681317806
48.8681317806
48.8516695499
48.8681317806
48.8681317806
48.8681317806
48.8516695499
48.8681317806
48.8516695499
48.8681317806
48.8681317806
48.8352073193
48.8681317806
48.8516695499
48.8475539923
48.8352073193
48.8516695499
48.8681317806
48.8516695499
48.8681317806
48.8475539923
48.8681317806
48.8516695499
48.8681317806
48.8681317806
48.8352073193
48.8516695499
48.8681317806
48.8516695499
48.8516695499
48.8352073193
49.2673408747
48.8352073193
48.8352073193
48.8352073193
48.8516695499
48.8722473383
48.8516695499
48.8516695499
48.8681317806
48.8516695499
48.8516695499
48.8475539923
48.8681317806
48.8516695499
48.8516695499
48.8516695499
48.8516695499
48.8681317806
48.888709569
48.8516695499
48.8516695499
48.8681317806
48.8845940113
48.8352073193
48.8681317806
48.8681317806
48.8845940113
48.8516695499
48.8722473383
48.8352073193
49.2796875477
49.2838031054
49.2838031054
49.263225317

Block: 2
======================================
48.8681317806
48.8516695499
48.8681317806
48.8516695499
48.8352073193
48.8352073193
48.8516695499
48.8516695499
48.8516695499
48.8475539923
49.2838031054
48.8845940113
48.8516695499
48.8681317806
48.8516695499
48.8516695499
48.8516695499
48.8681317806
48.8475539923
49.213838625
49.2303008556
49.213838625
48.8681317806
48.8681317806
48.8516695499
49.2838031054
49.300265336
48.8516695499
48.8681317806
48.8516695499
48.8516695499
48.8516695499
48.8310917616
48.8681317806
48.8681317806
48.8516695499
48.8352073193
48.8516695499
48.8516695499
48.8352073193
41.1020744562
48.8475539923
49.213838625
48.8516695499
48.8516695499
48.8475539923
48.8516695499
48.8681317806
48.8475539923
48.8845940113
48.8681317806
48.8681317806
48.8516695499
48.8681317806
48.8516695499
48.8681317806
48.8681317806
48.8516695499
48.8516695499
48.8681317806
48.8516695499
48.8681317806
48.8681317806
48.8516695499
48.8681317806
48.8352073193
48.8516695499
48.8352073193
48.8681317806
48.8681317806
47.4853044033
48.8352073193
48.8516695499
48.8516695499
48.8516695499
48.8681317806
48.8681317806
48.8516695499
48.8516695499
48.8516695499
48.8516695499
48.8516695499
48.8516695499
48.8681317806
48.8516695499
48.8681317806
48.8516695499
48.8681317806
48.8681317806
48.8681317806
48.8681317806
49.2838031054
48.8681317806
48.8722473383
48.8516695499
48.8516695499
48.8475539923
48.8516695499
48.8516695499
48.8516695499

Block: 3
======================================
48.8681317806
48.4730382442
48.8516695499
48.8681317806
48.888709569
48.8516695499
48.888709569
48.8845940113
48.8475539923
48.8352073193
48.8516695499
48.8516695499
48.8516695499
48.8681317806
48.8516695499
48.8516695499
48.8681317806
48.8516695499
48.8352073193
48.8681317806
48.8516695499
48.8681317806
48.8352073193
48.8681317806
48.8681317806
48.8352073193
48.8352073193
48.8516695499
48.8516695499
48.8516695499
48.8516695499
48.8475539923
48.8681317806
48.8516695499
48.8352073193
48.8516695499
48.8516695499
48.8516695499
48.8516695499
48.8681317806
48.8681317806
48.8516695499
48.8516695499
48.8516695499
48.8516695499
48.8516695499
48.8310917616
48.8516695499
48.8516695499
48.8516695499
48.8516695499
48.8516695499
48.8681317806
48.8475539923
48.8516695499
48.8516695499
48.8352073193
48.8516695499
48.8681317806
48.8681317806
48.8845940113
48.8516695499
48.8516695499
48.8516695499
48.8516695499
48.8352073193
48.8681317806
48.8681317806
48.8516695499
48.8681317806
48.8516695499
48.8681317806
48.8516695499
48.8681317806
48.7817050695
48.8681317806
48.8475539923
48.8352073193
48.8681317806
48.8187450886
48.7817050695
48.8516695499
48.8310917616
48.8516695499
48.8681317806
48.8516695499
48.8352073193
48.8516695499
48.8681317806
49.263225317
48.8516695499
48.8681317806
48.8516695499
48.8146295309
48.8516695499
48.8310917616
49.2838031054
48.8516695499
48.8516695499
48.8681317806

Block: 4
======================================
48.8146295309
48.8475539923
48.8681317806
49.2796875477
48.8516695499
48.8475539923
48.8146295309
48.4853849173
48.8681317806
48.8187450886
48.8681317806
48.8681317806
48.8516695499
48.8352073193
48.8516695499
48.8681317806
48.8681317806
48.8516695499
48.8516695499
48.8352073193
48.8516695499
48.8516695499
48.8475539923
48.8681317806
48.8681317806
48.8516695499
48.8516695499
48.8475539923
48.8681317806
48.8516695499
48.8681317806
48.8352073193
49.2838031054
48.8475539923
48.8516695499
48.8516695499
48.8516695499
48.8516695499
48.8475539923
48.8722473383
47.1560597897
48.8516695499
48.8516695499
48.8681317806
48.8681317806
48.8516695499
48.8681317806
48.8352073193
48.8516695499
48.8516695499
48.8516695499
48.8681317806
48.8681317806
48.8516695499
48.8516695499
48.8475539923
48.8516695499
48.8516695499
48.8516695499
48.8475539923
48.8310917616
48.8352073193
48.8681317806
48.8516695499
48.8516695499
48.8516695499
48.8475539923
48.8352073193
48.8352073193
48.8516695499
48.8516695499
48.8516695499
48.8516695499
48.8516695499
48.8681317806
48.8681317806
48.8681317806
48.8681317806
48.8516695499
48.8722473383
48.8516695499
48.8516695499
48.8352073193
48.8516695499
48.8681317806
48.8722473383
48.8516695499
49.2796875477
48.8516695499
48.8475539923
48.8681317806
48.8681317806
48.8475539923
48.8516695499
48.8516695499
48.8516695499
49.2838031054
48.8681317806
49.2796875477
48.8310917616

Block: 5
======================================
48.8475539923
48.8516695499
48.8681317806
48.8516695499
48.8845940113
48.8516695499
48.8681317806
49.2673408747
49.2467630863
49.2796875477
48.8516695499
48.8681317806
48.8516695499
49.2796875477
48.8516695499
49.300265336
48.8516695499
49.2838031054
48.8681317806
48.8681317806
48.8352073193
48.8681317806
48.8681317806
48.8516695499
48.8681317806
48.8475539923
48.8352073193
48.8681317806
48.8516695499
48.8681317806
48.8516695499
48.8516695499
48.8516695499
48.8516695499
48.8516695499
48.8681317806
48.8516695499
48.8516695499
49.2796875477
49.2838031054
49.2673408747
48.8516695499
49.2838031054
48.8516695499
49.2838031054
48.8516695499
49.263225317
49.213838625
49.2796875477
49.2673408747
49.300265336
48.8516695499
49.2673408747
49.2796875477
49.2796875477
48.8352073193
49.263225317
48.8516695499
49.2838031054
48.8516695499
48.8681317806
48.8352073193
48.8516695499
48.8516695499
49.2673408747
49.2838031054
48.8352073193
49.1932608366
49.2303008556
48.8516695499
48.8516695499
49.2796875477
49.2796875477
48.8516695499
49.300265336
48.8681317806
48.8681317806
48.8516695499
48.8352073193
48.8681317806
48.8475539923
48.901056242
49.2303008556
48.8516695499
48.8475539923
48.8310917616
48.8352073193
48.8516695499
48.8475539923
48.8516695499
48.8516695499
48.8310917616
48.8516695499
48.8516695499
48.8352073193
48.8516695499
48.8475539923
48.8310917616
48.8681317806
48.8516695499

Block: 6
======================================
48.8681317806
49.2838031054
48.8516695499
48.8516695499
48.8516695499
48.8681317806
48.8681317806
48.8681317806
48.8516695499
49.2838031054
48.8475539923
48.8310917616
48.8146295309
48.8681317806
49.300265336
49.300265336
49.300265336
48.9051717997
48.8516695499
48.8516695499
48.8352073193
48.8845940113
48.8516695499
48.8681317806
48.8516695499
48.8516695499
48.8516695499
48.8681317806
48.8352073193
48.8310917616
48.8516695499
49.2673408747
48.8516695499
48.8516695499
48.8516695499
48.8845940113
48.8352073193
48.8516695499
48.8516695499
48.8516695499
48.8516695499
48.8681317806
48.8681317806
48.8681317806
48.8681317806
48.8516695499
48.8681317806
48.8516695499
48.8681317806
48.8681317806
48.8516695499
48.8516695499
48.8681317806
48.8681317806
48.8516695499
48.8681317806
48.8516695499
48.8681317806
48.8516695499
48.8516695499
48.8516695499
48.8681317806
48.8516695499
48.8681317806
48.8722473383
48.8681317806
48.8681317806
48.8681317806
48.8516695499
48.8516695499
48.8681317806
48.8681317806
48.8516695499
48.8681317806
48.8516695499
48.8516695499
48.8475539923
48.8516695499
48.8681317806
48.8475539923
48.8681317806
48.8516695499
48.8516695499
48.8475539923
48.8475539923
48.8681317806
48.8681317806
48.8516695499
48.8681317806
48.8516695499
48.8516695499
48.8352073193
48.8516695499
48.8681317806
48.8681317806
48.8516695499
48.8516695499
48.8516695499
48.8516695499
48.8681317806

Block: 7
======================================
48.8475539923
49.1973763943
49.1973763943
49.1973763943
49.1767986059
49.1809141636
49.2467630863
49.2467630863
49.213838625
49.2838031054
48.7858206272
49.1973763943
49.2303008556
49.2344164133
49.2303008556
48.8022828579
48.8352073193
48.8352073193
49.2838031054
48.8310917616
48.8187450886
48.8681317806
48.7817050695
49.2344164133
48.7981673002
49.1973763943
48.8022828579
49.2838031054
49.2303008556
49.250878644
49.250878644
49.2303008556
48.8516695499
48.8146295309
49.2838031054
48.8516695499
48.8352073193
48.8681317806
49.2961497784
49.300265336
48.7981673002
48.8516695499
48.8516695499
48.8681317806
48.8681317806
48.8516695499
48.8681317806
48.8681317806
48.8681317806
48.8516695499
48.8475539923
48.8516695499
48.8681317806
48.8516695499
48.8681317806
48.8516695499
48.8516695499
48.8681317806
48.8516695499
48.8516695499
48.8516695499
48.8310917616
48.8516695499
48.8681317806
48.8475539923
48.8681317806
48.8681317806
48.8516695499
48.8516695499
48.8516695499
48.8516695499
48.8681317806
48.8681317806
48.8516695499
48.8352073193
48.8516695499
48.8681317806
48.8516695499
48.8516695499
48.8681317806
48.8475539923
48.8681317806
48.8516695499
48.8352073193
48.8516695499
48.8681317806
48.8352073193
48.8516695499
48.8681317806
48.8516695499
48.8681317806
48.8681317806
48.8475539923
48.8516695499
48.8516695499
48.8352073193
48.8516695499
49.3661142588
48.8516695499
48.8475539923

Block: 8
======================================
49.300265336
48.8845940113
48.888709569
48.8352073193
48.8845940113
48.8516695499
48.8352073193
48.8310917616
48.8845940113
48.8845940113
49.2838031054
48.8352073193
48.8516695499
48.8722473383
48.8681317806
48.8516695499
48.8681317806
48.8516695499
48.8681317806
48.8516695499
48.8516695499
48.8352073193
48.8516695499
48.8845940113
48.8681317806
48.8516695499
48.8475539923
48.8516695499
48.8516695499
48.8681317806
48.8516695499
48.8681317806
48.8516695499
48.8516695499
48.8681317806
48.8516695499
48.8681317806
48.8516695499
48.8352073193
48.8516695499
48.8681317806
48.8681317806
48.8516695499
48.8681317806
48.8516695499
48.8475539923
48.8516695499
48.8352073193
48.8681317806
48.7981673002
48.8516695499
48.8722473383
48.8681317806
48.8516695499
48.888709569
48.8681317806
48.8516695499
48.8516695499
49.213838625
48.888709569
48.8187450886
48.8681317806
48.7981673002
48.8352073193
48.8022828579
49.2467630863
49.213838625
49.2467630863
49.213838625
48.8187450886
48.7981673002
49.2344164133
49.213838625
48.8146295309
49.213838625
48.7981673002
49.2303008556
49.250878644
49.2344164133
48.8681317806
48.7981673002
48.8516695499
48.8845940113
48.7817050695
49.2303008556
49.213838625
48.7981673002
48.8146295309
48.7817050695
49.2344164133
48.8187450886
49.250878644
49.1973763943
49.2467630863
48.7981673002
48.7817050695
49.1973763943
48.7817050695
48.7981673002
49.213838625

Block: 9
======================================
48.8516695499
48.8516695499
49.2838031054
49.2303008556
48.8681317806
48.7817050695
49.300265336
48.7981673002
48.8722473383
48.8516695499
48.8681317806
48.8352073193
48.8475539923
48.8516695499
48.8352073193
48.7858206272
48.8516695499
48.8516695499
48.8516695499
49.263225317
48.8845940113
48.8475539923
49.263225317
49.263225317
48.8722473383
48.8352073193
49.2838031054
49.2838031054
49.2838031054
49.2838031054
48.8516695499
48.8681317806
48.8475539923
48.8516695499
48.8516695499
48.8681317806
48.8516695499
48.8516695499
48.8516695499
49.2673408747
49.300265336
49.2796875477
48.8516695499
48.8516695499
48.8516695499
48.8352073193
48.8516695499
48.8516695499
48.8516695499
48.8681317806
48.8516695499
48.8516695499
48.8516695499
48.8681317806
48.8681317806
48.8516695499
48.8681317806
49.2838031054
48.8475539923
48.8516695499
48.8516695499
48.8475539923
48.8516695499
48.8516695499
48.8722473383
48.8475539923
48.8681317806
48.8352073193
48.8681317806
48.8722473383
48.8681317806
48.8516695499
48.8516695499
48.8352073193
48.8681317806
48.8516695499
48.8516695499
48.8681317806
48.8516695499
48.8516695499
48.8516695499
48.8516695499
48.8681317806
48.8516695499
48.8681317806
48.8516695499
49.213838625
49.2838031054
48.8516695499
48.8516695499
48.8352073193
48.8681317806
48.8475539923
48.8681317806
48.8516695499
48.8516695499
48.8681317806
48.8475539923
49.2796875477
48.8310917616

Block: 10
======================================
49.2303008556
49.2838031054
48.8845940113
48.901056242
49.1932608366
48.8352073193
48.888709569
48.8516695499
48.8681317806
48.8681317806
49.3167275667
48.8516695499
48.8516695499
48.8516695499
48.8681317806
48.8516695499
48.8681317806
48.8352073193
48.8681317806
48.8516695499
48.8681317806
48.8516695499
48.8475539923
48.8681317806
48.8516695499
48.8475539923
48.8681317806
48.8516695499
48.8681317806
48.8516695499
48.8352073193
48.8681317806
48.8516695499
48.8681317806
48.8475539923
48.8516695499
48.8845940113
48.8516695499
48.8722473383
48.8516695499
48.8516695499
48.8681317806
48.8352073193
48.8516695499
48.8516695499
48.8310917616
48.8310917616
48.8722473383
48.8475539923
48.8516695499
48.8681317806
49.2303008556
48.8681317806
48.8516695499
48.8516695499
48.8516695499
48.8516695499
48.8516695499
48.8475539923
48.8516695499
48.8681317806
48.8516695499
48.8516695499
48.8681317806
48.8681317806
48.8310917616
48.8352073193
49.213838625
48.8516695499
48.8516695499
48.8146295309
48.8475539923
48.8352073193
48.8516695499
48.8352073193
48.8352073193
48.8516695499
48.8352073193
49.213838625
48.8516695499
48.8352073193
48.8681317806
48.8516695499
48.8516695499
48.8516695499
48.8516695499
48.8516695499
48.8516695499
48.8681317806
49.300265336
49.2303008556
48.8681317806
48.8352073193
48.7981673002
48.8681317806
48.8516695499
48.8516695499
48.7981673002
48.8681317806
49.263225317
