
Block: 1
======================================
48.8722473383
48.8352073193
48.8516695499
48.8352073193
48.8516695499
48.8310917616
48.8516695499
49.0409852028
48.8187450886
48.8352073193
48.8310917616
48.8352073193
48.8681317806
48.8475539923
48.8845940113
48.888709569
48.8681317806
48.8516695499
48.8845940113
48.8681317806
48.8681317806
48.8516695499
48.8681317806
48.8516695499
48.8516695499

Average distance is : 48.862 cm
Average deviation is : 0.042 cm
Block: 2
======================================
48.8681317806
48.8681317806
48.8681317806
48.8516695499
48.8516695499
48.8516695499
48.8681317806
48.8310917616
48.8845940113
48.8681317806
48.8516695499
48.8310917616
48.8681317806
48.8516695499
48.8146295309
48.8845940113
48.8352073193
48.8352073193
48.8352073193
48.8310917616
48.8845940113
48.8352073193
48.8681317806
48.8681317806
48.8681317806

Average distance is : 48.855 cm
Average deviation is : 0.020 cm
Block: 3
======================================
48.8681317806
48.901056242
48.8681317806
48.8845940113
48.8681317806
48.901056242
48.8845940113
48.8310917616
48.8681317806
48.8352073193
48.8516695499
48.8681317806
48.8845940113
48.8352073193
48.8516695499
48.8475539923
48.8681317806
48.8516695499
48.8845940113
48.8681317806
48.8845940113
48.8352073193
49.2838031054
48.8516695499
48.8681317806

Average distance is : 48.882 cm
Average deviation is : 0.086 cm
Block: 4
======================================
48.901056242
48.8681317806
48.8187450886
48.8681317806
48.9051717997
48.8845940113
48.8516695499
49.2673408747
48.8516695499
48.8352073193
48.8516695499
48.8516695499
48.8681317806
48.8352073193
48.901056242
48.8516695499
48.8681317806
48.8681317806
48.888709569
48.8681317806
48.888709569
48.9051717997
48.8681317806
48.8681317806
48.8475539923

Average distance is : 48.883 cm
Average deviation is : 0.083 cm
Block: 5
======================================
48.8681317806
48.8516695499
48.7981673002
48.8516695499
48.8475539923
48.8475539923
48.8722473383
48.8681317806
48.8681317806
48.8681317806
48.8352073193
48.8352073193
48.8681317806
48.8845940113
48.8475539923
48.8516695499
48.8475539923
48.8352073193
48.8516695499
48.8516695499
48.8681317806
48.8681317806
48.8681317806
48.8845940113
48.8681317806

Average distance is : 48.856 cm
Average deviation is : 0.019 cm
Block: 6
======================================
48.8681317806
48.8516695499
48.7981673002
48.8352073193
48.8681317806
48.8681317806
48.8516695499
48.8681317806
48.8722473383
48.8681317806
48.8681317806
48.8516695499
48.8681317806
48.8352073193
48.8352073193
48.8516695499
48.8352073193
48.8681317806
48.8681317806
48.8187450886
48.8681317806
48.8516695499
48.8681317806
48.8516695499
48.8681317806

Average distance is : 48.854 cm
Average deviation is : 0.019 cm
Block: 7
======================================
48.8310917616
48.8681317806
48.8681317806
48.8681317806
48.8352073193
48.8516695499
48.8352073193
48.8475539923
48.8516695499
48.8516695499
48.8146295309
48.8516695499
48.8845940113
48.8187450886
48.8516695499
48.8681317806
48.8681317806
48.8516695499
48.8352073193
48.8352073193
48.8352073193
48.8516695499
48.8681317806
48.8475539923
48.8187450886

Average distance is : 48.848 cm
Average deviation is : 0.018 cm
Block: 8
======================================
48.8681317806
48.8516695499
48.8516695499
48.8146295309
48.8310917616
48.8722473383
48.8681317806
48.8516695499
48.8516695499
48.8516695499
48.8681317806
48.8310917616
48.8845940113
48.8310917616
48.8475539923
48.8352073193
48.8352073193
48.8516695499
48.8516695499
48.8516695499
48.8516695499
48.8516695499
48.8352073193
48.8352073193
48.8516695499

Average distance is : 48.849 cm
Average deviation is : 0.016 cm
Block: 9
======================================
48.9051717997
48.8681317806
48.8516695499
49.263225317
48.8681317806
48.8681317806
48.8845940113
48.8516695499
48.888709569
48.8845940113
48.8845940113
48.8310917616
48.8681317806
48.8516695499
48.888709569
48.8516695499
48.8516695499
48.8475539923
48.8681317806
48.8310917616
48.8681317806
48.8516695499
48.8681317806
48.8475539923
48.8516695499

Average distance is : 48.880 cm
Average deviation is : 0.082 cm
Block: 10
======================================
48.8352073193
48.8187450886
48.8845940113
48.8187450886
48.8516695499
48.8475539923
48.8516695499
48.8475539923
48.8516695499
48.8516695499
48.8516695499
48.8516695499
48.8681317806
48.8516695499
48.8845940113
48.8516695499
48.8681317806
48.8681317806
48.8516695499
48.8352073193
48.8516695499
48.8516695499
48.8516695499
48.8516695499
48.8516695499

Average distance is : 48.852 cm
Average deviation is : 0.015 cm