
Block: 1
======================================
398.735733604
398.683170485
398.70338707
398.719560337
398.751906872
398.735733604
398.278838801
398.70338707
398.723603654
398.735733604

Block: 2
======================================
398.723603654
398.739776921
398.311185336
398.278838801
399.196671724
398.772123456
398.735733604
398.772123456
398.788296723
398.33140192

Block: 3
======================================
399.208801675
399.208801675
399.212844992
399.245191526
399.196671724
399.245191526
399.212844992
398.755950189
399.212844992
399.17645514

Block: 4
======================================
399.229018259
399.702086329
399.617176676
399.180498457
399.669739795
399.653566527
399.669739795
399.63739326
399.669739795
399.673783112

Block: 5
======================================
399.706129646
399.722302914
399.689956379
399.653566527
399.212844992
399.689956379
399.192628407
399.653566527
399.63739326
399.685913062

Block: 6
======================================
399.685913062
400.078114796
399.673783112
399.685913062
400.130677915
399.669739795
399.229018259
399.669739795
399.669739795
399.229018259

Block: 7
======================================
399.249234843
399.313927913
399.738476181
399.738476181
399.685913062
399.722302914
399.722302914
399.261364794
399.722302914
399.297754645

Block: 8
======================================
399.281581378
399.245191526
398.85703311
399.233061576
399.297754645
399.297754645
399.261364794
399.245191526
398.85703311
398.852989793

Block: 9
======================================
399.249234843
399.265408111
399.261364794
398.804469991
399.261364794
398.852989793
398.804469991
398.852989793
398.820643258
398.383965039

Block: 10
======================================
398.840859842
398.383965039
398.820643258
398.804469991
398.840859842
398.873206377
398.416311574
398.85703311
398.85703311
398.416311574
