
Block: 1
======================================
398.448658109
398.905552912
398.893422961
398.468874693
398.909596229
398.379921722
398.432484841
398.836816525
398.873206377
398.873206377
398.873206377
398.873206377
398.824686575
398.877249694
398.889379644
398.836816525
398.85703311
398.820643258
398.836816525
398.836816525
398.85703311
398.873206377
398.820643258
398.836816525
398.836816525
398.836816525
398.85703311
165.691080832
343.212906742
398.873206377
398.873206377
398.873206377
398.873206377
398.889379644
398.873206377
398.840859842
399.297754645
399.277538061
399.245191526
398.873206377
399.313927913
399.261364794
399.313927913
398.889379644
398.85703311
399.297754645
399.313927913
399.313927913
398.873206377
399.33010118

Average distance is : 393.138 cm
Average deviation is : 33.755 cm
Block: 2
======================================
399.297754645
398.820643258
399.229018259
399.669739795
399.689956379
399.245191526
399.706129646
165.687037516
399.297754645
399.706129646
399.669739795
399.669739795
399.653566527
399.63739326
399.669739795
399.63739326
399.63739326
399.621219993
399.601003408
399.653566527
399.63739326
399.212844992
399.63739326
399.212844992
399.212844992
399.229018259
399.196671724
399.229018259
399.245191526
399.212844992
399.233061576
399.196671724
399.669739795
399.245191526
399.621219993
399.212844992
399.669739795
399.669739795
399.160281873
399.685913062
399.653566527
399.621219993
399.63739326
399.245191526
399.233061576
399.669739795
399.261364794
399.265408111
399.245191526
399.669739795

Average distance is : 394.774 cm
Average deviation is : 33.060 cm
Block: 3
======================================
399.706129646
399.738476181
399.605046725
399.249234843
399.685913062
399.685913062
399.653566527
399.689956379
399.722302914
399.722302914
399.685913062
399.706129646
399.281581378
399.265408111
399.685913062
399.265408111
399.706129646
399.313927913
399.277538061
399.706129646
399.297754645
398.85703311
398.85703311
399.313927913
399.313927913
399.277538061
399.277538061
399.281581378
399.297754645
399.293711329
398.85703311
399.293711329
399.281581378
399.297754645
399.33010118
399.297754645
398.85703311
399.33010118
399.33010118
399.313927913
399.313927913
399.33010118
399.297754645
399.33010118
399.350317764
399.33010118
399.33010118
399.281581378
399.754649448
399.334144497

Average distance is : 399.385 cm
Average deviation is : 0.240 cm
Block: 4
======================================
399.33010118
399.313927913
399.281581378
399.770822716
399.754649448
399.786995983
399.770822716
399.770822716
399.7910393
399.770822716
399.738476181
399.754649448
399.80316925
399.382664299
399.382664299
399.770822716
399.366491032
399.350317764
399.774866033
399.754649448
399.754649448
399.807212567
399.770822716
399.786995983
400.163024449
399.770822716
400.179197717
400.179197717
399.33010118
400.179197717
399.738476181
399.722302914
400.146851182
400.195370984
399.774866033
400.199414301
400.158981133
400.158981133
400.146851182
400.179197717
400.179197717
400.195370984
400.142807865
399.718259597
399.722302914
400.195370984
399.754649448
400.142807865
399.770822716
399.758692765

Average distance is : 399.827 cm
Average deviation is : 0.282 cm
Block: 5
======================================
399.754649448
399.297754645
399.261364794
399.685913062
399.702086329
399.706129646
399.281581378
399.277538061
399.669739795
399.702086329
399.738476181
399.722302914
399.689956379
399.669739795
399.722302914
399.706129646
399.722302914
399.245191526
399.722302914
399.722302914
399.277538061
399.281581378
399.297754645
399.229018259
399.722302914
399.718259597
399.229018259
399.685913062
399.261364794
399.706129646
399.653566527
399.702086329
399.281581378
399.245191526
399.212844992
399.281581378
399.229018259
399.265408111
399.245191526
399.281581378
399.229018259
399.261364794
399.669739795
399.212844992
399.249234843
399.669739795
399.653566527
399.685913062
399.653566527
399.63739326

Average distance is : 399.495 cm
Average deviation is : 0.222 cm
Block: 6
======================================
399.212844992
399.669739795
399.63739326
399.653566527
399.180498457
399.229018259
399.669739795
399.633349943
399.196671724
399.653566527
399.196671724
399.229018259
399.621219993
399.229018259
399.245191526
399.233061576
399.196671724
399.212844992
399.229018259
399.196671724
399.180498457
399.17645514
399.63739326
399.63739326
399.17645514
399.245191526
399.653566527
399.621219993
399.617176676
399.160281873
399.160281873
399.63739326
399.621219993
399.617176676
399.621219993
399.621219993
399.63739326
399.633349943
399.160281873
399.601003408
399.229018259
399.601003408
399.653566527
399.192628407
399.617176676
399.63739326
399.229018259
399.601003408
399.617176676
399.617176676

Average distance is : 399.435 cm
Average deviation is : 0.216 cm
Block: 7
======================================
399.180498457
399.617176676
399.261364794
399.63739326
399.208801675
399.669739795
399.669739795
399.669739795
399.653566527
399.212844992
399.281581378
399.229018259
399.229018259
399.281581378
399.281581378
398.808513308
399.261364794
399.245191526
399.245191526
399.265408111
399.212844992
399.229018259
399.245191526
398.820643258
399.249234843
399.229018259
399.196671724
399.245191526
398.808513308
399.245191526
398.772123456
399.261364794
398.788296723
399.245191526
399.229018259
399.208801675
399.229018259
398.788296723
399.233061576
399.212844992
399.212844992
399.229018259
398.788296723
398.772123456
399.212844992
399.261364794
399.245191526
398.739776921
399.212844992
399.212844992

Average distance is : 399.205 cm
Average deviation is : 0.240 cm
Block: 8
======================================
399.229018259
399.196671724
399.212844992
398.788296723
399.196671724
399.245191526
399.212844992
399.196671724
398.735733604
398.772123456
399.229018259
398.755950189
399.261364794
399.180498457
399.17645514
399.229018259
399.180498457
399.653566527
399.180498457
399.621219993
399.617176676
399.212844992
399.63739326
399.212844992
399.196671724
399.601003408
399.192628407
399.196671724
399.180498457
399.685913062
399.653566527
399.669739795
399.685913062
399.649523211
399.212844992
399.196671724
399.669739795
399.706129646
399.653566527
399.653566527
399.673783112
399.212844992
399.702086329
399.702086329
399.669739795
399.653566527
399.685913062
399.261364794
399.706129646
399.702086329

Average distance is : 399.374 cm
Average deviation is : 0.288 cm
Block: 9
======================================
399.689956379
399.249234843
399.685913062
399.685913062
399.685913062
399.706129646
399.685913062
399.689956379
399.702086329
399.738476181
399.738476181
399.249234843
399.245191526
399.689956379
399.706129646
399.653566527
399.706129646
399.706129646
399.669739795
399.669739795
399.249234843
399.702086329
399.706129646
399.685913062
399.689956379
399.722302914
399.706129646
399.669739795
399.722302914
399.653566527
399.669739795
399.689956379
399.669739795
399.669739795
399.706129646
399.245191526
399.297754645
399.702086329
399.722302914
399.265408111
399.669739795
399.685913062
399.277538061
399.281581378
399.245191526
399.245191526
399.277538061
399.261364794
399.261364794
399.229018259

Average distance is : 399.563 cm
Average deviation is : 0.202 cm
Block: 10
======================================
399.685913062
399.63739326
399.669739795
399.649523211
399.669739795
399.653566527
399.212844992
399.212844992
399.617176676
399.669739795
399.208801675
399.653566527
399.653566527
398.751906872
399.334144497
399.208801675
399.229018259
399.212844992
399.669739795
399.196671724
399.229018259
399.669739795
399.229018259
399.601003408
399.196671724
399.669739795
399.180498457
398.735733604
399.196671724
399.196671724
399.245191526
399.229018259
399.63739326
399.63739326
399.63739326
399.621219993
399.63739326
399.653566527
399.653566527
399.653566527
399.617176676
399.653566527
399.653566527
399.63739326
399.63739326
399.653566527
399.63739326
399.685913062
399.669739795
399.17645514

Average distance is : 399.467 cm
Average deviation is : 0.255 cm