
Block: 1
======================================
299.752295494
299.715710592
300.179119349
299.736035538
299.736035538
301.492110825
300.211639261
300.605943203
301.06528697
299.719775581
299.736035538
301.085611916
299.736035538
299.736035538
299.719775581
301.06528697
299.614085865
301.06528697
300.622203159
300.622203159
301.049027014
299.736035538
300.605943203
300.605943203
300.622203159
300.146599436
300.910817385
300.585618258
300.605943203
301.049027014
301.069351959
300.162859392
299.719775581
299.719775581
301.081546926
301.06528697
300.605943203
300.605943203
300.175054359
299.719775581
300.622203159
301.06528697
301.06528697
301.081546926
300.179119349
301.049027014
300.622203159
300.601878214
299.736035538
301.049027014
300.638463116
300.142534447
301.06528697
301.049027014
302.341693544
300.142534447
300.398628759
300.162859392
300.605943203
301.06528697
301.06528697
301.081546926
301.044962025
300.142534447
300.162859392
300.638463116
301.049027014
300.158794403
301.06528697
301.049027014
300.162859392
301.935194635
301.492110825
300.585618258
301.049027014

Average distance is : 300.566 cm
Average deviation is : 0.589 cm
Block: 2
======================================
299.736035538
300.605943203
301.06528697
300.569358301
300.622203159
301.085611916
301.06528697
301.081546926
300.589683247
300.605943203
301.475850868
300.158794403
300.179119349
300.605943203
300.179119349
300.158794403
301.471785879
300.585618258
300.622203159
300.622203159
300.142534447
300.142534447
300.601878214
300.601878214
300.605943203
300.162859392
301.06528697
300.158794403
300.622203159
300.179119349
301.06528697
300.162859392
300.638463116
300.179119349
300.179119349
300.179119349
300.179119349
300.158794403
300.179119349
301.06528697
300.195379305
300.158794403
300.179119349
301.06528697
301.06528697
300.179119349
300.195379305
300.179119349
301.081546926
300.195379305
299.752295494
299.736035538
300.195379305
300.211639261
300.179119349
300.179119349
300.179119349
300.654723072
300.638463116
301.081546926
300.179119349
300.195379305
300.179119349
300.638463116
300.195379305
300.195379305
301.06528697
300.195379305
300.195379305
300.195379305
300.179119349
300.199444294
300.175054359
300.179119349
301.085611916

Average distance is : 300.449 cm
Average deviation is : 0.403 cm
Block: 3
======================================
301.06528697
300.21570425
300.642528105
301.081546926
300.179119349
300.179119349
300.175054359
300.622203159
300.638463116
300.654723072
301.081546926
300.162859392
300.162859392
300.179119349
300.179119349
300.158794403
300.638463116
301.06528697
300.654723072
301.06528697
300.195379305
300.179119349
300.179119349
301.081546926
300.179119349
301.06528697
301.06528697
300.179119349
301.524630737
301.081546926
301.06528697
301.097806883
300.195379305
300.195379305
300.179119349
300.195379305
301.081546926
301.06528697
300.179119349
300.179119349
300.162859392
300.622203159
300.179119349
300.179119349
300.179119349
300.195379305
300.658788061
300.622203159
300.195379305
124.120376873
299.784815407
300.658788061
300.195379305
300.179119349
300.162859392
300.162859392
300.622203159
300.638463116
300.622203159
300.195379305
300.162859392
300.195379305
124.583785629
299.256366825
300.211639261
300.622203159
300.654723072
300.642528105
301.06528697
300.162859392
300.179119349
300.175054359
300.622203159
300.179119349
300.195379305

Average distance is : 295.763 cm
Average deviation is : 28.566 cm
Block: 4
======================================
300.195379305
300.211639261
300.195379305
300.622203159
301.081546926
300.638463116
300.162859392
300.179119349
300.638463116
300.162859392
300.179119349
300.622203159
300.199444294
300.179119349
300.179119349
300.638463116
301.268536425
300.195379305
300.605943203
300.601878214
301.081546926
301.06528697
301.971779537
300.195379305
300.162859392
300.162859392
300.179119349
300.179119349
300.21570425
301.081546926
300.195379305
300.162859392
301.081546926
123.677293062
299.76855545
300.195379305
301.508370781
301.101871872
301.06528697
300.195379305
300.179119349
300.162859392
300.175054359
301.508370781
300.642528105
300.211639261
300.195379305
300.179119349
300.654723072
301.06528697
300.179119349
300.195379305
300.179119349
300.622203159
300.179119349
301.492110825
300.162859392
301.935194635
301.524630737
300.179119349
300.179119349
300.333588934
300.179119349
301.081546926
300.605943203
300.622203159
300.158794403
300.179119349
300.179119349
300.605943203
300.195379305
300.654723072
300.179119349
300.638463116
300.658788061

Average distance is : 298.161 cm
Average deviation is : 20.425 cm
Block: 5
======================================
301.081546926
300.179119349
300.638463116
300.605943203
301.081546926
301.951454592
300.179119349
300.195379305
300.195379305
300.179119349
300.675048018
300.195379305
300.195379305
300.211639261
301.085611916
300.175054359
300.162859392
301.085611916
300.601878214
300.179119349
300.211639261
300.195379305
301.085611916
301.101871872
301.081546926
300.231964207
300.199444294
300.195379305
300.195379305
301.081546926
300.162859392
300.195379305
301.06528697
300.211639261
300.199444294
300.195379305
300.179119349
300.179119349
300.195379305
300.195379305
300.195379305
300.642528105
300.175054359
300.179119349
301.528695726
300.179119349
300.179119349
300.195379305
300.638463116
300.638463116
300.195379305
301.081546926
301.528695726
300.642528105
300.658788061
300.638463116
300.654723072
300.211639261
301.097806883
300.195379305
300.211639261
301.081546926
300.179119349
301.081546926
300.195379305
301.097806883
301.06528697
300.211639261
300.195379305
300.195379305
300.638463116
300.179119349
300.658788061
300.642528105
300.638463116

Average distance is : 300.519 cm
Average deviation is : 0.429 cm
Block: 6
======================================
300.658788061
300.654723072
300.179119349
299.731970549
300.654723072
299.736035538
300.195379305
300.179119349
300.195379305
300.162859392
299.736035538
299.752295494
300.622203159
300.638463116
300.638463116
301.524630737
300.179119349
300.028714752
300.199444294
299.731970549
300.622203159
301.081546926
301.097806883
300.654723072
300.638463116
300.211639261
300.195379305
300.638463116
301.06528697
301.101871872
301.081546926
300.179119349
300.199444294
300.658788061
300.179119349
300.179119349
300.195379305
300.21570425
300.195379305
301.081546926
299.752295494
299.736035538
299.752295494
300.670983028
301.06528697
300.195379305
299.752295494
299.752295494
300.211639261
300.195379305
300.179119349
299.752295494
300.211639261
299.752295494
300.195379305
300.199444294
300.622203159
300.654723072
124.583785629
299.752295494
124.994349527
299.394576454
300.638463116
300.675048018
300.175054359
300.195379305
300.654723072
300.195379305
300.179119349
300.195379305
300.211639261
301.114066839
300.195379305
300.638463116
299.76855545

Average distance is : 295.641 cm
Average deviation is : 28.473 cm
Block: 7
======================================
300.622203159
301.118131828
300.654723072
299.77262044
300.21570425
300.231964207
300.211639261
300.199444294
300.21570425
300.638463116
300.211639261
300.211639261
300.658788061
300.195379305
300.670983028
300.211639261
300.211639261
300.195379305
300.211639261
299.76855545
300.638463116
300.227899218
300.654723072
300.654723072
299.76855545
300.654723072
300.21570425
299.752295494
300.658788061
299.77262044
299.76855545
300.638463116
300.638463116
299.76855545
299.76855545
300.179119349
300.21570425
299.752295494
300.199444294
300.654723072
300.195379305
300.175054359
300.638463116
300.195379305
300.638463116
300.638463116
300.642528105
300.211639261
300.195379305
299.731970549
300.21570425
301.101871872
300.638463116
299.736035538
300.195379305
300.654723072
299.77262044
300.622203159
300.179119349
300.658788061
300.179119349
300.638463116
300.195379305
300.642528105
300.638463116
300.195379305
300.195379305
300.195379305
300.654723072
300.211639261
300.179119349
300.658788061
300.195379305
299.736035538
300.195379305

Average distance is : 300.303 cm
Average deviation is : 0.340 cm
Block: 8
======================================
300.195379305
300.162859392
300.211639261
301.101871872
300.195379305
300.179119349
300.179119349
300.162859392
300.195379305
300.179119349
300.654723072
299.736035538
300.227899218
301.049027014
300.179119349
300.211639261
300.195379305
300.675048018
300.195379305
299.752295494
300.179119349
300.195379305
124.563460684
298.902712774
301.085611916
301.101871872
300.179119349
299.719775581
300.658788061
300.179119349
301.049027014
300.195379305
300.179119349
300.658788061
301.06528697
301.081546926
300.622203159
300.622203159
300.622203159
301.06528697
299.736035538
300.179119349
300.654723072
301.081546926
301.101871872
301.081546926
300.179119349
300.622203159
300.179119349
300.642528105
300.195379305
300.158794403
300.195379305
301.049027014
300.199444294
300.179119349
300.179119349
300.195379305
300.211639261
300.195379305
300.195379305
299.752295494
300.638463116
300.638463116
300.601878214
300.195379305
301.081546926
301.081546926
300.195379305
301.081546926
300.179119349
300.670983028
300.638463116
299.752295494
300.622203159

Average distance is : 298.068 cm
Average deviation is : 20.310 cm
Block: 9
======================================
300.21570425
300.195379305
300.638463116
301.085611916
300.195379305
300.179119349
300.654723072
300.179119349
300.179119349
300.195379305
300.675048018
300.195379305
301.081546926
300.162859392
301.06528697
300.162859392
300.179119349
300.622203159
300.654723072
301.06528697
300.179119349
300.179119349
300.638463116
300.179119349
300.142534447
300.179119349
301.081546926
301.044962025
299.736035538
300.622203159
301.044962025
300.605943203
300.638463116
301.06528697
301.049027014
300.622203159
300.162859392
299.736035538
300.211639261
301.06528697
300.179119349
301.049027014
300.179119349
300.195379305
301.06528697
300.605943203
300.605943203
301.06528697
300.162859392
300.146599436
300.622203159
300.605943203
300.601878214
300.158794403
301.049027014
300.605943203
300.146599436
301.081546926
300.142534447
300.142534447
300.605943203
300.605943203
300.605943203
301.06528697
300.162859392
300.12627449
301.06528697
300.638463116
300.179119349
300.601878214
299.736035538
300.605943203
300.622203159
301.06528697
300.622203159

Average distance is : 300.513 cm
Average deviation is : 0.387 cm
Block: 10
======================================
300.146599436
300.162859392
300.142534447
300.601878214
299.752295494
300.195379305
300.605943203
300.605943203
300.622203159
300.605943203
301.06528697
300.589683247
301.049027014
301.06528697
300.162859392
300.622203159
300.622203159
300.622203159
300.162859392
300.179119349
300.589683247
301.032767057
300.162859392
300.142534447
300.142534447
300.622203159
301.081546926
300.162859392
301.044962025
301.044962025
301.049027014
301.455525923
300.146599436
300.142534447
301.028702068
300.622203159
300.605943203
301.049027014
300.589683247
300.162859392
301.06528697
301.028702068
300.589683247
300.589683247
300.21570425
301.455525923
300.162859392
300.585618258
300.142534447
300.605943203
300.146599436
300.589683247
300.142534447
300.130339479
299.719775581
300.589683247
300.162859392
300.605943203
300.622203159
301.081546926
300.158794403
300.585618258
300.142534447
300.585618258
300.589683247
300.569358301
301.049027014
300.585618258
301.049027014
300.601878214
300.146599436
301.06528697
300.622203159
300.585618258
300.589683247

Average distance is : 300.555 cm
Average deviation is : 0.382 cm